cycle                10000:bit_error_cnt[          0]=                9356
cycle                10000:bit_error_cnt[          1]=                9230
cycle                10000:bit_error_cnt[          2]=                9636
cycle                10000:bit_error_cnt[          3]=                8878
cycle                10000:bit_error_cnt[          4]=                9564
cycle                10000:bit_error_cnt[          5]=                8100
cycle                10000:bit_error_cnt[          6]=                8144
cycle                10000:bit_error_cnt[          7]=                8807
cycle                10000:bit_error_cnt[          8]=                9188
cycle                10000:bit_error_cnt[          9]=                8138
cycle                10000:bit_error_cnt[         10]=                8645
cycle                10000:bit_error_cnt[         11]=                7645
cycle                10000:bit_error_cnt[         12]=                7559
cycle                10000:bit_error_cnt[         13]=                6322
cycle                10000:bit_error_cnt[         14]=                8918
cycle                10000:bit_error_cnt[         15]=                8698
cycle                10000:bit_error_cnt[         16]=                6935
cycle                10000:bit_error_cnt[         17]=                8194
cycle                10000:bit_error_cnt[         18]=                6292
cycle                10000:bit_error_cnt[         19]=                7198
cycle                10000:bit_error_cnt[         20]=                8580
cycle                10000:bit_error_cnt[         21]=                6356
cycle                10000:bit_error_cnt[         22]=                8338
cycle                10000:bit_error_cnt[         23]=                9087
cycle                10000:bit_error_cnt[         24]=                8757
cycle                10000:bit_error_cnt[         25]=                8589
cycle                10000:bit_error_cnt[         26]=                7654
cycle                10000:bit_error_cnt[         27]=                6390
cycle                10000:bit_error_cnt[         28]=                5858
cycle                10000:bit_error_cnt[         29]=                6440
cycle                10000:bit_error_cnt[         30]=                5840
cycle                10000:bit_error_cnt[         31]=                7052
cycle                10000:bit_error_cnt[         32]=                6020
cycle                10000:bit_error_cnt[         33]=                4666
