cycle                10000:bit_error_cnt[          0]=                   2
cycle                10000:bit_error_cnt[          1]=                   2
cycle                10000:bit_error_cnt[          2]=                3762
cycle                10000:bit_error_cnt[          3]=                4597
cycle                10000:bit_error_cnt[          4]=                5018
cycle                10000:bit_error_cnt[          5]=                5009
cycle                10000:bit_error_cnt[          6]=                4998
cycle                10000:bit_error_cnt[          7]=                5031
cycle                10000:bit_error_cnt[          8]=                4984
cycle                10000:bit_error_cnt[          9]=                5062
cycle                10000:bit_error_cnt[         10]=                4977
cycle                10000:bit_error_cnt[         11]=                5028
cycle                10000:bit_error_cnt[         12]=                5054
cycle                10000:bit_error_cnt[         13]=                4953
cycle                10000:bit_error_cnt[         14]=                4911
cycle                10000:bit_error_cnt[         15]=                4973
cycle                10000:bit_error_cnt[         16]=                5119
cycle                10000:bit_error_cnt[         17]=                5043
cycle                10000:bit_error_cnt[         18]=                4998
cycle                10000:bit_error_cnt[         19]=                4969
cycle                10000:bit_error_cnt[         20]=                5092
cycle                10000:bit_error_cnt[         21]=                5037
cycle                10000:bit_error_cnt[         22]=                4989
cycle                10000:bit_error_cnt[         23]=                5036
cycle                10000:bit_error_cnt[         24]=                5095
cycle                10000:bit_error_cnt[         25]=                5094
cycle                10000:bit_error_cnt[         26]=                5051
cycle                10000:bit_error_cnt[         27]=                4944
cycle                10000:bit_error_cnt[         28]=                4987
cycle                10000:bit_error_cnt[         29]=                5030
cycle                10000:bit_error_cnt[         30]=                5008
cycle                10000:bit_error_cnt[         31]=                5006
cycle                10000:bit_error_cnt[         32]=                4639
cycle                10000:bit_error_cnt[         33]=                3708
cycle                10000:bit_error_cnt[         34]=                4715
cycle                10000:bit_error_cnt[         35]=                4870
cycle                10000:bit_error_cnt[         36]=                4927
cycle                10000:bit_error_cnt[         37]=                4984
cycle                10000:bit_error_cnt[         38]=                5032
cycle                10000:bit_error_cnt[         39]=                5049
cycle                10000:bit_error_cnt[         40]=                4984
cycle                10000:bit_error_cnt[         41]=                4992
cycle                10000:bit_error_cnt[         42]=                4982
cycle                10000:bit_error_cnt[         43]=                4966
cycle                10000:bit_error_cnt[         44]=                4955
cycle                10000:bit_error_cnt[         45]=                4969
cycle                10000:bit_error_cnt[         46]=                4912
cycle                10000:bit_error_cnt[         47]=                5008
cycle                10000:bit_error_cnt[         48]=                4961
cycle                10000:bit_error_cnt[         49]=                5056
cycle                10000:bit_error_cnt[         50]=                5000
cycle                10000:bit_error_cnt[         51]=                4973
cycle                10000:bit_error_cnt[         52]=                5041
cycle                10000:bit_error_cnt[         53]=                4869
cycle                10000:bit_error_cnt[         54]=                5030
cycle                10000:bit_error_cnt[         55]=                4973
cycle                10000:bit_error_cnt[         56]=                5031
cycle                10000:bit_error_cnt[         57]=                5104
cycle                10000:bit_error_cnt[         58]=                5023
cycle                10000:bit_error_cnt[         59]=                4983
cycle                10000:bit_error_cnt[         60]=                5049
cycle                10000:bit_error_cnt[         61]=                4974
cycle                10000:bit_error_cnt[         62]=                5055
cycle                10000:bit_error_cnt[         63]=                5052
cycle                10000:bit_error_cnt[         64]=                5058
cycle                10000:bit_error_cnt[         65]=                5052
cycle                10000:bit_error_cnt[         66]=                5072
cycle                10000:bit_error_cnt[         67]=                4974
cycle                10000:bit_error_cnt[         68]=                4958
cycle                10000:bit_error_cnt[         69]=                4989
cycle                10000:bit_error_cnt[         70]=                4945
cycle                10000:bit_error_cnt[         71]=                4953
cycle                10000:bit_error_cnt[         72]=                4895
cycle                10000:bit_error_cnt[         73]=                5014
cycle                10000:bit_error_cnt[         74]=                4964
cycle                10000:bit_error_cnt[         75]=                4909
cycle                10000:bit_error_cnt[         76]=                4239
cycle                10000:bit_error_cnt[         77]=                2488
cycle                10000:bit_error_cnt[         78]=                2333
cycle                10000:bit_error_cnt[         79]=                3124
cycle                10000:bit_error_cnt[         80]=                3688
cycle                10000:bit_error_cnt[         81]=                3743
cycle                10000:bit_error_cnt[         82]=                3679
cycle                10000:bit_error_cnt[         83]=                   0
cycle                10000:bit_error_cnt[         84]=                3095
cycle                10000:bit_error_cnt[         85]=                   0
cycle                10000:bit_error_cnt[         86]=                   0
cycle                10000:bit_error_cnt[         87]=                   0
cycle                10000:bit_error_cnt[         88]=                   0
cycle                10000:bit_error_cnt[         89]=                   0
cycle                10000:bit_error_cnt[         90]=                   0
cycle                10000:bit_error_cnt[         91]=                   0
cycle                10000:bit_error_cnt[         92]=                   0
cycle                10000:bit_error_cnt[         93]=                   0
cycle                10000:bit_error_cnt[         94]=                   0
