cycle                10000:bit_error_cnt[          0]=                   4
cycle                10000:bit_error_cnt[          1]=                   4
cycle                10000:bit_error_cnt[          2]=                   4
cycle                10000:bit_error_cnt[          3]=                5018
cycle                10000:bit_error_cnt[          4]=                   0
cycle                10000:bit_error_cnt[          5]=                   0
cycle                10000:bit_error_cnt[          6]=                   0
cycle                10000:bit_error_cnt[          7]=                   0
cycle                10000:bit_error_cnt[          8]=                   0
cycle                10000:bit_error_cnt[          9]=                   0
cycle                10000:bit_error_cnt[         10]=                   0
cycle                10000:bit_error_cnt[         11]=                   0
cycle                10000:bit_error_cnt[         12]=                   0
cycle                10000:bit_error_cnt[         13]=                   0
cycle                10000:bit_error_cnt[         14]=                   0
cycle                10000:bit_error_cnt[         15]=                   0
cycle                10000:bit_error_cnt[         16]=                   0
cycle                10000:bit_error_cnt[         17]=                   0
cycle                10000:bit_error_cnt[         18]=                   0
cycle                10000:bit_error_cnt[         19]=                   0
cycle                10000:bit_error_cnt[         20]=                   0
cycle                10000:bit_error_cnt[         21]=                   0
cycle                10000:bit_error_cnt[         22]=                   0
cycle                10000:bit_error_cnt[         23]=                   0
cycle                10000:bit_error_cnt[         24]=                   0
cycle                10000:bit_error_cnt[         25]=                   0
cycle                10000:bit_error_cnt[         26]=                   0
cycle                10000:bit_error_cnt[         27]=                   0
cycle                10000:bit_error_cnt[         28]=                   0
cycle                10000:bit_error_cnt[         29]=                   0
cycle                10000:bit_error_cnt[         30]=                   0
cycle                10000:bit_error_cnt[         31]=                   0
cycle                10000:bit_error_cnt[         32]=                   0
cycle                10000:bit_error_cnt[         33]=                   0
cycle                10000:bit_error_cnt[         34]=                   0
cycle                10000:bit_error_cnt[         35]=                   0
cycle                10000:bit_error_cnt[         36]=                   0
cycle                10000:bit_error_cnt[         37]=                5753
cycle                10000:bit_error_cnt[         38]=                6160
cycle                10000:bit_error_cnt[         39]=                5782
cycle                10000:bit_error_cnt[         40]=                5474
cycle                10000:bit_error_cnt[         41]=                5491
cycle                10000:bit_error_cnt[         42]=                5413
cycle                10000:bit_error_cnt[         43]=                5569
cycle                10000:bit_error_cnt[         44]=                5413
cycle                10000:bit_error_cnt[         45]=                5328
cycle                10000:bit_error_cnt[         46]=                5116
cycle                10000:bit_error_cnt[         47]=                4845
cycle                10000:bit_error_cnt[         48]=                4670
cycle                10000:bit_error_cnt[         49]=                4071
cycle                10000:bit_error_cnt[         50]=                3675
cycle                10000:bit_error_cnt[         51]=                3966
cycle                10000:bit_error_cnt[         52]=                3578
cycle                10000:bit_error_cnt[         53]=                3201
cycle                10000:bit_error_cnt[         54]=                3095
cycle                10000:bit_error_cnt[         55]=                2910
cycle                10000:bit_error_cnt[         56]=                2635
cycle                10000:bit_error_cnt[         57]=                2084
cycle                10000:bit_error_cnt[         58]=                1457
cycle                10000:bit_error_cnt[         59]=                 905
cycle                10000:bit_error_cnt[         60]=                1459
cycle                10000:bit_error_cnt[         61]=                 732
cycle                10000:bit_error_cnt[         62]=                 372
cycle                10000:bit_error_cnt[         63]=                 180
cycle                10000:bit_error_cnt[         64]=                 163
cycle                10000:bit_error_cnt[         65]=                 201
cycle                10000:bit_error_cnt[         66]=                 147
cycle                10000:bit_error_cnt[         67]=                 258
cycle                10000:bit_error_cnt[         68]=                 244
cycle                10000:bit_error_cnt[         69]=                 202
