cycle                10000:bit_error_cnt[          0]=                   2
cycle                10000:bit_error_cnt[          1]=                   1
cycle                10000:bit_error_cnt[          2]=                   1
cycle                10000:bit_error_cnt[          3]=                   1
cycle                10000:bit_error_cnt[          4]=                3968
cycle                10000:bit_error_cnt[          5]=                4627
cycle                10000:bit_error_cnt[          6]=                5010
cycle                10000:bit_error_cnt[          7]=                5044
cycle                10000:bit_error_cnt[          8]=                5030
cycle                10000:bit_error_cnt[          9]=                5017
cycle                10000:bit_error_cnt[         10]=                4959
cycle                10000:bit_error_cnt[         11]=                4933
cycle                10000:bit_error_cnt[         12]=                5010
cycle                10000:bit_error_cnt[         13]=                5033
cycle                10000:bit_error_cnt[         14]=                4982
cycle                10000:bit_error_cnt[         15]=                5027
cycle                10000:bit_error_cnt[         16]=                4942
cycle                10000:bit_error_cnt[         17]=                4918
cycle                10000:bit_error_cnt[         18]=                5061
cycle                10000:bit_error_cnt[         19]=                5043
cycle                10000:bit_error_cnt[         20]=                5024
cycle                10000:bit_error_cnt[         21]=                5020
cycle                10000:bit_error_cnt[         22]=                4936
cycle                10000:bit_error_cnt[         23]=                4991
cycle                10000:bit_error_cnt[         24]=                5008
cycle                10000:bit_error_cnt[         25]=                4997
cycle                10000:bit_error_cnt[         26]=                5003
cycle                10000:bit_error_cnt[         27]=                4997
cycle                10000:bit_error_cnt[         28]=                5035
cycle                10000:bit_error_cnt[         29]=                5069
cycle                10000:bit_error_cnt[         30]=                4918
cycle                10000:bit_error_cnt[         31]=                4914
cycle                10000:bit_error_cnt[         32]=                4132
cycle                10000:bit_error_cnt[         33]=                   1
cycle                10000:bit_error_cnt[         34]=                   1
cycle                10000:bit_error_cnt[         35]=                1858
cycle                10000:bit_error_cnt[         36]=                4293
cycle                10000:bit_error_cnt[         37]=                4869
cycle                10000:bit_error_cnt[         38]=                4891
cycle                10000:bit_error_cnt[         39]=                4920
cycle                10000:bit_error_cnt[         40]=                4936
cycle                10000:bit_error_cnt[         41]=                4956
cycle                10000:bit_error_cnt[         42]=                4965
cycle                10000:bit_error_cnt[         43]=                5004
cycle                10000:bit_error_cnt[         44]=                4975
cycle                10000:bit_error_cnt[         45]=                4986
cycle                10000:bit_error_cnt[         46]=                4928
cycle                10000:bit_error_cnt[         47]=                4978
cycle                10000:bit_error_cnt[         48]=                4997
cycle                10000:bit_error_cnt[         49]=                5005
cycle                10000:bit_error_cnt[         50]=                5009
cycle                10000:bit_error_cnt[         51]=                4979
cycle                10000:bit_error_cnt[         52]=                4990
cycle                10000:bit_error_cnt[         53]=                4940
cycle                10000:bit_error_cnt[         54]=                5046
cycle                10000:bit_error_cnt[         55]=                4986
cycle                10000:bit_error_cnt[         56]=                5001
cycle                10000:bit_error_cnt[         57]=                5023
cycle                10000:bit_error_cnt[         58]=                4979
cycle                10000:bit_error_cnt[         59]=                5015
cycle                10000:bit_error_cnt[         60]=                5027
cycle                10000:bit_error_cnt[         61]=                5018
cycle                10000:bit_error_cnt[         62]=                5001
cycle                10000:bit_error_cnt[         63]=                5017
cycle                10000:bit_error_cnt[         64]=                5066
cycle                10000:bit_error_cnt[         65]=                5038
cycle                10000:bit_error_cnt[         66]=                5049
cycle                10000:bit_error_cnt[         67]=                5052
cycle                10000:bit_error_cnt[         68]=                5027
cycle                10000:bit_error_cnt[         69]=                5009
cycle                10000:bit_error_cnt[         70]=                5029
cycle                10000:bit_error_cnt[         71]=                5031
cycle                10000:bit_error_cnt[         72]=                4952
cycle                10000:bit_error_cnt[         73]=                4169
cycle                10000:bit_error_cnt[         74]=                   1
cycle                10000:bit_error_cnt[         75]=                   1
cycle                10000:bit_error_cnt[         76]=                   1
cycle                10000:bit_error_cnt[         77]=                1182
cycle                10000:bit_error_cnt[         78]=                3850
cycle                10000:bit_error_cnt[         79]=                3965
cycle                10000:bit_error_cnt[         80]=                4051
cycle                10000:bit_error_cnt[         81]=                3433
cycle                10000:bit_error_cnt[         82]=                2402
cycle                10000:bit_error_cnt[         83]=                   0
cycle                10000:bit_error_cnt[         84]=                   1
cycle                10000:bit_error_cnt[         85]=                   0
cycle                10000:bit_error_cnt[         86]=                   0
cycle                10000:bit_error_cnt[         87]=                   0
cycle                10000:bit_error_cnt[         88]=                   0
cycle                10000:bit_error_cnt[         89]=                   0
cycle                10000:bit_error_cnt[         90]=                   0
cycle                10000:bit_error_cnt[         91]=                   0
cycle                10000:bit_error_cnt[         92]=                   0
cycle                10000:bit_error_cnt[         93]=                   0
cycle                10000:bit_error_cnt[         94]=                   0
