cycle                10000:bit_error_cnt[          0]=                   4
cycle                10000:bit_error_cnt[          1]=                   4
cycle                10000:bit_error_cnt[          2]=                   4
cycle                10000:bit_error_cnt[          3]=                4654
cycle                10000:bit_error_cnt[          4]=                   0
cycle                10000:bit_error_cnt[          5]=                   0
cycle                10000:bit_error_cnt[          6]=                   0
cycle                10000:bit_error_cnt[          7]=                   0
cycle                10000:bit_error_cnt[          8]=                   0
cycle                10000:bit_error_cnt[          9]=                   0
cycle                10000:bit_error_cnt[         10]=                   0
cycle                10000:bit_error_cnt[         11]=                   0
cycle                10000:bit_error_cnt[         12]=                   0
cycle                10000:bit_error_cnt[         13]=                   0
cycle                10000:bit_error_cnt[         14]=                   0
cycle                10000:bit_error_cnt[         15]=                   0
cycle                10000:bit_error_cnt[         16]=                   0
cycle                10000:bit_error_cnt[         17]=                   0
cycle                10000:bit_error_cnt[         18]=                   0
cycle                10000:bit_error_cnt[         19]=                   0
cycle                10000:bit_error_cnt[         20]=                   0
cycle                10000:bit_error_cnt[         21]=                   0
cycle                10000:bit_error_cnt[         22]=                   0
cycle                10000:bit_error_cnt[         23]=                   0
cycle                10000:bit_error_cnt[         24]=                   0
cycle                10000:bit_error_cnt[         25]=                   0
cycle                10000:bit_error_cnt[         26]=                   0
cycle                10000:bit_error_cnt[         27]=                   0
cycle                10000:bit_error_cnt[         28]=                   0
cycle                10000:bit_error_cnt[         29]=                   0
cycle                10000:bit_error_cnt[         30]=                   0
cycle                10000:bit_error_cnt[         31]=                   0
cycle                10000:bit_error_cnt[         32]=                   0
cycle                10000:bit_error_cnt[         33]=                   0
cycle                10000:bit_error_cnt[         34]=                   0
cycle                10000:bit_error_cnt[         35]=                   0
cycle                10000:bit_error_cnt[         36]=                   0
cycle                10000:bit_error_cnt[         37]=                5597
cycle                10000:bit_error_cnt[         38]=                6083
cycle                10000:bit_error_cnt[         39]=                5638
cycle                10000:bit_error_cnt[         40]=                5215
cycle                10000:bit_error_cnt[         41]=                5231
cycle                10000:bit_error_cnt[         42]=                5140
cycle                10000:bit_error_cnt[         43]=                5246
cycle                10000:bit_error_cnt[         44]=                5113
cycle                10000:bit_error_cnt[         45]=                4935
cycle                10000:bit_error_cnt[         46]=                4768
cycle                10000:bit_error_cnt[         47]=                4424
cycle                10000:bit_error_cnt[         48]=                4205
cycle                10000:bit_error_cnt[         49]=                3602
cycle                10000:bit_error_cnt[         50]=                3292
cycle                10000:bit_error_cnt[         51]=                3577
cycle                10000:bit_error_cnt[         52]=                3195
cycle                10000:bit_error_cnt[         53]=                2906
cycle                10000:bit_error_cnt[         54]=                2947
cycle                10000:bit_error_cnt[         55]=                2827
cycle                10000:bit_error_cnt[         56]=                2569
cycle                10000:bit_error_cnt[         57]=                2016
cycle                10000:bit_error_cnt[         58]=                1681
cycle                10000:bit_error_cnt[         59]=                1436
cycle                10000:bit_error_cnt[         60]=                1638
cycle                10000:bit_error_cnt[         61]=                 828
cycle                10000:bit_error_cnt[         62]=                 429
cycle                10000:bit_error_cnt[         63]=                 218
cycle                10000:bit_error_cnt[         64]=                 205
cycle                10000:bit_error_cnt[         65]=                 207
cycle                10000:bit_error_cnt[         66]=                 186
cycle                10000:bit_error_cnt[         67]=                 407
cycle                10000:bit_error_cnt[         68]=                 489
cycle                10000:bit_error_cnt[         69]=                 366
