cycle                10000:bit_error_cnt[          0]=                   2
cycle                10000:bit_error_cnt[          1]=                   2
cycle                10000:bit_error_cnt[          2]=                   0
cycle                10000:bit_error_cnt[          3]=                   2
cycle                10000:bit_error_cnt[          4]=                   2
cycle                10000:bit_error_cnt[          5]=                   2
cycle                10000:bit_error_cnt[          6]=                   2
cycle                10000:bit_error_cnt[          7]=                   2
cycle                10000:bit_error_cnt[          8]=                   2
cycle                10000:bit_error_cnt[          9]=                   2
cycle                10000:bit_error_cnt[         10]=                   2
cycle                10000:bit_error_cnt[         11]=                   2
cycle                10000:bit_error_cnt[         12]=                 540
cycle                10000:bit_error_cnt[         13]=                  85
cycle                10000:bit_error_cnt[         14]=                   2
cycle                10000:bit_error_cnt[         15]=                   2
cycle                10000:bit_error_cnt[         16]=                 172
cycle                10000:bit_error_cnt[         17]=                 110
cycle                10000:bit_error_cnt[         18]=                 849
cycle                10000:bit_error_cnt[         19]=                 418
cycle                10000:bit_error_cnt[         20]=                 427
cycle                10000:bit_error_cnt[         21]=                 353
cycle                10000:bit_error_cnt[         22]=                 156
cycle                10000:bit_error_cnt[         23]=                 301
cycle                10000:bit_error_cnt[         24]=                 770
cycle                10000:bit_error_cnt[         25]=                 275
cycle                10000:bit_error_cnt[         26]=                   9
cycle                10000:bit_error_cnt[         27]=                  10
cycle                10000:bit_error_cnt[         28]=                 172
cycle                10000:bit_error_cnt[         29]=                 290
cycle                10000:bit_error_cnt[         30]=                 296
cycle                10000:bit_error_cnt[         31]=                 515
cycle                10000:bit_error_cnt[         32]=                 480
cycle                10000:bit_error_cnt[         33]=                 827
cycle                10000:bit_error_cnt[         34]=                 225
cycle                10000:bit_error_cnt[         35]=                 418
cycle                10000:bit_error_cnt[         36]=                 446
cycle                10000:bit_error_cnt[         37]=                 236
cycle                10000:bit_error_cnt[         38]=                 114
cycle                10000:bit_error_cnt[         39]=                  81
cycle                10000:bit_error_cnt[         40]=                  44
cycle                10000:bit_error_cnt[         41]=                  38
cycle                10000:bit_error_cnt[         42]=                  49
cycle                10000:bit_error_cnt[         43]=                  23
cycle                10000:bit_error_cnt[         44]=                  10
cycle                10000:bit_error_cnt[         45]=                   6
cycle                10000:bit_error_cnt[         46]=                   4
cycle                10000:bit_error_cnt[         47]=                   2
cycle                10000:bit_error_cnt[         48]=                   2
cycle                10000:bit_error_cnt[         49]=                   2
cycle                10000:bit_error_cnt[         50]=                   2
cycle                10000:bit_error_cnt[         51]=                   2
cycle                10000:bit_error_cnt[         52]=                   2
cycle                10000:bit_error_cnt[         53]=                   2
cycle                10000:bit_error_cnt[         54]=                   2
cycle                10000:bit_error_cnt[         55]=                   2
cycle                10000:bit_error_cnt[         56]=                   2
cycle                10000:bit_error_cnt[         57]=                   2
cycle                10000:bit_error_cnt[         58]=                 131
cycle                10000:bit_error_cnt[         59]=                  86
cycle                10000:bit_error_cnt[         60]=                  55
cycle                10000:bit_error_cnt[         61]=                  29
