cycle                10000:bit_error_cnt[          0]=                   1
cycle                10000:bit_error_cnt[          1]=                   1
cycle                10000:bit_error_cnt[          2]=                   1
cycle                10000:bit_error_cnt[          3]=                   1
cycle                10000:bit_error_cnt[          4]=                   1
cycle                10000:bit_error_cnt[          5]=                 214
cycle                10000:bit_error_cnt[          6]=                  46
cycle                10000:bit_error_cnt[          7]=                2751
cycle                10000:bit_error_cnt[          8]=                1158
cycle                10000:bit_error_cnt[          9]=                 233
cycle                10000:bit_error_cnt[         10]=                2460
cycle                10000:bit_error_cnt[         11]=                2266
cycle                10000:bit_error_cnt[         12]=                2514
cycle                10000:bit_error_cnt[         13]=                1894
cycle                10000:bit_error_cnt[         14]=                2096
cycle                10000:bit_error_cnt[         15]=                2400
cycle                10000:bit_error_cnt[         16]=                1868
cycle                10000:bit_error_cnt[         17]=                 963
cycle                10000:bit_error_cnt[         18]=                1514
cycle                10000:bit_error_cnt[         19]=                1151
cycle                10000:bit_error_cnt[         20]=                1429
cycle                10000:bit_error_cnt[         21]=                1510
cycle                10000:bit_error_cnt[         22]=                 797
cycle                10000:bit_error_cnt[         23]=                1500
cycle                10000:bit_error_cnt[         24]=                2375
cycle                10000:bit_error_cnt[         25]=                1909
cycle                10000:bit_error_cnt[         26]=                1820
cycle                10000:bit_error_cnt[         27]=                1594
cycle                10000:bit_error_cnt[         28]=                2485
cycle                10000:bit_error_cnt[         29]=                2485
cycle                10000:bit_error_cnt[         30]=                2555
cycle                10000:bit_error_cnt[         31]=                2638
cycle                10000:bit_error_cnt[         32]=                2129
cycle                10000:bit_error_cnt[         33]=                   1
cycle                10000:bit_error_cnt[         34]=                   1
cycle                10000:bit_error_cnt[         35]=                   1
cycle                10000:bit_error_cnt[         36]=                   1
cycle                10000:bit_error_cnt[         37]=                   1
cycle                10000:bit_error_cnt[         38]=                   1
cycle                10000:bit_error_cnt[         39]=                1349
cycle                10000:bit_error_cnt[         40]=                 111
cycle                10000:bit_error_cnt[         41]=                 983
cycle                10000:bit_error_cnt[         42]=                 907
cycle                10000:bit_error_cnt[         43]=                   6
cycle                10000:bit_error_cnt[         44]=                2827
cycle                10000:bit_error_cnt[         45]=                3653
cycle                10000:bit_error_cnt[         46]=                2851
cycle                10000:bit_error_cnt[         47]=                3123
cycle                10000:bit_error_cnt[         48]=                3763
cycle                10000:bit_error_cnt[         49]=                4203
cycle                10000:bit_error_cnt[         50]=                5045
cycle                10000:bit_error_cnt[         51]=                4949
cycle                10000:bit_error_cnt[         52]=                4880
cycle                10000:bit_error_cnt[         53]=                4713
cycle                10000:bit_error_cnt[         54]=                4658
cycle                10000:bit_error_cnt[         55]=                4472
cycle                10000:bit_error_cnt[         56]=                4815
cycle                10000:bit_error_cnt[         57]=                4549
cycle                10000:bit_error_cnt[         58]=                4660
cycle                10000:bit_error_cnt[         59]=                4854
cycle                10000:bit_error_cnt[         60]=                4844
cycle                10000:bit_error_cnt[         61]=                4482
cycle                10000:bit_error_cnt[         62]=                4882
cycle                10000:bit_error_cnt[         63]=                4726
cycle                10000:bit_error_cnt[         64]=                4618
cycle                10000:bit_error_cnt[         65]=                4258
cycle                10000:bit_error_cnt[         66]=                4212
cycle                10000:bit_error_cnt[         67]=                4397
cycle                10000:bit_error_cnt[         68]=                4332
cycle                10000:bit_error_cnt[         69]=                3748
cycle                10000:bit_error_cnt[         70]=                2547
cycle                10000:bit_error_cnt[         71]=                3920
cycle                10000:bit_error_cnt[         72]=                3929
cycle                10000:bit_error_cnt[         73]=                3215
cycle                10000:bit_error_cnt[         74]=                   1
cycle                10000:bit_error_cnt[         75]=                   1
cycle                10000:bit_error_cnt[         76]=                   1
cycle                10000:bit_error_cnt[         77]=                   1
cycle                10000:bit_error_cnt[         78]=                 318
cycle                10000:bit_error_cnt[         79]=                1413
cycle                10000:bit_error_cnt[         80]=                1549
cycle                10000:bit_error_cnt[         81]=                2161
cycle                10000:bit_error_cnt[         82]=                2129
cycle                10000:bit_error_cnt[         83]=                   0
cycle                10000:bit_error_cnt[         84]=                   1
cycle                10000:bit_error_cnt[         85]=                   0
cycle                10000:bit_error_cnt[         86]=                   0
cycle                10000:bit_error_cnt[         87]=                   0
cycle                10000:bit_error_cnt[         88]=                   0
cycle                10000:bit_error_cnt[         89]=                   0
cycle                10000:bit_error_cnt[         90]=                   0
cycle                10000:bit_error_cnt[         91]=                   0
cycle                10000:bit_error_cnt[         92]=                   0
cycle                10000:bit_error_cnt[         93]=                   0
cycle                10000:bit_error_cnt[         94]=                   0
