cycle                10000:bit_error_cnt[          0]=                6245
cycle                10000:bit_error_cnt[          1]=                  86
cycle                10000:bit_error_cnt[          2]=                 181
cycle                10000:bit_error_cnt[          3]=                   0
cycle                10000:bit_error_cnt[          4]=                2218
cycle                10000:bit_error_cnt[          5]=                5585
cycle                10000:bit_error_cnt[          6]=                6320
cycle                10000:bit_error_cnt[          7]=                5905
cycle                10000:bit_error_cnt[          8]=                6057
cycle                10000:bit_error_cnt[          9]=                5726
cycle                10000:bit_error_cnt[         10]=                6279
cycle                10000:bit_error_cnt[         11]=                6662
cycle                10000:bit_error_cnt[         12]=                7011
cycle                10000:bit_error_cnt[         13]=                6667
cycle                10000:bit_error_cnt[         14]=                7041
cycle                10000:bit_error_cnt[         15]=                7322
cycle                10000:bit_error_cnt[         16]=                8012
cycle                10000:bit_error_cnt[         17]=                7674
cycle                10000:bit_error_cnt[         18]=                8021
cycle                10000:bit_error_cnt[         19]=                7890
cycle                10000:bit_error_cnt[         20]=                6967
cycle                10000:bit_error_cnt[         21]=                7043
cycle                10000:bit_error_cnt[         22]=                7681
cycle                10000:bit_error_cnt[         23]=                7906
cycle                10000:bit_error_cnt[         24]=                7395
cycle                10000:bit_error_cnt[         25]=                7544
cycle                10000:bit_error_cnt[         26]=                7920
cycle                10000:bit_error_cnt[         27]=                7753
cycle                10000:bit_error_cnt[         28]=                8071
cycle                10000:bit_error_cnt[         29]=                7510
cycle                10000:bit_error_cnt[         30]=                7347
cycle                10000:bit_error_cnt[         31]=                7579
cycle                10000:bit_error_cnt[         32]=                7936
cycle                10000:bit_error_cnt[         33]=                7135
cycle                10000:bit_error_cnt[         34]=                7066
cycle                10000:bit_error_cnt[         35]=                7515
cycle                10000:bit_error_cnt[         36]=                7757
cycle                10000:bit_error_cnt[         37]=                7114
cycle                10000:bit_error_cnt[         38]=                7160
cycle                10000:bit_error_cnt[         39]=                6638
cycle                10000:bit_error_cnt[         40]=                7103
cycle                10000:bit_error_cnt[         41]=                6416
cycle                10000:bit_error_cnt[         42]=                6404
cycle                10000:bit_error_cnt[         43]=                6292
cycle                10000:bit_error_cnt[         44]=                6645
cycle                10000:bit_error_cnt[         45]=                6817
cycle                10000:bit_error_cnt[         46]=                7032
cycle                10000:bit_error_cnt[         47]=                7132
cycle                10000:bit_error_cnt[         48]=                6013
cycle                10000:bit_error_cnt[         49]=                6340
cycle                10000:bit_error_cnt[         50]=                7418
cycle                10000:bit_error_cnt[         51]=                7753
cycle                10000:bit_error_cnt[         52]=                8071
cycle                10000:bit_error_cnt[         53]=                7510
cycle                10000:bit_error_cnt[         54]=                7347
cycle                10000:bit_error_cnt[         55]=                7579
cycle                10000:bit_error_cnt[         56]=                7936
cycle                10000:bit_error_cnt[         57]=                7135
cycle                10000:bit_error_cnt[         58]=                7066
cycle                10000:bit_error_cnt[         59]=                7515
cycle                10000:bit_error_cnt[         60]=                7757
cycle                10000:bit_error_cnt[         61]=                7114
cycle                10000:bit_error_cnt[         62]=                7160
cycle                10000:bit_error_cnt[         63]=                6638
cycle                10000:bit_error_cnt[         64]=                7103
cycle                10000:bit_error_cnt[         65]=                6416
cycle                10000:bit_error_cnt[         66]=                6404
cycle                10000:bit_error_cnt[         67]=                6292
cycle                10000:bit_error_cnt[         68]=                6645
cycle                10000:bit_error_cnt[         69]=                6817
cycle                10000:bit_error_cnt[         70]=                7032
cycle                10000:bit_error_cnt[         71]=                7132
cycle                10000:bit_error_cnt[         72]=                6013
cycle                10000:bit_error_cnt[         73]=                6340
cycle                10000:bit_error_cnt[         74]=                7418
cycle                10000:bit_error_cnt[         75]=                5296
cycle                10000:bit_error_cnt[         76]=                6241
cycle                10000:bit_error_cnt[         77]=                6455
cycle                10000:bit_error_cnt[         78]=                6885
cycle                10000:bit_error_cnt[         79]=                5222
cycle                10000:bit_error_cnt[         80]=                6024
cycle                10000:bit_error_cnt[         81]=                5275
cycle                10000:bit_error_cnt[         82]=                6206
cycle                10000:bit_error_cnt[         83]=                4704
cycle                10000:bit_error_cnt[         84]=                2376
