cycle                10000:bit_error_cnt[          0]=                6599
cycle                10000:bit_error_cnt[          1]=                  87
cycle                10000:bit_error_cnt[          2]=                 148
cycle                10000:bit_error_cnt[          3]=                6783
cycle                10000:bit_error_cnt[          4]=                   0
cycle                10000:bit_error_cnt[          5]=                   0
cycle                10000:bit_error_cnt[          6]=                   0
cycle                10000:bit_error_cnt[          7]=                   0
cycle                10000:bit_error_cnt[          8]=                   0
cycle                10000:bit_error_cnt[          9]=                   0
cycle                10000:bit_error_cnt[         10]=                   0
cycle                10000:bit_error_cnt[         11]=                   0
cycle                10000:bit_error_cnt[         12]=                   0
cycle                10000:bit_error_cnt[         13]=                   0
cycle                10000:bit_error_cnt[         14]=                   0
cycle                10000:bit_error_cnt[         15]=                   0
cycle                10000:bit_error_cnt[         16]=                   0
cycle                10000:bit_error_cnt[         17]=                   0
cycle                10000:bit_error_cnt[         18]=                   0
cycle                10000:bit_error_cnt[         19]=                   0
cycle                10000:bit_error_cnt[         20]=                   0
cycle                10000:bit_error_cnt[         21]=                   0
cycle                10000:bit_error_cnt[         22]=                   0
cycle                10000:bit_error_cnt[         23]=                   0
cycle                10000:bit_error_cnt[         24]=                   0
cycle                10000:bit_error_cnt[         25]=                   0
cycle                10000:bit_error_cnt[         26]=                   0
cycle                10000:bit_error_cnt[         27]=                   0
cycle                10000:bit_error_cnt[         28]=                   0
cycle                10000:bit_error_cnt[         29]=                   0
cycle                10000:bit_error_cnt[         30]=                   0
cycle                10000:bit_error_cnt[         31]=                   0
cycle                10000:bit_error_cnt[         32]=                   0
cycle                10000:bit_error_cnt[         33]=                   0
cycle                10000:bit_error_cnt[         34]=                   0
cycle                10000:bit_error_cnt[         35]=                   0
cycle                10000:bit_error_cnt[         36]=                   0
cycle                10000:bit_error_cnt[         37]=                9434
cycle                10000:bit_error_cnt[         38]=                8122
cycle                10000:bit_error_cnt[         39]=                8648
cycle                10000:bit_error_cnt[         40]=                8309
cycle                10000:bit_error_cnt[         41]=                9093
cycle                10000:bit_error_cnt[         42]=                8374
cycle                10000:bit_error_cnt[         43]=                7668
cycle                10000:bit_error_cnt[         44]=                8632
cycle                10000:bit_error_cnt[         45]=                9085
cycle                10000:bit_error_cnt[         46]=                7851
cycle                10000:bit_error_cnt[         47]=                8689
cycle                10000:bit_error_cnt[         48]=                7509
cycle                10000:bit_error_cnt[         49]=                8708
cycle                10000:bit_error_cnt[         50]=                7553
cycle                10000:bit_error_cnt[         51]=                9183
cycle                10000:bit_error_cnt[         52]=                8631
cycle                10000:bit_error_cnt[         53]=                7401
cycle                10000:bit_error_cnt[         54]=                8231
cycle                10000:bit_error_cnt[         55]=                6204
cycle                10000:bit_error_cnt[         56]=                8342
cycle                10000:bit_error_cnt[         57]=                8635
cycle                10000:bit_error_cnt[         58]=                7482
cycle                10000:bit_error_cnt[         59]=                6782
cycle                10000:bit_error_cnt[         60]=                8003
cycle                10000:bit_error_cnt[         61]=                8209
cycle                10000:bit_error_cnt[         62]=                8105
cycle                10000:bit_error_cnt[         63]=                7344
cycle                10000:bit_error_cnt[         64]=                6471
cycle                10000:bit_error_cnt[         65]=                5774
cycle                10000:bit_error_cnt[         66]=                6323
cycle                10000:bit_error_cnt[         67]=                6021
cycle                10000:bit_error_cnt[         68]=                5938
cycle                10000:bit_error_cnt[         69]=                2759
