cycle                10000:bit_error_cnt[          0]=                1849
cycle                10000:bit_error_cnt[          1]=                   5
cycle                10000:bit_error_cnt[          2]=                   4
cycle                10000:bit_error_cnt[          3]=                7026
cycle                10000:bit_error_cnt[          4]=                   0
cycle                10000:bit_error_cnt[          5]=                   0
cycle                10000:bit_error_cnt[          6]=                   0
cycle                10000:bit_error_cnt[          7]=                   0
cycle                10000:bit_error_cnt[          8]=                   0
cycle                10000:bit_error_cnt[          9]=                   0
cycle                10000:bit_error_cnt[         10]=                   0
cycle                10000:bit_error_cnt[         11]=                   0
cycle                10000:bit_error_cnt[         12]=                   0
cycle                10000:bit_error_cnt[         13]=                   0
cycle                10000:bit_error_cnt[         14]=                   0
cycle                10000:bit_error_cnt[         15]=                   0
cycle                10000:bit_error_cnt[         16]=                   0
cycle                10000:bit_error_cnt[         17]=                   0
cycle                10000:bit_error_cnt[         18]=                   0
cycle                10000:bit_error_cnt[         19]=                   0
cycle                10000:bit_error_cnt[         20]=                   0
cycle                10000:bit_error_cnt[         21]=                   0
cycle                10000:bit_error_cnt[         22]=                   0
cycle                10000:bit_error_cnt[         23]=                   0
cycle                10000:bit_error_cnt[         24]=                   0
cycle                10000:bit_error_cnt[         25]=                   0
cycle                10000:bit_error_cnt[         26]=                   0
cycle                10000:bit_error_cnt[         27]=                   0
cycle                10000:bit_error_cnt[         28]=                   0
cycle                10000:bit_error_cnt[         29]=                   0
cycle                10000:bit_error_cnt[         30]=                   0
cycle                10000:bit_error_cnt[         31]=                   0
cycle                10000:bit_error_cnt[         32]=                   0
cycle                10000:bit_error_cnt[         33]=                   0
cycle                10000:bit_error_cnt[         34]=                   0
cycle                10000:bit_error_cnt[         35]=                   0
cycle                10000:bit_error_cnt[         36]=                   0
cycle                10000:bit_error_cnt[         37]=                7043
cycle                10000:bit_error_cnt[         38]=                7615
cycle                10000:bit_error_cnt[         39]=                6566
cycle                10000:bit_error_cnt[         40]=                6613
cycle                10000:bit_error_cnt[         41]=                7146
cycle                10000:bit_error_cnt[         42]=                6634
cycle                10000:bit_error_cnt[         43]=                6423
cycle                10000:bit_error_cnt[         44]=                6216
cycle                10000:bit_error_cnt[         45]=                5964
cycle                10000:bit_error_cnt[         46]=                6184
cycle                10000:bit_error_cnt[         47]=                5488
cycle                10000:bit_error_cnt[         48]=                5608
cycle                10000:bit_error_cnt[         49]=                6229
cycle                10000:bit_error_cnt[         50]=                6576
cycle                10000:bit_error_cnt[         51]=                5699
cycle                10000:bit_error_cnt[         52]=                7636
cycle                10000:bit_error_cnt[         53]=                6966
cycle                10000:bit_error_cnt[         54]=                5459
cycle                10000:bit_error_cnt[         55]=                5563
cycle                10000:bit_error_cnt[         56]=                5542
cycle                10000:bit_error_cnt[         57]=                5568
cycle                10000:bit_error_cnt[         58]=                5515
cycle                10000:bit_error_cnt[         59]=                5146
cycle                10000:bit_error_cnt[         60]=                5373
cycle                10000:bit_error_cnt[         61]=                2345
cycle                10000:bit_error_cnt[         62]=                1933
cycle                10000:bit_error_cnt[         63]=                1858
cycle                10000:bit_error_cnt[         64]=                4611
cycle                10000:bit_error_cnt[         65]=                4107
cycle                10000:bit_error_cnt[         66]=                4319
cycle                10000:bit_error_cnt[         67]=                3379
cycle                10000:bit_error_cnt[         68]=                3487
cycle                10000:bit_error_cnt[         69]=                2147
