cycle                10000:bit_error_cnt[          0]=                   2
cycle                10000:bit_error_cnt[          1]=                   2
cycle                10000:bit_error_cnt[          2]=                   0
cycle                10000:bit_error_cnt[          3]=                   2
cycle                10000:bit_error_cnt[          4]=                   2
cycle                10000:bit_error_cnt[          5]=                   2
cycle                10000:bit_error_cnt[          6]=                   2
cycle                10000:bit_error_cnt[          7]=                   2
cycle                10000:bit_error_cnt[          8]=                   2
cycle                10000:bit_error_cnt[          9]=                   2
cycle                10000:bit_error_cnt[         10]=                   2
cycle                10000:bit_error_cnt[         11]=                   2
cycle                10000:bit_error_cnt[         12]=                 540
cycle                10000:bit_error_cnt[         13]=                  85
cycle                10000:bit_error_cnt[         14]=                   2
cycle                10000:bit_error_cnt[         15]=                   2
cycle                10000:bit_error_cnt[         16]=                 191
cycle                10000:bit_error_cnt[         17]=                 121
cycle                10000:bit_error_cnt[         18]=                1122
cycle                10000:bit_error_cnt[         19]=                 457
cycle                10000:bit_error_cnt[         20]=                 445
cycle                10000:bit_error_cnt[         21]=                 353
cycle                10000:bit_error_cnt[         22]=                 199
cycle                10000:bit_error_cnt[         23]=                 479
cycle                10000:bit_error_cnt[         24]=                 782
cycle                10000:bit_error_cnt[         25]=                 275
cycle                10000:bit_error_cnt[         26]=                   9
cycle                10000:bit_error_cnt[         27]=                  54
cycle                10000:bit_error_cnt[         28]=                 172
cycle                10000:bit_error_cnt[         29]=                 289
cycle                10000:bit_error_cnt[         30]=                 298
cycle                10000:bit_error_cnt[         31]=                 515
cycle                10000:bit_error_cnt[         32]=                 481
cycle                10000:bit_error_cnt[         33]=                 826
cycle                10000:bit_error_cnt[         34]=                 807
cycle                10000:bit_error_cnt[         35]=                 666
cycle                10000:bit_error_cnt[         36]=                 444
cycle                10000:bit_error_cnt[         37]=                 260
cycle                10000:bit_error_cnt[         38]=                 114
cycle                10000:bit_error_cnt[         39]=                  90
cycle                10000:bit_error_cnt[         40]=                  50
cycle                10000:bit_error_cnt[         41]=                  46
cycle                10000:bit_error_cnt[         42]=                  49
cycle                10000:bit_error_cnt[         43]=                  23
cycle                10000:bit_error_cnt[         44]=                  10
cycle                10000:bit_error_cnt[         45]=                   6
cycle                10000:bit_error_cnt[         46]=                   4
cycle                10000:bit_error_cnt[         47]=                   2
cycle                10000:bit_error_cnt[         48]=                   2
cycle                10000:bit_error_cnt[         49]=                   2
cycle                10000:bit_error_cnt[         50]=                   2
cycle                10000:bit_error_cnt[         51]=                   2
cycle                10000:bit_error_cnt[         52]=                   2
cycle                10000:bit_error_cnt[         53]=                   2
cycle                10000:bit_error_cnt[         54]=                   2
cycle                10000:bit_error_cnt[         55]=                   2
cycle                10000:bit_error_cnt[         56]=                   2
cycle                10000:bit_error_cnt[         57]=                   2
cycle                10000:bit_error_cnt[         58]=                 140
cycle                10000:bit_error_cnt[         59]=                  93
cycle                10000:bit_error_cnt[         60]=                  55
cycle                10000:bit_error_cnt[         61]=                  31
