cycle                10000:bit_error_cnt[          0]=                   3
cycle                10000:bit_error_cnt[          1]=                  39
cycle                10000:bit_error_cnt[          2]=                   0
cycle                10000:bit_error_cnt[          3]=                2490
cycle                10000:bit_error_cnt[          4]=                4470
cycle                10000:bit_error_cnt[          5]=                5241
cycle                10000:bit_error_cnt[          6]=                5634
cycle                10000:bit_error_cnt[          7]=                5440
cycle                10000:bit_error_cnt[          8]=                5328
cycle                10000:bit_error_cnt[          9]=                5362
cycle                10000:bit_error_cnt[         10]=                5402
cycle                10000:bit_error_cnt[         11]=                5590
cycle                10000:bit_error_cnt[         12]=                5487
cycle                10000:bit_error_cnt[         13]=                5539
cycle                10000:bit_error_cnt[         14]=                5461
cycle                10000:bit_error_cnt[         15]=                5554
cycle                10000:bit_error_cnt[         16]=                5325
cycle                10000:bit_error_cnt[         17]=                5333
cycle                10000:bit_error_cnt[         18]=                5358
cycle                10000:bit_error_cnt[         19]=                5550
cycle                10000:bit_error_cnt[         20]=                5781
cycle                10000:bit_error_cnt[         21]=                5601
cycle                10000:bit_error_cnt[         22]=                5693
cycle                10000:bit_error_cnt[         23]=                5891
cycle                10000:bit_error_cnt[         24]=                5771
cycle                10000:bit_error_cnt[         25]=                5515
cycle                10000:bit_error_cnt[         26]=                5460
cycle                10000:bit_error_cnt[         27]=                5484
cycle                10000:bit_error_cnt[         28]=                5746
cycle                10000:bit_error_cnt[         29]=                5659
cycle                10000:bit_error_cnt[         30]=                5479
cycle                10000:bit_error_cnt[         31]=                5404
cycle                10000:bit_error_cnt[         32]=                5342
cycle                10000:bit_error_cnt[         33]=                5150
cycle                10000:bit_error_cnt[         34]=                5147
cycle                10000:bit_error_cnt[         35]=                5159
cycle                10000:bit_error_cnt[         36]=                5047
cycle                10000:bit_error_cnt[         37]=                5127
cycle                10000:bit_error_cnt[         38]=                5090
cycle                10000:bit_error_cnt[         39]=                5117
cycle                10000:bit_error_cnt[         40]=                5164
cycle                10000:bit_error_cnt[         41]=                5097
cycle                10000:bit_error_cnt[         42]=                5303
cycle                10000:bit_error_cnt[         43]=                5174
cycle                10000:bit_error_cnt[         44]=                5170
cycle                10000:bit_error_cnt[         45]=                5112
cycle                10000:bit_error_cnt[         46]=                5127
cycle                10000:bit_error_cnt[         47]=                5190
cycle                10000:bit_error_cnt[         48]=                5091
cycle                10000:bit_error_cnt[         49]=                5050
cycle                10000:bit_error_cnt[         50]=                4115
cycle                10000:bit_error_cnt[         51]=                1847
cycle                10000:bit_error_cnt[         52]=                2554
cycle                10000:bit_error_cnt[         53]=                5248
cycle                10000:bit_error_cnt[         54]=                5509
cycle                10000:bit_error_cnt[         55]=                5698
cycle                10000:bit_error_cnt[         56]=                5758
cycle                10000:bit_error_cnt[         57]=                5723
cycle                10000:bit_error_cnt[         58]=                6186
cycle                10000:bit_error_cnt[         59]=                5696
cycle                10000:bit_error_cnt[         60]=                5228
cycle                10000:bit_error_cnt[         61]=                3987
