cycle                10000:bit_error_cnt[          0]=                   2
cycle                10000:bit_error_cnt[          1]=                   1
cycle                10000:bit_error_cnt[          2]=                   1
cycle                10000:bit_error_cnt[          3]=                   1
cycle                10000:bit_error_cnt[          4]=                3690
cycle                10000:bit_error_cnt[          5]=                4447
cycle                10000:bit_error_cnt[          6]=                5010
cycle                10000:bit_error_cnt[          7]=                5053
cycle                10000:bit_error_cnt[          8]=                5024
cycle                10000:bit_error_cnt[          9]=                5034
cycle                10000:bit_error_cnt[         10]=                4966
cycle                10000:bit_error_cnt[         11]=                4931
cycle                10000:bit_error_cnt[         12]=                5001
cycle                10000:bit_error_cnt[         13]=                5026
cycle                10000:bit_error_cnt[         14]=                4984
cycle                10000:bit_error_cnt[         15]=                5026
cycle                10000:bit_error_cnt[         16]=                4929
cycle                10000:bit_error_cnt[         17]=                4893
cycle                10000:bit_error_cnt[         18]=                5073
cycle                10000:bit_error_cnt[         19]=                5056
cycle                10000:bit_error_cnt[         20]=                5020
cycle                10000:bit_error_cnt[         21]=                5005
cycle                10000:bit_error_cnt[         22]=                4935
cycle                10000:bit_error_cnt[         23]=                5010
cycle                10000:bit_error_cnt[         24]=                4995
cycle                10000:bit_error_cnt[         25]=                4992
cycle                10000:bit_error_cnt[         26]=                5019
cycle                10000:bit_error_cnt[         27]=                5002
cycle                10000:bit_error_cnt[         28]=                5019
cycle                10000:bit_error_cnt[         29]=                5058
cycle                10000:bit_error_cnt[         30]=                4909
cycle                10000:bit_error_cnt[         31]=                4902
cycle                10000:bit_error_cnt[         32]=                4136
cycle                10000:bit_error_cnt[         33]=                   1
cycle                10000:bit_error_cnt[         34]=                   1
cycle                10000:bit_error_cnt[         35]=                1766
cycle                10000:bit_error_cnt[         36]=                4186
cycle                10000:bit_error_cnt[         37]=                4771
cycle                10000:bit_error_cnt[         38]=                4761
cycle                10000:bit_error_cnt[         39]=                4920
cycle                10000:bit_error_cnt[         40]=                4923
cycle                10000:bit_error_cnt[         41]=                4949
cycle                10000:bit_error_cnt[         42]=                4968
cycle                10000:bit_error_cnt[         43]=                4995
cycle                10000:bit_error_cnt[         44]=                4983
cycle                10000:bit_error_cnt[         45]=                4991
cycle                10000:bit_error_cnt[         46]=                4929
cycle                10000:bit_error_cnt[         47]=                4983
cycle                10000:bit_error_cnt[         48]=                4997
cycle                10000:bit_error_cnt[         49]=                5005
cycle                10000:bit_error_cnt[         50]=                5010
cycle                10000:bit_error_cnt[         51]=                4979
cycle                10000:bit_error_cnt[         52]=                4990
cycle                10000:bit_error_cnt[         53]=                4950
cycle                10000:bit_error_cnt[         54]=                5047
cycle                10000:bit_error_cnt[         55]=                4986
cycle                10000:bit_error_cnt[         56]=                4990
cycle                10000:bit_error_cnt[         57]=                5023
cycle                10000:bit_error_cnt[         58]=                4976
cycle                10000:bit_error_cnt[         59]=                5022
cycle                10000:bit_error_cnt[         60]=                5027
cycle                10000:bit_error_cnt[         61]=                5024
cycle                10000:bit_error_cnt[         62]=                5001
cycle                10000:bit_error_cnt[         63]=                5018
cycle                10000:bit_error_cnt[         64]=                5063
cycle                10000:bit_error_cnt[         65]=                5034
cycle                10000:bit_error_cnt[         66]=                5050
cycle                10000:bit_error_cnt[         67]=                5049
cycle                10000:bit_error_cnt[         68]=                5028
cycle                10000:bit_error_cnt[         69]=                5014
cycle                10000:bit_error_cnt[         70]=                5036
cycle                10000:bit_error_cnt[         71]=                5033
cycle                10000:bit_error_cnt[         72]=                4952
cycle                10000:bit_error_cnt[         73]=                4147
cycle                10000:bit_error_cnt[         74]=                   1
cycle                10000:bit_error_cnt[         75]=                   1
cycle                10000:bit_error_cnt[         76]=                   1
cycle                10000:bit_error_cnt[         77]=                1189
cycle                10000:bit_error_cnt[         78]=                3666
cycle                10000:bit_error_cnt[         79]=                3987
cycle                10000:bit_error_cnt[         80]=                3999
cycle                10000:bit_error_cnt[         81]=                3413
cycle                10000:bit_error_cnt[         82]=                1593
cycle                10000:bit_error_cnt[         83]=                   0
cycle                10000:bit_error_cnt[         84]=                   1
cycle                10000:bit_error_cnt[         85]=                   0
cycle                10000:bit_error_cnt[         86]=                   0
cycle                10000:bit_error_cnt[         87]=                   0
cycle                10000:bit_error_cnt[         88]=                   0
cycle                10000:bit_error_cnt[         89]=                   0
cycle                10000:bit_error_cnt[         90]=                   0
cycle                10000:bit_error_cnt[         91]=                   0
cycle                10000:bit_error_cnt[         92]=                   0
cycle                10000:bit_error_cnt[         93]=                   0
cycle                10000:bit_error_cnt[         94]=                   0
