cycle                10000:bit_error_cnt[          0]=                8125
cycle                10000:bit_error_cnt[          1]=                9066
cycle                10000:bit_error_cnt[          2]=                8528
cycle                10000:bit_error_cnt[          3]=                7909
cycle                10000:bit_error_cnt[          4]=                7782
cycle                10000:bit_error_cnt[          5]=                7504
cycle                10000:bit_error_cnt[          6]=                7325
cycle                10000:bit_error_cnt[          7]=                7083
cycle                10000:bit_error_cnt[          8]=                7144
cycle                10000:bit_error_cnt[          9]=                6563
cycle                10000:bit_error_cnt[         10]=                6088
cycle                10000:bit_error_cnt[         11]=                5860
cycle                10000:bit_error_cnt[         12]=                5992
cycle                10000:bit_error_cnt[         13]=                6025
cycle                10000:bit_error_cnt[         14]=                5921
cycle                10000:bit_error_cnt[         15]=                6133
cycle                10000:bit_error_cnt[         16]=                5890
cycle                10000:bit_error_cnt[         17]=                5598
cycle                10000:bit_error_cnt[         18]=                5682
cycle                10000:bit_error_cnt[         19]=                5574
cycle                10000:bit_error_cnt[         20]=                5733
cycle                10000:bit_error_cnt[         21]=                5720
cycle                10000:bit_error_cnt[         22]=                5354
cycle                10000:bit_error_cnt[         23]=                5195
cycle                10000:bit_error_cnt[         24]=                5103
cycle                10000:bit_error_cnt[         25]=                5094
cycle                10000:bit_error_cnt[         26]=                 535
cycle                10000:bit_error_cnt[         27]=                3914
cycle                10000:bit_error_cnt[         28]=                2225
cycle                10000:bit_error_cnt[         29]=                1518
cycle                10000:bit_error_cnt[         30]=                1424
cycle                10000:bit_error_cnt[         31]=                   5
cycle                10000:bit_error_cnt[         32]=                4036
cycle                10000:bit_error_cnt[         33]=                3154
