cycle                10000:bit_error_cnt[          0]=                6600
cycle                10000:bit_error_cnt[          1]=                  87
cycle                10000:bit_error_cnt[          2]=                 148
cycle                10000:bit_error_cnt[          3]=                7062
cycle                10000:bit_error_cnt[          4]=                   0
cycle                10000:bit_error_cnt[          5]=                   0
cycle                10000:bit_error_cnt[          6]=                   0
cycle                10000:bit_error_cnt[          7]=                   0
cycle                10000:bit_error_cnt[          8]=                   0
cycle                10000:bit_error_cnt[          9]=                   0
cycle                10000:bit_error_cnt[         10]=                   0
cycle                10000:bit_error_cnt[         11]=                   0
cycle                10000:bit_error_cnt[         12]=                   0
cycle                10000:bit_error_cnt[         13]=                   0
cycle                10000:bit_error_cnt[         14]=                   0
cycle                10000:bit_error_cnt[         15]=                   0
cycle                10000:bit_error_cnt[         16]=                   0
cycle                10000:bit_error_cnt[         17]=                   0
cycle                10000:bit_error_cnt[         18]=                   0
cycle                10000:bit_error_cnt[         19]=                   0
cycle                10000:bit_error_cnt[         20]=                   0
cycle                10000:bit_error_cnt[         21]=                   0
cycle                10000:bit_error_cnt[         22]=                   0
cycle                10000:bit_error_cnt[         23]=                   0
cycle                10000:bit_error_cnt[         24]=                   0
cycle                10000:bit_error_cnt[         25]=                   0
cycle                10000:bit_error_cnt[         26]=                   0
cycle                10000:bit_error_cnt[         27]=                   0
cycle                10000:bit_error_cnt[         28]=                   0
cycle                10000:bit_error_cnt[         29]=                   0
cycle                10000:bit_error_cnt[         30]=                   0
cycle                10000:bit_error_cnt[         31]=                   0
cycle                10000:bit_error_cnt[         32]=                   0
cycle                10000:bit_error_cnt[         33]=                   0
cycle                10000:bit_error_cnt[         34]=                   0
cycle                10000:bit_error_cnt[         35]=                   0
cycle                10000:bit_error_cnt[         36]=                   0
cycle                10000:bit_error_cnt[         37]=                8547
cycle                10000:bit_error_cnt[         38]=                8890
cycle                10000:bit_error_cnt[         39]=                9469
cycle                10000:bit_error_cnt[         40]=                9329
cycle                10000:bit_error_cnt[         41]=                9153
cycle                10000:bit_error_cnt[         42]=                7804
cycle                10000:bit_error_cnt[         43]=                7796
cycle                10000:bit_error_cnt[         44]=                8760
cycle                10000:bit_error_cnt[         45]=                9099
cycle                10000:bit_error_cnt[         46]=                9145
cycle                10000:bit_error_cnt[         47]=                8696
cycle                10000:bit_error_cnt[         48]=                8628
cycle                10000:bit_error_cnt[         49]=                6338
cycle                10000:bit_error_cnt[         50]=                6658
cycle                10000:bit_error_cnt[         51]=                9286
cycle                10000:bit_error_cnt[         52]=                7964
cycle                10000:bit_error_cnt[         53]=                6927
cycle                10000:bit_error_cnt[         54]=                8201
cycle                10000:bit_error_cnt[         55]=                6184
cycle                10000:bit_error_cnt[         56]=                7265
cycle                10000:bit_error_cnt[         57]=                8612
cycle                10000:bit_error_cnt[         58]=                6464
cycle                10000:bit_error_cnt[         59]=                8256
cycle                10000:bit_error_cnt[         60]=                9245
cycle                10000:bit_error_cnt[         61]=                8712
cycle                10000:bit_error_cnt[         62]=                8626
cycle                10000:bit_error_cnt[         63]=                7643
cycle                10000:bit_error_cnt[         64]=                6148
cycle                10000:bit_error_cnt[         65]=                5885
cycle                10000:bit_error_cnt[         66]=                6472
cycle                10000:bit_error_cnt[         67]=                5905
cycle                10000:bit_error_cnt[         68]=                5428
cycle                10000:bit_error_cnt[         69]=                3037
