cycle                10000:bit_error_cnt[          0]=                   1
cycle                10000:bit_error_cnt[          1]=                   1
cycle                10000:bit_error_cnt[          2]=                   1
cycle                10000:bit_error_cnt[          3]=                   1
cycle                10000:bit_error_cnt[          4]=                 205
cycle                10000:bit_error_cnt[          5]=                1651
cycle                10000:bit_error_cnt[          6]=                2587
cycle                10000:bit_error_cnt[          7]=                4548
cycle                10000:bit_error_cnt[          8]=                4381
cycle                10000:bit_error_cnt[          9]=                4161
cycle                10000:bit_error_cnt[         10]=                4801
cycle                10000:bit_error_cnt[         11]=                4736
cycle                10000:bit_error_cnt[         12]=                4753
cycle                10000:bit_error_cnt[         13]=                4496
cycle                10000:bit_error_cnt[         14]=                4619
cycle                10000:bit_error_cnt[         15]=                4608
cycle                10000:bit_error_cnt[         16]=                4234
cycle                10000:bit_error_cnt[         17]=                2919
cycle                10000:bit_error_cnt[         18]=                4114
cycle                10000:bit_error_cnt[         19]=                3802
cycle                10000:bit_error_cnt[         20]=                3811
cycle                10000:bit_error_cnt[         21]=                3953
cycle                10000:bit_error_cnt[         22]=                3818
cycle                10000:bit_error_cnt[         23]=                4270
cycle                10000:bit_error_cnt[         24]=                4555
cycle                10000:bit_error_cnt[         25]=                4393
cycle                10000:bit_error_cnt[         26]=                4736
cycle                10000:bit_error_cnt[         27]=                4198
cycle                10000:bit_error_cnt[         28]=                4658
cycle                10000:bit_error_cnt[         29]=                4531
cycle                10000:bit_error_cnt[         30]=                4626
cycle                10000:bit_error_cnt[         31]=                4650
cycle                10000:bit_error_cnt[         32]=                3166
cycle                10000:bit_error_cnt[         33]=                   1
cycle                10000:bit_error_cnt[         34]=                   1
cycle                10000:bit_error_cnt[         35]=                   1
cycle                10000:bit_error_cnt[         36]=                2421
cycle                10000:bit_error_cnt[         37]=                2519
cycle                10000:bit_error_cnt[         38]=                2353
cycle                10000:bit_error_cnt[         39]=                4307
cycle                10000:bit_error_cnt[         40]=                3035
cycle                10000:bit_error_cnt[         41]=                3990
cycle                10000:bit_error_cnt[         42]=                4200
cycle                10000:bit_error_cnt[         43]=                2660
cycle                10000:bit_error_cnt[         44]=                4888
cycle                10000:bit_error_cnt[         45]=                4977
cycle                10000:bit_error_cnt[         46]=                4905
cycle                10000:bit_error_cnt[         47]=                4883
cycle                10000:bit_error_cnt[         48]=                4983
cycle                10000:bit_error_cnt[         49]=                5056
cycle                10000:bit_error_cnt[         50]=                4942
cycle                10000:bit_error_cnt[         51]=                5050
cycle                10000:bit_error_cnt[         52]=                4958
cycle                10000:bit_error_cnt[         53]=                5062
cycle                10000:bit_error_cnt[         54]=                4973
cycle                10000:bit_error_cnt[         55]=                5039
cycle                10000:bit_error_cnt[         56]=                5079
cycle                10000:bit_error_cnt[         57]=                4918
cycle                10000:bit_error_cnt[         58]=                4950
cycle                10000:bit_error_cnt[         59]=                5000
cycle                10000:bit_error_cnt[         60]=                4987
cycle                10000:bit_error_cnt[         61]=                5055
cycle                10000:bit_error_cnt[         62]=                5071
cycle                10000:bit_error_cnt[         63]=                4984
cycle                10000:bit_error_cnt[         64]=                4968
cycle                10000:bit_error_cnt[         65]=                4992
cycle                10000:bit_error_cnt[         66]=                4984
cycle                10000:bit_error_cnt[         67]=                4968
cycle                10000:bit_error_cnt[         68]=                5033
cycle                10000:bit_error_cnt[         69]=                4770
cycle                10000:bit_error_cnt[         70]=                4661
cycle                10000:bit_error_cnt[         71]=                5081
cycle                10000:bit_error_cnt[         72]=                4748
cycle                10000:bit_error_cnt[         73]=                4356
cycle                10000:bit_error_cnt[         74]=                   1
cycle                10000:bit_error_cnt[         75]=                   1
cycle                10000:bit_error_cnt[         76]=                   1
cycle                10000:bit_error_cnt[         77]=                   1
cycle                10000:bit_error_cnt[         78]=                 365
cycle                10000:bit_error_cnt[         79]=                2739
cycle                10000:bit_error_cnt[         80]=                2578
cycle                10000:bit_error_cnt[         81]=                2159
cycle                10000:bit_error_cnt[         82]=                2159
cycle                10000:bit_error_cnt[         83]=                   0
cycle                10000:bit_error_cnt[         84]=                   1
cycle                10000:bit_error_cnt[         85]=                   0
cycle                10000:bit_error_cnt[         86]=                   0
cycle                10000:bit_error_cnt[         87]=                   0
cycle                10000:bit_error_cnt[         88]=                   0
cycle                10000:bit_error_cnt[         89]=                   0
cycle                10000:bit_error_cnt[         90]=                   0
cycle                10000:bit_error_cnt[         91]=                   0
cycle                10000:bit_error_cnt[         92]=                   0
cycle                10000:bit_error_cnt[         93]=                   0
cycle                10000:bit_error_cnt[         94]=                   0
