cycle                10000:bit_error_cnt[          0]=                   4
cycle                10000:bit_error_cnt[          1]=                   4
cycle                10000:bit_error_cnt[          2]=                   4
cycle                10000:bit_error_cnt[          3]=                1201
cycle                10000:bit_error_cnt[          4]=                   0
cycle                10000:bit_error_cnt[          5]=                   0
cycle                10000:bit_error_cnt[          6]=                   0
cycle                10000:bit_error_cnt[          7]=                   0
cycle                10000:bit_error_cnt[          8]=                   0
cycle                10000:bit_error_cnt[          9]=                   0
cycle                10000:bit_error_cnt[         10]=                   0
cycle                10000:bit_error_cnt[         11]=                   0
cycle                10000:bit_error_cnt[         12]=                   0
cycle                10000:bit_error_cnt[         13]=                   0
cycle                10000:bit_error_cnt[         14]=                   0
cycle                10000:bit_error_cnt[         15]=                   0
cycle                10000:bit_error_cnt[         16]=                   0
cycle                10000:bit_error_cnt[         17]=                   0
cycle                10000:bit_error_cnt[         18]=                   0
cycle                10000:bit_error_cnt[         19]=                   0
cycle                10000:bit_error_cnt[         20]=                   0
cycle                10000:bit_error_cnt[         21]=                   0
cycle                10000:bit_error_cnt[         22]=                   0
cycle                10000:bit_error_cnt[         23]=                   0
cycle                10000:bit_error_cnt[         24]=                   0
cycle                10000:bit_error_cnt[         25]=                   0
cycle                10000:bit_error_cnt[         26]=                   0
cycle                10000:bit_error_cnt[         27]=                   0
cycle                10000:bit_error_cnt[         28]=                   0
cycle                10000:bit_error_cnt[         29]=                   0
cycle                10000:bit_error_cnt[         30]=                   0
cycle                10000:bit_error_cnt[         31]=                   0
cycle                10000:bit_error_cnt[         32]=                   0
cycle                10000:bit_error_cnt[         33]=                   0
cycle                10000:bit_error_cnt[         34]=                   0
cycle                10000:bit_error_cnt[         35]=                   0
cycle                10000:bit_error_cnt[         36]=                   0
cycle                10000:bit_error_cnt[         37]=                1692
cycle                10000:bit_error_cnt[         38]=                2658
cycle                10000:bit_error_cnt[         39]=                2523
cycle                10000:bit_error_cnt[         40]=                1750
cycle                10000:bit_error_cnt[         41]=                1569
cycle                10000:bit_error_cnt[         42]=                1381
cycle                10000:bit_error_cnt[         43]=                1847
cycle                10000:bit_error_cnt[         44]=                1781
cycle                10000:bit_error_cnt[         45]=                1709
cycle                10000:bit_error_cnt[         46]=                1502
cycle                10000:bit_error_cnt[         47]=                1474
cycle                10000:bit_error_cnt[         48]=                1379
cycle                10000:bit_error_cnt[         49]=                1077
cycle                10000:bit_error_cnt[         50]=                1057
cycle                10000:bit_error_cnt[         51]=                1114
cycle                10000:bit_error_cnt[         52]=                 899
cycle                10000:bit_error_cnt[         53]=                 721
cycle                10000:bit_error_cnt[         54]=                 674
cycle                10000:bit_error_cnt[         55]=                 608
cycle                10000:bit_error_cnt[         56]=                 521
cycle                10000:bit_error_cnt[         57]=                 395
cycle                10000:bit_error_cnt[         58]=                 197
cycle                10000:bit_error_cnt[         59]=                  88
cycle                10000:bit_error_cnt[         60]=                 158
cycle                10000:bit_error_cnt[         61]=                  83
cycle                10000:bit_error_cnt[         62]=                  53
cycle                10000:bit_error_cnt[         63]=                  30
cycle                10000:bit_error_cnt[         64]=                  19
cycle                10000:bit_error_cnt[         65]=                  11
cycle                10000:bit_error_cnt[         66]=                   8
cycle                10000:bit_error_cnt[         67]=                  75
cycle                10000:bit_error_cnt[         68]=                 108
cycle                10000:bit_error_cnt[         69]=                  48
