cycle                10000:bit_error_cnt[          0]=                   2
cycle                10000:bit_error_cnt[          1]=                   2
cycle                10000:bit_error_cnt[          2]=                   0
cycle                10000:bit_error_cnt[          3]=                   2
cycle                10000:bit_error_cnt[          4]=                   2
cycle                10000:bit_error_cnt[          5]=                   2
cycle                10000:bit_error_cnt[          6]=                   2
cycle                10000:bit_error_cnt[          7]=                   2
cycle                10000:bit_error_cnt[          8]=                   2
cycle                10000:bit_error_cnt[          9]=                   2
cycle                10000:bit_error_cnt[         10]=                   2
cycle                10000:bit_error_cnt[         11]=                 794
cycle                10000:bit_error_cnt[         12]=                3678
cycle                10000:bit_error_cnt[         13]=                2211
cycle                10000:bit_error_cnt[         14]=                1340
cycle                10000:bit_error_cnt[         15]=                1167
cycle                10000:bit_error_cnt[         16]=                1273
cycle                10000:bit_error_cnt[         17]=                1836
cycle                10000:bit_error_cnt[         18]=                2768
cycle                10000:bit_error_cnt[         19]=                1625
cycle                10000:bit_error_cnt[         20]=                1438
cycle                10000:bit_error_cnt[         21]=                2392
cycle                10000:bit_error_cnt[         22]=                1957
cycle                10000:bit_error_cnt[         23]=                1324
cycle                10000:bit_error_cnt[         24]=                 961
cycle                10000:bit_error_cnt[         25]=                 432
cycle                10000:bit_error_cnt[         26]=                 316
cycle                10000:bit_error_cnt[         27]=                 359
cycle                10000:bit_error_cnt[         28]=                1283
cycle                10000:bit_error_cnt[         29]=                1826
cycle                10000:bit_error_cnt[         30]=                1618
cycle                10000:bit_error_cnt[         31]=                1004
cycle                10000:bit_error_cnt[         32]=                 778
cycle                10000:bit_error_cnt[         33]=                1688
cycle                10000:bit_error_cnt[         34]=                1698
cycle                10000:bit_error_cnt[         35]=                1027
cycle                10000:bit_error_cnt[         36]=                 788
cycle                10000:bit_error_cnt[         37]=                 384
cycle                10000:bit_error_cnt[         38]=                 203
cycle                10000:bit_error_cnt[         39]=                 175
cycle                10000:bit_error_cnt[         40]=                 103
cycle                10000:bit_error_cnt[         41]=                  69
cycle                10000:bit_error_cnt[         42]=                  49
cycle                10000:bit_error_cnt[         43]=                  23
cycle                10000:bit_error_cnt[         44]=                  10
cycle                10000:bit_error_cnt[         45]=                   6
cycle                10000:bit_error_cnt[         46]=                   4
cycle                10000:bit_error_cnt[         47]=                   2
cycle                10000:bit_error_cnt[         48]=                   2
cycle                10000:bit_error_cnt[         49]=                   2
cycle                10000:bit_error_cnt[         50]=                   2
cycle                10000:bit_error_cnt[         51]=                   2
cycle                10000:bit_error_cnt[         52]=                   2
cycle                10000:bit_error_cnt[         53]=                   2
cycle                10000:bit_error_cnt[         54]=                   2
cycle                10000:bit_error_cnt[         55]=                   2
cycle                10000:bit_error_cnt[         56]=                 237
cycle                10000:bit_error_cnt[         57]=                 256
cycle                10000:bit_error_cnt[         58]=                 216
cycle                10000:bit_error_cnt[         59]=                 112
cycle                10000:bit_error_cnt[         60]=                  91
cycle                10000:bit_error_cnt[         61]=                  29
