cycle                10000:bit_error_cnt[          0]=                  44
cycle                10000:bit_error_cnt[          1]=                 142
cycle                10000:bit_error_cnt[          2]=                3744
cycle                10000:bit_error_cnt[          3]=                4787
cycle                10000:bit_error_cnt[          4]=                4832
cycle                10000:bit_error_cnt[          5]=                5047
cycle                10000:bit_error_cnt[          6]=                5046
cycle                10000:bit_error_cnt[          7]=                5021
cycle                10000:bit_error_cnt[          8]=                5088
cycle                10000:bit_error_cnt[          9]=                4998
cycle                10000:bit_error_cnt[         10]=                5083
cycle                10000:bit_error_cnt[         11]=                5013
cycle                10000:bit_error_cnt[         12]=                5037
cycle                10000:bit_error_cnt[         13]=                5098
cycle                10000:bit_error_cnt[         14]=                4972
cycle                10000:bit_error_cnt[         15]=                4910
cycle                10000:bit_error_cnt[         16]=                5043
cycle                10000:bit_error_cnt[         17]=                5018
cycle                10000:bit_error_cnt[         18]=                5003
cycle                10000:bit_error_cnt[         19]=                4999
cycle                10000:bit_error_cnt[         20]=                5036
cycle                10000:bit_error_cnt[         21]=                4931
cycle                10000:bit_error_cnt[         22]=                5028
cycle                10000:bit_error_cnt[         23]=                5032
cycle                10000:bit_error_cnt[         24]=                5046
cycle                10000:bit_error_cnt[         25]=                5010
cycle                10000:bit_error_cnt[         26]=                4902
cycle                10000:bit_error_cnt[         27]=                4962
cycle                10000:bit_error_cnt[         28]=                4916
cycle                10000:bit_error_cnt[         29]=                4957
cycle                10000:bit_error_cnt[         30]=                5031
cycle                10000:bit_error_cnt[         31]=                4956
cycle                10000:bit_error_cnt[         32]=                4533
cycle                10000:bit_error_cnt[         33]=                3724
cycle                10000:bit_error_cnt[         34]=                5153
cycle                10000:bit_error_cnt[         35]=                4910
cycle                10000:bit_error_cnt[         36]=                4944
cycle                10000:bit_error_cnt[         37]=                4999
cycle                10000:bit_error_cnt[         38]=                4862
cycle                10000:bit_error_cnt[         39]=                5024
cycle                10000:bit_error_cnt[         40]=                5075
cycle                10000:bit_error_cnt[         41]=                5011
cycle                10000:bit_error_cnt[         42]=                4959
cycle                10000:bit_error_cnt[         43]=                4997
cycle                10000:bit_error_cnt[         44]=                4928
cycle                10000:bit_error_cnt[         45]=                4998
cycle                10000:bit_error_cnt[         46]=                5031
cycle                10000:bit_error_cnt[         47]=                4956
cycle                10000:bit_error_cnt[         48]=                4966
cycle                10000:bit_error_cnt[         49]=                5047
cycle                10000:bit_error_cnt[         50]=                5074
cycle                10000:bit_error_cnt[         51]=                5060
cycle                10000:bit_error_cnt[         52]=                5019
cycle                10000:bit_error_cnt[         53]=                4968
cycle                10000:bit_error_cnt[         54]=                4967
cycle                10000:bit_error_cnt[         55]=                5064
cycle                10000:bit_error_cnt[         56]=                4902
cycle                10000:bit_error_cnt[         57]=                4970
cycle                10000:bit_error_cnt[         58]=                5019
cycle                10000:bit_error_cnt[         59]=                5107
cycle                10000:bit_error_cnt[         60]=                4963
cycle                10000:bit_error_cnt[         61]=                5004
cycle                10000:bit_error_cnt[         62]=                5015
cycle                10000:bit_error_cnt[         63]=                4982
cycle                10000:bit_error_cnt[         64]=                5016
cycle                10000:bit_error_cnt[         65]=                5078
cycle                10000:bit_error_cnt[         66]=                5029
cycle                10000:bit_error_cnt[         67]=                4947
cycle                10000:bit_error_cnt[         68]=                4977
cycle                10000:bit_error_cnt[         69]=                5017
cycle                10000:bit_error_cnt[         70]=                4951
cycle                10000:bit_error_cnt[         71]=                5057
cycle                10000:bit_error_cnt[         72]=                4885
cycle                10000:bit_error_cnt[         73]=                5059
cycle                10000:bit_error_cnt[         74]=                5058
cycle                10000:bit_error_cnt[         75]=                4954
cycle                10000:bit_error_cnt[         76]=                4963
cycle                10000:bit_error_cnt[         77]=                5022
cycle                10000:bit_error_cnt[         78]=                5040
cycle                10000:bit_error_cnt[         79]=                4907
cycle                10000:bit_error_cnt[         80]=                4974
cycle                10000:bit_error_cnt[         81]=                5002
cycle                10000:bit_error_cnt[         82]=                5015
cycle                10000:bit_error_cnt[         83]=                   0
cycle                10000:bit_error_cnt[         84]=                5360
cycle                10000:bit_error_cnt[         85]=                   0
cycle                10000:bit_error_cnt[         86]=                   0
cycle                10000:bit_error_cnt[         87]=                   0
cycle                10000:bit_error_cnt[         88]=                   0
cycle                10000:bit_error_cnt[         89]=                   0
cycle                10000:bit_error_cnt[         90]=                   0
cycle                10000:bit_error_cnt[         91]=                   0
cycle                10000:bit_error_cnt[         92]=                   0
cycle                10000:bit_error_cnt[         93]=                   0
cycle                10000:bit_error_cnt[         94]=                   0
