cycle                10000:bit_error_cnt[          0]=                6213
cycle                10000:bit_error_cnt[          1]=                 108
cycle                10000:bit_error_cnt[          2]=                 182
cycle                10000:bit_error_cnt[          3]=                7817
cycle                10000:bit_error_cnt[          4]=                   0
cycle                10000:bit_error_cnt[          5]=                   0
cycle                10000:bit_error_cnt[          6]=                   0
cycle                10000:bit_error_cnt[          7]=                   0
cycle                10000:bit_error_cnt[          8]=                   0
cycle                10000:bit_error_cnt[          9]=                   0
cycle                10000:bit_error_cnt[         10]=                   0
cycle                10000:bit_error_cnt[         11]=                   0
cycle                10000:bit_error_cnt[         12]=                   0
cycle                10000:bit_error_cnt[         13]=                   0
cycle                10000:bit_error_cnt[         14]=                   0
cycle                10000:bit_error_cnt[         15]=                   0
cycle                10000:bit_error_cnt[         16]=                   0
cycle                10000:bit_error_cnt[         17]=                   0
cycle                10000:bit_error_cnt[         18]=                   0
cycle                10000:bit_error_cnt[         19]=                   0
cycle                10000:bit_error_cnt[         20]=                   0
cycle                10000:bit_error_cnt[         21]=                   0
cycle                10000:bit_error_cnt[         22]=                   0
cycle                10000:bit_error_cnt[         23]=                   0
cycle                10000:bit_error_cnt[         24]=                   0
cycle                10000:bit_error_cnt[         25]=                   0
cycle                10000:bit_error_cnt[         26]=                   0
cycle                10000:bit_error_cnt[         27]=                   0
cycle                10000:bit_error_cnt[         28]=                   0
cycle                10000:bit_error_cnt[         29]=                   0
cycle                10000:bit_error_cnt[         30]=                   0
cycle                10000:bit_error_cnt[         31]=                   0
cycle                10000:bit_error_cnt[         32]=                   0
cycle                10000:bit_error_cnt[         33]=                   0
cycle                10000:bit_error_cnt[         34]=                   0
cycle                10000:bit_error_cnt[         35]=                   0
cycle                10000:bit_error_cnt[         36]=                   0
cycle                10000:bit_error_cnt[         37]=                8075
cycle                10000:bit_error_cnt[         38]=                7687
cycle                10000:bit_error_cnt[         39]=                7515
cycle                10000:bit_error_cnt[         40]=                7738
cycle                10000:bit_error_cnt[         41]=                7309
cycle                10000:bit_error_cnt[         42]=                8314
cycle                10000:bit_error_cnt[         43]=                7770
cycle                10000:bit_error_cnt[         44]=                7577
cycle                10000:bit_error_cnt[         45]=                7629
cycle                10000:bit_error_cnt[         46]=                7014
cycle                10000:bit_error_cnt[         47]=                6701
cycle                10000:bit_error_cnt[         48]=                6941
cycle                10000:bit_error_cnt[         49]=                7719
cycle                10000:bit_error_cnt[         50]=                7487
cycle                10000:bit_error_cnt[         51]=                6460
cycle                10000:bit_error_cnt[         52]=                7119
cycle                10000:bit_error_cnt[         53]=                6748
cycle                10000:bit_error_cnt[         54]=                6540
cycle                10000:bit_error_cnt[         55]=                7114
cycle                10000:bit_error_cnt[         56]=                6043
cycle                10000:bit_error_cnt[         57]=                5856
cycle                10000:bit_error_cnt[         58]=                6724
cycle                10000:bit_error_cnt[         59]=                5651
cycle                10000:bit_error_cnt[         60]=                5932
cycle                10000:bit_error_cnt[         61]=                8476
cycle                10000:bit_error_cnt[         62]=                7216
cycle                10000:bit_error_cnt[         63]=                8357
cycle                10000:bit_error_cnt[         64]=                5755
cycle                10000:bit_error_cnt[         65]=                7333
cycle                10000:bit_error_cnt[         66]=                6527
cycle                10000:bit_error_cnt[         67]=                6085
cycle                10000:bit_error_cnt[         68]=                4852
cycle                10000:bit_error_cnt[         69]=                2585
