cycle                10000:bit_error_cnt[          0]=                8120
cycle                10000:bit_error_cnt[          1]=                8082
cycle                10000:bit_error_cnt[          2]=                7875
cycle                10000:bit_error_cnt[          3]=                7070
cycle                10000:bit_error_cnt[          4]=                6450
cycle                10000:bit_error_cnt[          5]=                6421
cycle                10000:bit_error_cnt[          6]=                6488
cycle                10000:bit_error_cnt[          7]=                6486
cycle                10000:bit_error_cnt[          8]=                6607
cycle                10000:bit_error_cnt[          9]=                5984
cycle                10000:bit_error_cnt[         10]=                5467
cycle                10000:bit_error_cnt[         11]=                5283
cycle                10000:bit_error_cnt[         12]=                5917
cycle                10000:bit_error_cnt[         13]=                5391
cycle                10000:bit_error_cnt[         14]=                5858
cycle                10000:bit_error_cnt[         15]=                6307
cycle                10000:bit_error_cnt[         16]=                6220
cycle                10000:bit_error_cnt[         17]=                5281
cycle                10000:bit_error_cnt[         18]=                5219
cycle                10000:bit_error_cnt[         19]=                5194
cycle                10000:bit_error_cnt[         20]=                6945
cycle                10000:bit_error_cnt[         21]=                6850
cycle                10000:bit_error_cnt[         22]=                5614
cycle                10000:bit_error_cnt[         23]=                6449
cycle                10000:bit_error_cnt[         24]=                6380
cycle                10000:bit_error_cnt[         25]=                6155
cycle                10000:bit_error_cnt[         26]=                5733
cycle                10000:bit_error_cnt[         27]=                6469
cycle                10000:bit_error_cnt[         28]=                5524
cycle                10000:bit_error_cnt[         29]=                5305
cycle                10000:bit_error_cnt[         30]=                5840
cycle                10000:bit_error_cnt[         31]=                5001
cycle                10000:bit_error_cnt[         32]=                6537
cycle                10000:bit_error_cnt[         33]=                6113
