cycle                10000:bit_error_cnt[          0]=                   1
cycle                10000:bit_error_cnt[          1]=                   1
cycle                10000:bit_error_cnt[          2]=                   1
cycle                10000:bit_error_cnt[          3]=                   1
cycle                10000:bit_error_cnt[          4]=                   1
cycle                10000:bit_error_cnt[          5]=                 725
cycle                10000:bit_error_cnt[          6]=                1229
cycle                10000:bit_error_cnt[          7]=                4203
cycle                10000:bit_error_cnt[          8]=                3314
cycle                10000:bit_error_cnt[          9]=                2906
cycle                10000:bit_error_cnt[         10]=                4196
cycle                10000:bit_error_cnt[         11]=                4249
cycle                10000:bit_error_cnt[         12]=                4338
cycle                10000:bit_error_cnt[         13]=                3963
cycle                10000:bit_error_cnt[         14]=                4149
cycle                10000:bit_error_cnt[         15]=                4075
cycle                10000:bit_error_cnt[         16]=                3709
cycle                10000:bit_error_cnt[         17]=                2313
cycle                10000:bit_error_cnt[         18]=                3499
cycle                10000:bit_error_cnt[         19]=                2994
cycle                10000:bit_error_cnt[         20]=                3092
cycle                10000:bit_error_cnt[         21]=                3277
cycle                10000:bit_error_cnt[         22]=                2905
cycle                10000:bit_error_cnt[         23]=                3662
cycle                10000:bit_error_cnt[         24]=                4236
cycle                10000:bit_error_cnt[         25]=                3915
cycle                10000:bit_error_cnt[         26]=                4158
cycle                10000:bit_error_cnt[         27]=                3500
cycle                10000:bit_error_cnt[         28]=                4347
cycle                10000:bit_error_cnt[         29]=                4086
cycle                10000:bit_error_cnt[         30]=                4390
cycle                10000:bit_error_cnt[         31]=                4119
cycle                10000:bit_error_cnt[         32]=                2833
cycle                10000:bit_error_cnt[         33]=                   1
cycle                10000:bit_error_cnt[         34]=                   1
cycle                10000:bit_error_cnt[         35]=                   1
cycle                10000:bit_error_cnt[         36]=                 743
cycle                10000:bit_error_cnt[         37]=                 862
cycle                10000:bit_error_cnt[         38]=                 885
cycle                10000:bit_error_cnt[         39]=                3206
cycle                10000:bit_error_cnt[         40]=                1706
cycle                10000:bit_error_cnt[         41]=                3160
cycle                10000:bit_error_cnt[         42]=                3328
cycle                10000:bit_error_cnt[         43]=                1517
cycle                10000:bit_error_cnt[         44]=                4567
cycle                10000:bit_error_cnt[         45]=                4937
cycle                10000:bit_error_cnt[         46]=                4646
cycle                10000:bit_error_cnt[         47]=                4778
cycle                10000:bit_error_cnt[         48]=                4934
cycle                10000:bit_error_cnt[         49]=                4946
cycle                10000:bit_error_cnt[         50]=                5012
cycle                10000:bit_error_cnt[         51]=                4979
cycle                10000:bit_error_cnt[         52]=                5014
cycle                10000:bit_error_cnt[         53]=                4904
cycle                10000:bit_error_cnt[         54]=                5120
cycle                10000:bit_error_cnt[         55]=                4987
cycle                10000:bit_error_cnt[         56]=                4926
cycle                10000:bit_error_cnt[         57]=                5064
cycle                10000:bit_error_cnt[         58]=                4961
cycle                10000:bit_error_cnt[         59]=                4999
cycle                10000:bit_error_cnt[         60]=                4962
cycle                10000:bit_error_cnt[         61]=                4928
cycle                10000:bit_error_cnt[         62]=                4975
cycle                10000:bit_error_cnt[         63]=                5041
cycle                10000:bit_error_cnt[         64]=                4947
cycle                10000:bit_error_cnt[         65]=                5026
cycle                10000:bit_error_cnt[         66]=                4891
cycle                10000:bit_error_cnt[         67]=                4842
cycle                10000:bit_error_cnt[         68]=                4871
cycle                10000:bit_error_cnt[         69]=                4528
cycle                10000:bit_error_cnt[         70]=                4188
cycle                10000:bit_error_cnt[         71]=                4807
cycle                10000:bit_error_cnt[         72]=                4585
cycle                10000:bit_error_cnt[         73]=                4088
cycle                10000:bit_error_cnt[         74]=                   1
cycle                10000:bit_error_cnt[         75]=                   1
cycle                10000:bit_error_cnt[         76]=                   1
cycle                10000:bit_error_cnt[         77]=                   1
cycle                10000:bit_error_cnt[         78]=                 339
cycle                10000:bit_error_cnt[         79]=                 743
cycle                10000:bit_error_cnt[         80]=                 984
cycle                10000:bit_error_cnt[         81]=                1059
cycle                10000:bit_error_cnt[         82]=                 466
cycle                10000:bit_error_cnt[         83]=                   0
cycle                10000:bit_error_cnt[         84]=                   1
cycle                10000:bit_error_cnt[         85]=                   0
cycle                10000:bit_error_cnt[         86]=                   0
cycle                10000:bit_error_cnt[         87]=                   0
cycle                10000:bit_error_cnt[         88]=                   0
cycle                10000:bit_error_cnt[         89]=                   0
cycle                10000:bit_error_cnt[         90]=                   0
cycle                10000:bit_error_cnt[         91]=                   0
cycle                10000:bit_error_cnt[         92]=                   0
cycle                10000:bit_error_cnt[         93]=                   0
cycle                10000:bit_error_cnt[         94]=                   0
