cycle                10000:bit_error_cnt[          0]=                   4
cycle                10000:bit_error_cnt[          1]=                   4
cycle                10000:bit_error_cnt[          2]=                   4
cycle                10000:bit_error_cnt[          3]=                5774
cycle                10000:bit_error_cnt[          4]=                   0
cycle                10000:bit_error_cnt[          5]=                   0
cycle                10000:bit_error_cnt[          6]=                   0
cycle                10000:bit_error_cnt[          7]=                   0
cycle                10000:bit_error_cnt[          8]=                   0
cycle                10000:bit_error_cnt[          9]=                   0
cycle                10000:bit_error_cnt[         10]=                   0
cycle                10000:bit_error_cnt[         11]=                   0
cycle                10000:bit_error_cnt[         12]=                   0
cycle                10000:bit_error_cnt[         13]=                   0
cycle                10000:bit_error_cnt[         14]=                   0
cycle                10000:bit_error_cnt[         15]=                   0
cycle                10000:bit_error_cnt[         16]=                   0
cycle                10000:bit_error_cnt[         17]=                   0
cycle                10000:bit_error_cnt[         18]=                   0
cycle                10000:bit_error_cnt[         19]=                   0
cycle                10000:bit_error_cnt[         20]=                   0
cycle                10000:bit_error_cnt[         21]=                   0
cycle                10000:bit_error_cnt[         22]=                   0
cycle                10000:bit_error_cnt[         23]=                   0
cycle                10000:bit_error_cnt[         24]=                   0
cycle                10000:bit_error_cnt[         25]=                   0
cycle                10000:bit_error_cnt[         26]=                   0
cycle                10000:bit_error_cnt[         27]=                   0
cycle                10000:bit_error_cnt[         28]=                   0
cycle                10000:bit_error_cnt[         29]=                   0
cycle                10000:bit_error_cnt[         30]=                   0
cycle                10000:bit_error_cnt[         31]=                   0
cycle                10000:bit_error_cnt[         32]=                   0
cycle                10000:bit_error_cnt[         33]=                   0
cycle                10000:bit_error_cnt[         34]=                   0
cycle                10000:bit_error_cnt[         35]=                   0
cycle                10000:bit_error_cnt[         36]=                   0
cycle                10000:bit_error_cnt[         37]=                6345
cycle                10000:bit_error_cnt[         38]=                6573
cycle                10000:bit_error_cnt[         39]=                6375
cycle                10000:bit_error_cnt[         40]=                6309
cycle                10000:bit_error_cnt[         41]=                6342
cycle                10000:bit_error_cnt[         42]=                6125
cycle                10000:bit_error_cnt[         43]=                6171
cycle                10000:bit_error_cnt[         44]=                6046
cycle                10000:bit_error_cnt[         45]=                6070
cycle                10000:bit_error_cnt[         46]=                5701
cycle                10000:bit_error_cnt[         47]=                5361
cycle                10000:bit_error_cnt[         48]=                5166
cycle                10000:bit_error_cnt[         49]=                4763
cycle                10000:bit_error_cnt[         50]=                4472
cycle                10000:bit_error_cnt[         51]=                4765
cycle                10000:bit_error_cnt[         52]=                4408
cycle                10000:bit_error_cnt[         53]=                3900
cycle                10000:bit_error_cnt[         54]=                3912
cycle                10000:bit_error_cnt[         55]=                3635
cycle                10000:bit_error_cnt[         56]=                3348
cycle                10000:bit_error_cnt[         57]=                2730
cycle                10000:bit_error_cnt[         58]=                2293
cycle                10000:bit_error_cnt[         59]=                2008
cycle                10000:bit_error_cnt[         60]=                2004
cycle                10000:bit_error_cnt[         61]=                1010
cycle                10000:bit_error_cnt[         62]=                 496
cycle                10000:bit_error_cnt[         63]=                 249
cycle                10000:bit_error_cnt[         64]=                 279
cycle                10000:bit_error_cnt[         65]=                 234
cycle                10000:bit_error_cnt[         66]=                 179
cycle                10000:bit_error_cnt[         67]=                 485
cycle                10000:bit_error_cnt[         68]=                 554
cycle                10000:bit_error_cnt[         69]=                 409
