cycle                10000:bit_error_cnt[          0]=                2501
cycle                10000:bit_error_cnt[          1]=                  64
cycle                10000:bit_error_cnt[          2]=                 113
cycle                10000:bit_error_cnt[          3]=                   0
cycle                10000:bit_error_cnt[          4]=                1468
cycle                10000:bit_error_cnt[          5]=                3697
cycle                10000:bit_error_cnt[          6]=                6203
cycle                10000:bit_error_cnt[          7]=                6071
cycle                10000:bit_error_cnt[          8]=                6793
cycle                10000:bit_error_cnt[          9]=                7101
cycle                10000:bit_error_cnt[         10]=                7212
cycle                10000:bit_error_cnt[         11]=                5462
cycle                10000:bit_error_cnt[         12]=                5863
cycle                10000:bit_error_cnt[         13]=                7007
cycle                10000:bit_error_cnt[         14]=                6369
cycle                10000:bit_error_cnt[         15]=                5724
cycle                10000:bit_error_cnt[         16]=                5866
cycle                10000:bit_error_cnt[         17]=                5696
cycle                10000:bit_error_cnt[         18]=                5979
cycle                10000:bit_error_cnt[         19]=                6200
cycle                10000:bit_error_cnt[         20]=                5929
cycle                10000:bit_error_cnt[         21]=                6090
cycle                10000:bit_error_cnt[         22]=                6504
cycle                10000:bit_error_cnt[         23]=                6467
cycle                10000:bit_error_cnt[         24]=                6458
cycle                10000:bit_error_cnt[         25]=                6459
cycle                10000:bit_error_cnt[         26]=                6187
cycle                10000:bit_error_cnt[         27]=                6129
cycle                10000:bit_error_cnt[         28]=                6440
cycle                10000:bit_error_cnt[         29]=                6894
cycle                10000:bit_error_cnt[         30]=                6822
cycle                10000:bit_error_cnt[         31]=                6588
cycle                10000:bit_error_cnt[         32]=                6374
cycle                10000:bit_error_cnt[         33]=                6349
cycle                10000:bit_error_cnt[         34]=                6309
cycle                10000:bit_error_cnt[         35]=                6007
cycle                10000:bit_error_cnt[         36]=                6289
cycle                10000:bit_error_cnt[         37]=                5947
cycle                10000:bit_error_cnt[         38]=                5454
cycle                10000:bit_error_cnt[         39]=                5294
cycle                10000:bit_error_cnt[         40]=                5903
cycle                10000:bit_error_cnt[         41]=                5353
cycle                10000:bit_error_cnt[         42]=                5301
cycle                10000:bit_error_cnt[         43]=                5862
cycle                10000:bit_error_cnt[         44]=                5334
cycle                10000:bit_error_cnt[         45]=                5242
cycle                10000:bit_error_cnt[         46]=                5212
cycle                10000:bit_error_cnt[         47]=                5167
cycle                10000:bit_error_cnt[         48]=                6947
cycle                10000:bit_error_cnt[         49]=                5560
cycle                10000:bit_error_cnt[         50]=                5180
cycle                10000:bit_error_cnt[         51]=                6129
cycle                10000:bit_error_cnt[         52]=                6440
cycle                10000:bit_error_cnt[         53]=                6894
cycle                10000:bit_error_cnt[         54]=                6822
cycle                10000:bit_error_cnt[         55]=                6588
cycle                10000:bit_error_cnt[         56]=                6374
cycle                10000:bit_error_cnt[         57]=                6349
cycle                10000:bit_error_cnt[         58]=                6309
cycle                10000:bit_error_cnt[         59]=                6007
cycle                10000:bit_error_cnt[         60]=                6289
cycle                10000:bit_error_cnt[         61]=                5947
cycle                10000:bit_error_cnt[         62]=                5454
cycle                10000:bit_error_cnt[         63]=                5294
cycle                10000:bit_error_cnt[         64]=                5903
cycle                10000:bit_error_cnt[         65]=                5353
cycle                10000:bit_error_cnt[         66]=                5301
cycle                10000:bit_error_cnt[         67]=                5862
cycle                10000:bit_error_cnt[         68]=                5334
cycle                10000:bit_error_cnt[         69]=                5242
cycle                10000:bit_error_cnt[         70]=                5212
cycle                10000:bit_error_cnt[         71]=                5167
cycle                10000:bit_error_cnt[         72]=                6947
cycle                10000:bit_error_cnt[         73]=                5560
cycle                10000:bit_error_cnt[         74]=                5180
cycle                10000:bit_error_cnt[         75]=                5097
cycle                10000:bit_error_cnt[         76]=                6026
cycle                10000:bit_error_cnt[         77]=                6353
cycle                10000:bit_error_cnt[         78]=                6043
cycle                10000:bit_error_cnt[         79]=                5396
cycle                10000:bit_error_cnt[         80]=                5316
cycle                10000:bit_error_cnt[         81]=                5259
cycle                10000:bit_error_cnt[         82]=                6603
cycle                10000:bit_error_cnt[         83]=                6785
cycle                10000:bit_error_cnt[         84]=                2985
