cycle                10000:bit_error_cnt[          0]=                   4
cycle                10000:bit_error_cnt[          1]=                   4
cycle                10000:bit_error_cnt[          2]=                   4
cycle                10000:bit_error_cnt[          3]=                4055
cycle                10000:bit_error_cnt[          4]=                   0
cycle                10000:bit_error_cnt[          5]=                   0
cycle                10000:bit_error_cnt[          6]=                   0
cycle                10000:bit_error_cnt[          7]=                   0
cycle                10000:bit_error_cnt[          8]=                   0
cycle                10000:bit_error_cnt[          9]=                   0
cycle                10000:bit_error_cnt[         10]=                   0
cycle                10000:bit_error_cnt[         11]=                   0
cycle                10000:bit_error_cnt[         12]=                   0
cycle                10000:bit_error_cnt[         13]=                   0
cycle                10000:bit_error_cnt[         14]=                   0
cycle                10000:bit_error_cnt[         15]=                   0
cycle                10000:bit_error_cnt[         16]=                   0
cycle                10000:bit_error_cnt[         17]=                   0
cycle                10000:bit_error_cnt[         18]=                   0
cycle                10000:bit_error_cnt[         19]=                   0
cycle                10000:bit_error_cnt[         20]=                   0
cycle                10000:bit_error_cnt[         21]=                   0
cycle                10000:bit_error_cnt[         22]=                   0
cycle                10000:bit_error_cnt[         23]=                   0
cycle                10000:bit_error_cnt[         24]=                   0
cycle                10000:bit_error_cnt[         25]=                   0
cycle                10000:bit_error_cnt[         26]=                   0
cycle                10000:bit_error_cnt[         27]=                   0
cycle                10000:bit_error_cnt[         28]=                   0
cycle                10000:bit_error_cnt[         29]=                   0
cycle                10000:bit_error_cnt[         30]=                   0
cycle                10000:bit_error_cnt[         31]=                   0
cycle                10000:bit_error_cnt[         32]=                   0
cycle                10000:bit_error_cnt[         33]=                   0
cycle                10000:bit_error_cnt[         34]=                   0
cycle                10000:bit_error_cnt[         35]=                   0
cycle                10000:bit_error_cnt[         36]=                   0
cycle                10000:bit_error_cnt[         37]=                4973
cycle                10000:bit_error_cnt[         38]=                5632
cycle                10000:bit_error_cnt[         39]=                5232
cycle                10000:bit_error_cnt[         40]=                4656
cycle                10000:bit_error_cnt[         41]=                4598
cycle                10000:bit_error_cnt[         42]=                4496
cycle                10000:bit_error_cnt[         43]=                4842
cycle                10000:bit_error_cnt[         44]=                4769
cycle                10000:bit_error_cnt[         45]=                4545
cycle                10000:bit_error_cnt[         46]=                4339
cycle                10000:bit_error_cnt[         47]=                4063
cycle                10000:bit_error_cnt[         48]=                3918
cycle                10000:bit_error_cnt[         49]=                3279
cycle                10000:bit_error_cnt[         50]=                2970
cycle                10000:bit_error_cnt[         51]=                3213
cycle                10000:bit_error_cnt[         52]=                2838
cycle                10000:bit_error_cnt[         53]=                2505
cycle                10000:bit_error_cnt[         54]=                2462
cycle                10000:bit_error_cnt[         55]=                2281
cycle                10000:bit_error_cnt[         56]=                2072
cycle                10000:bit_error_cnt[         57]=                1646
cycle                10000:bit_error_cnt[         58]=                1045
cycle                10000:bit_error_cnt[         59]=                 605
cycle                10000:bit_error_cnt[         60]=                 979
cycle                10000:bit_error_cnt[         61]=                 494
cycle                10000:bit_error_cnt[         62]=                 254
cycle                10000:bit_error_cnt[         63]=                 123
cycle                10000:bit_error_cnt[         64]=                 154
cycle                10000:bit_error_cnt[         65]=                 208
cycle                10000:bit_error_cnt[         66]=                 143
cycle                10000:bit_error_cnt[         67]=                 238
cycle                10000:bit_error_cnt[         68]=                 217
cycle                10000:bit_error_cnt[         69]=                 179
