cycle                10000:bit_error_cnt[          0]=                   3
cycle                10000:bit_error_cnt[          1]=                   3
cycle                10000:bit_error_cnt[          2]=                   3
cycle                10000:bit_error_cnt[          3]=                   0
cycle                10000:bit_error_cnt[          4]=                   6
cycle                10000:bit_error_cnt[          5]=                  10
cycle                10000:bit_error_cnt[          6]=                  12
cycle                10000:bit_error_cnt[          7]=                  14
cycle                10000:bit_error_cnt[          8]=                  12
cycle                10000:bit_error_cnt[          9]=                  13
cycle                10000:bit_error_cnt[         10]=                  15
cycle                10000:bit_error_cnt[         11]=                  14
cycle                10000:bit_error_cnt[         12]=                  16
cycle                10000:bit_error_cnt[         13]=                  16
cycle                10000:bit_error_cnt[         14]=                  16
cycle                10000:bit_error_cnt[         15]=                  25
cycle                10000:bit_error_cnt[         16]=                  45
cycle                10000:bit_error_cnt[         17]=                  82
cycle                10000:bit_error_cnt[         18]=                  72
cycle                10000:bit_error_cnt[         19]=                  42
cycle                10000:bit_error_cnt[         20]=                  28
cycle                10000:bit_error_cnt[         21]=                  23
cycle                10000:bit_error_cnt[         22]=                  27
cycle                10000:bit_error_cnt[         23]=                  32
cycle                10000:bit_error_cnt[         24]=                  25
cycle                10000:bit_error_cnt[         25]=                  59
cycle                10000:bit_error_cnt[         26]=                  57
cycle                10000:bit_error_cnt[         27]=                  30
cycle                10000:bit_error_cnt[         28]=                  56
cycle                10000:bit_error_cnt[         29]=                 178
cycle                10000:bit_error_cnt[         30]=                 154
cycle                10000:bit_error_cnt[         31]=                  63
cycle                10000:bit_error_cnt[         32]=                  74
cycle                10000:bit_error_cnt[         33]=                  90
cycle                10000:bit_error_cnt[         34]=                  62
cycle                10000:bit_error_cnt[         35]=                  68
cycle                10000:bit_error_cnt[         36]=                  84
cycle                10000:bit_error_cnt[         37]=                  80
cycle                10000:bit_error_cnt[         38]=                  45
cycle                10000:bit_error_cnt[         39]=                  34
cycle                10000:bit_error_cnt[         40]=                  37
cycle                10000:bit_error_cnt[         41]=                  42
cycle                10000:bit_error_cnt[         42]=                  36
cycle                10000:bit_error_cnt[         43]=                  38
cycle                10000:bit_error_cnt[         44]=                  39
cycle                10000:bit_error_cnt[         45]=                  34
cycle                10000:bit_error_cnt[         46]=                  20
cycle                10000:bit_error_cnt[         47]=                  53
cycle                10000:bit_error_cnt[         48]=                  59
cycle                10000:bit_error_cnt[         49]=                  26
cycle                10000:bit_error_cnt[         50]=                  11
cycle                10000:bit_error_cnt[         51]=                  30
cycle                10000:bit_error_cnt[         52]=                  56
cycle                10000:bit_error_cnt[         53]=                 178
cycle                10000:bit_error_cnt[         54]=                 154
cycle                10000:bit_error_cnt[         55]=                  63
cycle                10000:bit_error_cnt[         56]=                  74
cycle                10000:bit_error_cnt[         57]=                  90
cycle                10000:bit_error_cnt[         58]=                  62
cycle                10000:bit_error_cnt[         59]=                  68
cycle                10000:bit_error_cnt[         60]=                  84
cycle                10000:bit_error_cnt[         61]=                  80
cycle                10000:bit_error_cnt[         62]=                  45
cycle                10000:bit_error_cnt[         63]=                  34
cycle                10000:bit_error_cnt[         64]=                  37
cycle                10000:bit_error_cnt[         65]=                  42
cycle                10000:bit_error_cnt[         66]=                  36
cycle                10000:bit_error_cnt[         67]=                  38
cycle                10000:bit_error_cnt[         68]=                  39
cycle                10000:bit_error_cnt[         69]=                  34
cycle                10000:bit_error_cnt[         70]=                  20
cycle                10000:bit_error_cnt[         71]=                  53
cycle                10000:bit_error_cnt[         72]=                  59
cycle                10000:bit_error_cnt[         73]=                  26
cycle                10000:bit_error_cnt[         74]=                  11
cycle                10000:bit_error_cnt[         75]=                  22
cycle                10000:bit_error_cnt[         76]=                  14
cycle                10000:bit_error_cnt[         77]=                 882
cycle                10000:bit_error_cnt[         78]=                 400
cycle                10000:bit_error_cnt[         79]=                 561
cycle                10000:bit_error_cnt[         80]=                 327
cycle                10000:bit_error_cnt[         81]=                 143
cycle                10000:bit_error_cnt[         82]=                  97
cycle                10000:bit_error_cnt[         83]=                  78
cycle                10000:bit_error_cnt[         84]=                  36
