cycle                10000:bit_error_cnt[          0]=                 635
cycle                10000:bit_error_cnt[          1]=                   3
cycle                10000:bit_error_cnt[          2]=                   3
cycle                10000:bit_error_cnt[          3]=                   0
cycle                10000:bit_error_cnt[          4]=                1079
cycle                10000:bit_error_cnt[          5]=                1687
cycle                10000:bit_error_cnt[          6]=                2203
cycle                10000:bit_error_cnt[          7]=                2864
cycle                10000:bit_error_cnt[          8]=                3378
cycle                10000:bit_error_cnt[          9]=                4490
cycle                10000:bit_error_cnt[         10]=                4923
cycle                10000:bit_error_cnt[         11]=                5322
cycle                10000:bit_error_cnt[         12]=                6115
cycle                10000:bit_error_cnt[         13]=                7378
cycle                10000:bit_error_cnt[         14]=                7346
cycle                10000:bit_error_cnt[         15]=                7350
cycle                10000:bit_error_cnt[         16]=                7471
cycle                10000:bit_error_cnt[         17]=                7300
cycle                10000:bit_error_cnt[         18]=                7610
cycle                10000:bit_error_cnt[         19]=                7676
cycle                10000:bit_error_cnt[         20]=                7123
cycle                10000:bit_error_cnt[         21]=                7365
cycle                10000:bit_error_cnt[         22]=                7601
cycle                10000:bit_error_cnt[         23]=                7674
cycle                10000:bit_error_cnt[         24]=                7509
cycle                10000:bit_error_cnt[         25]=                7330
cycle                10000:bit_error_cnt[         26]=                7268
cycle                10000:bit_error_cnt[         27]=                7201
cycle                10000:bit_error_cnt[         28]=                7313
cycle                10000:bit_error_cnt[         29]=                8237
cycle                10000:bit_error_cnt[         30]=                7358
cycle                10000:bit_error_cnt[         31]=                7448
cycle                10000:bit_error_cnt[         32]=                7394
cycle                10000:bit_error_cnt[         33]=                7182
cycle                10000:bit_error_cnt[         34]=                6989
cycle                10000:bit_error_cnt[         35]=                6979
cycle                10000:bit_error_cnt[         36]=                6975
cycle                10000:bit_error_cnt[         37]=                6519
cycle                10000:bit_error_cnt[         38]=                5945
cycle                10000:bit_error_cnt[         39]=                5855
cycle                10000:bit_error_cnt[         40]=                6093
cycle                10000:bit_error_cnt[         41]=                5876
cycle                10000:bit_error_cnt[         42]=                5994
cycle                10000:bit_error_cnt[         43]=                6232
cycle                10000:bit_error_cnt[         44]=                5813
cycle                10000:bit_error_cnt[         45]=                5535
cycle                10000:bit_error_cnt[         46]=                5519
cycle                10000:bit_error_cnt[         47]=                5297
cycle                10000:bit_error_cnt[         48]=                5124
cycle                10000:bit_error_cnt[         49]=                5255
cycle                10000:bit_error_cnt[         50]=                4936
cycle                10000:bit_error_cnt[         51]=                7201
cycle                10000:bit_error_cnt[         52]=                7313
cycle                10000:bit_error_cnt[         53]=                8237
cycle                10000:bit_error_cnt[         54]=                7358
cycle                10000:bit_error_cnt[         55]=                7448
cycle                10000:bit_error_cnt[         56]=                7394
cycle                10000:bit_error_cnt[         57]=                7182
cycle                10000:bit_error_cnt[         58]=                6989
cycle                10000:bit_error_cnt[         59]=                6979
cycle                10000:bit_error_cnt[         60]=                6975
cycle                10000:bit_error_cnt[         61]=                6519
cycle                10000:bit_error_cnt[         62]=                5945
cycle                10000:bit_error_cnt[         63]=                5855
cycle                10000:bit_error_cnt[         64]=                6093
cycle                10000:bit_error_cnt[         65]=                5876
cycle                10000:bit_error_cnt[         66]=                5994
cycle                10000:bit_error_cnt[         67]=                6232
cycle                10000:bit_error_cnt[         68]=                5813
cycle                10000:bit_error_cnt[         69]=                5535
cycle                10000:bit_error_cnt[         70]=                5519
cycle                10000:bit_error_cnt[         71]=                5297
cycle                10000:bit_error_cnt[         72]=                5124
cycle                10000:bit_error_cnt[         73]=                5255
cycle                10000:bit_error_cnt[         74]=                4936
cycle                10000:bit_error_cnt[         75]=                5202
cycle                10000:bit_error_cnt[         76]=                2928
cycle                10000:bit_error_cnt[         77]=                5089
cycle                10000:bit_error_cnt[         78]=                1157
cycle                10000:bit_error_cnt[         79]=                5566
cycle                10000:bit_error_cnt[         80]=                1967
cycle                10000:bit_error_cnt[         81]=                1539
cycle                10000:bit_error_cnt[         82]=                2194
cycle                10000:bit_error_cnt[         83]=                1961
cycle                10000:bit_error_cnt[         84]=                1433
