cycle                10000:bit_error_cnt[          0]=                   2
cycle                10000:bit_error_cnt[          1]=                   2
cycle                10000:bit_error_cnt[          2]=                   0
cycle                10000:bit_error_cnt[          3]=                2376
cycle                10000:bit_error_cnt[          4]=                3998
cycle                10000:bit_error_cnt[          5]=                5138
cycle                10000:bit_error_cnt[          6]=                5846
cycle                10000:bit_error_cnt[          7]=                5653
cycle                10000:bit_error_cnt[          8]=                5626
cycle                10000:bit_error_cnt[          9]=                5530
cycle                10000:bit_error_cnt[         10]=                5511
cycle                10000:bit_error_cnt[         11]=                5710
cycle                10000:bit_error_cnt[         12]=                6106
cycle                10000:bit_error_cnt[         13]=                6337
cycle                10000:bit_error_cnt[         14]=                6574
cycle                10000:bit_error_cnt[         15]=                6516
cycle                10000:bit_error_cnt[         16]=                6800
cycle                10000:bit_error_cnt[         17]=                6274
cycle                10000:bit_error_cnt[         18]=                6551
cycle                10000:bit_error_cnt[         19]=                6616
cycle                10000:bit_error_cnt[         20]=                6915
cycle                10000:bit_error_cnt[         21]=                7064
cycle                10000:bit_error_cnt[         22]=                7101
cycle                10000:bit_error_cnt[         23]=                7228
cycle                10000:bit_error_cnt[         24]=                7018
cycle                10000:bit_error_cnt[         25]=                6729
cycle                10000:bit_error_cnt[         26]=                6458
cycle                10000:bit_error_cnt[         27]=                6450
cycle                10000:bit_error_cnt[         28]=                6872
cycle                10000:bit_error_cnt[         29]=                6595
cycle                10000:bit_error_cnt[         30]=                6594
cycle                10000:bit_error_cnt[         31]=                6214
cycle                10000:bit_error_cnt[         32]=                6464
cycle                10000:bit_error_cnt[         33]=                6215
cycle                10000:bit_error_cnt[         34]=                6253
cycle                10000:bit_error_cnt[         35]=                6135
cycle                10000:bit_error_cnt[         36]=                5817
cycle                10000:bit_error_cnt[         37]=                5618
cycle                10000:bit_error_cnt[         38]=                5590
cycle                10000:bit_error_cnt[         39]=                5712
cycle                10000:bit_error_cnt[         40]=                5713
cycle                10000:bit_error_cnt[         41]=                5710
cycle                10000:bit_error_cnt[         42]=                6029
cycle                10000:bit_error_cnt[         43]=                5781
cycle                10000:bit_error_cnt[         44]=                5561
cycle                10000:bit_error_cnt[         45]=                5585
cycle                10000:bit_error_cnt[         46]=                5505
cycle                10000:bit_error_cnt[         47]=                5529
cycle                10000:bit_error_cnt[         48]=                5433
cycle                10000:bit_error_cnt[         49]=                5360
cycle                10000:bit_error_cnt[         50]=                4630
cycle                10000:bit_error_cnt[         51]=                   2
cycle                10000:bit_error_cnt[         52]=                   2
cycle                10000:bit_error_cnt[         53]=                3119
cycle                10000:bit_error_cnt[         54]=                2804
cycle                10000:bit_error_cnt[         55]=                5193
cycle                10000:bit_error_cnt[         56]=                4274
cycle                10000:bit_error_cnt[         57]=                5985
cycle                10000:bit_error_cnt[         58]=                4338
cycle                10000:bit_error_cnt[         59]=                5542
cycle                10000:bit_error_cnt[         60]=                5586
cycle                10000:bit_error_cnt[         61]=                2060
