cycle                10000:bit_error_cnt[          0]=                   4
cycle                10000:bit_error_cnt[          1]=                   4
cycle                10000:bit_error_cnt[          2]=                   4
cycle                10000:bit_error_cnt[          3]=                7172
cycle                10000:bit_error_cnt[          4]=                   0
cycle                10000:bit_error_cnt[          5]=                   0
cycle                10000:bit_error_cnt[          6]=                   0
cycle                10000:bit_error_cnt[          7]=                   0
cycle                10000:bit_error_cnt[          8]=                   0
cycle                10000:bit_error_cnt[          9]=                   0
cycle                10000:bit_error_cnt[         10]=                   0
cycle                10000:bit_error_cnt[         11]=                   0
cycle                10000:bit_error_cnt[         12]=                   0
cycle                10000:bit_error_cnt[         13]=                   0
cycle                10000:bit_error_cnt[         14]=                   0
cycle                10000:bit_error_cnt[         15]=                   0
cycle                10000:bit_error_cnt[         16]=                   0
cycle                10000:bit_error_cnt[         17]=                   0
cycle                10000:bit_error_cnt[         18]=                   0
cycle                10000:bit_error_cnt[         19]=                   0
cycle                10000:bit_error_cnt[         20]=                   0
cycle                10000:bit_error_cnt[         21]=                   0
cycle                10000:bit_error_cnt[         22]=                   0
cycle                10000:bit_error_cnt[         23]=                   0
cycle                10000:bit_error_cnt[         24]=                   0
cycle                10000:bit_error_cnt[         25]=                   0
cycle                10000:bit_error_cnt[         26]=                   0
cycle                10000:bit_error_cnt[         27]=                   0
cycle                10000:bit_error_cnt[         28]=                   0
cycle                10000:bit_error_cnt[         29]=                   0
cycle                10000:bit_error_cnt[         30]=                   0
cycle                10000:bit_error_cnt[         31]=                   0
cycle                10000:bit_error_cnt[         32]=                   0
cycle                10000:bit_error_cnt[         33]=                   0
cycle                10000:bit_error_cnt[         34]=                   0
cycle                10000:bit_error_cnt[         35]=                   0
cycle                10000:bit_error_cnt[         36]=                   0
cycle                10000:bit_error_cnt[         37]=                7406
cycle                10000:bit_error_cnt[         38]=                8051
cycle                10000:bit_error_cnt[         39]=                7526
cycle                10000:bit_error_cnt[         40]=                7288
cycle                10000:bit_error_cnt[         41]=                7326
cycle                10000:bit_error_cnt[         42]=                7171
cycle                10000:bit_error_cnt[         43]=                7177
cycle                10000:bit_error_cnt[         44]=                7039
cycle                10000:bit_error_cnt[         45]=                7102
cycle                10000:bit_error_cnt[         46]=                6726
cycle                10000:bit_error_cnt[         47]=                5951
cycle                10000:bit_error_cnt[         48]=                5856
cycle                10000:bit_error_cnt[         49]=                6113
cycle                10000:bit_error_cnt[         50]=                5879
cycle                10000:bit_error_cnt[         51]=                6005
cycle                10000:bit_error_cnt[         52]=                6236
cycle                10000:bit_error_cnt[         53]=                5812
cycle                10000:bit_error_cnt[         54]=                5466
cycle                10000:bit_error_cnt[         55]=                5516
cycle                10000:bit_error_cnt[         56]=                5182
cycle                10000:bit_error_cnt[         57]=                4859
cycle                10000:bit_error_cnt[         58]=                5149
cycle                10000:bit_error_cnt[         59]=                4858
cycle                10000:bit_error_cnt[         60]=                4134
cycle                10000:bit_error_cnt[         61]=                2034
cycle                10000:bit_error_cnt[         62]=                1002
cycle                10000:bit_error_cnt[         63]=                 510
cycle                10000:bit_error_cnt[         64]=                1968
cycle                10000:bit_error_cnt[         65]=                1671
cycle                10000:bit_error_cnt[         66]=                1185
cycle                10000:bit_error_cnt[         67]=                1336
cycle                10000:bit_error_cnt[         68]=                 942
cycle                10000:bit_error_cnt[         69]=                 438
