cycle                10000:bit_error_cnt[          0]=                6549
cycle                10000:bit_error_cnt[          1]=                 108
cycle                10000:bit_error_cnt[          2]=                 182
cycle                10000:bit_error_cnt[          3]=                8513
cycle                10000:bit_error_cnt[          4]=                   0
cycle                10000:bit_error_cnt[          5]=                   0
cycle                10000:bit_error_cnt[          6]=                   0
cycle                10000:bit_error_cnt[          7]=                   0
cycle                10000:bit_error_cnt[          8]=                   0
cycle                10000:bit_error_cnt[          9]=                   0
cycle                10000:bit_error_cnt[         10]=                   0
cycle                10000:bit_error_cnt[         11]=                   0
cycle                10000:bit_error_cnt[         12]=                   0
cycle                10000:bit_error_cnt[         13]=                   0
cycle                10000:bit_error_cnt[         14]=                   0
cycle                10000:bit_error_cnt[         15]=                   0
cycle                10000:bit_error_cnt[         16]=                   0
cycle                10000:bit_error_cnt[         17]=                   0
cycle                10000:bit_error_cnt[         18]=                   0
cycle                10000:bit_error_cnt[         19]=                   0
cycle                10000:bit_error_cnt[         20]=                   0
cycle                10000:bit_error_cnt[         21]=                   0
cycle                10000:bit_error_cnt[         22]=                   0
cycle                10000:bit_error_cnt[         23]=                   0
cycle                10000:bit_error_cnt[         24]=                   0
cycle                10000:bit_error_cnt[         25]=                   0
cycle                10000:bit_error_cnt[         26]=                   0
cycle                10000:bit_error_cnt[         27]=                   0
cycle                10000:bit_error_cnt[         28]=                   0
cycle                10000:bit_error_cnt[         29]=                   0
cycle                10000:bit_error_cnt[         30]=                   0
cycle                10000:bit_error_cnt[         31]=                   0
cycle                10000:bit_error_cnt[         32]=                   0
cycle                10000:bit_error_cnt[         33]=                   0
cycle                10000:bit_error_cnt[         34]=                   0
cycle                10000:bit_error_cnt[         35]=                   0
cycle                10000:bit_error_cnt[         36]=                   0
cycle                10000:bit_error_cnt[         37]=                8201
cycle                10000:bit_error_cnt[         38]=                7655
cycle                10000:bit_error_cnt[         39]=                7483
cycle                10000:bit_error_cnt[         40]=                7765
cycle                10000:bit_error_cnt[         41]=                8051
cycle                10000:bit_error_cnt[         42]=                8353
cycle                10000:bit_error_cnt[         43]=                7730
cycle                10000:bit_error_cnt[         44]=                7609
cycle                10000:bit_error_cnt[         45]=                7686
cycle                10000:bit_error_cnt[         46]=                7055
cycle                10000:bit_error_cnt[         47]=                7153
cycle                10000:bit_error_cnt[         48]=                7211
cycle                10000:bit_error_cnt[         49]=                7223
cycle                10000:bit_error_cnt[         50]=                6114
cycle                10000:bit_error_cnt[         51]=                6099
cycle                10000:bit_error_cnt[         52]=                6341
cycle                10000:bit_error_cnt[         53]=                6961
cycle                10000:bit_error_cnt[         54]=                6804
cycle                10000:bit_error_cnt[         55]=                7397
cycle                10000:bit_error_cnt[         56]=                6509
cycle                10000:bit_error_cnt[         57]=                6172
cycle                10000:bit_error_cnt[         58]=                5894
cycle                10000:bit_error_cnt[         59]=                6422
cycle                10000:bit_error_cnt[         60]=                5624
cycle                10000:bit_error_cnt[         61]=                7744
cycle                10000:bit_error_cnt[         62]=                7692
cycle                10000:bit_error_cnt[         63]=                8331
cycle                10000:bit_error_cnt[         64]=                5661
cycle                10000:bit_error_cnt[         65]=                7352
cycle                10000:bit_error_cnt[         66]=                5709
cycle                10000:bit_error_cnt[         67]=                6688
cycle                10000:bit_error_cnt[         68]=                4838
cycle                10000:bit_error_cnt[         69]=                2634
