cycle                10000:bit_error_cnt[          0]=                   3
cycle                10000:bit_error_cnt[          1]=                   3
cycle                10000:bit_error_cnt[          2]=                   3
cycle                10000:bit_error_cnt[          3]=                   0
cycle                10000:bit_error_cnt[          4]=                 971
cycle                10000:bit_error_cnt[          5]=                1523
cycle                10000:bit_error_cnt[          6]=                2023
cycle                10000:bit_error_cnt[          7]=                2315
cycle                10000:bit_error_cnt[          8]=                2475
cycle                10000:bit_error_cnt[          9]=                3876
cycle                10000:bit_error_cnt[         10]=                4335
cycle                10000:bit_error_cnt[         11]=                4901
cycle                10000:bit_error_cnt[         12]=                5816
cycle                10000:bit_error_cnt[         13]=                6881
cycle                10000:bit_error_cnt[         14]=                7588
cycle                10000:bit_error_cnt[         15]=                7014
cycle                10000:bit_error_cnt[         16]=                7120
cycle                10000:bit_error_cnt[         17]=                7201
cycle                10000:bit_error_cnt[         18]=                7200
cycle                10000:bit_error_cnt[         19]=                7419
cycle                10000:bit_error_cnt[         20]=                7245
cycle                10000:bit_error_cnt[         21]=                7183
cycle                10000:bit_error_cnt[         22]=                7616
cycle                10000:bit_error_cnt[         23]=                7912
cycle                10000:bit_error_cnt[         24]=                7540
cycle                10000:bit_error_cnt[         25]=                7064
cycle                10000:bit_error_cnt[         26]=                6989
cycle                10000:bit_error_cnt[         27]=                7073
cycle                10000:bit_error_cnt[         28]=                7371
cycle                10000:bit_error_cnt[         29]=                7726
cycle                10000:bit_error_cnt[         30]=                7131
cycle                10000:bit_error_cnt[         31]=                7315
cycle                10000:bit_error_cnt[         32]=                7370
cycle                10000:bit_error_cnt[         33]=                7257
cycle                10000:bit_error_cnt[         34]=                6967
cycle                10000:bit_error_cnt[         35]=                6759
cycle                10000:bit_error_cnt[         36]=                6975
cycle                10000:bit_error_cnt[         37]=                6678
cycle                10000:bit_error_cnt[         38]=                5962
cycle                10000:bit_error_cnt[         39]=                5761
cycle                10000:bit_error_cnt[         40]=                5969
cycle                10000:bit_error_cnt[         41]=                5814
cycle                10000:bit_error_cnt[         42]=                5892
cycle                10000:bit_error_cnt[         43]=                6067
cycle                10000:bit_error_cnt[         44]=                5666
cycle                10000:bit_error_cnt[         45]=                5351
cycle                10000:bit_error_cnt[         46]=                5333
cycle                10000:bit_error_cnt[         47]=                4860
cycle                10000:bit_error_cnt[         48]=                4648
cycle                10000:bit_error_cnt[         49]=                4807
cycle                10000:bit_error_cnt[         50]=                4688
cycle                10000:bit_error_cnt[         51]=                7073
cycle                10000:bit_error_cnt[         52]=                7371
cycle                10000:bit_error_cnt[         53]=                7726
cycle                10000:bit_error_cnt[         54]=                7131
cycle                10000:bit_error_cnt[         55]=                7315
cycle                10000:bit_error_cnt[         56]=                7370
cycle                10000:bit_error_cnt[         57]=                7257
cycle                10000:bit_error_cnt[         58]=                6967
cycle                10000:bit_error_cnt[         59]=                6759
cycle                10000:bit_error_cnt[         60]=                6975
cycle                10000:bit_error_cnt[         61]=                6678
cycle                10000:bit_error_cnt[         62]=                5962
cycle                10000:bit_error_cnt[         63]=                5761
cycle                10000:bit_error_cnt[         64]=                5969
cycle                10000:bit_error_cnt[         65]=                5814
cycle                10000:bit_error_cnt[         66]=                5892
cycle                10000:bit_error_cnt[         67]=                6067
cycle                10000:bit_error_cnt[         68]=                5666
cycle                10000:bit_error_cnt[         69]=                5351
cycle                10000:bit_error_cnt[         70]=                5333
cycle                10000:bit_error_cnt[         71]=                4860
cycle                10000:bit_error_cnt[         72]=                4648
cycle                10000:bit_error_cnt[         73]=                4807
cycle                10000:bit_error_cnt[         74]=                4688
cycle                10000:bit_error_cnt[         75]=                5147
cycle                10000:bit_error_cnt[         76]=                2765
cycle                10000:bit_error_cnt[         77]=                3592
cycle                10000:bit_error_cnt[         78]=                1172
cycle                10000:bit_error_cnt[         79]=                4224
cycle                10000:bit_error_cnt[         80]=                1403
cycle                10000:bit_error_cnt[         81]=                1317
cycle                10000:bit_error_cnt[         82]=                1280
cycle                10000:bit_error_cnt[         83]=                1063
cycle                10000:bit_error_cnt[         84]=                 696
