cycle                10000:bit_error_cnt[          0]=                   1
cycle                10000:bit_error_cnt[          1]=                   1
cycle                10000:bit_error_cnt[          2]=                   1
cycle                10000:bit_error_cnt[          3]=                   1
cycle                10000:bit_error_cnt[          4]=                   1
cycle                10000:bit_error_cnt[          5]=                   1
cycle                10000:bit_error_cnt[          6]=                   1
cycle                10000:bit_error_cnt[          7]=                1928
cycle                10000:bit_error_cnt[          8]=                 398
cycle                10000:bit_error_cnt[          9]=                   1
cycle                10000:bit_error_cnt[         10]=                1352
cycle                10000:bit_error_cnt[         11]=                1146
cycle                10000:bit_error_cnt[         12]=                1542
cycle                10000:bit_error_cnt[         13]=                1109
cycle                10000:bit_error_cnt[         14]=                1218
cycle                10000:bit_error_cnt[         15]=                1648
cycle                10000:bit_error_cnt[         16]=                1102
cycle                10000:bit_error_cnt[         17]=                 716
cycle                10000:bit_error_cnt[         18]=                 814
cycle                10000:bit_error_cnt[         19]=                 514
cycle                10000:bit_error_cnt[         20]=                 880
cycle                10000:bit_error_cnt[         21]=                1083
cycle                10000:bit_error_cnt[         22]=                 453
cycle                10000:bit_error_cnt[         23]=                1032
cycle                10000:bit_error_cnt[         24]=                1633
cycle                10000:bit_error_cnt[         25]=                1357
cycle                10000:bit_error_cnt[         26]=                1052
cycle                10000:bit_error_cnt[         27]=                 965
cycle                10000:bit_error_cnt[         28]=                1834
cycle                10000:bit_error_cnt[         29]=                1961
cycle                10000:bit_error_cnt[         30]=                2020
cycle                10000:bit_error_cnt[         31]=                2019
cycle                10000:bit_error_cnt[         32]=                1346
cycle                10000:bit_error_cnt[         33]=                   1
cycle                10000:bit_error_cnt[         34]=                   1
cycle                10000:bit_error_cnt[         35]=                   1
cycle                10000:bit_error_cnt[         36]=                   1
cycle                10000:bit_error_cnt[         37]=                   1
cycle                10000:bit_error_cnt[         38]=                   1
cycle                10000:bit_error_cnt[         39]=                 447
cycle                10000:bit_error_cnt[         40]=                   9
cycle                10000:bit_error_cnt[         41]=                 334
cycle                10000:bit_error_cnt[         42]=                 314
cycle                10000:bit_error_cnt[         43]=                   1
cycle                10000:bit_error_cnt[         44]=                1830
cycle                10000:bit_error_cnt[         45]=                2433
cycle                10000:bit_error_cnt[         46]=                1981
cycle                10000:bit_error_cnt[         47]=                2214
cycle                10000:bit_error_cnt[         48]=                3168
cycle                10000:bit_error_cnt[         49]=                3502
cycle                10000:bit_error_cnt[         50]=                4867
cycle                10000:bit_error_cnt[         51]=                4731
cycle                10000:bit_error_cnt[         52]=                4607
cycle                10000:bit_error_cnt[         53]=                4302
cycle                10000:bit_error_cnt[         54]=                4329
cycle                10000:bit_error_cnt[         55]=                4036
cycle                10000:bit_error_cnt[         56]=                4795
cycle                10000:bit_error_cnt[         57]=                4213
cycle                10000:bit_error_cnt[         58]=                4431
cycle                10000:bit_error_cnt[         59]=                4614
cycle                10000:bit_error_cnt[         60]=                4843
cycle                10000:bit_error_cnt[         61]=                4321
cycle                10000:bit_error_cnt[         62]=                4714
cycle                10000:bit_error_cnt[         63]=                4485
cycle                10000:bit_error_cnt[         64]=                4398
cycle                10000:bit_error_cnt[         65]=                4177
cycle                10000:bit_error_cnt[         66]=                3933
cycle                10000:bit_error_cnt[         67]=                4184
cycle                10000:bit_error_cnt[         68]=                3928
cycle                10000:bit_error_cnt[         69]=                3454
cycle                10000:bit_error_cnt[         70]=                2043
cycle                10000:bit_error_cnt[         71]=                3006
cycle                10000:bit_error_cnt[         72]=                3030
cycle                10000:bit_error_cnt[         73]=                2554
cycle                10000:bit_error_cnt[         74]=                   1
cycle                10000:bit_error_cnt[         75]=                   1
cycle                10000:bit_error_cnt[         76]=                   1
cycle                10000:bit_error_cnt[         77]=                   1
cycle                10000:bit_error_cnt[         78]=                   1
cycle                10000:bit_error_cnt[         79]=                 168
cycle                10000:bit_error_cnt[         80]=                 167
cycle                10000:bit_error_cnt[         81]=                 553
cycle                10000:bit_error_cnt[         82]=                 148
cycle                10000:bit_error_cnt[         83]=                   0
cycle                10000:bit_error_cnt[         84]=                   1
cycle                10000:bit_error_cnt[         85]=                   0
cycle                10000:bit_error_cnt[         86]=                   0
cycle                10000:bit_error_cnt[         87]=                   0
cycle                10000:bit_error_cnt[         88]=                   0
cycle                10000:bit_error_cnt[         89]=                   0
cycle                10000:bit_error_cnt[         90]=                   0
cycle                10000:bit_error_cnt[         91]=                   0
cycle                10000:bit_error_cnt[         92]=                   0
cycle                10000:bit_error_cnt[         93]=                   0
cycle                10000:bit_error_cnt[         94]=                   0
