cycle                10000:bit_error_cnt[          0]=                   2
cycle                10000:bit_error_cnt[          1]=                   2
cycle                10000:bit_error_cnt[          2]=                   0
cycle                10000:bit_error_cnt[          3]=                   2
cycle                10000:bit_error_cnt[          4]=                   2
cycle                10000:bit_error_cnt[          5]=                   2
cycle                10000:bit_error_cnt[          6]=                   2
cycle                10000:bit_error_cnt[          7]=                   2
cycle                10000:bit_error_cnt[          8]=                   2
cycle                10000:bit_error_cnt[          9]=                   2
cycle                10000:bit_error_cnt[         10]=                   2
cycle                10000:bit_error_cnt[         11]=                 784
cycle                10000:bit_error_cnt[         12]=                1259
cycle                10000:bit_error_cnt[         13]=                 887
cycle                10000:bit_error_cnt[         14]=                 257
cycle                10000:bit_error_cnt[         15]=                 224
cycle                10000:bit_error_cnt[         16]=                 680
cycle                10000:bit_error_cnt[         17]=                 537
cycle                10000:bit_error_cnt[         18]=                2367
cycle                10000:bit_error_cnt[         19]=                1423
cycle                10000:bit_error_cnt[         20]=                1060
cycle                10000:bit_error_cnt[         21]=                1647
cycle                10000:bit_error_cnt[         22]=                1569
cycle                10000:bit_error_cnt[         23]=                1259
cycle                10000:bit_error_cnt[         24]=                 858
cycle                10000:bit_error_cnt[         25]=                 275
cycle                10000:bit_error_cnt[         26]=                 159
cycle                10000:bit_error_cnt[         27]=                 208
cycle                10000:bit_error_cnt[         28]=                 580
cycle                10000:bit_error_cnt[         29]=                 343
cycle                10000:bit_error_cnt[         30]=                 746
cycle                10000:bit_error_cnt[         31]=                 674
cycle                10000:bit_error_cnt[         32]=                 566
cycle                10000:bit_error_cnt[         33]=                1591
cycle                10000:bit_error_cnt[         34]=                1588
cycle                10000:bit_error_cnt[         35]=                 834
cycle                10000:bit_error_cnt[         36]=                 541
cycle                10000:bit_error_cnt[         37]=                 284
cycle                10000:bit_error_cnt[         38]=                 122
cycle                10000:bit_error_cnt[         39]=                 108
cycle                10000:bit_error_cnt[         40]=                  55
cycle                10000:bit_error_cnt[         41]=                  67
cycle                10000:bit_error_cnt[         42]=                  49
cycle                10000:bit_error_cnt[         43]=                  23
cycle                10000:bit_error_cnt[         44]=                  10
cycle                10000:bit_error_cnt[         45]=                   6
cycle                10000:bit_error_cnt[         46]=                   4
cycle                10000:bit_error_cnt[         47]=                   2
cycle                10000:bit_error_cnt[         48]=                   2
cycle                10000:bit_error_cnt[         49]=                   2
cycle                10000:bit_error_cnt[         50]=                   2
cycle                10000:bit_error_cnt[         51]=                   2
cycle                10000:bit_error_cnt[         52]=                   2
cycle                10000:bit_error_cnt[         53]=                   2
cycle                10000:bit_error_cnt[         54]=                   2
cycle                10000:bit_error_cnt[         55]=                   2
cycle                10000:bit_error_cnt[         56]=                   2
cycle                10000:bit_error_cnt[         57]=                 128
cycle                10000:bit_error_cnt[         58]=                 165
cycle                10000:bit_error_cnt[         59]=                 100
cycle                10000:bit_error_cnt[         60]=                  68
cycle                10000:bit_error_cnt[         61]=                  30
