cycle                10000:bit_error_cnt[          0]=                8446
cycle                10000:bit_error_cnt[          1]=                8451
cycle                10000:bit_error_cnt[          2]=                8341
cycle                10000:bit_error_cnt[          3]=                7942
cycle                10000:bit_error_cnt[          4]=                7654
cycle                10000:bit_error_cnt[          5]=                9215
cycle                10000:bit_error_cnt[          6]=                8443
cycle                10000:bit_error_cnt[          7]=                7440
cycle                10000:bit_error_cnt[          8]=                8110
cycle                10000:bit_error_cnt[          9]=                6747
cycle                10000:bit_error_cnt[         10]=                7277
cycle                10000:bit_error_cnt[         11]=                6626
cycle                10000:bit_error_cnt[         12]=                7064
cycle                10000:bit_error_cnt[         13]=                8469
cycle                10000:bit_error_cnt[         14]=                7851
cycle                10000:bit_error_cnt[         15]=                8622
cycle                10000:bit_error_cnt[         16]=                8404
cycle                10000:bit_error_cnt[         17]=                6829
cycle                10000:bit_error_cnt[         18]=                7230
cycle                10000:bit_error_cnt[         19]=                7019
cycle                10000:bit_error_cnt[         20]=                6571
cycle                10000:bit_error_cnt[         21]=                7818
cycle                10000:bit_error_cnt[         22]=                5349
cycle                10000:bit_error_cnt[         23]=                7601
cycle                10000:bit_error_cnt[         24]=                7984
cycle                10000:bit_error_cnt[         25]=                7976
cycle                10000:bit_error_cnt[         26]=                7463
cycle                10000:bit_error_cnt[         27]=                6502
cycle                10000:bit_error_cnt[         28]=                6276
cycle                10000:bit_error_cnt[         29]=                7787
cycle                10000:bit_error_cnt[         30]=                5947
cycle                10000:bit_error_cnt[         31]=                6227
cycle                10000:bit_error_cnt[         32]=                6096
cycle                10000:bit_error_cnt[         33]=                4604
