cycle                10000:bit_error_cnt[          0]=                   3
cycle                10000:bit_error_cnt[          1]=                   3
cycle                10000:bit_error_cnt[          2]=                   3
cycle                10000:bit_error_cnt[          3]=                   0
cycle                10000:bit_error_cnt[          4]=                 562
cycle                10000:bit_error_cnt[          5]=                 917
cycle                10000:bit_error_cnt[          6]=                1054
cycle                10000:bit_error_cnt[          7]=                1181
cycle                10000:bit_error_cnt[          8]=                1210
cycle                10000:bit_error_cnt[          9]=                1772
cycle                10000:bit_error_cnt[         10]=                1688
cycle                10000:bit_error_cnt[         11]=                2521
cycle                10000:bit_error_cnt[         12]=                2958
cycle                10000:bit_error_cnt[         13]=                4129
cycle                10000:bit_error_cnt[         14]=                4451
cycle                10000:bit_error_cnt[         15]=                4607
cycle                10000:bit_error_cnt[         16]=                4289
cycle                10000:bit_error_cnt[         17]=                4897
cycle                10000:bit_error_cnt[         18]=                5076
cycle                10000:bit_error_cnt[         19]=                4856
cycle                10000:bit_error_cnt[         20]=                4417
cycle                10000:bit_error_cnt[         21]=                4178
cycle                10000:bit_error_cnt[         22]=                4735
cycle                10000:bit_error_cnt[         23]=                5678
cycle                10000:bit_error_cnt[         24]=                5668
cycle                10000:bit_error_cnt[         25]=                5746
cycle                10000:bit_error_cnt[         26]=                5976
cycle                10000:bit_error_cnt[         27]=                6108
cycle                10000:bit_error_cnt[         28]=                6534
cycle                10000:bit_error_cnt[         29]=                6668
cycle                10000:bit_error_cnt[         30]=                6463
cycle                10000:bit_error_cnt[         31]=                6539
cycle                10000:bit_error_cnt[         32]=                6509
cycle                10000:bit_error_cnt[         33]=                6428
cycle                10000:bit_error_cnt[         34]=                6307
cycle                10000:bit_error_cnt[         35]=                6205
cycle                10000:bit_error_cnt[         36]=                6365
cycle                10000:bit_error_cnt[         37]=                5874
cycle                10000:bit_error_cnt[         38]=                5522
cycle                10000:bit_error_cnt[         39]=                5339
cycle                10000:bit_error_cnt[         40]=                5035
cycle                10000:bit_error_cnt[         41]=                4852
cycle                10000:bit_error_cnt[         42]=                5054
cycle                10000:bit_error_cnt[         43]=                4783
cycle                10000:bit_error_cnt[         44]=                4223
cycle                10000:bit_error_cnt[         45]=                4187
cycle                10000:bit_error_cnt[         46]=                4001
cycle                10000:bit_error_cnt[         47]=                3573
cycle                10000:bit_error_cnt[         48]=                2939
cycle                10000:bit_error_cnt[         49]=                2438
cycle                10000:bit_error_cnt[         50]=                2404
cycle                10000:bit_error_cnt[         51]=                6108
cycle                10000:bit_error_cnt[         52]=                6534
cycle                10000:bit_error_cnt[         53]=                6668
cycle                10000:bit_error_cnt[         54]=                6463
cycle                10000:bit_error_cnt[         55]=                6539
cycle                10000:bit_error_cnt[         56]=                6509
cycle                10000:bit_error_cnt[         57]=                6428
cycle                10000:bit_error_cnt[         58]=                6307
cycle                10000:bit_error_cnt[         59]=                6205
cycle                10000:bit_error_cnt[         60]=                6365
cycle                10000:bit_error_cnt[         61]=                5874
cycle                10000:bit_error_cnt[         62]=                5522
cycle                10000:bit_error_cnt[         63]=                5339
cycle                10000:bit_error_cnt[         64]=                5035
cycle                10000:bit_error_cnt[         65]=                4852
cycle                10000:bit_error_cnt[         66]=                5054
cycle                10000:bit_error_cnt[         67]=                4783
cycle                10000:bit_error_cnt[         68]=                4223
cycle                10000:bit_error_cnt[         69]=                4187
cycle                10000:bit_error_cnt[         70]=                4001
cycle                10000:bit_error_cnt[         71]=                3573
cycle                10000:bit_error_cnt[         72]=                2939
cycle                10000:bit_error_cnt[         73]=                2438
cycle                10000:bit_error_cnt[         74]=                2404
cycle                10000:bit_error_cnt[         75]=                3003
cycle                10000:bit_error_cnt[         76]=                1304
cycle                10000:bit_error_cnt[         77]=                1883
cycle                10000:bit_error_cnt[         78]=                1018
cycle                10000:bit_error_cnt[         79]=                 834
cycle                10000:bit_error_cnt[         80]=                 467
cycle                10000:bit_error_cnt[         81]=                 345
cycle                10000:bit_error_cnt[         82]=                 535
cycle                10000:bit_error_cnt[         83]=                 599
cycle                10000:bit_error_cnt[         84]=                 450
