cycle                10000:bit_error_cnt[          0]=                   4
cycle                10000:bit_error_cnt[          1]=                   4
cycle                10000:bit_error_cnt[          2]=                   4
cycle                10000:bit_error_cnt[          3]=                7100
cycle                10000:bit_error_cnt[          4]=                   0
cycle                10000:bit_error_cnt[          5]=                   0
cycle                10000:bit_error_cnt[          6]=                   0
cycle                10000:bit_error_cnt[          7]=                   0
cycle                10000:bit_error_cnt[          8]=                   0
cycle                10000:bit_error_cnt[          9]=                   0
cycle                10000:bit_error_cnt[         10]=                   0
cycle                10000:bit_error_cnt[         11]=                   0
cycle                10000:bit_error_cnt[         12]=                   0
cycle                10000:bit_error_cnt[         13]=                   0
cycle                10000:bit_error_cnt[         14]=                   0
cycle                10000:bit_error_cnt[         15]=                   0
cycle                10000:bit_error_cnt[         16]=                   0
cycle                10000:bit_error_cnt[         17]=                   0
cycle                10000:bit_error_cnt[         18]=                   0
cycle                10000:bit_error_cnt[         19]=                   0
cycle                10000:bit_error_cnt[         20]=                   0
cycle                10000:bit_error_cnt[         21]=                   0
cycle                10000:bit_error_cnt[         22]=                   0
cycle                10000:bit_error_cnt[         23]=                   0
cycle                10000:bit_error_cnt[         24]=                   0
cycle                10000:bit_error_cnt[         25]=                   0
cycle                10000:bit_error_cnt[         26]=                   0
cycle                10000:bit_error_cnt[         27]=                   0
cycle                10000:bit_error_cnt[         28]=                   0
cycle                10000:bit_error_cnt[         29]=                   0
cycle                10000:bit_error_cnt[         30]=                   0
cycle                10000:bit_error_cnt[         31]=                   0
cycle                10000:bit_error_cnt[         32]=                   0
cycle                10000:bit_error_cnt[         33]=                   0
cycle                10000:bit_error_cnt[         34]=                   0
cycle                10000:bit_error_cnt[         35]=                   0
cycle                10000:bit_error_cnt[         36]=                   0
cycle                10000:bit_error_cnt[         37]=                7096
cycle                10000:bit_error_cnt[         38]=                7826
cycle                10000:bit_error_cnt[         39]=                7240
cycle                10000:bit_error_cnt[         40]=                7032
cycle                10000:bit_error_cnt[         41]=                7157
cycle                10000:bit_error_cnt[         42]=                7058
cycle                10000:bit_error_cnt[         43]=                7063
cycle                10000:bit_error_cnt[         44]=                6942
cycle                10000:bit_error_cnt[         45]=                6837
cycle                10000:bit_error_cnt[         46]=                6358
cycle                10000:bit_error_cnt[         47]=                5762
cycle                10000:bit_error_cnt[         48]=                5755
cycle                10000:bit_error_cnt[         49]=                5918
cycle                10000:bit_error_cnt[         50]=                5840
cycle                10000:bit_error_cnt[         51]=                5972
cycle                10000:bit_error_cnt[         52]=                6247
cycle                10000:bit_error_cnt[         53]=                5939
cycle                10000:bit_error_cnt[         54]=                5671
cycle                10000:bit_error_cnt[         55]=                5744
cycle                10000:bit_error_cnt[         56]=                5463
cycle                10000:bit_error_cnt[         57]=                5417
cycle                10000:bit_error_cnt[         58]=                5417
cycle                10000:bit_error_cnt[         59]=                5128
cycle                10000:bit_error_cnt[         60]=                4484
cycle                10000:bit_error_cnt[         61]=                2228
cycle                10000:bit_error_cnt[         62]=                1097
cycle                10000:bit_error_cnt[         63]=                 721
cycle                10000:bit_error_cnt[         64]=                2051
cycle                10000:bit_error_cnt[         65]=                2098
cycle                10000:bit_error_cnt[         66]=                1636
cycle                10000:bit_error_cnt[         67]=                2167
cycle                10000:bit_error_cnt[         68]=                1963
cycle                10000:bit_error_cnt[         69]=                1438
