cycle                10000:bit_error_cnt[          0]=                6582
cycle                10000:bit_error_cnt[          1]=                 106
cycle                10000:bit_error_cnt[          2]=                 148
cycle                10000:bit_error_cnt[          3]=                7673
cycle                10000:bit_error_cnt[          4]=                   0
cycle                10000:bit_error_cnt[          5]=                   0
cycle                10000:bit_error_cnt[          6]=                   0
cycle                10000:bit_error_cnt[          7]=                   0
cycle                10000:bit_error_cnt[          8]=                   0
cycle                10000:bit_error_cnt[          9]=                   0
cycle                10000:bit_error_cnt[         10]=                   0
cycle                10000:bit_error_cnt[         11]=                   0
cycle                10000:bit_error_cnt[         12]=                   0
cycle                10000:bit_error_cnt[         13]=                   0
cycle                10000:bit_error_cnt[         14]=                   0
cycle                10000:bit_error_cnt[         15]=                   0
cycle                10000:bit_error_cnt[         16]=                   0
cycle                10000:bit_error_cnt[         17]=                   0
cycle                10000:bit_error_cnt[         18]=                   0
cycle                10000:bit_error_cnt[         19]=                   0
cycle                10000:bit_error_cnt[         20]=                   0
cycle                10000:bit_error_cnt[         21]=                   0
cycle                10000:bit_error_cnt[         22]=                   0
cycle                10000:bit_error_cnt[         23]=                   0
cycle                10000:bit_error_cnt[         24]=                   0
cycle                10000:bit_error_cnt[         25]=                   0
cycle                10000:bit_error_cnt[         26]=                   0
cycle                10000:bit_error_cnt[         27]=                   0
cycle                10000:bit_error_cnt[         28]=                   0
cycle                10000:bit_error_cnt[         29]=                   0
cycle                10000:bit_error_cnt[         30]=                   0
cycle                10000:bit_error_cnt[         31]=                   0
cycle                10000:bit_error_cnt[         32]=                   0
cycle                10000:bit_error_cnt[         33]=                   0
cycle                10000:bit_error_cnt[         34]=                   0
cycle                10000:bit_error_cnt[         35]=                   0
cycle                10000:bit_error_cnt[         36]=                   0
cycle                10000:bit_error_cnt[         37]=                7022
cycle                10000:bit_error_cnt[         38]=                6965
cycle                10000:bit_error_cnt[         39]=                7449
cycle                10000:bit_error_cnt[         40]=                6785
cycle                10000:bit_error_cnt[         41]=                6688
cycle                10000:bit_error_cnt[         42]=                7096
cycle                10000:bit_error_cnt[         43]=                7252
cycle                10000:bit_error_cnt[         44]=                7051
cycle                10000:bit_error_cnt[         45]=                7167
cycle                10000:bit_error_cnt[         46]=                6618
cycle                10000:bit_error_cnt[         47]=                5795
cycle                10000:bit_error_cnt[         48]=                5625
cycle                10000:bit_error_cnt[         49]=                6267
cycle                10000:bit_error_cnt[         50]=                5487
cycle                10000:bit_error_cnt[         51]=                6226
cycle                10000:bit_error_cnt[         52]=                6678
cycle                10000:bit_error_cnt[         53]=                6363
cycle                10000:bit_error_cnt[         54]=                5498
cycle                10000:bit_error_cnt[         55]=                5409
cycle                10000:bit_error_cnt[         56]=                5349
cycle                10000:bit_error_cnt[         57]=                6793
cycle                10000:bit_error_cnt[         58]=                6813
cycle                10000:bit_error_cnt[         59]=                5625
cycle                10000:bit_error_cnt[         60]=                6389
cycle                10000:bit_error_cnt[         61]=                6567
cycle                10000:bit_error_cnt[         62]=                6257
cycle                10000:bit_error_cnt[         63]=                5510
cycle                10000:bit_error_cnt[         64]=                6416
cycle                10000:bit_error_cnt[         65]=                5527
cycle                10000:bit_error_cnt[         66]=                5851
cycle                10000:bit_error_cnt[         67]=                5396
cycle                10000:bit_error_cnt[         68]=                7020
cycle                10000:bit_error_cnt[         69]=                2162
