cycle                10000:bit_error_cnt[          0]=                6242
cycle                10000:bit_error_cnt[          1]=                 106
cycle                10000:bit_error_cnt[          2]=                 185
cycle                10000:bit_error_cnt[          3]=                7207
cycle                10000:bit_error_cnt[          4]=                   0
cycle                10000:bit_error_cnt[          5]=                   0
cycle                10000:bit_error_cnt[          6]=                   0
cycle                10000:bit_error_cnt[          7]=                   0
cycle                10000:bit_error_cnt[          8]=                   0
cycle                10000:bit_error_cnt[          9]=                   0
cycle                10000:bit_error_cnt[         10]=                   0
cycle                10000:bit_error_cnt[         11]=                   0
cycle                10000:bit_error_cnt[         12]=                   0
cycle                10000:bit_error_cnt[         13]=                   0
cycle                10000:bit_error_cnt[         14]=                   0
cycle                10000:bit_error_cnt[         15]=                   0
cycle                10000:bit_error_cnt[         16]=                   0
cycle                10000:bit_error_cnt[         17]=                   0
cycle                10000:bit_error_cnt[         18]=                   0
cycle                10000:bit_error_cnt[         19]=                   0
cycle                10000:bit_error_cnt[         20]=                   0
cycle                10000:bit_error_cnt[         21]=                   0
cycle                10000:bit_error_cnt[         22]=                   0
cycle                10000:bit_error_cnt[         23]=                   0
cycle                10000:bit_error_cnt[         24]=                   0
cycle                10000:bit_error_cnt[         25]=                   0
cycle                10000:bit_error_cnt[         26]=                   0
cycle                10000:bit_error_cnt[         27]=                   0
cycle                10000:bit_error_cnt[         28]=                   0
cycle                10000:bit_error_cnt[         29]=                   0
cycle                10000:bit_error_cnt[         30]=                   0
cycle                10000:bit_error_cnt[         31]=                   0
cycle                10000:bit_error_cnt[         32]=                   0
cycle                10000:bit_error_cnt[         33]=                   0
cycle                10000:bit_error_cnt[         34]=                   0
cycle                10000:bit_error_cnt[         35]=                   0
cycle                10000:bit_error_cnt[         36]=                   0
cycle                10000:bit_error_cnt[         37]=                6319
cycle                10000:bit_error_cnt[         38]=                7074
cycle                10000:bit_error_cnt[         39]=                6684
cycle                10000:bit_error_cnt[         40]=                6648
cycle                10000:bit_error_cnt[         41]=                6456
cycle                10000:bit_error_cnt[         42]=                6318
cycle                10000:bit_error_cnt[         43]=                6677
cycle                10000:bit_error_cnt[         44]=                6072
cycle                10000:bit_error_cnt[         45]=                6242
cycle                10000:bit_error_cnt[         46]=                5795
cycle                10000:bit_error_cnt[         47]=                5407
cycle                10000:bit_error_cnt[         48]=                5306
cycle                10000:bit_error_cnt[         49]=                5415
cycle                10000:bit_error_cnt[         50]=                5418
cycle                10000:bit_error_cnt[         51]=                5362
cycle                10000:bit_error_cnt[         52]=                5893
cycle                10000:bit_error_cnt[         53]=                5264
cycle                10000:bit_error_cnt[         54]=                5247
cycle                10000:bit_error_cnt[         55]=                5278
cycle                10000:bit_error_cnt[         56]=                5238
cycle                10000:bit_error_cnt[         57]=                7303
cycle                10000:bit_error_cnt[         58]=                5568
cycle                10000:bit_error_cnt[         59]=                5483
cycle                10000:bit_error_cnt[         60]=                5089
cycle                10000:bit_error_cnt[         61]=                6344
cycle                10000:bit_error_cnt[         62]=                4515
cycle                10000:bit_error_cnt[         63]=                3714
cycle                10000:bit_error_cnt[         64]=                5314
cycle                10000:bit_error_cnt[         65]=                5239
cycle                10000:bit_error_cnt[         66]=                4512
cycle                10000:bit_error_cnt[         67]=                6216
cycle                10000:bit_error_cnt[         68]=                7216
cycle                10000:bit_error_cnt[         69]=                3822
