cycle                10000:bit_error_cnt[          0]=                   2
cycle                10000:bit_error_cnt[          1]=                   2
cycle                10000:bit_error_cnt[          2]=                   0
cycle                10000:bit_error_cnt[          3]=                 133
cycle                10000:bit_error_cnt[          4]=                 203
cycle                10000:bit_error_cnt[          5]=                 264
cycle                10000:bit_error_cnt[          6]=                 300
cycle                10000:bit_error_cnt[          7]=                 315
cycle                10000:bit_error_cnt[          8]=                 309
cycle                10000:bit_error_cnt[          9]=                 286
cycle                10000:bit_error_cnt[         10]=                 480
cycle                10000:bit_error_cnt[         11]=                3385
cycle                10000:bit_error_cnt[         12]=                5244
cycle                10000:bit_error_cnt[         13]=                5177
cycle                10000:bit_error_cnt[         14]=                4703
cycle                10000:bit_error_cnt[         15]=                4810
cycle                10000:bit_error_cnt[         16]=                4840
cycle                10000:bit_error_cnt[         17]=                5000
cycle                10000:bit_error_cnt[         18]=                5257
cycle                10000:bit_error_cnt[         19]=                4413
cycle                10000:bit_error_cnt[         20]=                4335
cycle                10000:bit_error_cnt[         21]=                4823
cycle                10000:bit_error_cnt[         22]=                4897
cycle                10000:bit_error_cnt[         23]=                4038
cycle                10000:bit_error_cnt[         24]=                3990
cycle                10000:bit_error_cnt[         25]=                4217
cycle                10000:bit_error_cnt[         26]=                4657
cycle                10000:bit_error_cnt[         27]=                5135
cycle                10000:bit_error_cnt[         28]=                6090
cycle                10000:bit_error_cnt[         29]=                5726
cycle                10000:bit_error_cnt[         30]=                5201
cycle                10000:bit_error_cnt[         31]=                5578
cycle                10000:bit_error_cnt[         32]=                4835
cycle                10000:bit_error_cnt[         33]=                5264
cycle                10000:bit_error_cnt[         34]=                5271
cycle                10000:bit_error_cnt[         35]=                4351
cycle                10000:bit_error_cnt[         36]=                4019
cycle                10000:bit_error_cnt[         37]=                3621
cycle                10000:bit_error_cnt[         38]=                3525
cycle                10000:bit_error_cnt[         39]=                4579
cycle                10000:bit_error_cnt[         40]=                3235
cycle                10000:bit_error_cnt[         41]=                2526
cycle                10000:bit_error_cnt[         42]=                4784
cycle                10000:bit_error_cnt[         43]=                3024
cycle                10000:bit_error_cnt[         44]=                1747
cycle                10000:bit_error_cnt[         45]=                1686
cycle                10000:bit_error_cnt[         46]=                1453
cycle                10000:bit_error_cnt[         47]=                1118
cycle                10000:bit_error_cnt[         48]=                 593
cycle                10000:bit_error_cnt[         49]=                 273
cycle                10000:bit_error_cnt[         50]=                 532
cycle                10000:bit_error_cnt[         51]=                   2
cycle                10000:bit_error_cnt[         52]=                   2
cycle                10000:bit_error_cnt[         53]=                   2
cycle                10000:bit_error_cnt[         54]=                   2
cycle                10000:bit_error_cnt[         55]=                 717
cycle                10000:bit_error_cnt[         56]=                 871
cycle                10000:bit_error_cnt[         57]=                 478
cycle                10000:bit_error_cnt[         58]=                 316
cycle                10000:bit_error_cnt[         59]=                 241
cycle                10000:bit_error_cnt[         60]=                3148
cycle                10000:bit_error_cnt[         61]=                 129
