cycle                10000:bit_error_cnt[          0]=                  82
cycle                10000:bit_error_cnt[          1]=                 144
cycle                10000:bit_error_cnt[          2]=                3744
cycle                10000:bit_error_cnt[          3]=                4669
cycle                10000:bit_error_cnt[          4]=                4859
cycle                10000:bit_error_cnt[          5]=                4973
cycle                10000:bit_error_cnt[          6]=                4997
cycle                10000:bit_error_cnt[          7]=                4981
cycle                10000:bit_error_cnt[          8]=                5016
cycle                10000:bit_error_cnt[          9]=                4993
cycle                10000:bit_error_cnt[         10]=                4938
cycle                10000:bit_error_cnt[         11]=                5042
cycle                10000:bit_error_cnt[         12]=                5013
cycle                10000:bit_error_cnt[         13]=                5061
cycle                10000:bit_error_cnt[         14]=                5049
cycle                10000:bit_error_cnt[         15]=                5059
cycle                10000:bit_error_cnt[         16]=                5028
cycle                10000:bit_error_cnt[         17]=                4922
cycle                10000:bit_error_cnt[         18]=                5092
cycle                10000:bit_error_cnt[         19]=                4966
cycle                10000:bit_error_cnt[         20]=                4944
cycle                10000:bit_error_cnt[         21]=                4924
cycle                10000:bit_error_cnt[         22]=                5043
cycle                10000:bit_error_cnt[         23]=                5035
cycle                10000:bit_error_cnt[         24]=                4978
cycle                10000:bit_error_cnt[         25]=                4950
cycle                10000:bit_error_cnt[         26]=                4993
cycle                10000:bit_error_cnt[         27]=                5011
cycle                10000:bit_error_cnt[         28]=                5030
cycle                10000:bit_error_cnt[         29]=                5054
cycle                10000:bit_error_cnt[         30]=                5017
cycle                10000:bit_error_cnt[         31]=                4867
cycle                10000:bit_error_cnt[         32]=                4296
cycle                10000:bit_error_cnt[         33]=                3724
cycle                10000:bit_error_cnt[         34]=                4735
cycle                10000:bit_error_cnt[         35]=                4892
cycle                10000:bit_error_cnt[         36]=                4960
cycle                10000:bit_error_cnt[         37]=                5048
cycle                10000:bit_error_cnt[         38]=                4941
cycle                10000:bit_error_cnt[         39]=                4903
cycle                10000:bit_error_cnt[         40]=                4986
cycle                10000:bit_error_cnt[         41]=                4980
cycle                10000:bit_error_cnt[         42]=                4918
cycle                10000:bit_error_cnt[         43]=                4895
cycle                10000:bit_error_cnt[         44]=                5097
cycle                10000:bit_error_cnt[         45]=                5088
cycle                10000:bit_error_cnt[         46]=                5052
cycle                10000:bit_error_cnt[         47]=                4991
cycle                10000:bit_error_cnt[         48]=                5046
cycle                10000:bit_error_cnt[         49]=                5075
cycle                10000:bit_error_cnt[         50]=                5009
cycle                10000:bit_error_cnt[         51]=                5022
cycle                10000:bit_error_cnt[         52]=                5010
cycle                10000:bit_error_cnt[         53]=                5091
cycle                10000:bit_error_cnt[         54]=                5029
cycle                10000:bit_error_cnt[         55]=                4993
cycle                10000:bit_error_cnt[         56]=                4931
cycle                10000:bit_error_cnt[         57]=                5039
cycle                10000:bit_error_cnt[         58]=                5006
cycle                10000:bit_error_cnt[         59]=                4957
cycle                10000:bit_error_cnt[         60]=                5073
cycle                10000:bit_error_cnt[         61]=                5005
cycle                10000:bit_error_cnt[         62]=                4989
cycle                10000:bit_error_cnt[         63]=                5057
cycle                10000:bit_error_cnt[         64]=                5023
cycle                10000:bit_error_cnt[         65]=                4974
cycle                10000:bit_error_cnt[         66]=                4922
cycle                10000:bit_error_cnt[         67]=                4946
cycle                10000:bit_error_cnt[         68]=                5007
cycle                10000:bit_error_cnt[         69]=                4998
cycle                10000:bit_error_cnt[         70]=                5060
cycle                10000:bit_error_cnt[         71]=                5029
cycle                10000:bit_error_cnt[         72]=                4977
cycle                10000:bit_error_cnt[         73]=                5065
cycle                10000:bit_error_cnt[         74]=                5105
cycle                10000:bit_error_cnt[         75]=                5002
cycle                10000:bit_error_cnt[         76]=                4919
cycle                10000:bit_error_cnt[         77]=                4969
cycle                10000:bit_error_cnt[         78]=                5020
cycle                10000:bit_error_cnt[         79]=                5075
cycle                10000:bit_error_cnt[         80]=                5162
cycle                10000:bit_error_cnt[         81]=                5006
cycle                10000:bit_error_cnt[         82]=                5055
cycle                10000:bit_error_cnt[         83]=                   0
cycle                10000:bit_error_cnt[         84]=                4738
cycle                10000:bit_error_cnt[         85]=                   0
cycle                10000:bit_error_cnt[         86]=                   0
cycle                10000:bit_error_cnt[         87]=                   0
cycle                10000:bit_error_cnt[         88]=                   0
cycle                10000:bit_error_cnt[         89]=                   0
cycle                10000:bit_error_cnt[         90]=                   0
cycle                10000:bit_error_cnt[         91]=                   0
cycle                10000:bit_error_cnt[         92]=                   0
cycle                10000:bit_error_cnt[         93]=                   0
cycle                10000:bit_error_cnt[         94]=                   0
