cycle                10000:bit_error_cnt[          0]=                   4
cycle                10000:bit_error_cnt[          1]=                   4
cycle                10000:bit_error_cnt[          2]=                   4
cycle                10000:bit_error_cnt[          3]=                5438
cycle                10000:bit_error_cnt[          4]=                   0
cycle                10000:bit_error_cnt[          5]=                   0
cycle                10000:bit_error_cnt[          6]=                   0
cycle                10000:bit_error_cnt[          7]=                   0
cycle                10000:bit_error_cnt[          8]=                   0
cycle                10000:bit_error_cnt[          9]=                   0
cycle                10000:bit_error_cnt[         10]=                   0
cycle                10000:bit_error_cnt[         11]=                   0
cycle                10000:bit_error_cnt[         12]=                   0
cycle                10000:bit_error_cnt[         13]=                   0
cycle                10000:bit_error_cnt[         14]=                   0
cycle                10000:bit_error_cnt[         15]=                   0
cycle                10000:bit_error_cnt[         16]=                   0
cycle                10000:bit_error_cnt[         17]=                   0
cycle                10000:bit_error_cnt[         18]=                   0
cycle                10000:bit_error_cnt[         19]=                   0
cycle                10000:bit_error_cnt[         20]=                   0
cycle                10000:bit_error_cnt[         21]=                   0
cycle                10000:bit_error_cnt[         22]=                   0
cycle                10000:bit_error_cnt[         23]=                   0
cycle                10000:bit_error_cnt[         24]=                   0
cycle                10000:bit_error_cnt[         25]=                   0
cycle                10000:bit_error_cnt[         26]=                   0
cycle                10000:bit_error_cnt[         27]=                   0
cycle                10000:bit_error_cnt[         28]=                   0
cycle                10000:bit_error_cnt[         29]=                   0
cycle                10000:bit_error_cnt[         30]=                   0
cycle                10000:bit_error_cnt[         31]=                   0
cycle                10000:bit_error_cnt[         32]=                   0
cycle                10000:bit_error_cnt[         33]=                   0
cycle                10000:bit_error_cnt[         34]=                   0
cycle                10000:bit_error_cnt[         35]=                   0
cycle                10000:bit_error_cnt[         36]=                   0
cycle                10000:bit_error_cnt[         37]=                6238
cycle                10000:bit_error_cnt[         38]=                6712
cycle                10000:bit_error_cnt[         39]=                6272
cycle                10000:bit_error_cnt[         40]=                6046
cycle                10000:bit_error_cnt[         41]=                5975
cycle                10000:bit_error_cnt[         42]=                5810
cycle                10000:bit_error_cnt[         43]=                6010
cycle                10000:bit_error_cnt[         44]=                5815
cycle                10000:bit_error_cnt[         45]=                5821
cycle                10000:bit_error_cnt[         46]=                5317
cycle                10000:bit_error_cnt[         47]=                4932
cycle                10000:bit_error_cnt[         48]=                4815
cycle                10000:bit_error_cnt[         49]=                4417
cycle                10000:bit_error_cnt[         50]=                4146
cycle                10000:bit_error_cnt[         51]=                4290
cycle                10000:bit_error_cnt[         52]=                4025
cycle                10000:bit_error_cnt[         53]=                3642
cycle                10000:bit_error_cnt[         54]=                3656
cycle                10000:bit_error_cnt[         55]=                3547
cycle                10000:bit_error_cnt[         56]=                3124
cycle                10000:bit_error_cnt[         57]=                2521
cycle                10000:bit_error_cnt[         58]=                2324
cycle                10000:bit_error_cnt[         59]=                2338
cycle                10000:bit_error_cnt[         60]=                2117
cycle                10000:bit_error_cnt[         61]=                1041
cycle                10000:bit_error_cnt[         62]=                 525
cycle                10000:bit_error_cnt[         63]=                 271
cycle                10000:bit_error_cnt[         64]=                 417
cycle                10000:bit_error_cnt[         65]=                 263
cycle                10000:bit_error_cnt[         66]=                 227
cycle                10000:bit_error_cnt[         67]=                 740
cycle                10000:bit_error_cnt[         68]=                 756
cycle                10000:bit_error_cnt[         69]=                 558
