cycle                10000:bit_error_cnt[          0]=                7932
cycle                10000:bit_error_cnt[          1]=                8666
cycle                10000:bit_error_cnt[          2]=                8097
cycle                10000:bit_error_cnt[          3]=                7749
cycle                10000:bit_error_cnt[          4]=                7665
cycle                10000:bit_error_cnt[          5]=                7199
cycle                10000:bit_error_cnt[          6]=                6973
cycle                10000:bit_error_cnt[          7]=                6858
cycle                10000:bit_error_cnt[          8]=                6738
cycle                10000:bit_error_cnt[          9]=                6152
cycle                10000:bit_error_cnt[         10]=                5793
cycle                10000:bit_error_cnt[         11]=                5819
cycle                10000:bit_error_cnt[         12]=                5899
cycle                10000:bit_error_cnt[         13]=                5826
cycle                10000:bit_error_cnt[         14]=                5824
cycle                10000:bit_error_cnt[         15]=                6177
cycle                10000:bit_error_cnt[         16]=                6445
cycle                10000:bit_error_cnt[         17]=                5612
cycle                10000:bit_error_cnt[         18]=                5670
cycle                10000:bit_error_cnt[         19]=                5569
cycle                10000:bit_error_cnt[         20]=                5692
cycle                10000:bit_error_cnt[         21]=                5670
cycle                10000:bit_error_cnt[         22]=                5318
cycle                10000:bit_error_cnt[         23]=                5324
cycle                10000:bit_error_cnt[         24]=                5159
cycle                10000:bit_error_cnt[         25]=                5356
cycle                10000:bit_error_cnt[         26]=                3260
cycle                10000:bit_error_cnt[         27]=                6153
cycle                10000:bit_error_cnt[         28]=                4720
cycle                10000:bit_error_cnt[         29]=                3190
cycle                10000:bit_error_cnt[         30]=                5472
cycle                10000:bit_error_cnt[         31]=                 637
cycle                10000:bit_error_cnt[         32]=                4569
cycle                10000:bit_error_cnt[         33]=                2958
