cycle                10000:bit_error_cnt[          0]=                   4
cycle                10000:bit_error_cnt[          1]=                   4
cycle                10000:bit_error_cnt[          2]=                   4
cycle                10000:bit_error_cnt[          3]=                 575
cycle                10000:bit_error_cnt[          4]=                   0
cycle                10000:bit_error_cnt[          5]=                   0
cycle                10000:bit_error_cnt[          6]=                   0
cycle                10000:bit_error_cnt[          7]=                   0
cycle                10000:bit_error_cnt[          8]=                   0
cycle                10000:bit_error_cnt[          9]=                   0
cycle                10000:bit_error_cnt[         10]=                   0
cycle                10000:bit_error_cnt[         11]=                   0
cycle                10000:bit_error_cnt[         12]=                   0
cycle                10000:bit_error_cnt[         13]=                   0
cycle                10000:bit_error_cnt[         14]=                   0
cycle                10000:bit_error_cnt[         15]=                   0
cycle                10000:bit_error_cnt[         16]=                   0
cycle                10000:bit_error_cnt[         17]=                   0
cycle                10000:bit_error_cnt[         18]=                   0
cycle                10000:bit_error_cnt[         19]=                   0
cycle                10000:bit_error_cnt[         20]=                   0
cycle                10000:bit_error_cnt[         21]=                   0
cycle                10000:bit_error_cnt[         22]=                   0
cycle                10000:bit_error_cnt[         23]=                   0
cycle                10000:bit_error_cnt[         24]=                   0
cycle                10000:bit_error_cnt[         25]=                   0
cycle                10000:bit_error_cnt[         26]=                   0
cycle                10000:bit_error_cnt[         27]=                   0
cycle                10000:bit_error_cnt[         28]=                   0
cycle                10000:bit_error_cnt[         29]=                   0
cycle                10000:bit_error_cnt[         30]=                   0
cycle                10000:bit_error_cnt[         31]=                   0
cycle                10000:bit_error_cnt[         32]=                   0
cycle                10000:bit_error_cnt[         33]=                   0
cycle                10000:bit_error_cnt[         34]=                   0
cycle                10000:bit_error_cnt[         35]=                   0
cycle                10000:bit_error_cnt[         36]=                   0
cycle                10000:bit_error_cnt[         37]=                 995
cycle                10000:bit_error_cnt[         38]=                1838
cycle                10000:bit_error_cnt[         39]=                1627
cycle                10000:bit_error_cnt[         40]=                1112
cycle                10000:bit_error_cnt[         41]=                 926
cycle                10000:bit_error_cnt[         42]=                 799
cycle                10000:bit_error_cnt[         43]=                1153
cycle                10000:bit_error_cnt[         44]=                1104
cycle                10000:bit_error_cnt[         45]=                 968
cycle                10000:bit_error_cnt[         46]=                 985
cycle                10000:bit_error_cnt[         47]=                 870
cycle                10000:bit_error_cnt[         48]=                 708
cycle                10000:bit_error_cnt[         49]=                 589
cycle                10000:bit_error_cnt[         50]=                 535
cycle                10000:bit_error_cnt[         51]=                 521
cycle                10000:bit_error_cnt[         52]=                 396
cycle                10000:bit_error_cnt[         53]=                 349
cycle                10000:bit_error_cnt[         54]=                 472
cycle                10000:bit_error_cnt[         55]=                 400
cycle                10000:bit_error_cnt[         56]=                 340
cycle                10000:bit_error_cnt[         57]=                 327
cycle                10000:bit_error_cnt[         58]=                 191
cycle                10000:bit_error_cnt[         59]=                  55
cycle                10000:bit_error_cnt[         60]=                 167
cycle                10000:bit_error_cnt[         61]=                  83
cycle                10000:bit_error_cnt[         62]=                  50
cycle                10000:bit_error_cnt[         63]=                  23
cycle                10000:bit_error_cnt[         64]=                  14
cycle                10000:bit_error_cnt[         65]=                   9
cycle                10000:bit_error_cnt[         66]=                   9
cycle                10000:bit_error_cnt[         67]=                 104
cycle                10000:bit_error_cnt[         68]=                 116
cycle                10000:bit_error_cnt[         69]=                  43
