cycle                10000:bit_error_cnt[          0]=                   4
cycle                10000:bit_error_cnt[          1]=                   4
cycle                10000:bit_error_cnt[          2]=                   4
cycle                10000:bit_error_cnt[          3]=                4904
cycle                10000:bit_error_cnt[          4]=                   0
cycle                10000:bit_error_cnt[          5]=                   0
cycle                10000:bit_error_cnt[          6]=                   0
cycle                10000:bit_error_cnt[          7]=                   0
cycle                10000:bit_error_cnt[          8]=                   0
cycle                10000:bit_error_cnt[          9]=                   0
cycle                10000:bit_error_cnt[         10]=                   0
cycle                10000:bit_error_cnt[         11]=                   0
cycle                10000:bit_error_cnt[         12]=                   0
cycle                10000:bit_error_cnt[         13]=                   0
cycle                10000:bit_error_cnt[         14]=                   0
cycle                10000:bit_error_cnt[         15]=                   0
cycle                10000:bit_error_cnt[         16]=                   0
cycle                10000:bit_error_cnt[         17]=                   0
cycle                10000:bit_error_cnt[         18]=                   0
cycle                10000:bit_error_cnt[         19]=                   0
cycle                10000:bit_error_cnt[         20]=                   0
cycle                10000:bit_error_cnt[         21]=                   0
cycle                10000:bit_error_cnt[         22]=                   0
cycle                10000:bit_error_cnt[         23]=                   0
cycle                10000:bit_error_cnt[         24]=                   0
cycle                10000:bit_error_cnt[         25]=                   0
cycle                10000:bit_error_cnt[         26]=                   0
cycle                10000:bit_error_cnt[         27]=                   0
cycle                10000:bit_error_cnt[         28]=                   0
cycle                10000:bit_error_cnt[         29]=                   0
cycle                10000:bit_error_cnt[         30]=                   0
cycle                10000:bit_error_cnt[         31]=                   0
cycle                10000:bit_error_cnt[         32]=                   0
cycle                10000:bit_error_cnt[         33]=                   0
cycle                10000:bit_error_cnt[         34]=                   0
cycle                10000:bit_error_cnt[         35]=                   0
cycle                10000:bit_error_cnt[         36]=                   0
cycle                10000:bit_error_cnt[         37]=                5680
cycle                10000:bit_error_cnt[         38]=                6173
cycle                10000:bit_error_cnt[         39]=                5756
cycle                10000:bit_error_cnt[         40]=                5373
cycle                10000:bit_error_cnt[         41]=                5509
cycle                10000:bit_error_cnt[         42]=                5389
cycle                10000:bit_error_cnt[         43]=                5482
cycle                10000:bit_error_cnt[         44]=                5390
cycle                10000:bit_error_cnt[         45]=                5188
cycle                10000:bit_error_cnt[         46]=                4926
cycle                10000:bit_error_cnt[         47]=                4610
cycle                10000:bit_error_cnt[         48]=                4436
cycle                10000:bit_error_cnt[         49]=                3941
cycle                10000:bit_error_cnt[         50]=                3689
cycle                10000:bit_error_cnt[         51]=                3896
cycle                10000:bit_error_cnt[         52]=                3524
cycle                10000:bit_error_cnt[         53]=                3091
cycle                10000:bit_error_cnt[         54]=                3080
cycle                10000:bit_error_cnt[         55]=                2884
cycle                10000:bit_error_cnt[         56]=                2631
cycle                10000:bit_error_cnt[         57]=                2003
cycle                10000:bit_error_cnt[         58]=                1515
cycle                10000:bit_error_cnt[         59]=                1256
cycle                10000:bit_error_cnt[         60]=                1492
cycle                10000:bit_error_cnt[         61]=                 755
cycle                10000:bit_error_cnt[         62]=                 387
cycle                10000:bit_error_cnt[         63]=                 198
cycle                10000:bit_error_cnt[         64]=                 189
cycle                10000:bit_error_cnt[         65]=                 207
cycle                10000:bit_error_cnt[         66]=                 185
cycle                10000:bit_error_cnt[         67]=                 432
cycle                10000:bit_error_cnt[         68]=                 500
cycle                10000:bit_error_cnt[         69]=                 377
