cycle                10000:bit_error_cnt[          0]=                7387
cycle                10000:bit_error_cnt[          1]=                8097
cycle                10000:bit_error_cnt[          2]=                7376
cycle                10000:bit_error_cnt[          3]=                7501
cycle                10000:bit_error_cnt[          4]=                7383
cycle                10000:bit_error_cnt[          5]=                7223
cycle                10000:bit_error_cnt[          6]=                6924
cycle                10000:bit_error_cnt[          7]=                6782
cycle                10000:bit_error_cnt[          8]=                6762
cycle                10000:bit_error_cnt[          9]=                6371
cycle                10000:bit_error_cnt[         10]=                5953
cycle                10000:bit_error_cnt[         11]=                5933
cycle                10000:bit_error_cnt[         12]=                6023
cycle                10000:bit_error_cnt[         13]=                5938
cycle                10000:bit_error_cnt[         14]=                5899
cycle                10000:bit_error_cnt[         15]=                6130
cycle                10000:bit_error_cnt[         16]=                5831
cycle                10000:bit_error_cnt[         17]=                5658
cycle                10000:bit_error_cnt[         18]=                5669
cycle                10000:bit_error_cnt[         19]=                5545
cycle                10000:bit_error_cnt[         20]=                5529
cycle                10000:bit_error_cnt[         21]=                5465
cycle                10000:bit_error_cnt[         22]=                2541
cycle                10000:bit_error_cnt[         23]=                5242
cycle                10000:bit_error_cnt[         24]=                1137
cycle                10000:bit_error_cnt[         25]=                5081
cycle                10000:bit_error_cnt[         26]=                 296
cycle                10000:bit_error_cnt[         27]=                 337
cycle                10000:bit_error_cnt[         28]=                 238
cycle                10000:bit_error_cnt[         29]=                 263
cycle                10000:bit_error_cnt[         30]=                 530
cycle                10000:bit_error_cnt[         31]=                   5
cycle                10000:bit_error_cnt[         32]=                3464
cycle                10000:bit_error_cnt[         33]=                2613
