cycle                10000:bit_error_cnt[          0]=                   2
cycle                10000:bit_error_cnt[          1]=                   2
cycle                10000:bit_error_cnt[          2]=                   0
cycle                10000:bit_error_cnt[          3]=                   2
cycle                10000:bit_error_cnt[          4]=                   2
cycle                10000:bit_error_cnt[          5]=                   2
cycle                10000:bit_error_cnt[          6]=                   2
cycle                10000:bit_error_cnt[          7]=                   2
cycle                10000:bit_error_cnt[          8]=                   2
cycle                10000:bit_error_cnt[          9]=                   2
cycle                10000:bit_error_cnt[         10]=                   2
cycle                10000:bit_error_cnt[         11]=                   2
cycle                10000:bit_error_cnt[         12]=                   2
cycle                10000:bit_error_cnt[         13]=                   2
cycle                10000:bit_error_cnt[         14]=                   2
cycle                10000:bit_error_cnt[         15]=                   2
cycle                10000:bit_error_cnt[         16]=                   2
cycle                10000:bit_error_cnt[         17]=                   2
cycle                10000:bit_error_cnt[         18]=                   2
cycle                10000:bit_error_cnt[         19]=                   2
cycle                10000:bit_error_cnt[         20]=                 188
cycle                10000:bit_error_cnt[         21]=                 165
cycle                10000:bit_error_cnt[         22]=                  50
cycle                10000:bit_error_cnt[         23]=                  51
cycle                10000:bit_error_cnt[         24]=                 153
cycle                10000:bit_error_cnt[         25]=                 136
cycle                10000:bit_error_cnt[         26]=                   2
cycle                10000:bit_error_cnt[         27]=                   2
cycle                10000:bit_error_cnt[         28]=                  65
cycle                10000:bit_error_cnt[         29]=                   5
cycle                10000:bit_error_cnt[         30]=                  15
cycle                10000:bit_error_cnt[         31]=                 256
cycle                10000:bit_error_cnt[         32]=                 423
cycle                10000:bit_error_cnt[         33]=                 139
cycle                10000:bit_error_cnt[         34]=                   2
cycle                10000:bit_error_cnt[         35]=                  77
cycle                10000:bit_error_cnt[         36]=                 397
cycle                10000:bit_error_cnt[         37]=                 140
cycle                10000:bit_error_cnt[         38]=                  63
cycle                10000:bit_error_cnt[         39]=                  69
cycle                10000:bit_error_cnt[         40]=                  31
cycle                10000:bit_error_cnt[         41]=                  14
cycle                10000:bit_error_cnt[         42]=                  29
cycle                10000:bit_error_cnt[         43]=                  15
cycle                10000:bit_error_cnt[         44]=                   6
cycle                10000:bit_error_cnt[         45]=                   3
cycle                10000:bit_error_cnt[         46]=                   2
cycle                10000:bit_error_cnt[         47]=                   2
cycle                10000:bit_error_cnt[         48]=                   2
cycle                10000:bit_error_cnt[         49]=                   2
cycle                10000:bit_error_cnt[         50]=                   2
cycle                10000:bit_error_cnt[         51]=                   2
cycle                10000:bit_error_cnt[         52]=                   2
cycle                10000:bit_error_cnt[         53]=                   2
cycle                10000:bit_error_cnt[         54]=                   2
cycle                10000:bit_error_cnt[         55]=                   2
cycle                10000:bit_error_cnt[         56]=                   2
cycle                10000:bit_error_cnt[         57]=                   2
cycle                10000:bit_error_cnt[         58]=                  65
cycle                10000:bit_error_cnt[         59]=                  65
cycle                10000:bit_error_cnt[         60]=                  47
cycle                10000:bit_error_cnt[         61]=                  20
