cycle                10000:bit_error_cnt[          0]=                   4
cycle                10000:bit_error_cnt[          1]=                   4
cycle                10000:bit_error_cnt[          2]=                   4
cycle                10000:bit_error_cnt[          3]=                7030
cycle                10000:bit_error_cnt[          4]=                   0
cycle                10000:bit_error_cnt[          5]=                   0
cycle                10000:bit_error_cnt[          6]=                   0
cycle                10000:bit_error_cnt[          7]=                   0
cycle                10000:bit_error_cnt[          8]=                   0
cycle                10000:bit_error_cnt[          9]=                   0
cycle                10000:bit_error_cnt[         10]=                   0
cycle                10000:bit_error_cnt[         11]=                   0
cycle                10000:bit_error_cnt[         12]=                   0
cycle                10000:bit_error_cnt[         13]=                   0
cycle                10000:bit_error_cnt[         14]=                   0
cycle                10000:bit_error_cnt[         15]=                   0
cycle                10000:bit_error_cnt[         16]=                   0
cycle                10000:bit_error_cnt[         17]=                   0
cycle                10000:bit_error_cnt[         18]=                   0
cycle                10000:bit_error_cnt[         19]=                   0
cycle                10000:bit_error_cnt[         20]=                   0
cycle                10000:bit_error_cnt[         21]=                   0
cycle                10000:bit_error_cnt[         22]=                   0
cycle                10000:bit_error_cnt[         23]=                   0
cycle                10000:bit_error_cnt[         24]=                   0
cycle                10000:bit_error_cnt[         25]=                   0
cycle                10000:bit_error_cnt[         26]=                   0
cycle                10000:bit_error_cnt[         27]=                   0
cycle                10000:bit_error_cnt[         28]=                   0
cycle                10000:bit_error_cnt[         29]=                   0
cycle                10000:bit_error_cnt[         30]=                   0
cycle                10000:bit_error_cnt[         31]=                   0
cycle                10000:bit_error_cnt[         32]=                   0
cycle                10000:bit_error_cnt[         33]=                   0
cycle                10000:bit_error_cnt[         34]=                   0
cycle                10000:bit_error_cnt[         35]=                   0
cycle                10000:bit_error_cnt[         36]=                   0
cycle                10000:bit_error_cnt[         37]=                7255
cycle                10000:bit_error_cnt[         38]=                7588
cycle                10000:bit_error_cnt[         39]=                7149
cycle                10000:bit_error_cnt[         40]=                7198
cycle                10000:bit_error_cnt[         41]=                7131
cycle                10000:bit_error_cnt[         42]=                6914
cycle                10000:bit_error_cnt[         43]=                6810
cycle                10000:bit_error_cnt[         44]=                6705
cycle                10000:bit_error_cnt[         45]=                6891
cycle                10000:bit_error_cnt[         46]=                6497
cycle                10000:bit_error_cnt[         47]=                5999
cycle                10000:bit_error_cnt[         48]=                5711
cycle                10000:bit_error_cnt[         49]=                5857
cycle                10000:bit_error_cnt[         50]=                5798
cycle                10000:bit_error_cnt[         51]=                5906
cycle                10000:bit_error_cnt[         52]=                6070
cycle                10000:bit_error_cnt[         53]=                5724
cycle                10000:bit_error_cnt[         54]=                5466
cycle                10000:bit_error_cnt[         55]=                5430
cycle                10000:bit_error_cnt[         56]=                5104
cycle                10000:bit_error_cnt[         57]=                4862
cycle                10000:bit_error_cnt[         58]=                4957
cycle                10000:bit_error_cnt[         59]=                4710
cycle                10000:bit_error_cnt[         60]=                3962
cycle                10000:bit_error_cnt[         61]=                1955
cycle                10000:bit_error_cnt[         62]=                 940
cycle                10000:bit_error_cnt[         63]=                 481
cycle                10000:bit_error_cnt[         64]=                1693
cycle                10000:bit_error_cnt[         65]=                1383
cycle                10000:bit_error_cnt[         66]=                1257
cycle                10000:bit_error_cnt[         67]=                1232
cycle                10000:bit_error_cnt[         68]=                1165
cycle                10000:bit_error_cnt[         69]=                 851
