cycle                10000:bit_error_cnt[          0]=                8065
cycle                10000:bit_error_cnt[          1]=                8891
cycle                10000:bit_error_cnt[          2]=                8362
cycle                10000:bit_error_cnt[          3]=                8020
cycle                10000:bit_error_cnt[          4]=                7898
cycle                10000:bit_error_cnt[          5]=                7491
cycle                10000:bit_error_cnt[          6]=                7238
cycle                10000:bit_error_cnt[          7]=                7100
cycle                10000:bit_error_cnt[          8]=                7116
cycle                10000:bit_error_cnt[          9]=                6445
cycle                10000:bit_error_cnt[         10]=                5959
cycle                10000:bit_error_cnt[         11]=                5865
cycle                10000:bit_error_cnt[         12]=                6069
cycle                10000:bit_error_cnt[         13]=                5965
cycle                10000:bit_error_cnt[         14]=                5999
cycle                10000:bit_error_cnt[         15]=                6845
cycle                10000:bit_error_cnt[         16]=                6390
cycle                10000:bit_error_cnt[         17]=                5662
cycle                10000:bit_error_cnt[         18]=                5765
cycle                10000:bit_error_cnt[         19]=                5645
cycle                10000:bit_error_cnt[         20]=                5696
cycle                10000:bit_error_cnt[         21]=                5733
cycle                10000:bit_error_cnt[         22]=                5434
cycle                10000:bit_error_cnt[         23]=                5321
cycle                10000:bit_error_cnt[         24]=                5164
cycle                10000:bit_error_cnt[         25]=                5541
cycle                10000:bit_error_cnt[         26]=                1065
cycle                10000:bit_error_cnt[         27]=                6206
cycle                10000:bit_error_cnt[         28]=                3545
cycle                10000:bit_error_cnt[         29]=                3250
cycle                10000:bit_error_cnt[         30]=                5723
cycle                10000:bit_error_cnt[         31]=                 637
cycle                10000:bit_error_cnt[         32]=                4934
cycle                10000:bit_error_cnt[         33]=                3315
