cycle                10000:bit_error_cnt[          0]=                   2
cycle                10000:bit_error_cnt[          1]=                   2
cycle                10000:bit_error_cnt[          2]=                   0
cycle                10000:bit_error_cnt[          3]=                 480
cycle                10000:bit_error_cnt[          4]=                 820
cycle                10000:bit_error_cnt[          5]=                1401
cycle                10000:bit_error_cnt[          6]=                1090
cycle                10000:bit_error_cnt[          7]=                1087
cycle                10000:bit_error_cnt[          8]=                1527
cycle                10000:bit_error_cnt[          9]=                1446
cycle                10000:bit_error_cnt[         10]=                2691
cycle                10000:bit_error_cnt[         11]=                4747
cycle                10000:bit_error_cnt[         12]=                5918
cycle                10000:bit_error_cnt[         13]=                6082
cycle                10000:bit_error_cnt[         14]=                6152
cycle                10000:bit_error_cnt[         15]=                6176
cycle                10000:bit_error_cnt[         16]=                6271
cycle                10000:bit_error_cnt[         17]=                6398
cycle                10000:bit_error_cnt[         18]=                5943
cycle                10000:bit_error_cnt[         19]=                6093
cycle                10000:bit_error_cnt[         20]=                6016
cycle                10000:bit_error_cnt[         21]=                6281
cycle                10000:bit_error_cnt[         22]=                6753
cycle                10000:bit_error_cnt[         23]=                6398
cycle                10000:bit_error_cnt[         24]=                6584
cycle                10000:bit_error_cnt[         25]=                6484
cycle                10000:bit_error_cnt[         26]=                6571
cycle                10000:bit_error_cnt[         27]=                6885
cycle                10000:bit_error_cnt[         28]=                6745
cycle                10000:bit_error_cnt[         29]=                6769
cycle                10000:bit_error_cnt[         30]=                6868
cycle                10000:bit_error_cnt[         31]=                6943
cycle                10000:bit_error_cnt[         32]=                6726
cycle                10000:bit_error_cnt[         33]=                6548
cycle                10000:bit_error_cnt[         34]=                6501
cycle                10000:bit_error_cnt[         35]=                6462
cycle                10000:bit_error_cnt[         36]=                5876
cycle                10000:bit_error_cnt[         37]=                5468
cycle                10000:bit_error_cnt[         38]=                5342
cycle                10000:bit_error_cnt[         39]=                5754
cycle                10000:bit_error_cnt[         40]=                5163
cycle                10000:bit_error_cnt[         41]=                4982
cycle                10000:bit_error_cnt[         42]=                5977
cycle                10000:bit_error_cnt[         43]=                4599
cycle                10000:bit_error_cnt[         44]=                4102
cycle                10000:bit_error_cnt[         45]=                3787
cycle                10000:bit_error_cnt[         46]=                3422
cycle                10000:bit_error_cnt[         47]=                3787
cycle                10000:bit_error_cnt[         48]=                2874
cycle                10000:bit_error_cnt[         49]=                1888
cycle                10000:bit_error_cnt[         50]=                1910
cycle                10000:bit_error_cnt[         51]=                   2
cycle                10000:bit_error_cnt[         52]=                   2
cycle                10000:bit_error_cnt[         53]=                   2
cycle                10000:bit_error_cnt[         54]=                1178
cycle                10000:bit_error_cnt[         55]=                1045
cycle                10000:bit_error_cnt[         56]=                1057
cycle                10000:bit_error_cnt[         57]=                 600
cycle                10000:bit_error_cnt[         58]=                 320
cycle                10000:bit_error_cnt[         59]=                2874
cycle                10000:bit_error_cnt[         60]=                3340
cycle                10000:bit_error_cnt[         61]=                 891
