cycle                10000:bit_error_cnt[          0]=                   1
cycle                10000:bit_error_cnt[          1]=                   2
cycle                10000:bit_error_cnt[          2]=                   1
cycle                10000:bit_error_cnt[          3]=                   1
cycle                10000:bit_error_cnt[          4]=                4690
cycle                10000:bit_error_cnt[          5]=                4966
cycle                10000:bit_error_cnt[          6]=                5034
cycle                10000:bit_error_cnt[          7]=                5035
cycle                10000:bit_error_cnt[          8]=                4981
cycle                10000:bit_error_cnt[          9]=                5076
cycle                10000:bit_error_cnt[         10]=                5011
cycle                10000:bit_error_cnt[         11]=                5035
cycle                10000:bit_error_cnt[         12]=                5013
cycle                10000:bit_error_cnt[         13]=                5033
cycle                10000:bit_error_cnt[         14]=                4982
cycle                10000:bit_error_cnt[         15]=                5033
cycle                10000:bit_error_cnt[         16]=                5006
cycle                10000:bit_error_cnt[         17]=                4986
cycle                10000:bit_error_cnt[         18]=                5037
cycle                10000:bit_error_cnt[         19]=                4948
cycle                10000:bit_error_cnt[         20]=                5024
cycle                10000:bit_error_cnt[         21]=                5109
cycle                10000:bit_error_cnt[         22]=                4973
cycle                10000:bit_error_cnt[         23]=                4952
cycle                10000:bit_error_cnt[         24]=                4907
cycle                10000:bit_error_cnt[         25]=                5046
cycle                10000:bit_error_cnt[         26]=                5021
cycle                10000:bit_error_cnt[         27]=                4973
cycle                10000:bit_error_cnt[         28]=                4927
cycle                10000:bit_error_cnt[         29]=                4929
cycle                10000:bit_error_cnt[         30]=                4917
cycle                10000:bit_error_cnt[         31]=                4813
cycle                10000:bit_error_cnt[         32]=                4034
cycle                10000:bit_error_cnt[         33]=                   1
cycle                10000:bit_error_cnt[         34]=                   1
cycle                10000:bit_error_cnt[         35]=                3313
cycle                10000:bit_error_cnt[         36]=                4765
cycle                10000:bit_error_cnt[         37]=                4908
cycle                10000:bit_error_cnt[         38]=                5053
cycle                10000:bit_error_cnt[         39]=                4998
cycle                10000:bit_error_cnt[         40]=                5017
cycle                10000:bit_error_cnt[         41]=                5030
cycle                10000:bit_error_cnt[         42]=                5018
cycle                10000:bit_error_cnt[         43]=                5063
cycle                10000:bit_error_cnt[         44]=                5057
cycle                10000:bit_error_cnt[         45]=                4948
cycle                10000:bit_error_cnt[         46]=                5002
cycle                10000:bit_error_cnt[         47]=                5025
cycle                10000:bit_error_cnt[         48]=                4967
cycle                10000:bit_error_cnt[         49]=                5031
cycle                10000:bit_error_cnt[         50]=                5099
cycle                10000:bit_error_cnt[         51]=                5024
cycle                10000:bit_error_cnt[         52]=                4942
cycle                10000:bit_error_cnt[         53]=                5098
cycle                10000:bit_error_cnt[         54]=                4984
cycle                10000:bit_error_cnt[         55]=                5060
cycle                10000:bit_error_cnt[         56]=                5027
cycle                10000:bit_error_cnt[         57]=                4981
cycle                10000:bit_error_cnt[         58]=                5016
cycle                10000:bit_error_cnt[         59]=                4990
cycle                10000:bit_error_cnt[         60]=                4996
cycle                10000:bit_error_cnt[         61]=                5028
cycle                10000:bit_error_cnt[         62]=                5128
cycle                10000:bit_error_cnt[         63]=                4901
cycle                10000:bit_error_cnt[         64]=                4976
cycle                10000:bit_error_cnt[         65]=                5036
cycle                10000:bit_error_cnt[         66]=                5148
cycle                10000:bit_error_cnt[         67]=                5034
cycle                10000:bit_error_cnt[         68]=                5029
cycle                10000:bit_error_cnt[         69]=                4940
cycle                10000:bit_error_cnt[         70]=                4957
cycle                10000:bit_error_cnt[         71]=                5113
cycle                10000:bit_error_cnt[         72]=                4877
cycle                10000:bit_error_cnt[         73]=                3831
cycle                10000:bit_error_cnt[         74]=                   1
cycle                10000:bit_error_cnt[         75]=                   1
cycle                10000:bit_error_cnt[         76]=                1212
cycle                10000:bit_error_cnt[         77]=                1373
cycle                10000:bit_error_cnt[         78]=                2168
cycle                10000:bit_error_cnt[         79]=                1926
cycle                10000:bit_error_cnt[         80]=                5061
cycle                10000:bit_error_cnt[         81]=                2884
cycle                10000:bit_error_cnt[         82]=                2416
cycle                10000:bit_error_cnt[         83]=                   0
cycle                10000:bit_error_cnt[         84]=                   1
cycle                10000:bit_error_cnt[         85]=                   0
cycle                10000:bit_error_cnt[         86]=                   0
cycle                10000:bit_error_cnt[         87]=                   0
cycle                10000:bit_error_cnt[         88]=                   0
cycle                10000:bit_error_cnt[         89]=                   0
cycle                10000:bit_error_cnt[         90]=                   0
cycle                10000:bit_error_cnt[         91]=                   0
cycle                10000:bit_error_cnt[         92]=                   0
cycle                10000:bit_error_cnt[         93]=                   0
cycle                10000:bit_error_cnt[         94]=                   0
