cycle                10000:bit_error_cnt[          0]=                   3
cycle                10000:bit_error_cnt[          1]=                   3
cycle                10000:bit_error_cnt[          2]=                   3
cycle                10000:bit_error_cnt[          3]=                   0
cycle                10000:bit_error_cnt[          4]=                  26
cycle                10000:bit_error_cnt[          5]=                  49
cycle                10000:bit_error_cnt[          6]=                  54
cycle                10000:bit_error_cnt[          7]=                  61
cycle                10000:bit_error_cnt[          8]=                  61
cycle                10000:bit_error_cnt[          9]=                  62
cycle                10000:bit_error_cnt[         10]=                  68
cycle                10000:bit_error_cnt[         11]=                  57
cycle                10000:bit_error_cnt[         12]=                  57
cycle                10000:bit_error_cnt[         13]=                  78
cycle                10000:bit_error_cnt[         14]=                  90
cycle                10000:bit_error_cnt[         15]=                 159
cycle                10000:bit_error_cnt[         16]=                 203
cycle                10000:bit_error_cnt[         17]=                 406
cycle                10000:bit_error_cnt[         18]=                 407
cycle                10000:bit_error_cnt[         19]=                 278
cycle                10000:bit_error_cnt[         20]=                 226
cycle                10000:bit_error_cnt[         21]=                 188
cycle                10000:bit_error_cnt[         22]=                 173
cycle                10000:bit_error_cnt[         23]=                 218
cycle                10000:bit_error_cnt[         24]=                 201
cycle                10000:bit_error_cnt[         25]=                 528
cycle                10000:bit_error_cnt[         26]=                 648
cycle                10000:bit_error_cnt[         27]=                 604
cycle                10000:bit_error_cnt[         28]=                 902
cycle                10000:bit_error_cnt[         29]=                1826
cycle                10000:bit_error_cnt[         30]=                1806
cycle                10000:bit_error_cnt[         31]=                1171
cycle                10000:bit_error_cnt[         32]=                 984
cycle                10000:bit_error_cnt[         33]=                 830
cycle                10000:bit_error_cnt[         34]=                1106
cycle                10000:bit_error_cnt[         35]=                1138
cycle                10000:bit_error_cnt[         36]=                1051
cycle                10000:bit_error_cnt[         37]=                 902
cycle                10000:bit_error_cnt[         38]=                 986
cycle                10000:bit_error_cnt[         39]=                 887
cycle                10000:bit_error_cnt[         40]=                 700
cycle                10000:bit_error_cnt[         41]=                 715
cycle                10000:bit_error_cnt[         42]=                 696
cycle                10000:bit_error_cnt[         43]=                 578
cycle                10000:bit_error_cnt[         44]=                 452
cycle                10000:bit_error_cnt[         45]=                 419
cycle                10000:bit_error_cnt[         46]=                 350
cycle                10000:bit_error_cnt[         47]=                 309
cycle                10000:bit_error_cnt[         48]=                 258
cycle                10000:bit_error_cnt[         49]=                 135
cycle                10000:bit_error_cnt[         50]=                  61
cycle                10000:bit_error_cnt[         51]=                 604
cycle                10000:bit_error_cnt[         52]=                 902
cycle                10000:bit_error_cnt[         53]=                1826
cycle                10000:bit_error_cnt[         54]=                1806
cycle                10000:bit_error_cnt[         55]=                1171
cycle                10000:bit_error_cnt[         56]=                 984
cycle                10000:bit_error_cnt[         57]=                 830
cycle                10000:bit_error_cnt[         58]=                1106
cycle                10000:bit_error_cnt[         59]=                1138
cycle                10000:bit_error_cnt[         60]=                1051
cycle                10000:bit_error_cnt[         61]=                 902
cycle                10000:bit_error_cnt[         62]=                 986
cycle                10000:bit_error_cnt[         63]=                 887
cycle                10000:bit_error_cnt[         64]=                 700
cycle                10000:bit_error_cnt[         65]=                 715
cycle                10000:bit_error_cnt[         66]=                 696
cycle                10000:bit_error_cnt[         67]=                 578
cycle                10000:bit_error_cnt[         68]=                 452
cycle                10000:bit_error_cnt[         69]=                 419
cycle                10000:bit_error_cnt[         70]=                 350
cycle                10000:bit_error_cnt[         71]=                 309
cycle                10000:bit_error_cnt[         72]=                 258
cycle                10000:bit_error_cnt[         73]=                 135
cycle                10000:bit_error_cnt[         74]=                  61
cycle                10000:bit_error_cnt[         75]=                 100
cycle                10000:bit_error_cnt[         76]=                  51
cycle                10000:bit_error_cnt[         77]=                1049
cycle                10000:bit_error_cnt[         78]=                 607
cycle                10000:bit_error_cnt[         79]=                 566
cycle                10000:bit_error_cnt[         80]=                 355
cycle                10000:bit_error_cnt[         81]=                 144
cycle                10000:bit_error_cnt[         82]=                 108
cycle                10000:bit_error_cnt[         83]=                  88
cycle                10000:bit_error_cnt[         84]=                  30
