cycle                10000:bit_error_cnt[          0]=                  85
cycle                10000:bit_error_cnt[          1]=                 180
cycle                10000:bit_error_cnt[          2]=                   0
cycle                10000:bit_error_cnt[          3]=                2583
cycle                10000:bit_error_cnt[          4]=                4918
cycle                10000:bit_error_cnt[          5]=                5183
cycle                10000:bit_error_cnt[          6]=                5250
cycle                10000:bit_error_cnt[          7]=                5395
cycle                10000:bit_error_cnt[          8]=                5437
cycle                10000:bit_error_cnt[          9]=                5731
cycle                10000:bit_error_cnt[         10]=                5658
cycle                10000:bit_error_cnt[         11]=                6128
cycle                10000:bit_error_cnt[         12]=                6377
cycle                10000:bit_error_cnt[         13]=                6648
cycle                10000:bit_error_cnt[         14]=                7047
cycle                10000:bit_error_cnt[         15]=                7218
cycle                10000:bit_error_cnt[         16]=                7040
cycle                10000:bit_error_cnt[         17]=                7194
cycle                10000:bit_error_cnt[         18]=                6958
cycle                10000:bit_error_cnt[         19]=                7050
cycle                10000:bit_error_cnt[         20]=                7200
cycle                10000:bit_error_cnt[         21]=                7248
cycle                10000:bit_error_cnt[         22]=                7164
cycle                10000:bit_error_cnt[         23]=                7075
cycle                10000:bit_error_cnt[         24]=                6985
cycle                10000:bit_error_cnt[         25]=                7061
cycle                10000:bit_error_cnt[         26]=                6965
cycle                10000:bit_error_cnt[         27]=                7144
cycle                10000:bit_error_cnt[         28]=                7374
cycle                10000:bit_error_cnt[         29]=                6973
cycle                10000:bit_error_cnt[         30]=                7184
cycle                10000:bit_error_cnt[         31]=                7297
cycle                10000:bit_error_cnt[         32]=                7041
cycle                10000:bit_error_cnt[         33]=                6954
cycle                10000:bit_error_cnt[         34]=                6813
cycle                10000:bit_error_cnt[         35]=                6869
cycle                10000:bit_error_cnt[         36]=                6393
cycle                10000:bit_error_cnt[         37]=                5998
cycle                10000:bit_error_cnt[         38]=                5817
cycle                10000:bit_error_cnt[         39]=                6045
cycle                10000:bit_error_cnt[         40]=                5811
cycle                10000:bit_error_cnt[         41]=                5915
cycle                10000:bit_error_cnt[         42]=                6206
cycle                10000:bit_error_cnt[         43]=                6009
cycle                10000:bit_error_cnt[         44]=                5721
cycle                10000:bit_error_cnt[         45]=                5679
cycle                10000:bit_error_cnt[         46]=                5579
cycle                10000:bit_error_cnt[         47]=                5599
cycle                10000:bit_error_cnt[         48]=                5642
cycle                10000:bit_error_cnt[         49]=                5664
cycle                10000:bit_error_cnt[         50]=                5337
cycle                10000:bit_error_cnt[         51]=                6244
cycle                10000:bit_error_cnt[         52]=                5058
cycle                10000:bit_error_cnt[         53]=                5827
cycle                10000:bit_error_cnt[         54]=                5838
cycle                10000:bit_error_cnt[         55]=                5863
cycle                10000:bit_error_cnt[         56]=                5087
cycle                10000:bit_error_cnt[         57]=                5103
cycle                10000:bit_error_cnt[         58]=                5270
cycle                10000:bit_error_cnt[         59]=                5068
cycle                10000:bit_error_cnt[         60]=                3748
cycle                10000:bit_error_cnt[         61]=                2404
