cycle                10000:bit_error_cnt[          0]=                   1
cycle                10000:bit_error_cnt[          1]=                   1
cycle                10000:bit_error_cnt[          2]=                   1
cycle                10000:bit_error_cnt[          3]=                   1
cycle                10000:bit_error_cnt[          4]=                   1
cycle                10000:bit_error_cnt[          5]=                   1
cycle                10000:bit_error_cnt[          6]=                   1
cycle                10000:bit_error_cnt[          7]=                2076
cycle                10000:bit_error_cnt[          8]=                 494
cycle                10000:bit_error_cnt[          9]=                   8
cycle                10000:bit_error_cnt[         10]=                1357
cycle                10000:bit_error_cnt[         11]=                1177
cycle                10000:bit_error_cnt[         12]=                1570
cycle                10000:bit_error_cnt[         13]=                1125
cycle                10000:bit_error_cnt[         14]=                1262
cycle                10000:bit_error_cnt[         15]=                1655
cycle                10000:bit_error_cnt[         16]=                1053
cycle                10000:bit_error_cnt[         17]=                 669
cycle                10000:bit_error_cnt[         18]=                 802
cycle                10000:bit_error_cnt[         19]=                 454
cycle                10000:bit_error_cnt[         20]=                 869
cycle                10000:bit_error_cnt[         21]=                1025
cycle                10000:bit_error_cnt[         22]=                 430
cycle                10000:bit_error_cnt[         23]=                1022
cycle                10000:bit_error_cnt[         24]=                1525
cycle                10000:bit_error_cnt[         25]=                1285
cycle                10000:bit_error_cnt[         26]=                 992
cycle                10000:bit_error_cnt[         27]=                 940
cycle                10000:bit_error_cnt[         28]=                1790
cycle                10000:bit_error_cnt[         29]=                1898
cycle                10000:bit_error_cnt[         30]=                1961
cycle                10000:bit_error_cnt[         31]=                2039
cycle                10000:bit_error_cnt[         32]=                1359
cycle                10000:bit_error_cnt[         33]=                   1
cycle                10000:bit_error_cnt[         34]=                   1
cycle                10000:bit_error_cnt[         35]=                   1
cycle                10000:bit_error_cnt[         36]=                   1
cycle                10000:bit_error_cnt[         37]=                   1
cycle                10000:bit_error_cnt[         38]=                   1
cycle                10000:bit_error_cnt[         39]=                 617
cycle                10000:bit_error_cnt[         40]=                  12
cycle                10000:bit_error_cnt[         41]=                 350
cycle                10000:bit_error_cnt[         42]=                 283
cycle                10000:bit_error_cnt[         43]=                   1
cycle                10000:bit_error_cnt[         44]=                1802
cycle                10000:bit_error_cnt[         45]=                2383
cycle                10000:bit_error_cnt[         46]=                1840
cycle                10000:bit_error_cnt[         47]=                2092
cycle                10000:bit_error_cnt[         48]=                3045
cycle                10000:bit_error_cnt[         49]=                3427
cycle                10000:bit_error_cnt[         50]=                4915
cycle                10000:bit_error_cnt[         51]=                4733
cycle                10000:bit_error_cnt[         52]=                4585
cycle                10000:bit_error_cnt[         53]=                4268
cycle                10000:bit_error_cnt[         54]=                4167
cycle                10000:bit_error_cnt[         55]=                3906
cycle                10000:bit_error_cnt[         56]=                4749
cycle                10000:bit_error_cnt[         57]=                4193
cycle                10000:bit_error_cnt[         58]=                4391
cycle                10000:bit_error_cnt[         59]=                4549
cycle                10000:bit_error_cnt[         60]=                4876
cycle                10000:bit_error_cnt[         61]=                4280
cycle                10000:bit_error_cnt[         62]=                4714
cycle                10000:bit_error_cnt[         63]=                4444
cycle                10000:bit_error_cnt[         64]=                4326
cycle                10000:bit_error_cnt[         65]=                4068
cycle                10000:bit_error_cnt[         66]=                3886
cycle                10000:bit_error_cnt[         67]=                4214
cycle                10000:bit_error_cnt[         68]=                3903
cycle                10000:bit_error_cnt[         69]=                3413
cycle                10000:bit_error_cnt[         70]=                2030
cycle                10000:bit_error_cnt[         71]=                3232
cycle                10000:bit_error_cnt[         72]=                3309
cycle                10000:bit_error_cnt[         73]=                2727
cycle                10000:bit_error_cnt[         74]=                   1
cycle                10000:bit_error_cnt[         75]=                   1
cycle                10000:bit_error_cnt[         76]=                   1
cycle                10000:bit_error_cnt[         77]=                   1
cycle                10000:bit_error_cnt[         78]=                   1
cycle                10000:bit_error_cnt[         79]=                 171
cycle                10000:bit_error_cnt[         80]=                 164
cycle                10000:bit_error_cnt[         81]=                 633
cycle                10000:bit_error_cnt[         82]=                 227
cycle                10000:bit_error_cnt[         83]=                   0
cycle                10000:bit_error_cnt[         84]=                   1
cycle                10000:bit_error_cnt[         85]=                   0
cycle                10000:bit_error_cnt[         86]=                   0
cycle                10000:bit_error_cnt[         87]=                   0
cycle                10000:bit_error_cnt[         88]=                   0
cycle                10000:bit_error_cnt[         89]=                   0
cycle                10000:bit_error_cnt[         90]=                   0
cycle                10000:bit_error_cnt[         91]=                   0
cycle                10000:bit_error_cnt[         92]=                   0
cycle                10000:bit_error_cnt[         93]=                   0
cycle                10000:bit_error_cnt[         94]=                   0
