cycle                10000:bit_error_cnt[          0]=                   4
cycle                10000:bit_error_cnt[          1]=                   4
cycle                10000:bit_error_cnt[          2]=                   4
cycle                10000:bit_error_cnt[          3]=                4241
cycle                10000:bit_error_cnt[          4]=                   0
cycle                10000:bit_error_cnt[          5]=                   0
cycle                10000:bit_error_cnt[          6]=                   0
cycle                10000:bit_error_cnt[          7]=                   0
cycle                10000:bit_error_cnt[          8]=                   0
cycle                10000:bit_error_cnt[          9]=                   0
cycle                10000:bit_error_cnt[         10]=                   0
cycle                10000:bit_error_cnt[         11]=                   0
cycle                10000:bit_error_cnt[         12]=                   0
cycle                10000:bit_error_cnt[         13]=                   0
cycle                10000:bit_error_cnt[         14]=                   0
cycle                10000:bit_error_cnt[         15]=                   0
cycle                10000:bit_error_cnt[         16]=                   0
cycle                10000:bit_error_cnt[         17]=                   0
cycle                10000:bit_error_cnt[         18]=                   0
cycle                10000:bit_error_cnt[         19]=                   0
cycle                10000:bit_error_cnt[         20]=                   0
cycle                10000:bit_error_cnt[         21]=                   0
cycle                10000:bit_error_cnt[         22]=                   0
cycle                10000:bit_error_cnt[         23]=                   0
cycle                10000:bit_error_cnt[         24]=                   0
cycle                10000:bit_error_cnt[         25]=                   0
cycle                10000:bit_error_cnt[         26]=                   0
cycle                10000:bit_error_cnt[         27]=                   0
cycle                10000:bit_error_cnt[         28]=                   0
cycle                10000:bit_error_cnt[         29]=                   0
cycle                10000:bit_error_cnt[         30]=                   0
cycle                10000:bit_error_cnt[         31]=                   0
cycle                10000:bit_error_cnt[         32]=                   0
cycle                10000:bit_error_cnt[         33]=                   0
cycle                10000:bit_error_cnt[         34]=                   0
cycle                10000:bit_error_cnt[         35]=                   0
cycle                10000:bit_error_cnt[         36]=                   0
cycle                10000:bit_error_cnt[         37]=                5154
cycle                10000:bit_error_cnt[         38]=                5742
cycle                10000:bit_error_cnt[         39]=                5327
cycle                10000:bit_error_cnt[         40]=                4880
cycle                10000:bit_error_cnt[         41]=                4826
cycle                10000:bit_error_cnt[         42]=                4683
cycle                10000:bit_error_cnt[         43]=                4961
cycle                10000:bit_error_cnt[         44]=                4912
cycle                10000:bit_error_cnt[         45]=                4743
cycle                10000:bit_error_cnt[         46]=                4513
cycle                10000:bit_error_cnt[         47]=                4274
cycle                10000:bit_error_cnt[         48]=                4179
cycle                10000:bit_error_cnt[         49]=                3533
cycle                10000:bit_error_cnt[         50]=                3116
cycle                10000:bit_error_cnt[         51]=                3408
cycle                10000:bit_error_cnt[         52]=                2999
cycle                10000:bit_error_cnt[         53]=                2717
cycle                10000:bit_error_cnt[         54]=                2590
cycle                10000:bit_error_cnt[         55]=                2465
cycle                10000:bit_error_cnt[         56]=                2196
cycle                10000:bit_error_cnt[         57]=                1747
cycle                10000:bit_error_cnt[         58]=                1119
cycle                10000:bit_error_cnt[         59]=                 684
cycle                10000:bit_error_cnt[         60]=                1043
cycle                10000:bit_error_cnt[         61]=                 517
cycle                10000:bit_error_cnt[         62]=                 266
cycle                10000:bit_error_cnt[         63]=                 128
cycle                10000:bit_error_cnt[         64]=                  66
cycle                10000:bit_error_cnt[         65]=                 134
cycle                10000:bit_error_cnt[         66]=                 128
cycle                10000:bit_error_cnt[         67]=                 258
cycle                10000:bit_error_cnt[         68]=                 223
cycle                10000:bit_error_cnt[         69]=                 183
