cycle                10000:bit_error_cnt[          0]=               10000
cycle                10000:bit_error_cnt[          1]=               10000
cycle                10000:bit_error_cnt[          2]=                3252
cycle                10000:bit_error_cnt[          3]=                4888
cycle                10000:bit_error_cnt[          4]=                8838
cycle                10000:bit_error_cnt[          5]=                8627
cycle                10000:bit_error_cnt[          6]=                9966
cycle                10000:bit_error_cnt[          7]=                9821
cycle                10000:bit_error_cnt[          8]=                9976
cycle                10000:bit_error_cnt[          9]=                9902
cycle                10000:bit_error_cnt[         10]=                9962
cycle                10000:bit_error_cnt[         11]=                9966
cycle                10000:bit_error_cnt[         12]=                9991
cycle                10000:bit_error_cnt[         13]=                9966
cycle                10000:bit_error_cnt[         14]=                9854
cycle                10000:bit_error_cnt[         15]=                9684
cycle                10000:bit_error_cnt[         16]=                9483
cycle                10000:bit_error_cnt[         17]=                9342
cycle                10000:bit_error_cnt[         18]=                9174
cycle                10000:bit_error_cnt[         19]=                9167
cycle                10000:bit_error_cnt[         20]=                9194
cycle                10000:bit_error_cnt[         21]=                9096
cycle                10000:bit_error_cnt[         22]=                9148
cycle                10000:bit_error_cnt[         23]=                9236
cycle                10000:bit_error_cnt[         24]=                9250
cycle                10000:bit_error_cnt[         25]=                9293
cycle                10000:bit_error_cnt[         26]=                9255
cycle                10000:bit_error_cnt[         27]=                9220
cycle                10000:bit_error_cnt[         28]=                9312
cycle                10000:bit_error_cnt[         29]=                9446
cycle                10000:bit_error_cnt[         30]=                9481
cycle                10000:bit_error_cnt[         31]=                9455
cycle                10000:bit_error_cnt[         32]=                9290
cycle                10000:bit_error_cnt[         33]=                3127
cycle                10000:bit_error_cnt[         34]=                4951
cycle                10000:bit_error_cnt[         35]=                8097
cycle                10000:bit_error_cnt[         36]=                9131
cycle                10000:bit_error_cnt[         37]=                9763
cycle                10000:bit_error_cnt[         38]=                9888
cycle                10000:bit_error_cnt[         39]=                9994
cycle                10000:bit_error_cnt[         40]=                9998
cycle                10000:bit_error_cnt[         41]=                9999
cycle                10000:bit_error_cnt[         42]=               10000
cycle                10000:bit_error_cnt[         43]=                9997
cycle                10000:bit_error_cnt[         44]=               10000
cycle                10000:bit_error_cnt[         45]=               10000
cycle                10000:bit_error_cnt[         46]=               10000
cycle                10000:bit_error_cnt[         47]=               10000
cycle                10000:bit_error_cnt[         48]=               10000
cycle                10000:bit_error_cnt[         49]=               10000
cycle                10000:bit_error_cnt[         50]=               10000
cycle                10000:bit_error_cnt[         51]=               10000
cycle                10000:bit_error_cnt[         52]=               10000
cycle                10000:bit_error_cnt[         53]=               10000
cycle                10000:bit_error_cnt[         54]=               10000
cycle                10000:bit_error_cnt[         55]=               10000
cycle                10000:bit_error_cnt[         56]=                9999
cycle                10000:bit_error_cnt[         57]=               10000
cycle                10000:bit_error_cnt[         58]=                9999
cycle                10000:bit_error_cnt[         59]=                9999
cycle                10000:bit_error_cnt[         60]=                9998
cycle                10000:bit_error_cnt[         61]=               10000
cycle                10000:bit_error_cnt[         62]=               10000
cycle                10000:bit_error_cnt[         63]=                9999
cycle                10000:bit_error_cnt[         64]=               10000
cycle                10000:bit_error_cnt[         65]=                9999
cycle                10000:bit_error_cnt[         66]=                9994
cycle                10000:bit_error_cnt[         67]=                9989
cycle                10000:bit_error_cnt[         68]=                9994
cycle                10000:bit_error_cnt[         69]=                9973
cycle                10000:bit_error_cnt[         70]=                9966
cycle                10000:bit_error_cnt[         71]=                9931
cycle                10000:bit_error_cnt[         72]=                9787
cycle                10000:bit_error_cnt[         73]=                9744
cycle                10000:bit_error_cnt[         74]=               10000
cycle                10000:bit_error_cnt[         75]=               10000
cycle                10000:bit_error_cnt[         76]=               10000
cycle                10000:bit_error_cnt[         77]=               10000
cycle                10000:bit_error_cnt[         78]=               10000
cycle                10000:bit_error_cnt[         79]=               10000
cycle                10000:bit_error_cnt[         80]=               10000
cycle                10000:bit_error_cnt[         81]=               10000
cycle                10000:bit_error_cnt[         82]=               10000
cycle                10000:bit_error_cnt[         83]=                   0
cycle                10000:bit_error_cnt[         84]=               10000
cycle                10000:bit_error_cnt[         85]=                   0
cycle                10000:bit_error_cnt[         86]=                   0
cycle                10000:bit_error_cnt[         87]=                   0
cycle                10000:bit_error_cnt[         88]=                   0
cycle                10000:bit_error_cnt[         89]=                   0
cycle                10000:bit_error_cnt[         90]=                   0
cycle                10000:bit_error_cnt[         91]=                   0
cycle                10000:bit_error_cnt[         92]=                   0
cycle                10000:bit_error_cnt[         93]=                   0
cycle                10000:bit_error_cnt[         94]=                   0
