cycle                10000:bit_error_cnt[          0]=                  44
cycle                10000:bit_error_cnt[          1]=                 217
cycle                10000:bit_error_cnt[          2]=                   0
cycle                10000:bit_error_cnt[          3]=                2484
cycle                10000:bit_error_cnt[          4]=                5035
cycle                10000:bit_error_cnt[          5]=                5548
cycle                10000:bit_error_cnt[          6]=                5262
cycle                10000:bit_error_cnt[          7]=                5284
cycle                10000:bit_error_cnt[          8]=                5340
cycle                10000:bit_error_cnt[          9]=                5540
cycle                10000:bit_error_cnt[         10]=                5483
cycle                10000:bit_error_cnt[         11]=                6122
cycle                10000:bit_error_cnt[         12]=                6146
cycle                10000:bit_error_cnt[         13]=                6329
cycle                10000:bit_error_cnt[         14]=                6526
cycle                10000:bit_error_cnt[         15]=                6433
cycle                10000:bit_error_cnt[         16]=                6509
cycle                10000:bit_error_cnt[         17]=                6513
cycle                10000:bit_error_cnt[         18]=                6201
cycle                10000:bit_error_cnt[         19]=                6184
cycle                10000:bit_error_cnt[         20]=                6283
cycle                10000:bit_error_cnt[         21]=                6386
cycle                10000:bit_error_cnt[         22]=                6810
cycle                10000:bit_error_cnt[         23]=                6721
cycle                10000:bit_error_cnt[         24]=                6678
cycle                10000:bit_error_cnt[         25]=                6496
cycle                10000:bit_error_cnt[         26]=                6643
cycle                10000:bit_error_cnt[         27]=                6864
cycle                10000:bit_error_cnt[         28]=                6969
cycle                10000:bit_error_cnt[         29]=                6758
cycle                10000:bit_error_cnt[         30]=                6823
cycle                10000:bit_error_cnt[         31]=                6950
cycle                10000:bit_error_cnt[         32]=                6883
cycle                10000:bit_error_cnt[         33]=                6690
cycle                10000:bit_error_cnt[         34]=                6609
cycle                10000:bit_error_cnt[         35]=                6711
cycle                10000:bit_error_cnt[         36]=                6214
cycle                10000:bit_error_cnt[         37]=                5748
cycle                10000:bit_error_cnt[         38]=                5788
cycle                10000:bit_error_cnt[         39]=                6049
cycle                10000:bit_error_cnt[         40]=                5965
cycle                10000:bit_error_cnt[         41]=                5886
cycle                10000:bit_error_cnt[         42]=                6046
cycle                10000:bit_error_cnt[         43]=                5834
cycle                10000:bit_error_cnt[         44]=                5668
cycle                10000:bit_error_cnt[         45]=                5546
cycle                10000:bit_error_cnt[         46]=                5472
cycle                10000:bit_error_cnt[         47]=                5381
cycle                10000:bit_error_cnt[         48]=                5487
cycle                10000:bit_error_cnt[         49]=                5705
cycle                10000:bit_error_cnt[         50]=                5291
cycle                10000:bit_error_cnt[         51]=                6591
cycle                10000:bit_error_cnt[         52]=                5739
cycle                10000:bit_error_cnt[         53]=                6415
cycle                10000:bit_error_cnt[         54]=                6077
cycle                10000:bit_error_cnt[         55]=                6233
cycle                10000:bit_error_cnt[         56]=                5195
cycle                10000:bit_error_cnt[         57]=                5227
cycle                10000:bit_error_cnt[         58]=                5839
cycle                10000:bit_error_cnt[         59]=                5320
cycle                10000:bit_error_cnt[         60]=                4400
cycle                10000:bit_error_cnt[         61]=                2854
