cycle                10000:bit_error_cnt[          0]=                   1
cycle                10000:bit_error_cnt[          1]=                   1
cycle                10000:bit_error_cnt[          2]=                   1
cycle                10000:bit_error_cnt[          3]=                   1
cycle                10000:bit_error_cnt[          4]=                   1
cycle                10000:bit_error_cnt[          5]=                   1
cycle                10000:bit_error_cnt[          6]=                   1
cycle                10000:bit_error_cnt[          7]=                2151
cycle                10000:bit_error_cnt[          8]=                 527
cycle                10000:bit_error_cnt[          9]=                   1
cycle                10000:bit_error_cnt[         10]=                1177
cycle                10000:bit_error_cnt[         11]=                 880
cycle                10000:bit_error_cnt[         12]=                1191
cycle                10000:bit_error_cnt[         13]=                 662
cycle                10000:bit_error_cnt[         14]=                 845
cycle                10000:bit_error_cnt[         15]=                1384
cycle                10000:bit_error_cnt[         16]=                 638
cycle                10000:bit_error_cnt[         17]=                 514
cycle                10000:bit_error_cnt[         18]=                 643
cycle                10000:bit_error_cnt[         19]=                 248
cycle                10000:bit_error_cnt[         20]=                 586
cycle                10000:bit_error_cnt[         21]=                 707
cycle                10000:bit_error_cnt[         22]=                 284
cycle                10000:bit_error_cnt[         23]=                 781
cycle                10000:bit_error_cnt[         24]=                 925
cycle                10000:bit_error_cnt[         25]=                 902
cycle                10000:bit_error_cnt[         26]=                 571
cycle                10000:bit_error_cnt[         27]=                 659
cycle                10000:bit_error_cnt[         28]=                1423
cycle                10000:bit_error_cnt[         29]=                1394
cycle                10000:bit_error_cnt[         30]=                1802
cycle                10000:bit_error_cnt[         31]=                1931
cycle                10000:bit_error_cnt[         32]=                1357
cycle                10000:bit_error_cnt[         33]=                   1
cycle                10000:bit_error_cnt[         34]=                   1
cycle                10000:bit_error_cnt[         35]=                   1
cycle                10000:bit_error_cnt[         36]=                   1
cycle                10000:bit_error_cnt[         37]=                   1
cycle                10000:bit_error_cnt[         38]=                   1
cycle                10000:bit_error_cnt[         39]=                 459
cycle                10000:bit_error_cnt[         40]=                   2
cycle                10000:bit_error_cnt[         41]=                 132
cycle                10000:bit_error_cnt[         42]=                 183
cycle                10000:bit_error_cnt[         43]=                   1
cycle                10000:bit_error_cnt[         44]=                1511
cycle                10000:bit_error_cnt[         45]=                1937
cycle                10000:bit_error_cnt[         46]=                1180
cycle                10000:bit_error_cnt[         47]=                1483
cycle                10000:bit_error_cnt[         48]=                2447
cycle                10000:bit_error_cnt[         49]=                2657
cycle                10000:bit_error_cnt[         50]=                4792
cycle                10000:bit_error_cnt[         51]=                4459
cycle                10000:bit_error_cnt[         52]=                4203
cycle                10000:bit_error_cnt[         53]=                3569
cycle                10000:bit_error_cnt[         54]=                3391
cycle                10000:bit_error_cnt[         55]=                3002
cycle                10000:bit_error_cnt[         56]=                4448
cycle                10000:bit_error_cnt[         57]=                3553
cycle                10000:bit_error_cnt[         58]=                4106
cycle                10000:bit_error_cnt[         59]=                4133
cycle                10000:bit_error_cnt[         60]=                4491
cycle                10000:bit_error_cnt[         61]=                3942
cycle                10000:bit_error_cnt[         62]=                4468
cycle                10000:bit_error_cnt[         63]=                4081
cycle                10000:bit_error_cnt[         64]=                3914
cycle                10000:bit_error_cnt[         65]=                3512
cycle                10000:bit_error_cnt[         66]=                3634
cycle                10000:bit_error_cnt[         67]=                4001
cycle                10000:bit_error_cnt[         68]=                3818
cycle                10000:bit_error_cnt[         69]=                3013
cycle                10000:bit_error_cnt[         70]=                1776
cycle                10000:bit_error_cnt[         71]=                3317
cycle                10000:bit_error_cnt[         72]=                3473
cycle                10000:bit_error_cnt[         73]=                2701
cycle                10000:bit_error_cnt[         74]=                   1
cycle                10000:bit_error_cnt[         75]=                   1
cycle                10000:bit_error_cnt[         76]=                   1
cycle                10000:bit_error_cnt[         77]=                   1
cycle                10000:bit_error_cnt[         78]=                   1
cycle                10000:bit_error_cnt[         79]=                 194
cycle                10000:bit_error_cnt[         80]=                 161
cycle                10000:bit_error_cnt[         81]=                 760
cycle                10000:bit_error_cnt[         82]=                 315
cycle                10000:bit_error_cnt[         83]=                   0
cycle                10000:bit_error_cnt[         84]=                   1
cycle                10000:bit_error_cnt[         85]=                   0
cycle                10000:bit_error_cnt[         86]=                   0
cycle                10000:bit_error_cnt[         87]=                   0
cycle                10000:bit_error_cnt[         88]=                   0
cycle                10000:bit_error_cnt[         89]=                   0
cycle                10000:bit_error_cnt[         90]=                   0
cycle                10000:bit_error_cnt[         91]=                   0
cycle                10000:bit_error_cnt[         92]=                   0
cycle                10000:bit_error_cnt[         93]=                   0
cycle                10000:bit_error_cnt[         94]=                   0
