cycle                10000:bit_error_cnt[          0]=                6548
cycle                10000:bit_error_cnt[          1]=                  86
cycle                10000:bit_error_cnt[          2]=                 181
cycle                10000:bit_error_cnt[          3]=                   0
cycle                10000:bit_error_cnt[          4]=                3013
cycle                10000:bit_error_cnt[          5]=                5930
cycle                10000:bit_error_cnt[          6]=                6286
cycle                10000:bit_error_cnt[          7]=                6101
cycle                10000:bit_error_cnt[          8]=                6055
cycle                10000:bit_error_cnt[          9]=                5872
cycle                10000:bit_error_cnt[         10]=                6012
cycle                10000:bit_error_cnt[         11]=                6620
cycle                10000:bit_error_cnt[         12]=                6712
cycle                10000:bit_error_cnt[         13]=                7149
cycle                10000:bit_error_cnt[         14]=                7112
cycle                10000:bit_error_cnt[         15]=                7056
cycle                10000:bit_error_cnt[         16]=                7929
cycle                10000:bit_error_cnt[         17]=                7498
cycle                10000:bit_error_cnt[         18]=                7952
cycle                10000:bit_error_cnt[         19]=                7304
cycle                10000:bit_error_cnt[         20]=                6840
cycle                10000:bit_error_cnt[         21]=                6838
cycle                10000:bit_error_cnt[         22]=                7561
cycle                10000:bit_error_cnt[         23]=                7887
cycle                10000:bit_error_cnt[         24]=                6984
cycle                10000:bit_error_cnt[         25]=                7669
cycle                10000:bit_error_cnt[         26]=                8022
cycle                10000:bit_error_cnt[         27]=                7739
cycle                10000:bit_error_cnt[         28]=                8006
cycle                10000:bit_error_cnt[         29]=                7661
cycle                10000:bit_error_cnt[         30]=                7316
cycle                10000:bit_error_cnt[         31]=                7675
cycle                10000:bit_error_cnt[         32]=                7255
cycle                10000:bit_error_cnt[         33]=                7542
cycle                10000:bit_error_cnt[         34]=                7254
cycle                10000:bit_error_cnt[         35]=                7485
cycle                10000:bit_error_cnt[         36]=                7506
cycle                10000:bit_error_cnt[         37]=                7009
cycle                10000:bit_error_cnt[         38]=                6669
cycle                10000:bit_error_cnt[         39]=                6902
cycle                10000:bit_error_cnt[         40]=                6911
cycle                10000:bit_error_cnt[         41]=                6047
cycle                10000:bit_error_cnt[         42]=                6458
cycle                10000:bit_error_cnt[         43]=                6183
cycle                10000:bit_error_cnt[         44]=                5839
cycle                10000:bit_error_cnt[         45]=                6463
cycle                10000:bit_error_cnt[         46]=                6245
cycle                10000:bit_error_cnt[         47]=                6089
cycle                10000:bit_error_cnt[         48]=                5718
cycle                10000:bit_error_cnt[         49]=                5692
cycle                10000:bit_error_cnt[         50]=                5995
cycle                10000:bit_error_cnt[         51]=                7739
cycle                10000:bit_error_cnt[         52]=                8006
cycle                10000:bit_error_cnt[         53]=                7661
cycle                10000:bit_error_cnt[         54]=                7316
cycle                10000:bit_error_cnt[         55]=                7675
cycle                10000:bit_error_cnt[         56]=                7255
cycle                10000:bit_error_cnt[         57]=                7542
cycle                10000:bit_error_cnt[         58]=                7254
cycle                10000:bit_error_cnt[         59]=                7485
cycle                10000:bit_error_cnt[         60]=                7506
cycle                10000:bit_error_cnt[         61]=                7009
cycle                10000:bit_error_cnt[         62]=                6669
cycle                10000:bit_error_cnt[         63]=                6902
cycle                10000:bit_error_cnt[         64]=                6911
cycle                10000:bit_error_cnt[         65]=                6047
cycle                10000:bit_error_cnt[         66]=                6458
cycle                10000:bit_error_cnt[         67]=                6183
cycle                10000:bit_error_cnt[         68]=                5839
cycle                10000:bit_error_cnt[         69]=                6463
cycle                10000:bit_error_cnt[         70]=                6245
cycle                10000:bit_error_cnt[         71]=                6089
cycle                10000:bit_error_cnt[         72]=                5718
cycle                10000:bit_error_cnt[         73]=                5692
cycle                10000:bit_error_cnt[         74]=                5995
cycle                10000:bit_error_cnt[         75]=                5523
cycle                10000:bit_error_cnt[         76]=                7257
cycle                10000:bit_error_cnt[         77]=                6733
cycle                10000:bit_error_cnt[         78]=                7778
cycle                10000:bit_error_cnt[         79]=                5524
cycle                10000:bit_error_cnt[         80]=                6788
cycle                10000:bit_error_cnt[         81]=                5402
cycle                10000:bit_error_cnt[         82]=                6064
cycle                10000:bit_error_cnt[         83]=                4846
cycle                10000:bit_error_cnt[         84]=                2546
