cycle                10000:bit_error_cnt[          0]=                  82
cycle                10000:bit_error_cnt[          1]=                 144
cycle                10000:bit_error_cnt[          2]=                3744
cycle                10000:bit_error_cnt[          3]=                4669
cycle                10000:bit_error_cnt[          4]=                4884
cycle                10000:bit_error_cnt[          5]=                5000
cycle                10000:bit_error_cnt[          6]=                5030
cycle                10000:bit_error_cnt[          7]=                4950
cycle                10000:bit_error_cnt[          8]=                5009
cycle                10000:bit_error_cnt[          9]=                4978
cycle                10000:bit_error_cnt[         10]=                4923
cycle                10000:bit_error_cnt[         11]=                5031
cycle                10000:bit_error_cnt[         12]=                4963
cycle                10000:bit_error_cnt[         13]=                5025
cycle                10000:bit_error_cnt[         14]=                4978
cycle                10000:bit_error_cnt[         15]=                5107
cycle                10000:bit_error_cnt[         16]=                5025
cycle                10000:bit_error_cnt[         17]=                4952
cycle                10000:bit_error_cnt[         18]=                5079
cycle                10000:bit_error_cnt[         19]=                5039
cycle                10000:bit_error_cnt[         20]=                4889
cycle                10000:bit_error_cnt[         21]=                4973
cycle                10000:bit_error_cnt[         22]=                4991
cycle                10000:bit_error_cnt[         23]=                4962
cycle                10000:bit_error_cnt[         24]=                5014
cycle                10000:bit_error_cnt[         25]=                5008
cycle                10000:bit_error_cnt[         26]=                5002
cycle                10000:bit_error_cnt[         27]=                4960
cycle                10000:bit_error_cnt[         28]=                5036
cycle                10000:bit_error_cnt[         29]=                5009
cycle                10000:bit_error_cnt[         30]=                5062
cycle                10000:bit_error_cnt[         31]=                5012
cycle                10000:bit_error_cnt[         32]=                4627
cycle                10000:bit_error_cnt[         33]=                3724
cycle                10000:bit_error_cnt[         34]=                5084
cycle                10000:bit_error_cnt[         35]=                4892
cycle                10000:bit_error_cnt[         36]=                4966
cycle                10000:bit_error_cnt[         37]=                5048
cycle                10000:bit_error_cnt[         38]=                4960
cycle                10000:bit_error_cnt[         39]=                4908
cycle                10000:bit_error_cnt[         40]=                5053
cycle                10000:bit_error_cnt[         41]=                5018
cycle                10000:bit_error_cnt[         42]=                4931
cycle                10000:bit_error_cnt[         43]=                4919
cycle                10000:bit_error_cnt[         44]=                5070
cycle                10000:bit_error_cnt[         45]=                5016
cycle                10000:bit_error_cnt[         46]=                4989
cycle                10000:bit_error_cnt[         47]=                5003
cycle                10000:bit_error_cnt[         48]=                5005
cycle                10000:bit_error_cnt[         49]=                5036
cycle                10000:bit_error_cnt[         50]=                4968
cycle                10000:bit_error_cnt[         51]=                4985
cycle                10000:bit_error_cnt[         52]=                5003
cycle                10000:bit_error_cnt[         53]=                4991
cycle                10000:bit_error_cnt[         54]=                5019
cycle                10000:bit_error_cnt[         55]=                5010
cycle                10000:bit_error_cnt[         56]=                4947
cycle                10000:bit_error_cnt[         57]=                5085
cycle                10000:bit_error_cnt[         58]=                5015
cycle                10000:bit_error_cnt[         59]=                4979
cycle                10000:bit_error_cnt[         60]=                5124
cycle                10000:bit_error_cnt[         61]=                4998
cycle                10000:bit_error_cnt[         62]=                4997
cycle                10000:bit_error_cnt[         63]=                5063
cycle                10000:bit_error_cnt[         64]=                4961
cycle                10000:bit_error_cnt[         65]=                5011
cycle                10000:bit_error_cnt[         66]=                4940
cycle                10000:bit_error_cnt[         67]=                5017
cycle                10000:bit_error_cnt[         68]=                5111
cycle                10000:bit_error_cnt[         69]=                5050
cycle                10000:bit_error_cnt[         70]=                5156
cycle                10000:bit_error_cnt[         71]=                5050
cycle                10000:bit_error_cnt[         72]=                5039
cycle                10000:bit_error_cnt[         73]=                5049
cycle                10000:bit_error_cnt[         74]=                5105
cycle                10000:bit_error_cnt[         75]=                5002
cycle                10000:bit_error_cnt[         76]=                4919
cycle                10000:bit_error_cnt[         77]=                4969
cycle                10000:bit_error_cnt[         78]=                5020
cycle                10000:bit_error_cnt[         79]=                5050
cycle                10000:bit_error_cnt[         80]=                5070
cycle                10000:bit_error_cnt[         81]=                5052
cycle                10000:bit_error_cnt[         82]=                5061
cycle                10000:bit_error_cnt[         83]=                   0
cycle                10000:bit_error_cnt[         84]=                2499
cycle                10000:bit_error_cnt[         85]=                   0
cycle                10000:bit_error_cnt[         86]=                   0
cycle                10000:bit_error_cnt[         87]=                   0
cycle                10000:bit_error_cnt[         88]=                   0
cycle                10000:bit_error_cnt[         89]=                   0
cycle                10000:bit_error_cnt[         90]=                   0
cycle                10000:bit_error_cnt[         91]=                   0
cycle                10000:bit_error_cnt[         92]=                   0
cycle                10000:bit_error_cnt[         93]=                   0
cycle                10000:bit_error_cnt[         94]=                   0
