cycle                10000:bit_error_cnt[          0]=                7950
cycle                10000:bit_error_cnt[          1]=                8750
cycle                10000:bit_error_cnt[          2]=                8076
cycle                10000:bit_error_cnt[          3]=                8054
cycle                10000:bit_error_cnt[          4]=                7846
cycle                10000:bit_error_cnt[          5]=                7577
cycle                10000:bit_error_cnt[          6]=                7231
cycle                10000:bit_error_cnt[          7]=                7066
cycle                10000:bit_error_cnt[          8]=                7107
cycle                10000:bit_error_cnt[          9]=                6728
cycle                10000:bit_error_cnt[         10]=                6080
cycle                10000:bit_error_cnt[         11]=                5950
cycle                10000:bit_error_cnt[         12]=                6119
cycle                10000:bit_error_cnt[         13]=                5967
cycle                10000:bit_error_cnt[         14]=                5944
cycle                10000:bit_error_cnt[         15]=                6217
cycle                10000:bit_error_cnt[         16]=                5929
cycle                10000:bit_error_cnt[         17]=                5754
cycle                10000:bit_error_cnt[         18]=                5757
cycle                10000:bit_error_cnt[         19]=                5557
cycle                10000:bit_error_cnt[         20]=                5586
cycle                10000:bit_error_cnt[         21]=                5599
cycle                10000:bit_error_cnt[         22]=                5382
cycle                10000:bit_error_cnt[         23]=                5211
cycle                10000:bit_error_cnt[         24]=                5091
cycle                10000:bit_error_cnt[         25]=                5120
cycle                10000:bit_error_cnt[         26]=                 457
cycle                10000:bit_error_cnt[         27]=                1337
cycle                10000:bit_error_cnt[         28]=                1354
cycle                10000:bit_error_cnt[         29]=                 755
cycle                10000:bit_error_cnt[         30]=                1348
cycle                10000:bit_error_cnt[         31]=                   5
cycle                10000:bit_error_cnt[         32]=                4067
cycle                10000:bit_error_cnt[         33]=                3460
