cycle                10000:bit_error_cnt[          0]=                  82
cycle                10000:bit_error_cnt[          1]=                 144
cycle                10000:bit_error_cnt[          2]=                1872
cycle                10000:bit_error_cnt[          3]=                4669
cycle                10000:bit_error_cnt[          4]=                4884
cycle                10000:bit_error_cnt[          5]=                5001
cycle                10000:bit_error_cnt[          6]=                5014
cycle                10000:bit_error_cnt[          7]=                5080
cycle                10000:bit_error_cnt[          8]=                5046
cycle                10000:bit_error_cnt[          9]=                5031
cycle                10000:bit_error_cnt[         10]=                4953
cycle                10000:bit_error_cnt[         11]=                4935
cycle                10000:bit_error_cnt[         12]=                5005
cycle                10000:bit_error_cnt[         13]=                5058
cycle                10000:bit_error_cnt[         14]=                4980
cycle                10000:bit_error_cnt[         15]=                5051
cycle                10000:bit_error_cnt[         16]=                4925
cycle                10000:bit_error_cnt[         17]=                4920
cycle                10000:bit_error_cnt[         18]=                5054
cycle                10000:bit_error_cnt[         19]=                5043
cycle                10000:bit_error_cnt[         20]=                4954
cycle                10000:bit_error_cnt[         21]=                5011
cycle                10000:bit_error_cnt[         22]=                4924
cycle                10000:bit_error_cnt[         23]=                4955
cycle                10000:bit_error_cnt[         24]=                5023
cycle                10000:bit_error_cnt[         25]=                4979
cycle                10000:bit_error_cnt[         26]=                5005
cycle                10000:bit_error_cnt[         27]=                5000
cycle                10000:bit_error_cnt[         28]=                5023
cycle                10000:bit_error_cnt[         29]=                5023
cycle                10000:bit_error_cnt[         30]=                4954
cycle                10000:bit_error_cnt[         31]=                4958
cycle                10000:bit_error_cnt[         32]=                4215
cycle                10000:bit_error_cnt[         33]=                1862
cycle                10000:bit_error_cnt[         34]=                5229
cycle                10000:bit_error_cnt[         35]=                4892
cycle                10000:bit_error_cnt[         36]=                4989
cycle                10000:bit_error_cnt[         37]=                5000
cycle                10000:bit_error_cnt[         38]=                4973
cycle                10000:bit_error_cnt[         39]=                4920
cycle                10000:bit_error_cnt[         40]=                4998
cycle                10000:bit_error_cnt[         41]=                4963
cycle                10000:bit_error_cnt[         42]=                4976
cycle                10000:bit_error_cnt[         43]=                4944
cycle                10000:bit_error_cnt[         44]=                4974
cycle                10000:bit_error_cnt[         45]=                5044
cycle                10000:bit_error_cnt[         46]=                4932
cycle                10000:bit_error_cnt[         47]=                4991
cycle                10000:bit_error_cnt[         48]=                4967
cycle                10000:bit_error_cnt[         49]=                5019
cycle                10000:bit_error_cnt[         50]=                4947
cycle                10000:bit_error_cnt[         51]=                4956
cycle                10000:bit_error_cnt[         52]=                4967
cycle                10000:bit_error_cnt[         53]=                4911
cycle                10000:bit_error_cnt[         54]=                5075
cycle                10000:bit_error_cnt[         55]=                4987
cycle                10000:bit_error_cnt[         56]=                5023
cycle                10000:bit_error_cnt[         57]=                5000
cycle                10000:bit_error_cnt[         58]=                4962
cycle                10000:bit_error_cnt[         59]=                5043
cycle                10000:bit_error_cnt[         60]=                5006
cycle                10000:bit_error_cnt[         61]=                5023
cycle                10000:bit_error_cnt[         62]=                4994
cycle                10000:bit_error_cnt[         63]=                4997
cycle                10000:bit_error_cnt[         64]=                5099
cycle                10000:bit_error_cnt[         65]=                4999
cycle                10000:bit_error_cnt[         66]=                5036
cycle                10000:bit_error_cnt[         67]=                4927
cycle                10000:bit_error_cnt[         68]=                5027
cycle                10000:bit_error_cnt[         69]=                5042
cycle                10000:bit_error_cnt[         70]=                5040
cycle                10000:bit_error_cnt[         71]=                5011
cycle                10000:bit_error_cnt[         72]=                5012
cycle                10000:bit_error_cnt[         73]=                4039
cycle                10000:bit_error_cnt[         74]=                4484
cycle                10000:bit_error_cnt[         75]=                5002
cycle                10000:bit_error_cnt[         76]=                4819
cycle                10000:bit_error_cnt[         77]=                4969
cycle                10000:bit_error_cnt[         78]=                5065
cycle                10000:bit_error_cnt[         79]=                5012
cycle                10000:bit_error_cnt[         80]=                4998
cycle                10000:bit_error_cnt[         81]=                5067
cycle                10000:bit_error_cnt[         82]=                5044
cycle                10000:bit_error_cnt[         83]=                   0
cycle                10000:bit_error_cnt[         84]=                1846
cycle                10000:bit_error_cnt[         85]=                   0
cycle                10000:bit_error_cnt[         86]=                   0
cycle                10000:bit_error_cnt[         87]=                   0
cycle                10000:bit_error_cnt[         88]=                   0
cycle                10000:bit_error_cnt[         89]=                   0
cycle                10000:bit_error_cnt[         90]=                   0
cycle                10000:bit_error_cnt[         91]=                   0
cycle                10000:bit_error_cnt[         92]=                   0
cycle                10000:bit_error_cnt[         93]=                   0
cycle                10000:bit_error_cnt[         94]=                   0
