cycle                10000:bit_error_cnt[          0]=                8017
cycle                10000:bit_error_cnt[          1]=                7932
cycle                10000:bit_error_cnt[          2]=                7379
cycle                10000:bit_error_cnt[          3]=                7143
cycle                10000:bit_error_cnt[          4]=                6662
cycle                10000:bit_error_cnt[          5]=                6703
cycle                10000:bit_error_cnt[          6]=                6526
cycle                10000:bit_error_cnt[          7]=                6131
cycle                10000:bit_error_cnt[          8]=                6220
cycle                10000:bit_error_cnt[          9]=                5920
cycle                10000:bit_error_cnt[         10]=                5504
cycle                10000:bit_error_cnt[         11]=                5407
cycle                10000:bit_error_cnt[         12]=                5969
cycle                10000:bit_error_cnt[         13]=                5489
cycle                10000:bit_error_cnt[         14]=                5449
cycle                10000:bit_error_cnt[         15]=                6113
cycle                10000:bit_error_cnt[         16]=                5468
cycle                10000:bit_error_cnt[         17]=                5411
cycle                10000:bit_error_cnt[         18]=                5347
cycle                10000:bit_error_cnt[         19]=                5280
cycle                10000:bit_error_cnt[         20]=                7087
cycle                10000:bit_error_cnt[         21]=                5649
cycle                10000:bit_error_cnt[         22]=                5236
cycle                10000:bit_error_cnt[         23]=                5668
cycle                10000:bit_error_cnt[         24]=                6434
cycle                10000:bit_error_cnt[         25]=                6381
cycle                10000:bit_error_cnt[         26]=                6083
cycle                10000:bit_error_cnt[         27]=                5467
cycle                10000:bit_error_cnt[         28]=                5555
cycle                10000:bit_error_cnt[         29]=                5527
cycle                10000:bit_error_cnt[         30]=                6625
cycle                10000:bit_error_cnt[         31]=                5320
cycle                10000:bit_error_cnt[         32]=                6870
cycle                10000:bit_error_cnt[         33]=                6221
