cycle                10000:bit_error_cnt[          0]=               10000
cycle                10000:bit_error_cnt[          1]=               10000
cycle                10000:bit_error_cnt[          2]=               10000
cycle                10000:bit_error_cnt[          3]=               10000
cycle                10000:bit_error_cnt[          4]=                   0
cycle                10000:bit_error_cnt[          5]=                   0
cycle                10000:bit_error_cnt[          6]=                   0
cycle                10000:bit_error_cnt[          7]=                   0
cycle                10000:bit_error_cnt[          8]=                   0
cycle                10000:bit_error_cnt[          9]=                   0
cycle                10000:bit_error_cnt[         10]=                   0
cycle                10000:bit_error_cnt[         11]=                   0
cycle                10000:bit_error_cnt[         12]=                   0
cycle                10000:bit_error_cnt[         13]=                   0
cycle                10000:bit_error_cnt[         14]=                   0
cycle                10000:bit_error_cnt[         15]=                   0
cycle                10000:bit_error_cnt[         16]=                   0
cycle                10000:bit_error_cnt[         17]=                   0
cycle                10000:bit_error_cnt[         18]=                   0
cycle                10000:bit_error_cnt[         19]=                   0
cycle                10000:bit_error_cnt[         20]=                   0
cycle                10000:bit_error_cnt[         21]=                   0
cycle                10000:bit_error_cnt[         22]=                   0
cycle                10000:bit_error_cnt[         23]=                   0
cycle                10000:bit_error_cnt[         24]=                   0
cycle                10000:bit_error_cnt[         25]=                   0
cycle                10000:bit_error_cnt[         26]=                   0
cycle                10000:bit_error_cnt[         27]=                   0
cycle                10000:bit_error_cnt[         28]=                   0
cycle                10000:bit_error_cnt[         29]=                   0
cycle                10000:bit_error_cnt[         30]=                   0
cycle                10000:bit_error_cnt[         31]=                   0
cycle                10000:bit_error_cnt[         32]=                   0
cycle                10000:bit_error_cnt[         33]=                   0
cycle                10000:bit_error_cnt[         34]=                   0
cycle                10000:bit_error_cnt[         35]=                   0
cycle                10000:bit_error_cnt[         36]=                   0
cycle                10000:bit_error_cnt[         37]=               10000
cycle                10000:bit_error_cnt[         38]=               10000
cycle                10000:bit_error_cnt[         39]=               10000
cycle                10000:bit_error_cnt[         40]=               10000
cycle                10000:bit_error_cnt[         41]=               10000
cycle                10000:bit_error_cnt[         42]=               10000
cycle                10000:bit_error_cnt[         43]=               10000
cycle                10000:bit_error_cnt[         44]=               10000
cycle                10000:bit_error_cnt[         45]=               10000
cycle                10000:bit_error_cnt[         46]=               10000
cycle                10000:bit_error_cnt[         47]=               10000
cycle                10000:bit_error_cnt[         48]=               10000
cycle                10000:bit_error_cnt[         49]=               10000
cycle                10000:bit_error_cnt[         50]=               10000
cycle                10000:bit_error_cnt[         51]=               10000
cycle                10000:bit_error_cnt[         52]=               10000
cycle                10000:bit_error_cnt[         53]=               10000
cycle                10000:bit_error_cnt[         54]=               10000
cycle                10000:bit_error_cnt[         55]=               10000
cycle                10000:bit_error_cnt[         56]=               10000
cycle                10000:bit_error_cnt[         57]=               10000
cycle                10000:bit_error_cnt[         58]=               10000
cycle                10000:bit_error_cnt[         59]=               10000
cycle                10000:bit_error_cnt[         60]=               10000
cycle                10000:bit_error_cnt[         61]=               10000
cycle                10000:bit_error_cnt[         62]=               10000
cycle                10000:bit_error_cnt[         63]=               10000
cycle                10000:bit_error_cnt[         64]=               10000
cycle                10000:bit_error_cnt[         65]=               10000
cycle                10000:bit_error_cnt[         66]=               10000
cycle                10000:bit_error_cnt[         67]=               10000
cycle                10000:bit_error_cnt[         68]=               10000
cycle                10000:bit_error_cnt[         69]=               10000
