cycle                10000:bit_error_cnt[          0]=                  81
cycle                10000:bit_error_cnt[          1]=                 144
cycle                10000:bit_error_cnt[          2]=                3744
cycle                10000:bit_error_cnt[          3]=                4669
cycle                10000:bit_error_cnt[          4]=                4805
cycle                10000:bit_error_cnt[          5]=                5074
cycle                10000:bit_error_cnt[          6]=                4988
cycle                10000:bit_error_cnt[          7]=                4989
cycle                10000:bit_error_cnt[          8]=                5012
cycle                10000:bit_error_cnt[          9]=                4992
cycle                10000:bit_error_cnt[         10]=                4970
cycle                10000:bit_error_cnt[         11]=                4982
cycle                10000:bit_error_cnt[         12]=                4978
cycle                10000:bit_error_cnt[         13]=                5118
cycle                10000:bit_error_cnt[         14]=                4908
cycle                10000:bit_error_cnt[         15]=                4997
cycle                10000:bit_error_cnt[         16]=                5034
cycle                10000:bit_error_cnt[         17]=                5106
cycle                10000:bit_error_cnt[         18]=                4994
cycle                10000:bit_error_cnt[         19]=                4934
cycle                10000:bit_error_cnt[         20]=                5071
cycle                10000:bit_error_cnt[         21]=                5005
cycle                10000:bit_error_cnt[         22]=                5065
cycle                10000:bit_error_cnt[         23]=                5011
cycle                10000:bit_error_cnt[         24]=                5037
cycle                10000:bit_error_cnt[         25]=                4948
cycle                10000:bit_error_cnt[         26]=                4944
cycle                10000:bit_error_cnt[         27]=                5013
cycle                10000:bit_error_cnt[         28]=                5040
cycle                10000:bit_error_cnt[         29]=                5008
cycle                10000:bit_error_cnt[         30]=                5005
cycle                10000:bit_error_cnt[         31]=                4821
cycle                10000:bit_error_cnt[         32]=                4180
cycle                10000:bit_error_cnt[         33]=                3724
cycle                10000:bit_error_cnt[         34]=                4735
cycle                10000:bit_error_cnt[         35]=                4875
cycle                10000:bit_error_cnt[         36]=                5013
cycle                10000:bit_error_cnt[         37]=                5018
cycle                10000:bit_error_cnt[         38]=                4985
cycle                10000:bit_error_cnt[         39]=                4939
cycle                10000:bit_error_cnt[         40]=                4972
cycle                10000:bit_error_cnt[         41]=                5010
cycle                10000:bit_error_cnt[         42]=                5014
cycle                10000:bit_error_cnt[         43]=                5057
cycle                10000:bit_error_cnt[         44]=                5040
cycle                10000:bit_error_cnt[         45]=                5038
cycle                10000:bit_error_cnt[         46]=                5008
cycle                10000:bit_error_cnt[         47]=                5031
cycle                10000:bit_error_cnt[         48]=                5039
cycle                10000:bit_error_cnt[         49]=                5023
cycle                10000:bit_error_cnt[         50]=                4930
cycle                10000:bit_error_cnt[         51]=                5034
cycle                10000:bit_error_cnt[         52]=                5080
cycle                10000:bit_error_cnt[         53]=                4974
cycle                10000:bit_error_cnt[         54]=                5084
cycle                10000:bit_error_cnt[         55]=                5043
cycle                10000:bit_error_cnt[         56]=                4911
cycle                10000:bit_error_cnt[         57]=                5081
cycle                10000:bit_error_cnt[         58]=                4960
cycle                10000:bit_error_cnt[         59]=                5009
cycle                10000:bit_error_cnt[         60]=                5000
cycle                10000:bit_error_cnt[         61]=                5010
cycle                10000:bit_error_cnt[         62]=                5080
cycle                10000:bit_error_cnt[         63]=                5063
cycle                10000:bit_error_cnt[         64]=                5060
cycle                10000:bit_error_cnt[         65]=                4992
cycle                10000:bit_error_cnt[         66]=                5051
cycle                10000:bit_error_cnt[         67]=                4961
cycle                10000:bit_error_cnt[         68]=                5058
cycle                10000:bit_error_cnt[         69]=                4949
cycle                10000:bit_error_cnt[         70]=                4934
cycle                10000:bit_error_cnt[         71]=                5057
cycle                10000:bit_error_cnt[         72]=                4992
cycle                10000:bit_error_cnt[         73]=                4940
cycle                10000:bit_error_cnt[         74]=                5105
cycle                10000:bit_error_cnt[         75]=                5002
cycle                10000:bit_error_cnt[         76]=                4919
cycle                10000:bit_error_cnt[         77]=                5005
cycle                10000:bit_error_cnt[         78]=                5088
cycle                10000:bit_error_cnt[         79]=                5032
cycle                10000:bit_error_cnt[         80]=                5107
cycle                10000:bit_error_cnt[         81]=                5011
cycle                10000:bit_error_cnt[         82]=                5055
cycle                10000:bit_error_cnt[         83]=                   0
cycle                10000:bit_error_cnt[         84]=                4229
cycle                10000:bit_error_cnt[         85]=                   0
cycle                10000:bit_error_cnt[         86]=                   0
cycle                10000:bit_error_cnt[         87]=                   0
cycle                10000:bit_error_cnt[         88]=                   0
cycle                10000:bit_error_cnt[         89]=                   0
cycle                10000:bit_error_cnt[         90]=                   0
cycle                10000:bit_error_cnt[         91]=                   0
cycle                10000:bit_error_cnt[         92]=                   0
cycle                10000:bit_error_cnt[         93]=                   0
cycle                10000:bit_error_cnt[         94]=                   0
