cycle                10000:bit_error_cnt[          0]=                  11
cycle                10000:bit_error_cnt[          1]=                  25
cycle                10000:bit_error_cnt[          2]=                 257
cycle                10000:bit_error_cnt[          3]=                  18
cycle                10000:bit_error_cnt[          4]=                 149
cycle                10000:bit_error_cnt[          5]=                 102
cycle                10000:bit_error_cnt[          6]=                 117
cycle                10000:bit_error_cnt[          7]=                  38
cycle                10000:bit_error_cnt[          8]=                  39
cycle                10000:bit_error_cnt[          9]=                  30
cycle                10000:bit_error_cnt[         10]=                  18
cycle                10000:bit_error_cnt[         11]=                  15
cycle                10000:bit_error_cnt[         12]=                  13
cycle                10000:bit_error_cnt[         13]=                  14
cycle                10000:bit_error_cnt[         14]=                  13
cycle                10000:bit_error_cnt[         15]=                  16
cycle                10000:bit_error_cnt[         16]=                  18
cycle                10000:bit_error_cnt[         17]=                  13
cycle                10000:bit_error_cnt[         18]=                  10
cycle                10000:bit_error_cnt[         19]=                   8
cycle                10000:bit_error_cnt[         20]=                   8
cycle                10000:bit_error_cnt[         21]=                   9
cycle                10000:bit_error_cnt[         22]=                   7
cycle                10000:bit_error_cnt[         23]=                  13
cycle                10000:bit_error_cnt[         24]=                  11
cycle                10000:bit_error_cnt[         25]=                   8
cycle                10000:bit_error_cnt[         26]=                   6
cycle                10000:bit_error_cnt[         27]=                   6
cycle                10000:bit_error_cnt[         28]=                   6
cycle                10000:bit_error_cnt[         29]=                   6
cycle                10000:bit_error_cnt[         30]=                  16
cycle                10000:bit_error_cnt[         31]=                   5
cycle                10000:bit_error_cnt[         32]=                   8
cycle                10000:bit_error_cnt[         33]=                   8
