cycle                10000:bit_error_cnt[          0]=                   1
cycle                10000:bit_error_cnt[          1]=                   1
cycle                10000:bit_error_cnt[          2]=                   1
cycle                10000:bit_error_cnt[          3]=                   1
cycle                10000:bit_error_cnt[          4]=                   1
cycle                10000:bit_error_cnt[          5]=                 817
cycle                10000:bit_error_cnt[          6]=                1357
cycle                10000:bit_error_cnt[          7]=                4131
cycle                10000:bit_error_cnt[          8]=                3590
cycle                10000:bit_error_cnt[          9]=                3210
cycle                10000:bit_error_cnt[         10]=                4403
cycle                10000:bit_error_cnt[         11]=                4504
cycle                10000:bit_error_cnt[         12]=                4536
cycle                10000:bit_error_cnt[         13]=                4176
cycle                10000:bit_error_cnt[         14]=                4381
cycle                10000:bit_error_cnt[         15]=                4304
cycle                10000:bit_error_cnt[         16]=                4004
cycle                10000:bit_error_cnt[         17]=                2574
cycle                10000:bit_error_cnt[         18]=                3877
cycle                10000:bit_error_cnt[         19]=                3340
cycle                10000:bit_error_cnt[         20]=                3521
cycle                10000:bit_error_cnt[         21]=                3682
cycle                10000:bit_error_cnt[         22]=                3262
cycle                10000:bit_error_cnt[         23]=                3829
cycle                10000:bit_error_cnt[         24]=                4456
cycle                10000:bit_error_cnt[         25]=                4198
cycle                10000:bit_error_cnt[         26]=                4560
cycle                10000:bit_error_cnt[         27]=                3933
cycle                10000:bit_error_cnt[         28]=                4497
cycle                10000:bit_error_cnt[         29]=                4373
cycle                10000:bit_error_cnt[         30]=                4463
cycle                10000:bit_error_cnt[         31]=                4403
cycle                10000:bit_error_cnt[         32]=                2998
cycle                10000:bit_error_cnt[         33]=                   1
cycle                10000:bit_error_cnt[         34]=                   1
cycle                10000:bit_error_cnt[         35]=                   1
cycle                10000:bit_error_cnt[         36]=                1438
cycle                10000:bit_error_cnt[         37]=                1097
cycle                10000:bit_error_cnt[         38]=                1284
cycle                10000:bit_error_cnt[         39]=                3619
cycle                10000:bit_error_cnt[         40]=                2203
cycle                10000:bit_error_cnt[         41]=                3575
cycle                10000:bit_error_cnt[         42]=                3592
cycle                10000:bit_error_cnt[         43]=                1976
cycle                10000:bit_error_cnt[         44]=                4691
cycle                10000:bit_error_cnt[         45]=                5052
cycle                10000:bit_error_cnt[         46]=                4791
cycle                10000:bit_error_cnt[         47]=                4816
cycle                10000:bit_error_cnt[         48]=                4898
cycle                10000:bit_error_cnt[         49]=                5054
cycle                10000:bit_error_cnt[         50]=                4957
cycle                10000:bit_error_cnt[         51]=                5032
cycle                10000:bit_error_cnt[         52]=                4925
cycle                10000:bit_error_cnt[         53]=                5057
cycle                10000:bit_error_cnt[         54]=                5026
cycle                10000:bit_error_cnt[         55]=                5019
cycle                10000:bit_error_cnt[         56]=                5004
cycle                10000:bit_error_cnt[         57]=                4880
cycle                10000:bit_error_cnt[         58]=                4929
cycle                10000:bit_error_cnt[         59]=                5034
cycle                10000:bit_error_cnt[         60]=                5009
cycle                10000:bit_error_cnt[         61]=                4996
cycle                10000:bit_error_cnt[         62]=                5109
cycle                10000:bit_error_cnt[         63]=                4969
cycle                10000:bit_error_cnt[         64]=                4959
cycle                10000:bit_error_cnt[         65]=                4931
cycle                10000:bit_error_cnt[         66]=                4902
cycle                10000:bit_error_cnt[         67]=                4858
cycle                10000:bit_error_cnt[         68]=                4952
cycle                10000:bit_error_cnt[         69]=                4747
cycle                10000:bit_error_cnt[         70]=                4308
cycle                10000:bit_error_cnt[         71]=                4867
cycle                10000:bit_error_cnt[         72]=                4641
cycle                10000:bit_error_cnt[         73]=                4006
cycle                10000:bit_error_cnt[         74]=                   1
cycle                10000:bit_error_cnt[         75]=                   1
cycle                10000:bit_error_cnt[         76]=                   1
cycle                10000:bit_error_cnt[         77]=                   1
cycle                10000:bit_error_cnt[         78]=                 414
cycle                10000:bit_error_cnt[         79]=                1810
cycle                10000:bit_error_cnt[         80]=                2129
cycle                10000:bit_error_cnt[         81]=                2159
cycle                10000:bit_error_cnt[         82]=                2159
cycle                10000:bit_error_cnt[         83]=                   0
cycle                10000:bit_error_cnt[         84]=                   1
cycle                10000:bit_error_cnt[         85]=                   0
cycle                10000:bit_error_cnt[         86]=                   0
cycle                10000:bit_error_cnt[         87]=                   0
cycle                10000:bit_error_cnt[         88]=                   0
cycle                10000:bit_error_cnt[         89]=                   0
cycle                10000:bit_error_cnt[         90]=                   0
cycle                10000:bit_error_cnt[         91]=                   0
cycle                10000:bit_error_cnt[         92]=                   0
cycle                10000:bit_error_cnt[         93]=                   0
cycle                10000:bit_error_cnt[         94]=                   0
