cycle                10000:bit_error_cnt[          0]=                   1
cycle                10000:bit_error_cnt[          1]=                   1
cycle                10000:bit_error_cnt[          2]=                   1
cycle                10000:bit_error_cnt[          3]=                   1
cycle                10000:bit_error_cnt[          4]=                   1
cycle                10000:bit_error_cnt[          5]=                 562
cycle                10000:bit_error_cnt[          6]=                 994
cycle                10000:bit_error_cnt[          7]=                4019
cycle                10000:bit_error_cnt[          8]=                3061
cycle                10000:bit_error_cnt[          9]=                2594
cycle                10000:bit_error_cnt[         10]=                4036
cycle                10000:bit_error_cnt[         11]=                3994
cycle                10000:bit_error_cnt[         12]=                4144
cycle                10000:bit_error_cnt[         13]=                3709
cycle                10000:bit_error_cnt[         14]=                3881
cycle                10000:bit_error_cnt[         15]=                3843
cycle                10000:bit_error_cnt[         16]=                3416
cycle                10000:bit_error_cnt[         17]=                2103
cycle                10000:bit_error_cnt[         18]=                3124
cycle                10000:bit_error_cnt[         19]=                2611
cycle                10000:bit_error_cnt[         20]=                2729
cycle                10000:bit_error_cnt[         21]=                2982
cycle                10000:bit_error_cnt[         22]=                2397
cycle                10000:bit_error_cnt[         23]=                3400
cycle                10000:bit_error_cnt[         24]=                4033
cycle                10000:bit_error_cnt[         25]=                3682
cycle                10000:bit_error_cnt[         26]=                3895
cycle                10000:bit_error_cnt[         27]=                3213
cycle                10000:bit_error_cnt[         28]=                4101
cycle                10000:bit_error_cnt[         29]=                3941
cycle                10000:bit_error_cnt[         30]=                4163
cycle                10000:bit_error_cnt[         31]=                3919
cycle                10000:bit_error_cnt[         32]=                2952
cycle                10000:bit_error_cnt[         33]=                   1
cycle                10000:bit_error_cnt[         34]=                   1
cycle                10000:bit_error_cnt[         35]=                   1
cycle                10000:bit_error_cnt[         36]=                 628
cycle                10000:bit_error_cnt[         37]=                 561
cycle                10000:bit_error_cnt[         38]=                 554
cycle                10000:bit_error_cnt[         39]=                2978
cycle                10000:bit_error_cnt[         40]=                1453
cycle                10000:bit_error_cnt[         41]=                2917
cycle                10000:bit_error_cnt[         42]=                3024
cycle                10000:bit_error_cnt[         43]=                1001
cycle                10000:bit_error_cnt[         44]=                4389
cycle                10000:bit_error_cnt[         45]=                4866
cycle                10000:bit_error_cnt[         46]=                4491
cycle                10000:bit_error_cnt[         47]=                4654
cycle                10000:bit_error_cnt[         48]=                4834
cycle                10000:bit_error_cnt[         49]=                4898
cycle                10000:bit_error_cnt[         50]=                4972
cycle                10000:bit_error_cnt[         51]=                4995
cycle                10000:bit_error_cnt[         52]=                4985
cycle                10000:bit_error_cnt[         53]=                4971
cycle                10000:bit_error_cnt[         54]=                5129
cycle                10000:bit_error_cnt[         55]=                4946
cycle                10000:bit_error_cnt[         56]=                4935
cycle                10000:bit_error_cnt[         57]=                5030
cycle                10000:bit_error_cnt[         58]=                4961
cycle                10000:bit_error_cnt[         59]=                5034
cycle                10000:bit_error_cnt[         60]=                5010
cycle                10000:bit_error_cnt[         61]=                4925
cycle                10000:bit_error_cnt[         62]=                4980
cycle                10000:bit_error_cnt[         63]=                5000
cycle                10000:bit_error_cnt[         64]=                4983
cycle                10000:bit_error_cnt[         65]=                4954
cycle                10000:bit_error_cnt[         66]=                4817
cycle                10000:bit_error_cnt[         67]=                4823
cycle                10000:bit_error_cnt[         68]=                4843
cycle                10000:bit_error_cnt[         69]=                4432
cycle                10000:bit_error_cnt[         70]=                4010
cycle                10000:bit_error_cnt[         71]=                4769
cycle                10000:bit_error_cnt[         72]=                4542
cycle                10000:bit_error_cnt[         73]=                4023
cycle                10000:bit_error_cnt[         74]=                   1
cycle                10000:bit_error_cnt[         75]=                   1
cycle                10000:bit_error_cnt[         76]=                   1
cycle                10000:bit_error_cnt[         77]=                   1
cycle                10000:bit_error_cnt[         78]=                 340
cycle                10000:bit_error_cnt[         79]=                 494
cycle                10000:bit_error_cnt[         80]=                 731
cycle                10000:bit_error_cnt[         81]=                1013
cycle                10000:bit_error_cnt[         82]=                 441
cycle                10000:bit_error_cnt[         83]=                   0
cycle                10000:bit_error_cnt[         84]=                   1
cycle                10000:bit_error_cnt[         85]=                   0
cycle                10000:bit_error_cnt[         86]=                   0
cycle                10000:bit_error_cnt[         87]=                   0
cycle                10000:bit_error_cnt[         88]=                   0
cycle                10000:bit_error_cnt[         89]=                   0
cycle                10000:bit_error_cnt[         90]=                   0
cycle                10000:bit_error_cnt[         91]=                   0
cycle                10000:bit_error_cnt[         92]=                   0
cycle                10000:bit_error_cnt[         93]=                   0
cycle                10000:bit_error_cnt[         94]=                   0
