cycle                10000:bit_error_cnt[          0]=                1848
cycle                10000:bit_error_cnt[          1]=                   3
cycle                10000:bit_error_cnt[          2]=                   3
cycle                10000:bit_error_cnt[          3]=                   0
cycle                10000:bit_error_cnt[          4]=                1084
cycle                10000:bit_error_cnt[          5]=                1707
cycle                10000:bit_error_cnt[          6]=                2854
cycle                10000:bit_error_cnt[          7]=                3942
cycle                10000:bit_error_cnt[          8]=                4618
cycle                10000:bit_error_cnt[          9]=                5410
cycle                10000:bit_error_cnt[         10]=                5420
cycle                10000:bit_error_cnt[         11]=                5243
cycle                10000:bit_error_cnt[         12]=                6171
cycle                10000:bit_error_cnt[         13]=                6542
cycle                10000:bit_error_cnt[         14]=                7277
cycle                10000:bit_error_cnt[         15]=                7102
cycle                10000:bit_error_cnt[         16]=                7257
cycle                10000:bit_error_cnt[         17]=                7102
cycle                10000:bit_error_cnt[         18]=                6852
cycle                10000:bit_error_cnt[         19]=                7416
cycle                10000:bit_error_cnt[         20]=                7006
cycle                10000:bit_error_cnt[         21]=                7506
cycle                10000:bit_error_cnt[         22]=                7441
cycle                10000:bit_error_cnt[         23]=                7385
cycle                10000:bit_error_cnt[         24]=                7476
cycle                10000:bit_error_cnt[         25]=                7333
cycle                10000:bit_error_cnt[         26]=                7035
cycle                10000:bit_error_cnt[         27]=                6976
cycle                10000:bit_error_cnt[         28]=                7175
cycle                10000:bit_error_cnt[         29]=                7916
cycle                10000:bit_error_cnt[         30]=                6908
cycle                10000:bit_error_cnt[         31]=                6803
cycle                10000:bit_error_cnt[         32]=                7193
cycle                10000:bit_error_cnt[         33]=                6825
cycle                10000:bit_error_cnt[         34]=                6802
cycle                10000:bit_error_cnt[         35]=                6533
cycle                10000:bit_error_cnt[         36]=                6475
cycle                10000:bit_error_cnt[         37]=                6442
cycle                10000:bit_error_cnt[         38]=                5593
cycle                10000:bit_error_cnt[         39]=                5672
cycle                10000:bit_error_cnt[         40]=                6405
cycle                10000:bit_error_cnt[         41]=                6111
cycle                10000:bit_error_cnt[         42]=                5836
cycle                10000:bit_error_cnt[         43]=                7200
cycle                10000:bit_error_cnt[         44]=                6371
cycle                10000:bit_error_cnt[         45]=                5478
cycle                10000:bit_error_cnt[         46]=                5571
cycle                10000:bit_error_cnt[         47]=                5500
cycle                10000:bit_error_cnt[         48]=                5532
cycle                10000:bit_error_cnt[         49]=                5599
cycle                10000:bit_error_cnt[         50]=                5078
cycle                10000:bit_error_cnt[         51]=                6976
cycle                10000:bit_error_cnt[         52]=                7175
cycle                10000:bit_error_cnt[         53]=                7916
cycle                10000:bit_error_cnt[         54]=                6908
cycle                10000:bit_error_cnt[         55]=                6803
cycle                10000:bit_error_cnt[         56]=                7193
cycle                10000:bit_error_cnt[         57]=                6825
cycle                10000:bit_error_cnt[         58]=                6802
cycle                10000:bit_error_cnt[         59]=                6533
cycle                10000:bit_error_cnt[         60]=                6475
cycle                10000:bit_error_cnt[         61]=                6442
cycle                10000:bit_error_cnt[         62]=                5593
cycle                10000:bit_error_cnt[         63]=                5672
cycle                10000:bit_error_cnt[         64]=                6405
cycle                10000:bit_error_cnt[         65]=                6111
cycle                10000:bit_error_cnt[         66]=                5836
cycle                10000:bit_error_cnt[         67]=                7200
cycle                10000:bit_error_cnt[         68]=                6371
cycle                10000:bit_error_cnt[         69]=                5478
cycle                10000:bit_error_cnt[         70]=                5571
cycle                10000:bit_error_cnt[         71]=                5500
cycle                10000:bit_error_cnt[         72]=                5532
cycle                10000:bit_error_cnt[         73]=                5599
cycle                10000:bit_error_cnt[         74]=                5078
cycle                10000:bit_error_cnt[         75]=                5149
cycle                10000:bit_error_cnt[         76]=                5085
cycle                10000:bit_error_cnt[         77]=                5080
cycle                10000:bit_error_cnt[         78]=                5414
cycle                10000:bit_error_cnt[         79]=                6294
cycle                10000:bit_error_cnt[         80]=                5549
cycle                10000:bit_error_cnt[         81]=                2667
cycle                10000:bit_error_cnt[         82]=                5593
cycle                10000:bit_error_cnt[         83]=                3582
cycle                10000:bit_error_cnt[         84]=                2503
