cycle                10000:bit_error_cnt[          0]=                   3
cycle                10000:bit_error_cnt[          1]=                   3
cycle                10000:bit_error_cnt[          2]=                   3
cycle                10000:bit_error_cnt[          3]=                   0
cycle                10000:bit_error_cnt[          4]=                 647
cycle                10000:bit_error_cnt[          5]=                1039
cycle                10000:bit_error_cnt[          6]=                1199
cycle                10000:bit_error_cnt[          7]=                1419
cycle                10000:bit_error_cnt[          8]=                1462
cycle                10000:bit_error_cnt[          9]=                2428
cycle                10000:bit_error_cnt[         10]=                2437
cycle                10000:bit_error_cnt[         11]=                3210
cycle                10000:bit_error_cnt[         12]=                3637
cycle                10000:bit_error_cnt[         13]=                5009
cycle                10000:bit_error_cnt[         14]=                5574
cycle                10000:bit_error_cnt[         15]=                5192
cycle                10000:bit_error_cnt[         16]=                4853
cycle                10000:bit_error_cnt[         17]=                5433
cycle                10000:bit_error_cnt[         18]=                5601
cycle                10000:bit_error_cnt[         19]=                5985
cycle                10000:bit_error_cnt[         20]=                5072
cycle                10000:bit_error_cnt[         21]=                4728
cycle                10000:bit_error_cnt[         22]=                5092
cycle                10000:bit_error_cnt[         23]=                5918
cycle                10000:bit_error_cnt[         24]=                5837
cycle                10000:bit_error_cnt[         25]=                5844
cycle                10000:bit_error_cnt[         26]=                6037
cycle                10000:bit_error_cnt[         27]=                6096
cycle                10000:bit_error_cnt[         28]=                6659
cycle                10000:bit_error_cnt[         29]=                7029
cycle                10000:bit_error_cnt[         30]=                6616
cycle                10000:bit_error_cnt[         31]=                6564
cycle                10000:bit_error_cnt[         32]=                6593
cycle                10000:bit_error_cnt[         33]=                6469
cycle                10000:bit_error_cnt[         34]=                6676
cycle                10000:bit_error_cnt[         35]=                6672
cycle                10000:bit_error_cnt[         36]=                6326
cycle                10000:bit_error_cnt[         37]=                5830
cycle                10000:bit_error_cnt[         38]=                5483
cycle                10000:bit_error_cnt[         39]=                5268
cycle                10000:bit_error_cnt[         40]=                4896
cycle                10000:bit_error_cnt[         41]=                4768
cycle                10000:bit_error_cnt[         42]=                4909
cycle                10000:bit_error_cnt[         43]=                4705
cycle                10000:bit_error_cnt[         44]=                4238
cycle                10000:bit_error_cnt[         45]=                4207
cycle                10000:bit_error_cnt[         46]=                4133
cycle                10000:bit_error_cnt[         47]=                3665
cycle                10000:bit_error_cnt[         48]=                2955
cycle                10000:bit_error_cnt[         49]=                3090
cycle                10000:bit_error_cnt[         50]=                3281
cycle                10000:bit_error_cnt[         51]=                6096
cycle                10000:bit_error_cnt[         52]=                6659
cycle                10000:bit_error_cnt[         53]=                7029
cycle                10000:bit_error_cnt[         54]=                6616
cycle                10000:bit_error_cnt[         55]=                6564
cycle                10000:bit_error_cnt[         56]=                6593
cycle                10000:bit_error_cnt[         57]=                6469
cycle                10000:bit_error_cnt[         58]=                6676
cycle                10000:bit_error_cnt[         59]=                6672
cycle                10000:bit_error_cnt[         60]=                6326
cycle                10000:bit_error_cnt[         61]=                5830
cycle                10000:bit_error_cnt[         62]=                5483
cycle                10000:bit_error_cnt[         63]=                5268
cycle                10000:bit_error_cnt[         64]=                4896
cycle                10000:bit_error_cnt[         65]=                4768
cycle                10000:bit_error_cnt[         66]=                4909
cycle                10000:bit_error_cnt[         67]=                4705
cycle                10000:bit_error_cnt[         68]=                4238
cycle                10000:bit_error_cnt[         69]=                4207
cycle                10000:bit_error_cnt[         70]=                4133
cycle                10000:bit_error_cnt[         71]=                3665
cycle                10000:bit_error_cnt[         72]=                2955
cycle                10000:bit_error_cnt[         73]=                3090
cycle                10000:bit_error_cnt[         74]=                3281
cycle                10000:bit_error_cnt[         75]=                3258
cycle                10000:bit_error_cnt[         76]=                1817
cycle                10000:bit_error_cnt[         77]=                1896
cycle                10000:bit_error_cnt[         78]=                1253
cycle                10000:bit_error_cnt[         79]=                 791
cycle                10000:bit_error_cnt[         80]=                 820
cycle                10000:bit_error_cnt[         81]=                 527
cycle                10000:bit_error_cnt[         82]=                 778
cycle                10000:bit_error_cnt[         83]=                 730
cycle                10000:bit_error_cnt[         84]=                 457
