cycle                10000:bit_error_cnt[          0]=                4999
cycle                10000:bit_error_cnt[          1]=                  65
cycle                10000:bit_error_cnt[          2]=                 114
cycle                10000:bit_error_cnt[          3]=                7186
cycle                10000:bit_error_cnt[          4]=                   0
cycle                10000:bit_error_cnt[          5]=                   0
cycle                10000:bit_error_cnt[          6]=                   0
cycle                10000:bit_error_cnt[          7]=                   0
cycle                10000:bit_error_cnt[          8]=                   0
cycle                10000:bit_error_cnt[          9]=                   0
cycle                10000:bit_error_cnt[         10]=                   0
cycle                10000:bit_error_cnt[         11]=                   0
cycle                10000:bit_error_cnt[         12]=                   0
cycle                10000:bit_error_cnt[         13]=                   0
cycle                10000:bit_error_cnt[         14]=                   0
cycle                10000:bit_error_cnt[         15]=                   0
cycle                10000:bit_error_cnt[         16]=                   0
cycle                10000:bit_error_cnt[         17]=                   0
cycle                10000:bit_error_cnt[         18]=                   0
cycle                10000:bit_error_cnt[         19]=                   0
cycle                10000:bit_error_cnt[         20]=                   0
cycle                10000:bit_error_cnt[         21]=                   0
cycle                10000:bit_error_cnt[         22]=                   0
cycle                10000:bit_error_cnt[         23]=                   0
cycle                10000:bit_error_cnt[         24]=                   0
cycle                10000:bit_error_cnt[         25]=                   0
cycle                10000:bit_error_cnt[         26]=                   0
cycle                10000:bit_error_cnt[         27]=                   0
cycle                10000:bit_error_cnt[         28]=                   0
cycle                10000:bit_error_cnt[         29]=                   0
cycle                10000:bit_error_cnt[         30]=                   0
cycle                10000:bit_error_cnt[         31]=                   0
cycle                10000:bit_error_cnt[         32]=                   0
cycle                10000:bit_error_cnt[         33]=                   0
cycle                10000:bit_error_cnt[         34]=                   0
cycle                10000:bit_error_cnt[         35]=                   0
cycle                10000:bit_error_cnt[         36]=                   0
cycle                10000:bit_error_cnt[         37]=                6570
cycle                10000:bit_error_cnt[         38]=                7168
cycle                10000:bit_error_cnt[         39]=                6571
cycle                10000:bit_error_cnt[         40]=                6445
cycle                10000:bit_error_cnt[         41]=                6486
cycle                10000:bit_error_cnt[         42]=                6483
cycle                10000:bit_error_cnt[         43]=                6323
cycle                10000:bit_error_cnt[         44]=                6110
cycle                10000:bit_error_cnt[         45]=                5779
cycle                10000:bit_error_cnt[         46]=                5900
cycle                10000:bit_error_cnt[         47]=                5440
cycle                10000:bit_error_cnt[         48]=                5390
cycle                10000:bit_error_cnt[         49]=                6041
cycle                10000:bit_error_cnt[         50]=                5571
cycle                10000:bit_error_cnt[         51]=                5489
cycle                10000:bit_error_cnt[         52]=                6046
cycle                10000:bit_error_cnt[         53]=                5384
cycle                10000:bit_error_cnt[         54]=                5376
cycle                10000:bit_error_cnt[         55]=                5402
cycle                10000:bit_error_cnt[         56]=                5338
cycle                10000:bit_error_cnt[         57]=                6238
cycle                10000:bit_error_cnt[         58]=                5645
cycle                10000:bit_error_cnt[         59]=                5530
cycle                10000:bit_error_cnt[         60]=                5417
cycle                10000:bit_error_cnt[         61]=                6220
cycle                10000:bit_error_cnt[         62]=                4165
cycle                10000:bit_error_cnt[         63]=                3642
cycle                10000:bit_error_cnt[         64]=                5316
cycle                10000:bit_error_cnt[         65]=                5243
cycle                10000:bit_error_cnt[         66]=                4838
cycle                10000:bit_error_cnt[         67]=                6097
cycle                10000:bit_error_cnt[         68]=                7052
cycle                10000:bit_error_cnt[         69]=                3655
