cycle                10000:bit_error_cnt[          0]=                9210
cycle                10000:bit_error_cnt[          1]=                9044
cycle                10000:bit_error_cnt[          2]=                9151
cycle                10000:bit_error_cnt[          3]=                8857
cycle                10000:bit_error_cnt[          4]=                9093
cycle                10000:bit_error_cnt[          5]=                8777
cycle                10000:bit_error_cnt[          6]=                8633
cycle                10000:bit_error_cnt[          7]=                8873
cycle                10000:bit_error_cnt[          8]=                9281
cycle                10000:bit_error_cnt[          9]=                7871
cycle                10000:bit_error_cnt[         10]=                8576
cycle                10000:bit_error_cnt[         11]=                7532
cycle                10000:bit_error_cnt[         12]=                8278
cycle                10000:bit_error_cnt[         13]=                8521
cycle                10000:bit_error_cnt[         14]=                9039
cycle                10000:bit_error_cnt[         15]=                8964
cycle                10000:bit_error_cnt[         16]=                7786
cycle                10000:bit_error_cnt[         17]=                6900
cycle                10000:bit_error_cnt[         18]=                7123
cycle                10000:bit_error_cnt[         19]=                8281
cycle                10000:bit_error_cnt[         20]=                7963
cycle                10000:bit_error_cnt[         21]=                7786
cycle                10000:bit_error_cnt[         22]=                6332
cycle                10000:bit_error_cnt[         23]=                7639
cycle                10000:bit_error_cnt[         24]=                8766
cycle                10000:bit_error_cnt[         25]=                7981
cycle                10000:bit_error_cnt[         26]=                7306
cycle                10000:bit_error_cnt[         27]=                6525
cycle                10000:bit_error_cnt[         28]=                5888
cycle                10000:bit_error_cnt[         29]=                5399
cycle                10000:bit_error_cnt[         30]=                5949
cycle                10000:bit_error_cnt[         31]=                5945
cycle                10000:bit_error_cnt[         32]=                6286
cycle                10000:bit_error_cnt[         33]=                6432
