cycle                10000:bit_error_cnt[          0]=                   3
cycle                10000:bit_error_cnt[          1]=                   3
cycle                10000:bit_error_cnt[          2]=                3762
cycle                10000:bit_error_cnt[          3]=                4646
cycle                10000:bit_error_cnt[          4]=                4966
cycle                10000:bit_error_cnt[          5]=                4987
cycle                10000:bit_error_cnt[          6]=                5014
cycle                10000:bit_error_cnt[          7]=                4966
cycle                10000:bit_error_cnt[          8]=                5031
cycle                10000:bit_error_cnt[          9]=                5013
cycle                10000:bit_error_cnt[         10]=                5054
cycle                10000:bit_error_cnt[         11]=                5056
cycle                10000:bit_error_cnt[         12]=                4976
cycle                10000:bit_error_cnt[         13]=                4948
cycle                10000:bit_error_cnt[         14]=                4977
cycle                10000:bit_error_cnt[         15]=                4987
cycle                10000:bit_error_cnt[         16]=                4941
cycle                10000:bit_error_cnt[         17]=                5024
cycle                10000:bit_error_cnt[         18]=                4981
cycle                10000:bit_error_cnt[         19]=                5066
cycle                10000:bit_error_cnt[         20]=                4991
cycle                10000:bit_error_cnt[         21]=                5026
cycle                10000:bit_error_cnt[         22]=                4969
cycle                10000:bit_error_cnt[         23]=                5021
cycle                10000:bit_error_cnt[         24]=                5057
cycle                10000:bit_error_cnt[         25]=                5003
cycle                10000:bit_error_cnt[         26]=                5032
cycle                10000:bit_error_cnt[         27]=                4821
cycle                10000:bit_error_cnt[         28]=                5034
cycle                10000:bit_error_cnt[         29]=                4963
cycle                10000:bit_error_cnt[         30]=                5008
cycle                10000:bit_error_cnt[         31]=                5045
cycle                10000:bit_error_cnt[         32]=                4279
cycle                10000:bit_error_cnt[         33]=                3708
cycle                10000:bit_error_cnt[         34]=                4526
cycle                10000:bit_error_cnt[         35]=                4809
cycle                10000:bit_error_cnt[         36]=                4898
cycle                10000:bit_error_cnt[         37]=                4943
cycle                10000:bit_error_cnt[         38]=                4881
cycle                10000:bit_error_cnt[         39]=                4988
cycle                10000:bit_error_cnt[         40]=                4821
cycle                10000:bit_error_cnt[         41]=                5121
cycle                10000:bit_error_cnt[         42]=                4994
cycle                10000:bit_error_cnt[         43]=                4878
cycle                10000:bit_error_cnt[         44]=                4906
cycle                10000:bit_error_cnt[         45]=                5104
cycle                10000:bit_error_cnt[         46]=                5002
cycle                10000:bit_error_cnt[         47]=                5007
cycle                10000:bit_error_cnt[         48]=                4971
cycle                10000:bit_error_cnt[         49]=                5032
cycle                10000:bit_error_cnt[         50]=                4962
cycle                10000:bit_error_cnt[         51]=                4864
cycle                10000:bit_error_cnt[         52]=                4973
cycle                10000:bit_error_cnt[         53]=                5027
cycle                10000:bit_error_cnt[         54]=                5063
cycle                10000:bit_error_cnt[         55]=                4945
cycle                10000:bit_error_cnt[         56]=                4974
cycle                10000:bit_error_cnt[         57]=                4988
cycle                10000:bit_error_cnt[         58]=                4990
cycle                10000:bit_error_cnt[         59]=                4903
cycle                10000:bit_error_cnt[         60]=                4982
cycle                10000:bit_error_cnt[         61]=                4997
cycle                10000:bit_error_cnt[         62]=                5022
cycle                10000:bit_error_cnt[         63]=                5017
cycle                10000:bit_error_cnt[         64]=                5004
cycle                10000:bit_error_cnt[         65]=                4971
cycle                10000:bit_error_cnt[         66]=                4996
cycle                10000:bit_error_cnt[         67]=                5020
cycle                10000:bit_error_cnt[         68]=                5052
cycle                10000:bit_error_cnt[         69]=                4962
cycle                10000:bit_error_cnt[         70]=                4946
cycle                10000:bit_error_cnt[         71]=                4919
cycle                10000:bit_error_cnt[         72]=                4842
cycle                10000:bit_error_cnt[         73]=                4975
cycle                10000:bit_error_cnt[         74]=                4964
cycle                10000:bit_error_cnt[         75]=                4957
cycle                10000:bit_error_cnt[         76]=                4437
cycle                10000:bit_error_cnt[         77]=                2867
cycle                10000:bit_error_cnt[         78]=                1895
cycle                10000:bit_error_cnt[         79]=                3056
cycle                10000:bit_error_cnt[         80]=                4394
cycle                10000:bit_error_cnt[         81]=                4628
cycle                10000:bit_error_cnt[         82]=                4495
cycle                10000:bit_error_cnt[         83]=                   0
cycle                10000:bit_error_cnt[         84]=                5627
cycle                10000:bit_error_cnt[         85]=                   0
cycle                10000:bit_error_cnt[         86]=                   0
cycle                10000:bit_error_cnt[         87]=                   0
cycle                10000:bit_error_cnt[         88]=                   0
cycle                10000:bit_error_cnt[         89]=                   0
cycle                10000:bit_error_cnt[         90]=                   0
cycle                10000:bit_error_cnt[         91]=                   0
cycle                10000:bit_error_cnt[         92]=                   0
cycle                10000:bit_error_cnt[         93]=                   0
cycle                10000:bit_error_cnt[         94]=                   0
