cycle                10000:bit_error_cnt[          0]=                  44
cycle                10000:bit_error_cnt[          1]=                 183
cycle                10000:bit_error_cnt[          2]=                   0
cycle                10000:bit_error_cnt[          3]=                2482
cycle                10000:bit_error_cnt[          4]=                5052
cycle                10000:bit_error_cnt[          5]=                5577
cycle                10000:bit_error_cnt[          6]=                5272
cycle                10000:bit_error_cnt[          7]=                5301
cycle                10000:bit_error_cnt[          8]=                5305
cycle                10000:bit_error_cnt[          9]=                5474
cycle                10000:bit_error_cnt[         10]=                5457
cycle                10000:bit_error_cnt[         11]=                6017
cycle                10000:bit_error_cnt[         12]=                6026
cycle                10000:bit_error_cnt[         13]=                6338
cycle                10000:bit_error_cnt[         14]=                6500
cycle                10000:bit_error_cnt[         15]=                6387
cycle                10000:bit_error_cnt[         16]=                6457
cycle                10000:bit_error_cnt[         17]=                6437
cycle                10000:bit_error_cnt[         18]=                6194
cycle                10000:bit_error_cnt[         19]=                6130
cycle                10000:bit_error_cnt[         20]=                6249
cycle                10000:bit_error_cnt[         21]=                6328
cycle                10000:bit_error_cnt[         22]=                6626
cycle                10000:bit_error_cnt[         23]=                6701
cycle                10000:bit_error_cnt[         24]=                6583
cycle                10000:bit_error_cnt[         25]=                6540
cycle                10000:bit_error_cnt[         26]=                6592
cycle                10000:bit_error_cnt[         27]=                6799
cycle                10000:bit_error_cnt[         28]=                6904
cycle                10000:bit_error_cnt[         29]=                6750
cycle                10000:bit_error_cnt[         30]=                6870
cycle                10000:bit_error_cnt[         31]=                6938
cycle                10000:bit_error_cnt[         32]=                6774
cycle                10000:bit_error_cnt[         33]=                6714
cycle                10000:bit_error_cnt[         34]=                6569
cycle                10000:bit_error_cnt[         35]=                6606
cycle                10000:bit_error_cnt[         36]=                6154
cycle                10000:bit_error_cnt[         37]=                5787
cycle                10000:bit_error_cnt[         38]=                5852
cycle                10000:bit_error_cnt[         39]=                6053
cycle                10000:bit_error_cnt[         40]=                5970
cycle                10000:bit_error_cnt[         41]=                5891
cycle                10000:bit_error_cnt[         42]=                6042
cycle                10000:bit_error_cnt[         43]=                5816
cycle                10000:bit_error_cnt[         44]=                5612
cycle                10000:bit_error_cnt[         45]=                5568
cycle                10000:bit_error_cnt[         46]=                5490
cycle                10000:bit_error_cnt[         47]=                5400
cycle                10000:bit_error_cnt[         48]=                5461
cycle                10000:bit_error_cnt[         49]=                5685
cycle                10000:bit_error_cnt[         50]=                5330
cycle                10000:bit_error_cnt[         51]=                6288
cycle                10000:bit_error_cnt[         52]=                5739
cycle                10000:bit_error_cnt[         53]=                6415
cycle                10000:bit_error_cnt[         54]=                6078
cycle                10000:bit_error_cnt[         55]=                6030
cycle                10000:bit_error_cnt[         56]=                5189
cycle                10000:bit_error_cnt[         57]=                5238
cycle                10000:bit_error_cnt[         58]=                5817
cycle                10000:bit_error_cnt[         59]=                5300
cycle                10000:bit_error_cnt[         60]=                4360
cycle                10000:bit_error_cnt[         61]=                2838
