cycle                10000:bit_error_cnt[          0]=                   2
cycle                10000:bit_error_cnt[          1]=                   2
cycle                10000:bit_error_cnt[          2]=                   0
cycle                10000:bit_error_cnt[          3]=                   2
cycle                10000:bit_error_cnt[          4]=                   2
cycle                10000:bit_error_cnt[          5]=                   2
cycle                10000:bit_error_cnt[          6]=                   2
cycle                10000:bit_error_cnt[          7]=                   2
cycle                10000:bit_error_cnt[          8]=                   2
cycle                10000:bit_error_cnt[          9]=                   2
cycle                10000:bit_error_cnt[         10]=                   2
cycle                10000:bit_error_cnt[         11]=                 794
cycle                10000:bit_error_cnt[         12]=                1871
cycle                10000:bit_error_cnt[         13]=                1280
cycle                10000:bit_error_cnt[         14]=                 537
cycle                10000:bit_error_cnt[         15]=                 556
cycle                10000:bit_error_cnt[         16]=                 731
cycle                10000:bit_error_cnt[         17]=                1048
cycle                10000:bit_error_cnt[         18]=                2376
cycle                10000:bit_error_cnt[         19]=                1618
cycle                10000:bit_error_cnt[         20]=                1357
cycle                10000:bit_error_cnt[         21]=                2151
cycle                10000:bit_error_cnt[         22]=                1842
cycle                10000:bit_error_cnt[         23]=                1281
cycle                10000:bit_error_cnt[         24]=                 858
cycle                10000:bit_error_cnt[         25]=                 346
cycle                10000:bit_error_cnt[         26]=                 270
cycle                10000:bit_error_cnt[         27]=                 324
cycle                10000:bit_error_cnt[         28]=                 676
cycle                10000:bit_error_cnt[         29]=                1021
cycle                10000:bit_error_cnt[         30]=                1397
cycle                10000:bit_error_cnt[         31]=                 791
cycle                10000:bit_error_cnt[         32]=                 595
cycle                10000:bit_error_cnt[         33]=                1593
cycle                10000:bit_error_cnt[         34]=                1599
cycle                10000:bit_error_cnt[         35]=                 892
cycle                10000:bit_error_cnt[         36]=                 687
cycle                10000:bit_error_cnt[         37]=                 357
cycle                10000:bit_error_cnt[         38]=                 172
cycle                10000:bit_error_cnt[         39]=                 119
cycle                10000:bit_error_cnt[         40]=                  55
cycle                10000:bit_error_cnt[         41]=                  72
cycle                10000:bit_error_cnt[         42]=                  49
cycle                10000:bit_error_cnt[         43]=                  23
cycle                10000:bit_error_cnt[         44]=                  10
cycle                10000:bit_error_cnt[         45]=                   6
cycle                10000:bit_error_cnt[         46]=                   4
cycle                10000:bit_error_cnt[         47]=                   2
cycle                10000:bit_error_cnt[         48]=                   2
cycle                10000:bit_error_cnt[         49]=                   2
cycle                10000:bit_error_cnt[         50]=                   2
cycle                10000:bit_error_cnt[         51]=                   2
cycle                10000:bit_error_cnt[         52]=                   2
cycle                10000:bit_error_cnt[         53]=                   2
cycle                10000:bit_error_cnt[         54]=                   2
cycle                10000:bit_error_cnt[         55]=                   2
cycle                10000:bit_error_cnt[         56]=                 144
cycle                10000:bit_error_cnt[         57]=                 208
cycle                10000:bit_error_cnt[         58]=                 183
cycle                10000:bit_error_cnt[         59]=                 100
cycle                10000:bit_error_cnt[         60]=                  68
cycle                10000:bit_error_cnt[         61]=                  31
