cycle                10000:bit_error_cnt[          0]=                  61
cycle                10000:bit_error_cnt[          1]=                 144
cycle                10000:bit_error_cnt[          2]=                1872
cycle                10000:bit_error_cnt[          3]=                4669
cycle                10000:bit_error_cnt[          4]=                4884
cycle                10000:bit_error_cnt[          5]=                5001
cycle                10000:bit_error_cnt[          6]=                5014
cycle                10000:bit_error_cnt[          7]=                5046
cycle                10000:bit_error_cnt[          8]=                5046
cycle                10000:bit_error_cnt[          9]=                5031
cycle                10000:bit_error_cnt[         10]=                4953
cycle                10000:bit_error_cnt[         11]=                4932
cycle                10000:bit_error_cnt[         12]=                5010
cycle                10000:bit_error_cnt[         13]=                5045
cycle                10000:bit_error_cnt[         14]=                4986
cycle                10000:bit_error_cnt[         15]=                5019
cycle                10000:bit_error_cnt[         16]=                4927
cycle                10000:bit_error_cnt[         17]=                4927
cycle                10000:bit_error_cnt[         18]=                5061
cycle                10000:bit_error_cnt[         19]=                5046
cycle                10000:bit_error_cnt[         20]=                4954
cycle                10000:bit_error_cnt[         21]=                4997
cycle                10000:bit_error_cnt[         22]=                4928
cycle                10000:bit_error_cnt[         23]=                4962
cycle                10000:bit_error_cnt[         24]=                5012
cycle                10000:bit_error_cnt[         25]=                4986
cycle                10000:bit_error_cnt[         26]=                5006
cycle                10000:bit_error_cnt[         27]=                4989
cycle                10000:bit_error_cnt[         28]=                5014
cycle                10000:bit_error_cnt[         29]=                5026
cycle                10000:bit_error_cnt[         30]=                4921
cycle                10000:bit_error_cnt[         31]=                4929
cycle                10000:bit_error_cnt[         32]=                4139
cycle                10000:bit_error_cnt[         33]=                1862
cycle                10000:bit_error_cnt[         34]=                4878
cycle                10000:bit_error_cnt[         35]=                4892
cycle                10000:bit_error_cnt[         36]=                4989
cycle                10000:bit_error_cnt[         37]=                5000
cycle                10000:bit_error_cnt[         38]=                4973
cycle                10000:bit_error_cnt[         39]=                4920
cycle                10000:bit_error_cnt[         40]=                4998
cycle                10000:bit_error_cnt[         41]=                4963
cycle                10000:bit_error_cnt[         42]=                4977
cycle                10000:bit_error_cnt[         43]=                4944
cycle                10000:bit_error_cnt[         44]=                4980
cycle                10000:bit_error_cnt[         45]=                5045
cycle                10000:bit_error_cnt[         46]=                4928
cycle                10000:bit_error_cnt[         47]=                4994
cycle                10000:bit_error_cnt[         48]=                4977
cycle                10000:bit_error_cnt[         49]=                4992
cycle                10000:bit_error_cnt[         50]=                4954
cycle                10000:bit_error_cnt[         51]=                4998
cycle                10000:bit_error_cnt[         52]=                4932
cycle                10000:bit_error_cnt[         53]=                4942
cycle                10000:bit_error_cnt[         54]=                5031
cycle                10000:bit_error_cnt[         55]=                5001
cycle                10000:bit_error_cnt[         56]=                5009
cycle                10000:bit_error_cnt[         57]=                5012
cycle                10000:bit_error_cnt[         58]=                4966
cycle                10000:bit_error_cnt[         59]=                5041
cycle                10000:bit_error_cnt[         60]=                4974
cycle                10000:bit_error_cnt[         61]=                5010
cycle                10000:bit_error_cnt[         62]=                4978
cycle                10000:bit_error_cnt[         63]=                4983
cycle                10000:bit_error_cnt[         64]=                5090
cycle                10000:bit_error_cnt[         65]=                5032
cycle                10000:bit_error_cnt[         66]=                5018
cycle                10000:bit_error_cnt[         67]=                5038
cycle                10000:bit_error_cnt[         68]=                4998
cycle                10000:bit_error_cnt[         69]=                5027
cycle                10000:bit_error_cnt[         70]=                5056
cycle                10000:bit_error_cnt[         71]=                5007
cycle                10000:bit_error_cnt[         72]=                4936
cycle                10000:bit_error_cnt[         73]=                3994
cycle                10000:bit_error_cnt[         74]=                2602
cycle                10000:bit_error_cnt[         75]=                5002
cycle                10000:bit_error_cnt[         76]=                4819
cycle                10000:bit_error_cnt[         77]=                4969
cycle                10000:bit_error_cnt[         78]=                5065
cycle                10000:bit_error_cnt[         79]=                5010
cycle                10000:bit_error_cnt[         80]=                5007
cycle                10000:bit_error_cnt[         81]=                5061
cycle                10000:bit_error_cnt[         82]=                5080
cycle                10000:bit_error_cnt[         83]=                   0
cycle                10000:bit_error_cnt[         84]=                 633
cycle                10000:bit_error_cnt[         85]=                   0
cycle                10000:bit_error_cnt[         86]=                   0
cycle                10000:bit_error_cnt[         87]=                   0
cycle                10000:bit_error_cnt[         88]=                   0
cycle                10000:bit_error_cnt[         89]=                   0
cycle                10000:bit_error_cnt[         90]=                   0
cycle                10000:bit_error_cnt[         91]=                   0
cycle                10000:bit_error_cnt[         92]=                   0
cycle                10000:bit_error_cnt[         93]=                   0
cycle                10000:bit_error_cnt[         94]=                   0
