cycle                10000:bit_error_cnt[          0]=                   1
cycle                10000:bit_error_cnt[          1]=                   1
cycle                10000:bit_error_cnt[          2]=                   1
cycle                10000:bit_error_cnt[          3]=                   1
cycle                10000:bit_error_cnt[          4]=                   1
cycle                10000:bit_error_cnt[          5]=                   1
cycle                10000:bit_error_cnt[          6]=                   1
cycle                10000:bit_error_cnt[          7]=                   1
cycle                10000:bit_error_cnt[          8]=                   1
cycle                10000:bit_error_cnt[          9]=                   1
cycle                10000:bit_error_cnt[         10]=                   1
cycle                10000:bit_error_cnt[         11]=                   1
cycle                10000:bit_error_cnt[         12]=                   1
cycle                10000:bit_error_cnt[         13]=                   1
cycle                10000:bit_error_cnt[         14]=                   1
cycle                10000:bit_error_cnt[         15]=                   1
cycle                10000:bit_error_cnt[         16]=                   1
cycle                10000:bit_error_cnt[         17]=                   1
cycle                10000:bit_error_cnt[         18]=                   1
cycle                10000:bit_error_cnt[         19]=                   1
cycle                10000:bit_error_cnt[         20]=                   1
cycle                10000:bit_error_cnt[         21]=                   1
cycle                10000:bit_error_cnt[         22]=                   1
cycle                10000:bit_error_cnt[         23]=                   1
cycle                10000:bit_error_cnt[         24]=                   1
cycle                10000:bit_error_cnt[         25]=                   1
cycle                10000:bit_error_cnt[         26]=                   1
cycle                10000:bit_error_cnt[         27]=                   1
cycle                10000:bit_error_cnt[         28]=                   1
cycle                10000:bit_error_cnt[         29]=                   1
cycle                10000:bit_error_cnt[         30]=                   1
cycle                10000:bit_error_cnt[         31]=                   1
cycle                10000:bit_error_cnt[         32]=                   1
cycle                10000:bit_error_cnt[         33]=                   1
cycle                10000:bit_error_cnt[         34]=                   1
cycle                10000:bit_error_cnt[         35]=                   1
cycle                10000:bit_error_cnt[         36]=                   1
cycle                10000:bit_error_cnt[         37]=                   1
cycle                10000:bit_error_cnt[         38]=                   1
cycle                10000:bit_error_cnt[         39]=                   1
cycle                10000:bit_error_cnt[         40]=                   1
cycle                10000:bit_error_cnt[         41]=                   1
cycle                10000:bit_error_cnt[         42]=                   1
cycle                10000:bit_error_cnt[         43]=                   1
cycle                10000:bit_error_cnt[         44]=                   1
cycle                10000:bit_error_cnt[         45]=                   1
cycle                10000:bit_error_cnt[         46]=                   1
cycle                10000:bit_error_cnt[         47]=                   1
cycle                10000:bit_error_cnt[         48]=                   1
cycle                10000:bit_error_cnt[         49]=                   1
cycle                10000:bit_error_cnt[         50]=                   1
cycle                10000:bit_error_cnt[         51]=                   1
cycle                10000:bit_error_cnt[         52]=                   1
cycle                10000:bit_error_cnt[         53]=                   1
cycle                10000:bit_error_cnt[         54]=                   1
cycle                10000:bit_error_cnt[         55]=                   1
cycle                10000:bit_error_cnt[         56]=                   9
cycle                10000:bit_error_cnt[         57]=                  28
cycle                10000:bit_error_cnt[         58]=                  25
cycle                10000:bit_error_cnt[         59]=                   3
cycle                10000:bit_error_cnt[         60]=                  19
cycle                10000:bit_error_cnt[         61]=                  12
cycle                10000:bit_error_cnt[         62]=                 334
cycle                10000:bit_error_cnt[         63]=                  71
cycle                10000:bit_error_cnt[         64]=                  16
cycle                10000:bit_error_cnt[         65]=                  49
cycle                10000:bit_error_cnt[         66]=                  93
cycle                10000:bit_error_cnt[         67]=                  67
cycle                10000:bit_error_cnt[         68]=                 159
cycle                10000:bit_error_cnt[         69]=                 145
cycle                10000:bit_error_cnt[         70]=                  85
cycle                10000:bit_error_cnt[         71]=                   5
cycle                10000:bit_error_cnt[         72]=                  20
cycle                10000:bit_error_cnt[         73]=                  50
cycle                10000:bit_error_cnt[         74]=                   1
cycle                10000:bit_error_cnt[         75]=                   1
cycle                10000:bit_error_cnt[         76]=                   1
cycle                10000:bit_error_cnt[         77]=                   1
cycle                10000:bit_error_cnt[         78]=                   1
cycle                10000:bit_error_cnt[         79]=                   1
cycle                10000:bit_error_cnt[         80]=                   1
cycle                10000:bit_error_cnt[         81]=                   1
cycle                10000:bit_error_cnt[         82]=                   1
cycle                10000:bit_error_cnt[         83]=                   0
cycle                10000:bit_error_cnt[         84]=                   1
cycle                10000:bit_error_cnt[         85]=                   0
cycle                10000:bit_error_cnt[         86]=                   0
cycle                10000:bit_error_cnt[         87]=                   0
cycle                10000:bit_error_cnt[         88]=                   0
cycle                10000:bit_error_cnt[         89]=                   0
cycle                10000:bit_error_cnt[         90]=                   0
cycle                10000:bit_error_cnt[         91]=                   0
cycle                10000:bit_error_cnt[         92]=                   0
cycle                10000:bit_error_cnt[         93]=                   0
cycle                10000:bit_error_cnt[         94]=                   0
