cycle                10000:bit_error_cnt[          0]=                   2
cycle                10000:bit_error_cnt[          1]=                   2
cycle                10000:bit_error_cnt[          2]=                   0
cycle                10000:bit_error_cnt[          3]=                 759
cycle                10000:bit_error_cnt[          4]=                1220
cycle                10000:bit_error_cnt[          5]=                1577
cycle                10000:bit_error_cnt[          6]=                1630
cycle                10000:bit_error_cnt[          7]=                2124
cycle                10000:bit_error_cnt[          8]=                4118
cycle                10000:bit_error_cnt[          9]=                4356
cycle                10000:bit_error_cnt[         10]=                4618
cycle                10000:bit_error_cnt[         11]=                5457
cycle                10000:bit_error_cnt[         12]=                6176
cycle                10000:bit_error_cnt[         13]=                6628
cycle                10000:bit_error_cnt[         14]=                6767
cycle                10000:bit_error_cnt[         15]=                6900
cycle                10000:bit_error_cnt[         16]=                6721
cycle                10000:bit_error_cnt[         17]=                6979
cycle                10000:bit_error_cnt[         18]=                6516
cycle                10000:bit_error_cnt[         19]=                6629
cycle                10000:bit_error_cnt[         20]=                6722
cycle                10000:bit_error_cnt[         21]=                6786
cycle                10000:bit_error_cnt[         22]=                7076
cycle                10000:bit_error_cnt[         23]=                7000
cycle                10000:bit_error_cnt[         24]=                6980
cycle                10000:bit_error_cnt[         25]=                6925
cycle                10000:bit_error_cnt[         26]=                6953
cycle                10000:bit_error_cnt[         27]=                7106
cycle                10000:bit_error_cnt[         28]=                7083
cycle                10000:bit_error_cnt[         29]=                7095
cycle                10000:bit_error_cnt[         30]=                7123
cycle                10000:bit_error_cnt[         31]=                7163
cycle                10000:bit_error_cnt[         32]=                7168
cycle                10000:bit_error_cnt[         33]=                6838
cycle                10000:bit_error_cnt[         34]=                6791
cycle                10000:bit_error_cnt[         35]=                7010
cycle                10000:bit_error_cnt[         36]=                6255
cycle                10000:bit_error_cnt[         37]=                5700
cycle                10000:bit_error_cnt[         38]=                5475
cycle                10000:bit_error_cnt[         39]=                5774
cycle                10000:bit_error_cnt[         40]=                5346
cycle                10000:bit_error_cnt[         41]=                5744
cycle                10000:bit_error_cnt[         42]=                6101
cycle                10000:bit_error_cnt[         43]=                5228
cycle                10000:bit_error_cnt[         44]=                4970
cycle                10000:bit_error_cnt[         45]=                4773
cycle                10000:bit_error_cnt[         46]=                4734
cycle                10000:bit_error_cnt[         47]=                5388
cycle                10000:bit_error_cnt[         48]=                5240
cycle                10000:bit_error_cnt[         49]=                4884
cycle                10000:bit_error_cnt[         50]=                2995
cycle                10000:bit_error_cnt[         51]=                   2
cycle                10000:bit_error_cnt[         52]=                   2
cycle                10000:bit_error_cnt[         53]=                   2
cycle                10000:bit_error_cnt[         54]=                1348
cycle                10000:bit_error_cnt[         55]=                1373
cycle                10000:bit_error_cnt[         56]=                1284
cycle                10000:bit_error_cnt[         57]=                1137
cycle                10000:bit_error_cnt[         58]=                 724
cycle                10000:bit_error_cnt[         59]=                3163
cycle                10000:bit_error_cnt[         60]=                4348
cycle                10000:bit_error_cnt[         61]=                1059
