cycle                10000:bit_error_cnt[          0]=                   3
cycle                10000:bit_error_cnt[          1]=                  39
cycle                10000:bit_error_cnt[          2]=                   0
cycle                10000:bit_error_cnt[          3]=                2488
cycle                10000:bit_error_cnt[          4]=                4458
cycle                10000:bit_error_cnt[          5]=                5159
cycle                10000:bit_error_cnt[          6]=                5797
cycle                10000:bit_error_cnt[          7]=                5713
cycle                10000:bit_error_cnt[          8]=                5464
cycle                10000:bit_error_cnt[          9]=                5409
cycle                10000:bit_error_cnt[         10]=                5351
cycle                10000:bit_error_cnt[         11]=                5670
cycle                10000:bit_error_cnt[         12]=                5682
cycle                10000:bit_error_cnt[         13]=                5880
cycle                10000:bit_error_cnt[         14]=                5814
cycle                10000:bit_error_cnt[         15]=                5878
cycle                10000:bit_error_cnt[         16]=                5659
cycle                10000:bit_error_cnt[         17]=                5703
cycle                10000:bit_error_cnt[         18]=                5823
cycle                10000:bit_error_cnt[         19]=                5972
cycle                10000:bit_error_cnt[         20]=                6278
cycle                10000:bit_error_cnt[         21]=                6217
cycle                10000:bit_error_cnt[         22]=                6322
cycle                10000:bit_error_cnt[         23]=                6446
cycle                10000:bit_error_cnt[         24]=                6305
cycle                10000:bit_error_cnt[         25]=                6037
cycle                10000:bit_error_cnt[         26]=                5869
cycle                10000:bit_error_cnt[         27]=                5898
cycle                10000:bit_error_cnt[         28]=                6152
cycle                10000:bit_error_cnt[         29]=                5931
cycle                10000:bit_error_cnt[         30]=                5748
cycle                10000:bit_error_cnt[         31]=                5701
cycle                10000:bit_error_cnt[         32]=                5685
cycle                10000:bit_error_cnt[         33]=                5469
cycle                10000:bit_error_cnt[         34]=                5367
cycle                10000:bit_error_cnt[         35]=                5379
cycle                10000:bit_error_cnt[         36]=                5216
cycle                10000:bit_error_cnt[         37]=                5227
cycle                10000:bit_error_cnt[         38]=                5184
cycle                10000:bit_error_cnt[         39]=                5272
cycle                10000:bit_error_cnt[         40]=                5330
cycle                10000:bit_error_cnt[         41]=                5461
cycle                10000:bit_error_cnt[         42]=                5681
cycle                10000:bit_error_cnt[         43]=                5354
cycle                10000:bit_error_cnt[         44]=                5251
cycle                10000:bit_error_cnt[         45]=                5238
cycle                10000:bit_error_cnt[         46]=                5323
cycle                10000:bit_error_cnt[         47]=                5469
cycle                10000:bit_error_cnt[         48]=                5300
cycle                10000:bit_error_cnt[         49]=                5166
cycle                10000:bit_error_cnt[         50]=                4473
cycle                10000:bit_error_cnt[         51]=                1847
cycle                10000:bit_error_cnt[         52]=                   2
cycle                10000:bit_error_cnt[         53]=                5006
cycle                10000:bit_error_cnt[         54]=                4197
cycle                10000:bit_error_cnt[         55]=                5483
cycle                10000:bit_error_cnt[         56]=                5781
cycle                10000:bit_error_cnt[         57]=                5518
cycle                10000:bit_error_cnt[         58]=                5709
cycle                10000:bit_error_cnt[         59]=                5737
cycle                10000:bit_error_cnt[         60]=                5181
cycle                10000:bit_error_cnt[         61]=                2308
