cycle                10000:bit_error_cnt[          0]=                   1
cycle                10000:bit_error_cnt[          1]=                   1
cycle                10000:bit_error_cnt[          2]=                   1
cycle                10000:bit_error_cnt[          3]=                   1
cycle                10000:bit_error_cnt[          4]=                   1
cycle                10000:bit_error_cnt[          5]=                 931
cycle                10000:bit_error_cnt[          6]=                1564
cycle                10000:bit_error_cnt[          7]=                4335
cycle                10000:bit_error_cnt[          8]=                3555
cycle                10000:bit_error_cnt[          9]=                3283
cycle                10000:bit_error_cnt[         10]=                4369
cycle                10000:bit_error_cnt[         11]=                4255
cycle                10000:bit_error_cnt[         12]=                4282
cycle                10000:bit_error_cnt[         13]=                3705
cycle                10000:bit_error_cnt[         14]=                3904
cycle                10000:bit_error_cnt[         15]=                3997
cycle                10000:bit_error_cnt[         16]=                3483
cycle                10000:bit_error_cnt[         17]=                1965
cycle                10000:bit_error_cnt[         18]=                3195
cycle                10000:bit_error_cnt[         19]=                2704
cycle                10000:bit_error_cnt[         20]=                2894
cycle                10000:bit_error_cnt[         21]=                3066
cycle                10000:bit_error_cnt[         22]=                2558
cycle                10000:bit_error_cnt[         23]=                3406
cycle                10000:bit_error_cnt[         24]=                4048
cycle                10000:bit_error_cnt[         25]=                3751
cycle                10000:bit_error_cnt[         26]=                3930
cycle                10000:bit_error_cnt[         27]=                3264
cycle                10000:bit_error_cnt[         28]=                4177
cycle                10000:bit_error_cnt[         29]=                4038
cycle                10000:bit_error_cnt[         30]=                4389
cycle                10000:bit_error_cnt[         31]=                4499
cycle                10000:bit_error_cnt[         32]=                3021
cycle                10000:bit_error_cnt[         33]=                   1
cycle                10000:bit_error_cnt[         34]=                   1
cycle                10000:bit_error_cnt[         35]=                   1
cycle                10000:bit_error_cnt[         36]=                1194
cycle                10000:bit_error_cnt[         37]=                1233
cycle                10000:bit_error_cnt[         38]=                 909
cycle                10000:bit_error_cnt[         39]=                3410
cycle                10000:bit_error_cnt[         40]=                1672
cycle                10000:bit_error_cnt[         41]=                3032
cycle                10000:bit_error_cnt[         42]=                3223
cycle                10000:bit_error_cnt[         43]=                 834
cycle                10000:bit_error_cnt[         44]=                4452
cycle                10000:bit_error_cnt[         45]=                4814
cycle                10000:bit_error_cnt[         46]=                4456
cycle                10000:bit_error_cnt[         47]=                4586
cycle                10000:bit_error_cnt[         48]=                4821
cycle                10000:bit_error_cnt[         49]=                4938
cycle                10000:bit_error_cnt[         50]=                4967
cycle                10000:bit_error_cnt[         51]=                4977
cycle                10000:bit_error_cnt[         52]=                4971
cycle                10000:bit_error_cnt[         53]=                4965
cycle                10000:bit_error_cnt[         54]=                5062
cycle                10000:bit_error_cnt[         55]=                4948
cycle                10000:bit_error_cnt[         56]=                4959
cycle                10000:bit_error_cnt[         57]=                4940
cycle                10000:bit_error_cnt[         58]=                4973
cycle                10000:bit_error_cnt[         59]=                4970
cycle                10000:bit_error_cnt[         60]=                5001
cycle                10000:bit_error_cnt[         61]=                4864
cycle                10000:bit_error_cnt[         62]=                5009
cycle                10000:bit_error_cnt[         63]=                4964
cycle                10000:bit_error_cnt[         64]=                5020
cycle                10000:bit_error_cnt[         65]=                4968
cycle                10000:bit_error_cnt[         66]=                4755
cycle                10000:bit_error_cnt[         67]=                4866
cycle                10000:bit_error_cnt[         68]=                4898
cycle                10000:bit_error_cnt[         69]=                4491
cycle                10000:bit_error_cnt[         70]=                4186
cycle                10000:bit_error_cnt[         71]=                4908
cycle                10000:bit_error_cnt[         72]=                4736
cycle                10000:bit_error_cnt[         73]=                4008
cycle                10000:bit_error_cnt[         74]=                   1
cycle                10000:bit_error_cnt[         75]=                   1
cycle                10000:bit_error_cnt[         76]=                   1
cycle                10000:bit_error_cnt[         77]=                   1
cycle                10000:bit_error_cnt[         78]=                 393
cycle                10000:bit_error_cnt[         79]=                1110
cycle                10000:bit_error_cnt[         80]=                1452
cycle                10000:bit_error_cnt[         81]=                1664
cycle                10000:bit_error_cnt[         82]=                 801
cycle                10000:bit_error_cnt[         83]=                   0
cycle                10000:bit_error_cnt[         84]=                   1
cycle                10000:bit_error_cnt[         85]=                   0
cycle                10000:bit_error_cnt[         86]=                   0
cycle                10000:bit_error_cnt[         87]=                   0
cycle                10000:bit_error_cnt[         88]=                   0
cycle                10000:bit_error_cnt[         89]=                   0
cycle                10000:bit_error_cnt[         90]=                   0
cycle                10000:bit_error_cnt[         91]=                   0
cycle                10000:bit_error_cnt[         92]=                   0
cycle                10000:bit_error_cnt[         93]=                   0
cycle                10000:bit_error_cnt[         94]=                   0
