cycle                10000:bit_error_cnt[          0]=                  82
cycle                10000:bit_error_cnt[          1]=                 144
cycle                10000:bit_error_cnt[          2]=                3744
cycle                10000:bit_error_cnt[          3]=                4669
cycle                10000:bit_error_cnt[          4]=                4884
cycle                10000:bit_error_cnt[          5]=                4999
cycle                10000:bit_error_cnt[          6]=                5024
cycle                10000:bit_error_cnt[          7]=                4966
cycle                10000:bit_error_cnt[          8]=                5001
cycle                10000:bit_error_cnt[          9]=                4973
cycle                10000:bit_error_cnt[         10]=                4952
cycle                10000:bit_error_cnt[         11]=                5029
cycle                10000:bit_error_cnt[         12]=                4997
cycle                10000:bit_error_cnt[         13]=                5018
cycle                10000:bit_error_cnt[         14]=                4942
cycle                10000:bit_error_cnt[         15]=                5087
cycle                10000:bit_error_cnt[         16]=                5057
cycle                10000:bit_error_cnt[         17]=                4968
cycle                10000:bit_error_cnt[         18]=                5066
cycle                10000:bit_error_cnt[         19]=                5038
cycle                10000:bit_error_cnt[         20]=                4909
cycle                10000:bit_error_cnt[         21]=                4966
cycle                10000:bit_error_cnt[         22]=                4977
cycle                10000:bit_error_cnt[         23]=                4993
cycle                10000:bit_error_cnt[         24]=                5036
cycle                10000:bit_error_cnt[         25]=                5012
cycle                10000:bit_error_cnt[         26]=                5001
cycle                10000:bit_error_cnt[         27]=                4990
cycle                10000:bit_error_cnt[         28]=                5008
cycle                10000:bit_error_cnt[         29]=                5018
cycle                10000:bit_error_cnt[         30]=                5034
cycle                10000:bit_error_cnt[         31]=                4982
cycle                10000:bit_error_cnt[         32]=                4690
cycle                10000:bit_error_cnt[         33]=                3724
cycle                10000:bit_error_cnt[         34]=                5084
cycle                10000:bit_error_cnt[         35]=                4892
cycle                10000:bit_error_cnt[         36]=                4963
cycle                10000:bit_error_cnt[         37]=                5044
cycle                10000:bit_error_cnt[         38]=                4932
cycle                10000:bit_error_cnt[         39]=                4903
cycle                10000:bit_error_cnt[         40]=                5052
cycle                10000:bit_error_cnt[         41]=                4996
cycle                10000:bit_error_cnt[         42]=                4931
cycle                10000:bit_error_cnt[         43]=                4944
cycle                10000:bit_error_cnt[         44]=                5058
cycle                10000:bit_error_cnt[         45]=                5014
cycle                10000:bit_error_cnt[         46]=                5025
cycle                10000:bit_error_cnt[         47]=                4980
cycle                10000:bit_error_cnt[         48]=                4982
cycle                10000:bit_error_cnt[         49]=                5047
cycle                10000:bit_error_cnt[         50]=                4998
cycle                10000:bit_error_cnt[         51]=                4970
cycle                10000:bit_error_cnt[         52]=                4962
cycle                10000:bit_error_cnt[         53]=                5022
cycle                10000:bit_error_cnt[         54]=                4956
cycle                10000:bit_error_cnt[         55]=                5009
cycle                10000:bit_error_cnt[         56]=                4894
cycle                10000:bit_error_cnt[         57]=                5052
cycle                10000:bit_error_cnt[         58]=                4943
cycle                10000:bit_error_cnt[         59]=                5056
cycle                10000:bit_error_cnt[         60]=                5122
cycle                10000:bit_error_cnt[         61]=                4950
cycle                10000:bit_error_cnt[         62]=                4979
cycle                10000:bit_error_cnt[         63]=                5066
cycle                10000:bit_error_cnt[         64]=                4923
cycle                10000:bit_error_cnt[         65]=                5018
cycle                10000:bit_error_cnt[         66]=                4971
cycle                10000:bit_error_cnt[         67]=                4989
cycle                10000:bit_error_cnt[         68]=                5089
cycle                10000:bit_error_cnt[         69]=                5106
cycle                10000:bit_error_cnt[         70]=                5144
cycle                10000:bit_error_cnt[         71]=                5054
cycle                10000:bit_error_cnt[         72]=                5039
cycle                10000:bit_error_cnt[         73]=                5066
cycle                10000:bit_error_cnt[         74]=                5105
cycle                10000:bit_error_cnt[         75]=                5002
cycle                10000:bit_error_cnt[         76]=                4919
cycle                10000:bit_error_cnt[         77]=                4969
cycle                10000:bit_error_cnt[         78]=                5017
cycle                10000:bit_error_cnt[         79]=                5034
cycle                10000:bit_error_cnt[         80]=                5045
cycle                10000:bit_error_cnt[         81]=                5057
cycle                10000:bit_error_cnt[         82]=                5069
cycle                10000:bit_error_cnt[         83]=                   0
cycle                10000:bit_error_cnt[         84]=                2499
cycle                10000:bit_error_cnt[         85]=                   0
cycle                10000:bit_error_cnt[         86]=                   0
cycle                10000:bit_error_cnt[         87]=                   0
cycle                10000:bit_error_cnt[         88]=                   0
cycle                10000:bit_error_cnt[         89]=                   0
cycle                10000:bit_error_cnt[         90]=                   0
cycle                10000:bit_error_cnt[         91]=                   0
cycle                10000:bit_error_cnt[         92]=                   0
cycle                10000:bit_error_cnt[         93]=                   0
cycle                10000:bit_error_cnt[         94]=                   0
