cycle                10000:bit_error_cnt[          0]=                6549
cycle                10000:bit_error_cnt[          1]=                 108
cycle                10000:bit_error_cnt[          2]=                 182
cycle                10000:bit_error_cnt[          3]=                8540
cycle                10000:bit_error_cnt[          4]=                   0
cycle                10000:bit_error_cnt[          5]=                   0
cycle                10000:bit_error_cnt[          6]=                   0
cycle                10000:bit_error_cnt[          7]=                   0
cycle                10000:bit_error_cnt[          8]=                   0
cycle                10000:bit_error_cnt[          9]=                   0
cycle                10000:bit_error_cnt[         10]=                   0
cycle                10000:bit_error_cnt[         11]=                   0
cycle                10000:bit_error_cnt[         12]=                   0
cycle                10000:bit_error_cnt[         13]=                   0
cycle                10000:bit_error_cnt[         14]=                   0
cycle                10000:bit_error_cnt[         15]=                   0
cycle                10000:bit_error_cnt[         16]=                   0
cycle                10000:bit_error_cnt[         17]=                   0
cycle                10000:bit_error_cnt[         18]=                   0
cycle                10000:bit_error_cnt[         19]=                   0
cycle                10000:bit_error_cnt[         20]=                   0
cycle                10000:bit_error_cnt[         21]=                   0
cycle                10000:bit_error_cnt[         22]=                   0
cycle                10000:bit_error_cnt[         23]=                   0
cycle                10000:bit_error_cnt[         24]=                   0
cycle                10000:bit_error_cnt[         25]=                   0
cycle                10000:bit_error_cnt[         26]=                   0
cycle                10000:bit_error_cnt[         27]=                   0
cycle                10000:bit_error_cnt[         28]=                   0
cycle                10000:bit_error_cnt[         29]=                   0
cycle                10000:bit_error_cnt[         30]=                   0
cycle                10000:bit_error_cnt[         31]=                   0
cycle                10000:bit_error_cnt[         32]=                   0
cycle                10000:bit_error_cnt[         33]=                   0
cycle                10000:bit_error_cnt[         34]=                   0
cycle                10000:bit_error_cnt[         35]=                   0
cycle                10000:bit_error_cnt[         36]=                   0
cycle                10000:bit_error_cnt[         37]=                8158
cycle                10000:bit_error_cnt[         38]=                7710
cycle                10000:bit_error_cnt[         39]=                7278
cycle                10000:bit_error_cnt[         40]=                7777
cycle                10000:bit_error_cnt[         41]=                7284
cycle                10000:bit_error_cnt[         42]=                8338
cycle                10000:bit_error_cnt[         43]=                7657
cycle                10000:bit_error_cnt[         44]=                7522
cycle                10000:bit_error_cnt[         45]=                7619
cycle                10000:bit_error_cnt[         46]=                7050
cycle                10000:bit_error_cnt[         47]=                6717
cycle                10000:bit_error_cnt[         48]=                6975
cycle                10000:bit_error_cnt[         49]=                6848
cycle                10000:bit_error_cnt[         50]=                6082
cycle                10000:bit_error_cnt[         51]=                6442
cycle                10000:bit_error_cnt[         52]=                6256
cycle                10000:bit_error_cnt[         53]=                6723
cycle                10000:bit_error_cnt[         54]=                6484
cycle                10000:bit_error_cnt[         55]=                7057
cycle                10000:bit_error_cnt[         56]=                6059
cycle                10000:bit_error_cnt[         57]=                5738
cycle                10000:bit_error_cnt[         58]=                5695
cycle                10000:bit_error_cnt[         59]=                6377
cycle                10000:bit_error_cnt[         60]=                5869
cycle                10000:bit_error_cnt[         61]=                7922
cycle                10000:bit_error_cnt[         62]=                7743
cycle                10000:bit_error_cnt[         63]=                8373
cycle                10000:bit_error_cnt[         64]=                5647
cycle                10000:bit_error_cnt[         65]=                7351
cycle                10000:bit_error_cnt[         66]=                5478
cycle                10000:bit_error_cnt[         67]=                6686
cycle                10000:bit_error_cnt[         68]=                4841
cycle                10000:bit_error_cnt[         69]=                2614
