cycle                10000:bit_error_cnt[          0]=                   3
cycle                10000:bit_error_cnt[          1]=                  77
cycle                10000:bit_error_cnt[          2]=                   0
cycle                10000:bit_error_cnt[          3]=                2500
cycle                10000:bit_error_cnt[          4]=                4469
cycle                10000:bit_error_cnt[          5]=                5259
cycle                10000:bit_error_cnt[          6]=                5848
cycle                10000:bit_error_cnt[          7]=                5613
cycle                10000:bit_error_cnt[          8]=                5442
cycle                10000:bit_error_cnt[          9]=                5497
cycle                10000:bit_error_cnt[         10]=                5606
cycle                10000:bit_error_cnt[         11]=                5867
cycle                10000:bit_error_cnt[         12]=                5747
cycle                10000:bit_error_cnt[         13]=                5865
cycle                10000:bit_error_cnt[         14]=                5794
cycle                10000:bit_error_cnt[         15]=                5936
cycle                10000:bit_error_cnt[         16]=                5680
cycle                10000:bit_error_cnt[         17]=                5741
cycle                10000:bit_error_cnt[         18]=                5914
cycle                10000:bit_error_cnt[         19]=                6143
cycle                10000:bit_error_cnt[         20]=                6429
cycle                10000:bit_error_cnt[         21]=                6399
cycle                10000:bit_error_cnt[         22]=                6504
cycle                10000:bit_error_cnt[         23]=                6628
cycle                10000:bit_error_cnt[         24]=                6522
cycle                10000:bit_error_cnt[         25]=                6202
cycle                10000:bit_error_cnt[         26]=                6101
cycle                10000:bit_error_cnt[         27]=                6033
cycle                10000:bit_error_cnt[         28]=                6289
cycle                10000:bit_error_cnt[         29]=                6018
cycle                10000:bit_error_cnt[         30]=                5837
cycle                10000:bit_error_cnt[         31]=                5774
cycle                10000:bit_error_cnt[         32]=                5759
cycle                10000:bit_error_cnt[         33]=                5514
cycle                10000:bit_error_cnt[         34]=                5407
cycle                10000:bit_error_cnt[         35]=                5462
cycle                10000:bit_error_cnt[         36]=                5315
cycle                10000:bit_error_cnt[         37]=                5277
cycle                10000:bit_error_cnt[         38]=                5256
cycle                10000:bit_error_cnt[         39]=                5334
cycle                10000:bit_error_cnt[         40]=                5378
cycle                10000:bit_error_cnt[         41]=                5559
cycle                10000:bit_error_cnt[         42]=                5834
cycle                10000:bit_error_cnt[         43]=                5481
cycle                10000:bit_error_cnt[         44]=                5257
cycle                10000:bit_error_cnt[         45]=                5260
cycle                10000:bit_error_cnt[         46]=                5333
cycle                10000:bit_error_cnt[         47]=                5426
cycle                10000:bit_error_cnt[         48]=                5334
cycle                10000:bit_error_cnt[         49]=                5151
cycle                10000:bit_error_cnt[         50]=                4405
cycle                10000:bit_error_cnt[         51]=                2500
cycle                10000:bit_error_cnt[         52]=                2554
cycle                10000:bit_error_cnt[         53]=                5248
cycle                10000:bit_error_cnt[         54]=                5327
cycle                10000:bit_error_cnt[         55]=                5778
cycle                10000:bit_error_cnt[         56]=                5515
cycle                10000:bit_error_cnt[         57]=                5798
cycle                10000:bit_error_cnt[         58]=                6089
cycle                10000:bit_error_cnt[         59]=                5714
cycle                10000:bit_error_cnt[         60]=                5986
cycle                10000:bit_error_cnt[         61]=                3488
