cycle                10000:bit_error_cnt[          0]=                  20
cycle                10000:bit_error_cnt[          1]=                  58
cycle                10000:bit_error_cnt[          2]=                1007
cycle                10000:bit_error_cnt[          3]=                  63
cycle                10000:bit_error_cnt[          4]=                 196
cycle                10000:bit_error_cnt[          5]=                 141
cycle                10000:bit_error_cnt[          6]=                 129
cycle                10000:bit_error_cnt[          7]=                  50
cycle                10000:bit_error_cnt[          8]=                  58
cycle                10000:bit_error_cnt[          9]=                  37
cycle                10000:bit_error_cnt[         10]=                  24
cycle                10000:bit_error_cnt[         11]=                  19
cycle                10000:bit_error_cnt[         12]=                  14
cycle                10000:bit_error_cnt[         13]=                  16
cycle                10000:bit_error_cnt[         14]=                  18
cycle                10000:bit_error_cnt[         15]=                  15
cycle                10000:bit_error_cnt[         16]=                  21
cycle                10000:bit_error_cnt[         17]=                  18
cycle                10000:bit_error_cnt[         18]=                  12
cycle                10000:bit_error_cnt[         19]=                  12
cycle                10000:bit_error_cnt[         20]=                  27
cycle                10000:bit_error_cnt[         21]=                2505
cycle                10000:bit_error_cnt[         22]=                   7
cycle                10000:bit_error_cnt[         23]=                  16
cycle                10000:bit_error_cnt[         24]=                  12
cycle                10000:bit_error_cnt[         25]=                   9
cycle                10000:bit_error_cnt[         26]=                   6
cycle                10000:bit_error_cnt[         27]=                   6
cycle                10000:bit_error_cnt[         28]=                   6
cycle                10000:bit_error_cnt[         29]=                   6
cycle                10000:bit_error_cnt[         30]=                  49
cycle                10000:bit_error_cnt[         31]=                   5
cycle                10000:bit_error_cnt[         32]=                  75
cycle                10000:bit_error_cnt[         33]=                  67
