cycle                10000:bit_error_cnt[          0]=                   3
cycle                10000:bit_error_cnt[          1]=                   3
cycle                10000:bit_error_cnt[          2]=                   3
cycle                10000:bit_error_cnt[          3]=                   0
cycle                10000:bit_error_cnt[          4]=                 370
cycle                10000:bit_error_cnt[          5]=                 604
cycle                10000:bit_error_cnt[          6]=                 710
cycle                10000:bit_error_cnt[          7]=                 800
cycle                10000:bit_error_cnt[          8]=                 817
cycle                10000:bit_error_cnt[          9]=                 997
cycle                10000:bit_error_cnt[         10]=                 947
cycle                10000:bit_error_cnt[         11]=                1441
cycle                10000:bit_error_cnt[         12]=                1431
cycle                10000:bit_error_cnt[         13]=                2410
cycle                10000:bit_error_cnt[         14]=                2640
cycle                10000:bit_error_cnt[         15]=                2810
cycle                10000:bit_error_cnt[         16]=                2510
cycle                10000:bit_error_cnt[         17]=                3336
cycle                10000:bit_error_cnt[         18]=                3326
cycle                10000:bit_error_cnt[         19]=                2970
cycle                10000:bit_error_cnt[         20]=                2353
cycle                10000:bit_error_cnt[         21]=                2158
cycle                10000:bit_error_cnt[         22]=                2403
cycle                10000:bit_error_cnt[         23]=                3237
cycle                10000:bit_error_cnt[         24]=                3141
cycle                10000:bit_error_cnt[         25]=                3635
cycle                10000:bit_error_cnt[         26]=                4109
cycle                10000:bit_error_cnt[         27]=                4297
cycle                10000:bit_error_cnt[         28]=                5218
cycle                10000:bit_error_cnt[         29]=                5861
cycle                10000:bit_error_cnt[         30]=                5390
cycle                10000:bit_error_cnt[         31]=                4965
cycle                10000:bit_error_cnt[         32]=                4960
cycle                10000:bit_error_cnt[         33]=                4767
cycle                10000:bit_error_cnt[         34]=                4972
cycle                10000:bit_error_cnt[         35]=                4810
cycle                10000:bit_error_cnt[         36]=                4698
cycle                10000:bit_error_cnt[         37]=                4514
cycle                10000:bit_error_cnt[         38]=                4289
cycle                10000:bit_error_cnt[         39]=                4102
cycle                10000:bit_error_cnt[         40]=                3490
cycle                10000:bit_error_cnt[         41]=                3079
cycle                10000:bit_error_cnt[         42]=                3350
cycle                10000:bit_error_cnt[         43]=                2944
cycle                10000:bit_error_cnt[         44]=                2737
cycle                10000:bit_error_cnt[         45]=                2744
cycle                10000:bit_error_cnt[         46]=                2584
cycle                10000:bit_error_cnt[         47]=                2318
cycle                10000:bit_error_cnt[         48]=                1906
cycle                10000:bit_error_cnt[         49]=                1413
cycle                10000:bit_error_cnt[         50]=                 848
cycle                10000:bit_error_cnt[         51]=                4297
cycle                10000:bit_error_cnt[         52]=                5218
cycle                10000:bit_error_cnt[         53]=                5861
cycle                10000:bit_error_cnt[         54]=                5390
cycle                10000:bit_error_cnt[         55]=                4965
cycle                10000:bit_error_cnt[         56]=                4960
cycle                10000:bit_error_cnt[         57]=                4767
cycle                10000:bit_error_cnt[         58]=                4972
cycle                10000:bit_error_cnt[         59]=                4810
cycle                10000:bit_error_cnt[         60]=                4698
cycle                10000:bit_error_cnt[         61]=                4514
cycle                10000:bit_error_cnt[         62]=                4289
cycle                10000:bit_error_cnt[         63]=                4102
cycle                10000:bit_error_cnt[         64]=                3490
cycle                10000:bit_error_cnt[         65]=                3079
cycle                10000:bit_error_cnt[         66]=                3350
cycle                10000:bit_error_cnt[         67]=                2944
cycle                10000:bit_error_cnt[         68]=                2737
cycle                10000:bit_error_cnt[         69]=                2744
cycle                10000:bit_error_cnt[         70]=                2584
cycle                10000:bit_error_cnt[         71]=                2318
cycle                10000:bit_error_cnt[         72]=                1906
cycle                10000:bit_error_cnt[         73]=                1413
cycle                10000:bit_error_cnt[         74]=                 848
cycle                10000:bit_error_cnt[         75]=                1864
cycle                10000:bit_error_cnt[         76]=                 722
cycle                10000:bit_error_cnt[         77]=                1810
cycle                10000:bit_error_cnt[         78]=                 955
cycle                10000:bit_error_cnt[         79]=                 724
cycle                10000:bit_error_cnt[         80]=                 489
cycle                10000:bit_error_cnt[         81]=                 287
cycle                10000:bit_error_cnt[         82]=                 258
cycle                10000:bit_error_cnt[         83]=                 238
cycle                10000:bit_error_cnt[         84]=                 190
