cycle                10000:bit_error_cnt[          0]=                   4
cycle                10000:bit_error_cnt[          1]=                   4
cycle                10000:bit_error_cnt[          2]=                   4
cycle                10000:bit_error_cnt[          3]=                 229
cycle                10000:bit_error_cnt[          4]=                   0
cycle                10000:bit_error_cnt[          5]=                   0
cycle                10000:bit_error_cnt[          6]=                   0
cycle                10000:bit_error_cnt[          7]=                   0
cycle                10000:bit_error_cnt[          8]=                   0
cycle                10000:bit_error_cnt[          9]=                   0
cycle                10000:bit_error_cnt[         10]=                   0
cycle                10000:bit_error_cnt[         11]=                   0
cycle                10000:bit_error_cnt[         12]=                   0
cycle                10000:bit_error_cnt[         13]=                   0
cycle                10000:bit_error_cnt[         14]=                   0
cycle                10000:bit_error_cnt[         15]=                   0
cycle                10000:bit_error_cnt[         16]=                   0
cycle                10000:bit_error_cnt[         17]=                   0
cycle                10000:bit_error_cnt[         18]=                   0
cycle                10000:bit_error_cnt[         19]=                   0
cycle                10000:bit_error_cnt[         20]=                   0
cycle                10000:bit_error_cnt[         21]=                   0
cycle                10000:bit_error_cnt[         22]=                   0
cycle                10000:bit_error_cnt[         23]=                   0
cycle                10000:bit_error_cnt[         24]=                   0
cycle                10000:bit_error_cnt[         25]=                   0
cycle                10000:bit_error_cnt[         26]=                   0
cycle                10000:bit_error_cnt[         27]=                   0
cycle                10000:bit_error_cnt[         28]=                   0
cycle                10000:bit_error_cnt[         29]=                   0
cycle                10000:bit_error_cnt[         30]=                   0
cycle                10000:bit_error_cnt[         31]=                   0
cycle                10000:bit_error_cnt[         32]=                   0
cycle                10000:bit_error_cnt[         33]=                   0
cycle                10000:bit_error_cnt[         34]=                   0
cycle                10000:bit_error_cnt[         35]=                   0
cycle                10000:bit_error_cnt[         36]=                   0
cycle                10000:bit_error_cnt[         37]=                 320
cycle                10000:bit_error_cnt[         38]=                 864
cycle                10000:bit_error_cnt[         39]=                 855
cycle                10000:bit_error_cnt[         40]=                 480
cycle                10000:bit_error_cnt[         41]=                 389
cycle                10000:bit_error_cnt[         42]=                 301
cycle                10000:bit_error_cnt[         43]=                 443
cycle                10000:bit_error_cnt[         44]=                 469
cycle                10000:bit_error_cnt[         45]=                 466
cycle                10000:bit_error_cnt[         46]=                 352
cycle                10000:bit_error_cnt[         47]=                 359
cycle                10000:bit_error_cnt[         48]=                 298
cycle                10000:bit_error_cnt[         49]=                 276
cycle                10000:bit_error_cnt[         50]=                 303
cycle                10000:bit_error_cnt[         51]=                 299
cycle                10000:bit_error_cnt[         52]=                 224
cycle                10000:bit_error_cnt[         53]=                 182
cycle                10000:bit_error_cnt[         54]=                 161
cycle                10000:bit_error_cnt[         55]=                 124
cycle                10000:bit_error_cnt[         56]=                 155
cycle                10000:bit_error_cnt[         57]=                 136
cycle                10000:bit_error_cnt[         58]=                  59
cycle                10000:bit_error_cnt[         59]=                  29
cycle                10000:bit_error_cnt[         60]=                  71
cycle                10000:bit_error_cnt[         61]=                  35
cycle                10000:bit_error_cnt[         62]=                  23
cycle                10000:bit_error_cnt[         63]=                  12
cycle                10000:bit_error_cnt[         64]=                   7
cycle                10000:bit_error_cnt[         65]=                   6
cycle                10000:bit_error_cnt[         66]=                   6
cycle                10000:bit_error_cnt[         67]=                  37
cycle                10000:bit_error_cnt[         68]=                  63
cycle                10000:bit_error_cnt[         69]=                  32
