cycle                10000:bit_error_cnt[          0]=                   4
cycle                10000:bit_error_cnt[          1]=                   4
cycle                10000:bit_error_cnt[          2]=                   4
cycle                10000:bit_error_cnt[          3]=                6996
cycle                10000:bit_error_cnt[          4]=                   0
cycle                10000:bit_error_cnt[          5]=                   0
cycle                10000:bit_error_cnt[          6]=                   0
cycle                10000:bit_error_cnt[          7]=                   0
cycle                10000:bit_error_cnt[          8]=                   0
cycle                10000:bit_error_cnt[          9]=                   0
cycle                10000:bit_error_cnt[         10]=                   0
cycle                10000:bit_error_cnt[         11]=                   0
cycle                10000:bit_error_cnt[         12]=                   0
cycle                10000:bit_error_cnt[         13]=                   0
cycle                10000:bit_error_cnt[         14]=                   0
cycle                10000:bit_error_cnt[         15]=                   0
cycle                10000:bit_error_cnt[         16]=                   0
cycle                10000:bit_error_cnt[         17]=                   0
cycle                10000:bit_error_cnt[         18]=                   0
cycle                10000:bit_error_cnt[         19]=                   0
cycle                10000:bit_error_cnt[         20]=                   0
cycle                10000:bit_error_cnt[         21]=                   0
cycle                10000:bit_error_cnt[         22]=                   0
cycle                10000:bit_error_cnt[         23]=                   0
cycle                10000:bit_error_cnt[         24]=                   0
cycle                10000:bit_error_cnt[         25]=                   0
cycle                10000:bit_error_cnt[         26]=                   0
cycle                10000:bit_error_cnt[         27]=                   0
cycle                10000:bit_error_cnt[         28]=                   0
cycle                10000:bit_error_cnt[         29]=                   0
cycle                10000:bit_error_cnt[         30]=                   0
cycle                10000:bit_error_cnt[         31]=                   0
cycle                10000:bit_error_cnt[         32]=                   0
cycle                10000:bit_error_cnt[         33]=                   0
cycle                10000:bit_error_cnt[         34]=                   0
cycle                10000:bit_error_cnt[         35]=                   0
cycle                10000:bit_error_cnt[         36]=                   0
cycle                10000:bit_error_cnt[         37]=                7138
cycle                10000:bit_error_cnt[         38]=                7582
cycle                10000:bit_error_cnt[         39]=                7068
cycle                10000:bit_error_cnt[         40]=                7226
cycle                10000:bit_error_cnt[         41]=                7219
cycle                10000:bit_error_cnt[         42]=                6990
cycle                10000:bit_error_cnt[         43]=                6766
cycle                10000:bit_error_cnt[         44]=                6734
cycle                10000:bit_error_cnt[         45]=                6876
cycle                10000:bit_error_cnt[         46]=                6499
cycle                10000:bit_error_cnt[         47]=                6002
cycle                10000:bit_error_cnt[         48]=                5766
cycle                10000:bit_error_cnt[         49]=                5932
cycle                10000:bit_error_cnt[         50]=                5766
cycle                10000:bit_error_cnt[         51]=                5885
cycle                10000:bit_error_cnt[         52]=                6021
cycle                10000:bit_error_cnt[         53]=                5622
cycle                10000:bit_error_cnt[         54]=                5400
cycle                10000:bit_error_cnt[         55]=                5349
cycle                10000:bit_error_cnt[         56]=                4947
cycle                10000:bit_error_cnt[         57]=                4599
cycle                10000:bit_error_cnt[         58]=                4724
cycle                10000:bit_error_cnt[         59]=                4547
cycle                10000:bit_error_cnt[         60]=                3692
cycle                10000:bit_error_cnt[         61]=                1835
cycle                10000:bit_error_cnt[         62]=                 901
cycle                10000:bit_error_cnt[         63]=                 480
cycle                10000:bit_error_cnt[         64]=                 896
cycle                10000:bit_error_cnt[         65]=                 849
cycle                10000:bit_error_cnt[         66]=                 841
cycle                10000:bit_error_cnt[         67]=                1219
cycle                10000:bit_error_cnt[         68]=                1187
cycle                10000:bit_error_cnt[         69]=                 850
