cycle                10000:bit_error_cnt[          0]=                7821
cycle                10000:bit_error_cnt[          1]=                  86
cycle                10000:bit_error_cnt[          2]=                 185
cycle                10000:bit_error_cnt[          3]=                   0
cycle                10000:bit_error_cnt[          4]=                2895
cycle                10000:bit_error_cnt[          5]=                4977
cycle                10000:bit_error_cnt[          6]=                5733
cycle                10000:bit_error_cnt[          7]=                5949
cycle                10000:bit_error_cnt[          8]=                6296
cycle                10000:bit_error_cnt[          9]=                6201
cycle                10000:bit_error_cnt[         10]=                6309
cycle                10000:bit_error_cnt[         11]=                5941
cycle                10000:bit_error_cnt[         12]=                6641
cycle                10000:bit_error_cnt[         13]=                7145
cycle                10000:bit_error_cnt[         14]=                7450
cycle                10000:bit_error_cnt[         15]=                7935
cycle                10000:bit_error_cnt[         16]=                8066
cycle                10000:bit_error_cnt[         17]=                7920
cycle                10000:bit_error_cnt[         18]=                7912
cycle                10000:bit_error_cnt[         19]=                7875
cycle                10000:bit_error_cnt[         20]=                8148
cycle                10000:bit_error_cnt[         21]=                7960
cycle                10000:bit_error_cnt[         22]=                7771
cycle                10000:bit_error_cnt[         23]=                7939
cycle                10000:bit_error_cnt[         24]=                8232
cycle                10000:bit_error_cnt[         25]=                7918
cycle                10000:bit_error_cnt[         26]=                7825
cycle                10000:bit_error_cnt[         27]=                8228
cycle                10000:bit_error_cnt[         28]=                8232
cycle                10000:bit_error_cnt[         29]=                8610
cycle                10000:bit_error_cnt[         30]=                7712
cycle                10000:bit_error_cnt[         31]=                8088
cycle                10000:bit_error_cnt[         32]=                8404
cycle                10000:bit_error_cnt[         33]=                8373
cycle                10000:bit_error_cnt[         34]=                7776
cycle                10000:bit_error_cnt[         35]=                7540
cycle                10000:bit_error_cnt[         36]=                7377
cycle                10000:bit_error_cnt[         37]=                7256
cycle                10000:bit_error_cnt[         38]=                6117
cycle                10000:bit_error_cnt[         39]=                7061
cycle                10000:bit_error_cnt[         40]=                7077
cycle                10000:bit_error_cnt[         41]=                6354
cycle                10000:bit_error_cnt[         42]=                6277
cycle                10000:bit_error_cnt[         43]=                7792
cycle                10000:bit_error_cnt[         44]=                6253
cycle                10000:bit_error_cnt[         45]=                5896
cycle                10000:bit_error_cnt[         46]=                5899
cycle                10000:bit_error_cnt[         47]=                5670
cycle                10000:bit_error_cnt[         48]=                6184
cycle                10000:bit_error_cnt[         49]=                5755
cycle                10000:bit_error_cnt[         50]=                6041
cycle                10000:bit_error_cnt[         51]=                8228
cycle                10000:bit_error_cnt[         52]=                8232
cycle                10000:bit_error_cnt[         53]=                8610
cycle                10000:bit_error_cnt[         54]=                7712
cycle                10000:bit_error_cnt[         55]=                8088
cycle                10000:bit_error_cnt[         56]=                8404
cycle                10000:bit_error_cnt[         57]=                8373
cycle                10000:bit_error_cnt[         58]=                7776
cycle                10000:bit_error_cnt[         59]=                7540
cycle                10000:bit_error_cnt[         60]=                7377
cycle                10000:bit_error_cnt[         61]=                7256
cycle                10000:bit_error_cnt[         62]=                6117
cycle                10000:bit_error_cnt[         63]=                7061
cycle                10000:bit_error_cnt[         64]=                7077
cycle                10000:bit_error_cnt[         65]=                6354
cycle                10000:bit_error_cnt[         66]=                6277
cycle                10000:bit_error_cnt[         67]=                7792
cycle                10000:bit_error_cnt[         68]=                6253
cycle                10000:bit_error_cnt[         69]=                5896
cycle                10000:bit_error_cnt[         70]=                5899
cycle                10000:bit_error_cnt[         71]=                5670
cycle                10000:bit_error_cnt[         72]=                6184
cycle                10000:bit_error_cnt[         73]=                5755
cycle                10000:bit_error_cnt[         74]=                6041
cycle                10000:bit_error_cnt[         75]=                8083
cycle                10000:bit_error_cnt[         76]=                8062
cycle                10000:bit_error_cnt[         77]=                8330
cycle                10000:bit_error_cnt[         78]=                6998
cycle                10000:bit_error_cnt[         79]=                5675
cycle                10000:bit_error_cnt[         80]=                5492
cycle                10000:bit_error_cnt[         81]=                5603
cycle                10000:bit_error_cnt[         82]=                5938
cycle                10000:bit_error_cnt[         83]=                4983
cycle                10000:bit_error_cnt[         84]=                2373
