cycle                10000:bit_error_cnt[          0]=                   4
cycle                10000:bit_error_cnt[          1]=                   4
cycle                10000:bit_error_cnt[          2]=                   4
cycle                10000:bit_error_cnt[          3]=                4379
cycle                10000:bit_error_cnt[          4]=                   0
cycle                10000:bit_error_cnt[          5]=                   0
cycle                10000:bit_error_cnt[          6]=                   0
cycle                10000:bit_error_cnt[          7]=                   0
cycle                10000:bit_error_cnt[          8]=                   0
cycle                10000:bit_error_cnt[          9]=                   0
cycle                10000:bit_error_cnt[         10]=                   0
cycle                10000:bit_error_cnt[         11]=                   0
cycle                10000:bit_error_cnt[         12]=                   0
cycle                10000:bit_error_cnt[         13]=                   0
cycle                10000:bit_error_cnt[         14]=                   0
cycle                10000:bit_error_cnt[         15]=                   0
cycle                10000:bit_error_cnt[         16]=                   0
cycle                10000:bit_error_cnt[         17]=                   0
cycle                10000:bit_error_cnt[         18]=                   0
cycle                10000:bit_error_cnt[         19]=                   0
cycle                10000:bit_error_cnt[         20]=                   0
cycle                10000:bit_error_cnt[         21]=                   0
cycle                10000:bit_error_cnt[         22]=                   0
cycle                10000:bit_error_cnt[         23]=                   0
cycle                10000:bit_error_cnt[         24]=                   0
cycle                10000:bit_error_cnt[         25]=                   0
cycle                10000:bit_error_cnt[         26]=                   0
cycle                10000:bit_error_cnt[         27]=                   0
cycle                10000:bit_error_cnt[         28]=                   0
cycle                10000:bit_error_cnt[         29]=                   0
cycle                10000:bit_error_cnt[         30]=                   0
cycle                10000:bit_error_cnt[         31]=                   0
cycle                10000:bit_error_cnt[         32]=                   0
cycle                10000:bit_error_cnt[         33]=                   0
cycle                10000:bit_error_cnt[         34]=                   0
cycle                10000:bit_error_cnt[         35]=                   0
cycle                10000:bit_error_cnt[         36]=                   0
cycle                10000:bit_error_cnt[         37]=                5405
cycle                10000:bit_error_cnt[         38]=                6216
cycle                10000:bit_error_cnt[         39]=                5655
cycle                10000:bit_error_cnt[         40]=                5016
cycle                10000:bit_error_cnt[         41]=                5011
cycle                10000:bit_error_cnt[         42]=                4874
cycle                10000:bit_error_cnt[         43]=                5216
cycle                10000:bit_error_cnt[         44]=                4835
cycle                10000:bit_error_cnt[         45]=                4843
cycle                10000:bit_error_cnt[         46]=                4469
cycle                10000:bit_error_cnt[         47]=                4263
cycle                10000:bit_error_cnt[         48]=                3989
cycle                10000:bit_error_cnt[         49]=                3297
cycle                10000:bit_error_cnt[         50]=                3155
cycle                10000:bit_error_cnt[         51]=                3336
cycle                10000:bit_error_cnt[         52]=                3071
cycle                10000:bit_error_cnt[         53]=                2831
cycle                10000:bit_error_cnt[         54]=                2906
cycle                10000:bit_error_cnt[         55]=                2889
cycle                10000:bit_error_cnt[         56]=                2547
cycle                10000:bit_error_cnt[         57]=                2092
cycle                10000:bit_error_cnt[         58]=                1954
cycle                10000:bit_error_cnt[         59]=                1992
cycle                10000:bit_error_cnt[         60]=                1833
cycle                10000:bit_error_cnt[         61]=                 917
cycle                10000:bit_error_cnt[         62]=                 449
cycle                10000:bit_error_cnt[         63]=                 239
cycle                10000:bit_error_cnt[         64]=                 356
cycle                10000:bit_error_cnt[         65]=                 238
cycle                10000:bit_error_cnt[         66]=                 205
cycle                10000:bit_error_cnt[         67]=                 645
cycle                10000:bit_error_cnt[         68]=                 727
cycle                10000:bit_error_cnt[         69]=                 535
