cycle                10000:bit_error_cnt[          0]=                6246
cycle                10000:bit_error_cnt[          1]=                  87
cycle                10000:bit_error_cnt[          2]=                 182
cycle                10000:bit_error_cnt[          3]=                8396
cycle                10000:bit_error_cnt[          4]=                   0
cycle                10000:bit_error_cnt[          5]=                   0
cycle                10000:bit_error_cnt[          6]=                   0
cycle                10000:bit_error_cnt[          7]=                   0
cycle                10000:bit_error_cnt[          8]=                   0
cycle                10000:bit_error_cnt[          9]=                   0
cycle                10000:bit_error_cnt[         10]=                   0
cycle                10000:bit_error_cnt[         11]=                   0
cycle                10000:bit_error_cnt[         12]=                   0
cycle                10000:bit_error_cnt[         13]=                   0
cycle                10000:bit_error_cnt[         14]=                   0
cycle                10000:bit_error_cnt[         15]=                   0
cycle                10000:bit_error_cnt[         16]=                   0
cycle                10000:bit_error_cnt[         17]=                   0
cycle                10000:bit_error_cnt[         18]=                   0
cycle                10000:bit_error_cnt[         19]=                   0
cycle                10000:bit_error_cnt[         20]=                   0
cycle                10000:bit_error_cnt[         21]=                   0
cycle                10000:bit_error_cnt[         22]=                   0
cycle                10000:bit_error_cnt[         23]=                   0
cycle                10000:bit_error_cnt[         24]=                   0
cycle                10000:bit_error_cnt[         25]=                   0
cycle                10000:bit_error_cnt[         26]=                   0
cycle                10000:bit_error_cnt[         27]=                   0
cycle                10000:bit_error_cnt[         28]=                   0
cycle                10000:bit_error_cnt[         29]=                   0
cycle                10000:bit_error_cnt[         30]=                   0
cycle                10000:bit_error_cnt[         31]=                   0
cycle                10000:bit_error_cnt[         32]=                   0
cycle                10000:bit_error_cnt[         33]=                   0
cycle                10000:bit_error_cnt[         34]=                   0
cycle                10000:bit_error_cnt[         35]=                   0
cycle                10000:bit_error_cnt[         36]=                   0
cycle                10000:bit_error_cnt[         37]=                7933
cycle                10000:bit_error_cnt[         38]=                7490
cycle                10000:bit_error_cnt[         39]=                7141
cycle                10000:bit_error_cnt[         40]=                7588
cycle                10000:bit_error_cnt[         41]=                7966
cycle                10000:bit_error_cnt[         42]=                7305
cycle                10000:bit_error_cnt[         43]=                8025
cycle                10000:bit_error_cnt[         44]=                7592
cycle                10000:bit_error_cnt[         45]=                7734
cycle                10000:bit_error_cnt[         46]=                6799
cycle                10000:bit_error_cnt[         47]=                6855
cycle                10000:bit_error_cnt[         48]=                6977
cycle                10000:bit_error_cnt[         49]=                6797
cycle                10000:bit_error_cnt[         50]=                6054
cycle                10000:bit_error_cnt[         51]=                6636
cycle                10000:bit_error_cnt[         52]=                6156
cycle                10000:bit_error_cnt[         53]=                5985
cycle                10000:bit_error_cnt[         54]=                6480
cycle                10000:bit_error_cnt[         55]=                6327
cycle                10000:bit_error_cnt[         56]=                6224
cycle                10000:bit_error_cnt[         57]=                5738
cycle                10000:bit_error_cnt[         58]=                5638
cycle                10000:bit_error_cnt[         59]=                6316
cycle                10000:bit_error_cnt[         60]=                5690
cycle                10000:bit_error_cnt[         61]=                7454
cycle                10000:bit_error_cnt[         62]=                7389
cycle                10000:bit_error_cnt[         63]=                7362
cycle                10000:bit_error_cnt[         64]=                6065
cycle                10000:bit_error_cnt[         65]=                6438
cycle                10000:bit_error_cnt[         66]=                5519
cycle                10000:bit_error_cnt[         67]=                6132
cycle                10000:bit_error_cnt[         68]=                4804
cycle                10000:bit_error_cnt[         69]=                3380
