cycle                10000:bit_error_cnt[          0]=               10000
cycle                10000:bit_error_cnt[          1]=               10000
cycle                10000:bit_error_cnt[          2]=                   0
cycle                10000:bit_error_cnt[          3]=                6582
cycle                10000:bit_error_cnt[          4]=                9835
cycle                10000:bit_error_cnt[          5]=               10000
cycle                10000:bit_error_cnt[          6]=                9998
cycle                10000:bit_error_cnt[          7]=                9998
cycle                10000:bit_error_cnt[          8]=               10000
cycle                10000:bit_error_cnt[          9]=               10000
cycle                10000:bit_error_cnt[         10]=               10000
cycle                10000:bit_error_cnt[         11]=                9999
cycle                10000:bit_error_cnt[         12]=               10000
cycle                10000:bit_error_cnt[         13]=               10000
cycle                10000:bit_error_cnt[         14]=               10000
cycle                10000:bit_error_cnt[         15]=               10000
cycle                10000:bit_error_cnt[         16]=               10000
cycle                10000:bit_error_cnt[         17]=               10000
cycle                10000:bit_error_cnt[         18]=               10000
cycle                10000:bit_error_cnt[         19]=               10000
cycle                10000:bit_error_cnt[         20]=               10000
cycle                10000:bit_error_cnt[         21]=               10000
cycle                10000:bit_error_cnt[         22]=               10000
cycle                10000:bit_error_cnt[         23]=               10000
cycle                10000:bit_error_cnt[         24]=               10000
cycle                10000:bit_error_cnt[         25]=                9999
cycle                10000:bit_error_cnt[         26]=               10000
cycle                10000:bit_error_cnt[         27]=                9999
cycle                10000:bit_error_cnt[         28]=               10000
cycle                10000:bit_error_cnt[         29]=               10000
cycle                10000:bit_error_cnt[         30]=               10000
cycle                10000:bit_error_cnt[         31]=               10000
cycle                10000:bit_error_cnt[         32]=               10000
cycle                10000:bit_error_cnt[         33]=               10000
cycle                10000:bit_error_cnt[         34]=                9998
cycle                10000:bit_error_cnt[         35]=                9990
cycle                10000:bit_error_cnt[         36]=                9965
cycle                10000:bit_error_cnt[         37]=                9798
cycle                10000:bit_error_cnt[         38]=                9524
cycle                10000:bit_error_cnt[         39]=                9683
cycle                10000:bit_error_cnt[         40]=                9697
cycle                10000:bit_error_cnt[         41]=                9683
cycle                10000:bit_error_cnt[         42]=                9981
cycle                10000:bit_error_cnt[         43]=                9510
cycle                10000:bit_error_cnt[         44]=                9000
cycle                10000:bit_error_cnt[         45]=                9066
cycle                10000:bit_error_cnt[         46]=                8935
cycle                10000:bit_error_cnt[         47]=                8695
cycle                10000:bit_error_cnt[         48]=                8233
cycle                10000:bit_error_cnt[         49]=                7500
cycle                10000:bit_error_cnt[         50]=                6362
cycle                10000:bit_error_cnt[         51]=               10000
cycle                10000:bit_error_cnt[         52]=               10000
cycle                10000:bit_error_cnt[         53]=               10000
cycle                10000:bit_error_cnt[         54]=               10000
cycle                10000:bit_error_cnt[         55]=               10000
cycle                10000:bit_error_cnt[         56]=               10000
cycle                10000:bit_error_cnt[         57]=               10000
cycle                10000:bit_error_cnt[         58]=               10000
cycle                10000:bit_error_cnt[         59]=               10000
cycle                10000:bit_error_cnt[         60]=               10000
cycle                10000:bit_error_cnt[         61]=               10000
