cycle                10000:bit_error_cnt[          0]=                6227
cycle                10000:bit_error_cnt[          1]=                  87
cycle                10000:bit_error_cnt[          2]=                 148
cycle                10000:bit_error_cnt[          3]=                6693
cycle                10000:bit_error_cnt[          4]=                   0
cycle                10000:bit_error_cnt[          5]=                   0
cycle                10000:bit_error_cnt[          6]=                   0
cycle                10000:bit_error_cnt[          7]=                   0
cycle                10000:bit_error_cnt[          8]=                   0
cycle                10000:bit_error_cnt[          9]=                   0
cycle                10000:bit_error_cnt[         10]=                   0
cycle                10000:bit_error_cnt[         11]=                   0
cycle                10000:bit_error_cnt[         12]=                   0
cycle                10000:bit_error_cnt[         13]=                   0
cycle                10000:bit_error_cnt[         14]=                   0
cycle                10000:bit_error_cnt[         15]=                   0
cycle                10000:bit_error_cnt[         16]=                   0
cycle                10000:bit_error_cnt[         17]=                   0
cycle                10000:bit_error_cnt[         18]=                   0
cycle                10000:bit_error_cnt[         19]=                   0
cycle                10000:bit_error_cnt[         20]=                   0
cycle                10000:bit_error_cnt[         21]=                   0
cycle                10000:bit_error_cnt[         22]=                   0
cycle                10000:bit_error_cnt[         23]=                   0
cycle                10000:bit_error_cnt[         24]=                   0
cycle                10000:bit_error_cnt[         25]=                   0
cycle                10000:bit_error_cnt[         26]=                   0
cycle                10000:bit_error_cnt[         27]=                   0
cycle                10000:bit_error_cnt[         28]=                   0
cycle                10000:bit_error_cnt[         29]=                   0
cycle                10000:bit_error_cnt[         30]=                   0
cycle                10000:bit_error_cnt[         31]=                   0
cycle                10000:bit_error_cnt[         32]=                   0
cycle                10000:bit_error_cnt[         33]=                   0
cycle                10000:bit_error_cnt[         34]=                   0
cycle                10000:bit_error_cnt[         35]=                   0
cycle                10000:bit_error_cnt[         36]=                   0
cycle                10000:bit_error_cnt[         37]=                7612
cycle                10000:bit_error_cnt[         38]=                7854
cycle                10000:bit_error_cnt[         39]=                7861
cycle                10000:bit_error_cnt[         40]=                7482
cycle                10000:bit_error_cnt[         41]=                7493
cycle                10000:bit_error_cnt[         42]=                9196
cycle                10000:bit_error_cnt[         43]=                8370
cycle                10000:bit_error_cnt[         44]=                7361
cycle                10000:bit_error_cnt[         45]=                8060
cycle                10000:bit_error_cnt[         46]=                6740
cycle                10000:bit_error_cnt[         47]=                7334
cycle                10000:bit_error_cnt[         48]=                6622
cycle                10000:bit_error_cnt[         49]=                7042
cycle                10000:bit_error_cnt[         50]=                8458
cycle                10000:bit_error_cnt[         51]=                7925
cycle                10000:bit_error_cnt[         52]=                8665
cycle                10000:bit_error_cnt[         53]=                8405
cycle                10000:bit_error_cnt[         54]=                6846
cycle                10000:bit_error_cnt[         55]=                7210
cycle                10000:bit_error_cnt[         56]=                7028
cycle                10000:bit_error_cnt[         57]=                6610
cycle                10000:bit_error_cnt[         58]=                7865
cycle                10000:bit_error_cnt[         59]=                5348
cycle                10000:bit_error_cnt[         60]=                7662
cycle                10000:bit_error_cnt[         61]=                7982
cycle                10000:bit_error_cnt[         62]=                7996
cycle                10000:bit_error_cnt[         63]=                7462
cycle                10000:bit_error_cnt[         64]=                6502
cycle                10000:bit_error_cnt[         65]=                6276
cycle                10000:bit_error_cnt[         66]=                7787
cycle                10000:bit_error_cnt[         67]=                5946
cycle                10000:bit_error_cnt[         68]=                5651
cycle                10000:bit_error_cnt[         69]=                2884
