cycle                10000:bit_error_cnt[          0]=                 635
cycle                10000:bit_error_cnt[          1]=                   3
cycle                10000:bit_error_cnt[          2]=                   3
cycle                10000:bit_error_cnt[          3]=                   0
cycle                10000:bit_error_cnt[          4]=                1103
cycle                10000:bit_error_cnt[          5]=                1730
cycle                10000:bit_error_cnt[          6]=                3007
cycle                10000:bit_error_cnt[          7]=                3975
cycle                10000:bit_error_cnt[          8]=                4248
cycle                10000:bit_error_cnt[          9]=                5150
cycle                10000:bit_error_cnt[         10]=                5353
cycle                10000:bit_error_cnt[         11]=                5341
cycle                10000:bit_error_cnt[         12]=                5768
cycle                10000:bit_error_cnt[         13]=                6410
cycle                10000:bit_error_cnt[         14]=                7143
cycle                10000:bit_error_cnt[         15]=                7320
cycle                10000:bit_error_cnt[         16]=                7534
cycle                10000:bit_error_cnt[         17]=                7446
cycle                10000:bit_error_cnt[         18]=                7192
cycle                10000:bit_error_cnt[         19]=                7652
cycle                10000:bit_error_cnt[         20]=                7054
cycle                10000:bit_error_cnt[         21]=                7312
cycle                10000:bit_error_cnt[         22]=                7390
cycle                10000:bit_error_cnt[         23]=                7612
cycle                10000:bit_error_cnt[         24]=                7316
cycle                10000:bit_error_cnt[         25]=                7287
cycle                10000:bit_error_cnt[         26]=                7066
cycle                10000:bit_error_cnt[         27]=                7056
cycle                10000:bit_error_cnt[         28]=                7012
cycle                10000:bit_error_cnt[         29]=                7993
cycle                10000:bit_error_cnt[         30]=                7179
cycle                10000:bit_error_cnt[         31]=                6935
cycle                10000:bit_error_cnt[         32]=                7019
cycle                10000:bit_error_cnt[         33]=                6794
cycle                10000:bit_error_cnt[         34]=                6774
cycle                10000:bit_error_cnt[         35]=                6721
cycle                10000:bit_error_cnt[         36]=                6747
cycle                10000:bit_error_cnt[         37]=                6134
cycle                10000:bit_error_cnt[         38]=                5566
cycle                10000:bit_error_cnt[         39]=                5620
cycle                10000:bit_error_cnt[         40]=                5868
cycle                10000:bit_error_cnt[         41]=                5679
cycle                10000:bit_error_cnt[         42]=                5811
cycle                10000:bit_error_cnt[         43]=                6596
cycle                10000:bit_error_cnt[         44]=                6400
cycle                10000:bit_error_cnt[         45]=                5569
cycle                10000:bit_error_cnt[         46]=                5565
cycle                10000:bit_error_cnt[         47]=                5480
cycle                10000:bit_error_cnt[         48]=                5485
cycle                10000:bit_error_cnt[         49]=                5484
cycle                10000:bit_error_cnt[         50]=                5145
cycle                10000:bit_error_cnt[         51]=                7056
cycle                10000:bit_error_cnt[         52]=                7012
cycle                10000:bit_error_cnt[         53]=                7993
cycle                10000:bit_error_cnt[         54]=                7179
cycle                10000:bit_error_cnt[         55]=                6935
cycle                10000:bit_error_cnt[         56]=                7019
cycle                10000:bit_error_cnt[         57]=                6794
cycle                10000:bit_error_cnt[         58]=                6774
cycle                10000:bit_error_cnt[         59]=                6721
cycle                10000:bit_error_cnt[         60]=                6747
cycle                10000:bit_error_cnt[         61]=                6134
cycle                10000:bit_error_cnt[         62]=                5566
cycle                10000:bit_error_cnt[         63]=                5620
cycle                10000:bit_error_cnt[         64]=                5868
cycle                10000:bit_error_cnt[         65]=                5679
cycle                10000:bit_error_cnt[         66]=                5811
cycle                10000:bit_error_cnt[         67]=                6596
cycle                10000:bit_error_cnt[         68]=                6400
cycle                10000:bit_error_cnt[         69]=                5569
cycle                10000:bit_error_cnt[         70]=                5565
cycle                10000:bit_error_cnt[         71]=                5480
cycle                10000:bit_error_cnt[         72]=                5485
cycle                10000:bit_error_cnt[         73]=                5484
cycle                10000:bit_error_cnt[         74]=                5145
cycle                10000:bit_error_cnt[         75]=                5195
cycle                10000:bit_error_cnt[         76]=                4045
cycle                10000:bit_error_cnt[         77]=                5089
cycle                10000:bit_error_cnt[         78]=                3503
cycle                10000:bit_error_cnt[         79]=                6153
cycle                10000:bit_error_cnt[         80]=                4682
cycle                10000:bit_error_cnt[         81]=                3213
cycle                10000:bit_error_cnt[         82]=                4089
cycle                10000:bit_error_cnt[         83]=                3833
cycle                10000:bit_error_cnt[         84]=                2510
