cycle                10000:bit_error_cnt[          0]=                6088
cycle                10000:bit_error_cnt[          1]=                7886
cycle                10000:bit_error_cnt[          2]=                6694
cycle                10000:bit_error_cnt[          3]=                7036
cycle                10000:bit_error_cnt[          4]=                7036
cycle                10000:bit_error_cnt[          5]=                6800
cycle                10000:bit_error_cnt[          6]=                6375
cycle                10000:bit_error_cnt[          7]=                6433
cycle                10000:bit_error_cnt[          8]=                5090
cycle                10000:bit_error_cnt[          9]=                6219
cycle                10000:bit_error_cnt[         10]=                5937
cycle                10000:bit_error_cnt[         11]=                5850
cycle                10000:bit_error_cnt[         12]=                5902
cycle                10000:bit_error_cnt[         13]=                5673
cycle                10000:bit_error_cnt[         14]=                5812
cycle                10000:bit_error_cnt[         15]=                5869
cycle                10000:bit_error_cnt[         16]=                5606
cycle                10000:bit_error_cnt[         17]=                5500
cycle                10000:bit_error_cnt[         18]=                5466
cycle                10000:bit_error_cnt[         19]=                5545
cycle                10000:bit_error_cnt[         20]=                5464
cycle                10000:bit_error_cnt[         21]=                5453
cycle                10000:bit_error_cnt[         22]=                2013
cycle                10000:bit_error_cnt[         23]=                5350
cycle                10000:bit_error_cnt[         24]=                 940
cycle                10000:bit_error_cnt[         25]=                2801
cycle                10000:bit_error_cnt[         26]=                 249
cycle                10000:bit_error_cnt[         27]=                 363
cycle                10000:bit_error_cnt[         28]=                 239
cycle                10000:bit_error_cnt[         29]=                 206
cycle                10000:bit_error_cnt[         30]=                 645
cycle                10000:bit_error_cnt[         31]=                   5
cycle                10000:bit_error_cnt[         32]=                3571
cycle                10000:bit_error_cnt[         33]=                 623
