cycle                10000:bit_error_cnt[          0]=                  81
cycle                10000:bit_error_cnt[          1]=                 144
cycle                10000:bit_error_cnt[          2]=                3744
cycle                10000:bit_error_cnt[          3]=                4669
cycle                10000:bit_error_cnt[          4]=                4808
cycle                10000:bit_error_cnt[          5]=                5094
cycle                10000:bit_error_cnt[          6]=                5000
cycle                10000:bit_error_cnt[          7]=                4978
cycle                10000:bit_error_cnt[          8]=                5013
cycle                10000:bit_error_cnt[          9]=                5002
cycle                10000:bit_error_cnt[         10]=                4974
cycle                10000:bit_error_cnt[         11]=                4978
cycle                10000:bit_error_cnt[         12]=                5004
cycle                10000:bit_error_cnt[         13]=                5132
cycle                10000:bit_error_cnt[         14]=                4910
cycle                10000:bit_error_cnt[         15]=                5011
cycle                10000:bit_error_cnt[         16]=                5029
cycle                10000:bit_error_cnt[         17]=                5135
cycle                10000:bit_error_cnt[         18]=                4992
cycle                10000:bit_error_cnt[         19]=                4955
cycle                10000:bit_error_cnt[         20]=                5061
cycle                10000:bit_error_cnt[         21]=                4979
cycle                10000:bit_error_cnt[         22]=                5058
cycle                10000:bit_error_cnt[         23]=                5023
cycle                10000:bit_error_cnt[         24]=                5054
cycle                10000:bit_error_cnt[         25]=                4974
cycle                10000:bit_error_cnt[         26]=                4953
cycle                10000:bit_error_cnt[         27]=                5029
cycle                10000:bit_error_cnt[         28]=                5045
cycle                10000:bit_error_cnt[         29]=                5022
cycle                10000:bit_error_cnt[         30]=                5008
cycle                10000:bit_error_cnt[         31]=                4813
cycle                10000:bit_error_cnt[         32]=                4215
cycle                10000:bit_error_cnt[         33]=                3724
cycle                10000:bit_error_cnt[         34]=                4735
cycle                10000:bit_error_cnt[         35]=                4866
cycle                10000:bit_error_cnt[         36]=                4995
cycle                10000:bit_error_cnt[         37]=                5018
cycle                10000:bit_error_cnt[         38]=                4988
cycle                10000:bit_error_cnt[         39]=                4937
cycle                10000:bit_error_cnt[         40]=                4970
cycle                10000:bit_error_cnt[         41]=                5010
cycle                10000:bit_error_cnt[         42]=                5019
cycle                10000:bit_error_cnt[         43]=                5083
cycle                10000:bit_error_cnt[         44]=                5041
cycle                10000:bit_error_cnt[         45]=                5031
cycle                10000:bit_error_cnt[         46]=                4995
cycle                10000:bit_error_cnt[         47]=                5027
cycle                10000:bit_error_cnt[         48]=                5046
cycle                10000:bit_error_cnt[         49]=                5028
cycle                10000:bit_error_cnt[         50]=                4927
cycle                10000:bit_error_cnt[         51]=                5026
cycle                10000:bit_error_cnt[         52]=                5076
cycle                10000:bit_error_cnt[         53]=                4979
cycle                10000:bit_error_cnt[         54]=                5083
cycle                10000:bit_error_cnt[         55]=                5023
cycle                10000:bit_error_cnt[         56]=                4927
cycle                10000:bit_error_cnt[         57]=                5077
cycle                10000:bit_error_cnt[         58]=                4960
cycle                10000:bit_error_cnt[         59]=                4974
cycle                10000:bit_error_cnt[         60]=                4952
cycle                10000:bit_error_cnt[         61]=                4982
cycle                10000:bit_error_cnt[         62]=                5071
cycle                10000:bit_error_cnt[         63]=                5057
cycle                10000:bit_error_cnt[         64]=                5078
cycle                10000:bit_error_cnt[         65]=                5001
cycle                10000:bit_error_cnt[         66]=                5046
cycle                10000:bit_error_cnt[         67]=                5004
cycle                10000:bit_error_cnt[         68]=                5023
cycle                10000:bit_error_cnt[         69]=                4942
cycle                10000:bit_error_cnt[         70]=                4937
cycle                10000:bit_error_cnt[         71]=                5077
cycle                10000:bit_error_cnt[         72]=                4984
cycle                10000:bit_error_cnt[         73]=                4886
cycle                10000:bit_error_cnt[         74]=                5105
cycle                10000:bit_error_cnt[         75]=                5002
cycle                10000:bit_error_cnt[         76]=                4919
cycle                10000:bit_error_cnt[         77]=                5003
cycle                10000:bit_error_cnt[         78]=                5073
cycle                10000:bit_error_cnt[         79]=                5012
cycle                10000:bit_error_cnt[         80]=                5087
cycle                10000:bit_error_cnt[         81]=                5027
cycle                10000:bit_error_cnt[         82]=                5076
cycle                10000:bit_error_cnt[         83]=                   0
cycle                10000:bit_error_cnt[         84]=                4550
cycle                10000:bit_error_cnt[         85]=                   0
cycle                10000:bit_error_cnt[         86]=                   0
cycle                10000:bit_error_cnt[         87]=                   0
cycle                10000:bit_error_cnt[         88]=                   0
cycle                10000:bit_error_cnt[         89]=                   0
cycle                10000:bit_error_cnt[         90]=                   0
cycle                10000:bit_error_cnt[         91]=                   0
cycle                10000:bit_error_cnt[         92]=                   0
cycle                10000:bit_error_cnt[         93]=                   0
cycle                10000:bit_error_cnt[         94]=                   0
