cycle                10000:bit_error_cnt[          0]=                   1
cycle                10000:bit_error_cnt[          1]=                   1
cycle                10000:bit_error_cnt[          2]=                   1
cycle                10000:bit_error_cnt[          3]=                   1
cycle                10000:bit_error_cnt[          4]=                   1
cycle                10000:bit_error_cnt[          5]=                   1
cycle                10000:bit_error_cnt[          6]=                   1
cycle                10000:bit_error_cnt[          7]=                1724
cycle                10000:bit_error_cnt[          8]=                 248
cycle                10000:bit_error_cnt[          9]=                   1
cycle                10000:bit_error_cnt[         10]=                 909
cycle                10000:bit_error_cnt[         11]=                 795
cycle                10000:bit_error_cnt[         12]=                1227
cycle                10000:bit_error_cnt[         13]=                 791
cycle                10000:bit_error_cnt[         14]=                 907
cycle                10000:bit_error_cnt[         15]=                1423
cycle                10000:bit_error_cnt[         16]=                 837
cycle                10000:bit_error_cnt[         17]=                 600
cycle                10000:bit_error_cnt[         18]=                 667
cycle                10000:bit_error_cnt[         19]=                 303
cycle                10000:bit_error_cnt[         20]=                 647
cycle                10000:bit_error_cnt[         21]=                 827
cycle                10000:bit_error_cnt[         22]=                 337
cycle                10000:bit_error_cnt[         23]=                 844
cycle                10000:bit_error_cnt[         24]=                1133
cycle                10000:bit_error_cnt[         25]=                1079
cycle                10000:bit_error_cnt[         26]=                 735
cycle                10000:bit_error_cnt[         27]=                 739
cycle                10000:bit_error_cnt[         28]=                1646
cycle                10000:bit_error_cnt[         29]=                1702
cycle                10000:bit_error_cnt[         30]=                1703
cycle                10000:bit_error_cnt[         31]=                1877
cycle                10000:bit_error_cnt[         32]=                1220
cycle                10000:bit_error_cnt[         33]=                   1
cycle                10000:bit_error_cnt[         34]=                   1
cycle                10000:bit_error_cnt[         35]=                   1
cycle                10000:bit_error_cnt[         36]=                   1
cycle                10000:bit_error_cnt[         37]=                   1
cycle                10000:bit_error_cnt[         38]=                   1
cycle                10000:bit_error_cnt[         39]=                 153
cycle                10000:bit_error_cnt[         40]=                   1
cycle                10000:bit_error_cnt[         41]=                 171
cycle                10000:bit_error_cnt[         42]=                 162
cycle                10000:bit_error_cnt[         43]=                   1
cycle                10000:bit_error_cnt[         44]=                1483
cycle                10000:bit_error_cnt[         45]=                1968
cycle                10000:bit_error_cnt[         46]=                1569
cycle                10000:bit_error_cnt[         47]=                1843
cycle                10000:bit_error_cnt[         48]=                2735
cycle                10000:bit_error_cnt[         49]=                3132
cycle                10000:bit_error_cnt[         50]=                4764
cycle                10000:bit_error_cnt[         51]=                4608
cycle                10000:bit_error_cnt[         52]=                4385
cycle                10000:bit_error_cnt[         53]=                4158
cycle                10000:bit_error_cnt[         54]=                3991
cycle                10000:bit_error_cnt[         55]=                3754
cycle                10000:bit_error_cnt[         56]=                4615
cycle                10000:bit_error_cnt[         57]=                3959
cycle                10000:bit_error_cnt[         58]=                4288
cycle                10000:bit_error_cnt[         59]=                4419
cycle                10000:bit_error_cnt[         60]=                4717
cycle                10000:bit_error_cnt[         61]=                4201
cycle                10000:bit_error_cnt[         62]=                4685
cycle                10000:bit_error_cnt[         63]=                4369
cycle                10000:bit_error_cnt[         64]=                4208
cycle                10000:bit_error_cnt[         65]=                3914
cycle                10000:bit_error_cnt[         66]=                3778
cycle                10000:bit_error_cnt[         67]=                4162
cycle                10000:bit_error_cnt[         68]=                3755
cycle                10000:bit_error_cnt[         69]=                3195
cycle                10000:bit_error_cnt[         70]=                1889
cycle                10000:bit_error_cnt[         71]=                2641
cycle                10000:bit_error_cnt[         72]=                2827
cycle                10000:bit_error_cnt[         73]=                2279
cycle                10000:bit_error_cnt[         74]=                   1
cycle                10000:bit_error_cnt[         75]=                   1
cycle                10000:bit_error_cnt[         76]=                   1
cycle                10000:bit_error_cnt[         77]=                   1
cycle                10000:bit_error_cnt[         78]=                   1
cycle                10000:bit_error_cnt[         79]=                 145
cycle                10000:bit_error_cnt[         80]=                 156
cycle                10000:bit_error_cnt[         81]=                 341
cycle                10000:bit_error_cnt[         82]=                 122
cycle                10000:bit_error_cnt[         83]=                   0
cycle                10000:bit_error_cnt[         84]=                   1
cycle                10000:bit_error_cnt[         85]=                   0
cycle                10000:bit_error_cnt[         86]=                   0
cycle                10000:bit_error_cnt[         87]=                   0
cycle                10000:bit_error_cnt[         88]=                   0
cycle                10000:bit_error_cnt[         89]=                   0
cycle                10000:bit_error_cnt[         90]=                   0
cycle                10000:bit_error_cnt[         91]=                   0
cycle                10000:bit_error_cnt[         92]=                   0
cycle                10000:bit_error_cnt[         93]=                   0
cycle                10000:bit_error_cnt[         94]=                   0
