cycle                10000:bit_error_cnt[          0]=                1872
cycle                10000:bit_error_cnt[          1]=                4066
cycle                10000:bit_error_cnt[          2]=                3479
cycle                10000:bit_error_cnt[          3]=                3812
cycle                10000:bit_error_cnt[          4]=                1896
cycle                10000:bit_error_cnt[          5]=                1642
cycle                10000:bit_error_cnt[          6]=                1848
cycle                10000:bit_error_cnt[          7]=                5397
cycle                10000:bit_error_cnt[          8]=                1475
cycle                10000:bit_error_cnt[          9]=                5488
cycle                10000:bit_error_cnt[         10]=                1226
cycle                10000:bit_error_cnt[         11]=                1023
cycle                10000:bit_error_cnt[         12]=                 845
cycle                10000:bit_error_cnt[         13]=                2984
cycle                10000:bit_error_cnt[         14]=                 839
cycle                10000:bit_error_cnt[         15]=                2984
cycle                10000:bit_error_cnt[         16]=                 577
cycle                10000:bit_error_cnt[         17]=                5110
cycle                10000:bit_error_cnt[         18]=                2842
cycle                10000:bit_error_cnt[         19]=                2853
cycle                10000:bit_error_cnt[         20]=                2777
cycle                10000:bit_error_cnt[         21]=                5050
cycle                10000:bit_error_cnt[         22]=                  80
cycle                10000:bit_error_cnt[         23]=                2582
cycle                10000:bit_error_cnt[         24]=                 103
cycle                10000:bit_error_cnt[         25]=                  60
cycle                10000:bit_error_cnt[         26]=                  30
cycle                10000:bit_error_cnt[         27]=                  19
cycle                10000:bit_error_cnt[         28]=                  11
cycle                10000:bit_error_cnt[         29]=                  48
cycle                10000:bit_error_cnt[         30]=                 182
cycle                10000:bit_error_cnt[         31]=                   5
cycle                10000:bit_error_cnt[         32]=                3017
cycle                10000:bit_error_cnt[         33]=                 172
