cycle                10000:bit_error_cnt[          0]=                6548
cycle                10000:bit_error_cnt[          1]=                 107
cycle                10000:bit_error_cnt[          2]=                 181
cycle                10000:bit_error_cnt[          3]=                   0
cycle                10000:bit_error_cnt[          4]=                3039
cycle                10000:bit_error_cnt[          5]=                5955
cycle                10000:bit_error_cnt[          6]=                6352
cycle                10000:bit_error_cnt[          7]=                5980
cycle                10000:bit_error_cnt[          8]=                6120
cycle                10000:bit_error_cnt[          9]=                5960
cycle                10000:bit_error_cnt[         10]=                6113
cycle                10000:bit_error_cnt[         11]=                6365
cycle                10000:bit_error_cnt[         12]=                7336
cycle                10000:bit_error_cnt[         13]=                7408
cycle                10000:bit_error_cnt[         14]=                7371
cycle                10000:bit_error_cnt[         15]=                7552
cycle                10000:bit_error_cnt[         16]=                8119
cycle                10000:bit_error_cnt[         17]=                7870
cycle                10000:bit_error_cnt[         18]=                8153
cycle                10000:bit_error_cnt[         19]=                7606
cycle                10000:bit_error_cnt[         20]=                7127
cycle                10000:bit_error_cnt[         21]=                7120
cycle                10000:bit_error_cnt[         22]=                7993
cycle                10000:bit_error_cnt[         23]=                8059
cycle                10000:bit_error_cnt[         24]=                7233
cycle                10000:bit_error_cnt[         25]=                7832
cycle                10000:bit_error_cnt[         26]=                8140
cycle                10000:bit_error_cnt[         27]=                7944
cycle                10000:bit_error_cnt[         28]=                8188
cycle                10000:bit_error_cnt[         29]=                7655
cycle                10000:bit_error_cnt[         30]=                7412
cycle                10000:bit_error_cnt[         31]=                7765
cycle                10000:bit_error_cnt[         32]=                8051
cycle                10000:bit_error_cnt[         33]=                7563
cycle                10000:bit_error_cnt[         34]=                7082
cycle                10000:bit_error_cnt[         35]=                7607
cycle                10000:bit_error_cnt[         36]=                7712
cycle                10000:bit_error_cnt[         37]=                7055
cycle                10000:bit_error_cnt[         38]=                7153
cycle                10000:bit_error_cnt[         39]=                7211
cycle                10000:bit_error_cnt[         40]=                7223
cycle                10000:bit_error_cnt[         41]=                6114
cycle                10000:bit_error_cnt[         42]=                6098
cycle                10000:bit_error_cnt[         43]=                6341
cycle                10000:bit_error_cnt[         44]=                6213
cycle                10000:bit_error_cnt[         45]=                6803
cycle                10000:bit_error_cnt[         46]=                6630
cycle                10000:bit_error_cnt[         47]=                6509
cycle                10000:bit_error_cnt[         48]=                6171
cycle                10000:bit_error_cnt[         49]=                5894
cycle                10000:bit_error_cnt[         50]=                6421
cycle                10000:bit_error_cnt[         51]=                7944
cycle                10000:bit_error_cnt[         52]=                8188
cycle                10000:bit_error_cnt[         53]=                7655
cycle                10000:bit_error_cnt[         54]=                7412
cycle                10000:bit_error_cnt[         55]=                7765
cycle                10000:bit_error_cnt[         56]=                8051
cycle                10000:bit_error_cnt[         57]=                7563
cycle                10000:bit_error_cnt[         58]=                7082
cycle                10000:bit_error_cnt[         59]=                7607
cycle                10000:bit_error_cnt[         60]=                7712
cycle                10000:bit_error_cnt[         61]=                7055
cycle                10000:bit_error_cnt[         62]=                7153
cycle                10000:bit_error_cnt[         63]=                7211
cycle                10000:bit_error_cnt[         64]=                7223
cycle                10000:bit_error_cnt[         65]=                6114
cycle                10000:bit_error_cnt[         66]=                6098
cycle                10000:bit_error_cnt[         67]=                6341
cycle                10000:bit_error_cnt[         68]=                6213
cycle                10000:bit_error_cnt[         69]=                6803
cycle                10000:bit_error_cnt[         70]=                6630
cycle                10000:bit_error_cnt[         71]=                6509
cycle                10000:bit_error_cnt[         72]=                6171
cycle                10000:bit_error_cnt[         73]=                5894
cycle                10000:bit_error_cnt[         74]=                6421
cycle                10000:bit_error_cnt[         75]=                5639
cycle                10000:bit_error_cnt[         76]=                7297
cycle                10000:bit_error_cnt[         77]=                6911
cycle                10000:bit_error_cnt[         78]=                7861
cycle                10000:bit_error_cnt[         79]=                5586
cycle                10000:bit_error_cnt[         80]=                6830
cycle                10000:bit_error_cnt[         81]=                5740
cycle                10000:bit_error_cnt[         82]=                6084
cycle                10000:bit_error_cnt[         83]=                4845
cycle                10000:bit_error_cnt[         84]=                2627
