cycle                10000:bit_error_cnt[          0]=                   4
cycle                10000:bit_error_cnt[          1]=                   4
cycle                10000:bit_error_cnt[          2]=                   4
cycle                10000:bit_error_cnt[          3]=                   5
cycle                10000:bit_error_cnt[          4]=                   0
cycle                10000:bit_error_cnt[          5]=                   0
cycle                10000:bit_error_cnt[          6]=                   0
cycle                10000:bit_error_cnt[          7]=                   0
cycle                10000:bit_error_cnt[          8]=                   0
cycle                10000:bit_error_cnt[          9]=                   0
cycle                10000:bit_error_cnt[         10]=                   0
cycle                10000:bit_error_cnt[         11]=                   0
cycle                10000:bit_error_cnt[         12]=                   0
cycle                10000:bit_error_cnt[         13]=                   0
cycle                10000:bit_error_cnt[         14]=                   0
cycle                10000:bit_error_cnt[         15]=                   0
cycle                10000:bit_error_cnt[         16]=                   0
cycle                10000:bit_error_cnt[         17]=                   0
cycle                10000:bit_error_cnt[         18]=                   0
cycle                10000:bit_error_cnt[         19]=                   0
cycle                10000:bit_error_cnt[         20]=                   0
cycle                10000:bit_error_cnt[         21]=                   0
cycle                10000:bit_error_cnt[         22]=                   0
cycle                10000:bit_error_cnt[         23]=                   0
cycle                10000:bit_error_cnt[         24]=                   0
cycle                10000:bit_error_cnt[         25]=                   0
cycle                10000:bit_error_cnt[         26]=                   0
cycle                10000:bit_error_cnt[         27]=                   0
cycle                10000:bit_error_cnt[         28]=                   0
cycle                10000:bit_error_cnt[         29]=                   0
cycle                10000:bit_error_cnt[         30]=                   0
cycle                10000:bit_error_cnt[         31]=                   0
cycle                10000:bit_error_cnt[         32]=                   0
cycle                10000:bit_error_cnt[         33]=                   0
cycle                10000:bit_error_cnt[         34]=                   0
cycle                10000:bit_error_cnt[         35]=                   0
cycle                10000:bit_error_cnt[         36]=                   0
cycle                10000:bit_error_cnt[         37]=                   5
cycle                10000:bit_error_cnt[         38]=                   5
cycle                10000:bit_error_cnt[         39]=                   5
cycle                10000:bit_error_cnt[         40]=                   5
cycle                10000:bit_error_cnt[         41]=                   5
cycle                10000:bit_error_cnt[         42]=                   5
cycle                10000:bit_error_cnt[         43]=                   5
cycle                10000:bit_error_cnt[         44]=                   5
cycle                10000:bit_error_cnt[         45]=                   5
cycle                10000:bit_error_cnt[         46]=                   5
cycle                10000:bit_error_cnt[         47]=                   5
cycle                10000:bit_error_cnt[         48]=                   5
cycle                10000:bit_error_cnt[         49]=                   5
cycle                10000:bit_error_cnt[         50]=                   5
cycle                10000:bit_error_cnt[         51]=                   5
cycle                10000:bit_error_cnt[         52]=                   5
cycle                10000:bit_error_cnt[         53]=                   5
cycle                10000:bit_error_cnt[         54]=                   5
cycle                10000:bit_error_cnt[         55]=                   5
cycle                10000:bit_error_cnt[         56]=                   5
cycle                10000:bit_error_cnt[         57]=                   5
cycle                10000:bit_error_cnt[         58]=                   5
cycle                10000:bit_error_cnt[         59]=                   5
cycle                10000:bit_error_cnt[         60]=                   5
cycle                10000:bit_error_cnt[         61]=                   5
cycle                10000:bit_error_cnt[         62]=                   5
cycle                10000:bit_error_cnt[         63]=                   5
cycle                10000:bit_error_cnt[         64]=                   5
cycle                10000:bit_error_cnt[         65]=                   5
cycle                10000:bit_error_cnt[         66]=                   5
cycle                10000:bit_error_cnt[         67]=                   5
cycle                10000:bit_error_cnt[         68]=                   5
cycle                10000:bit_error_cnt[         69]=                   5
