cycle                10000:bit_error_cnt[          0]=                1848
cycle                10000:bit_error_cnt[          1]=                   4
cycle                10000:bit_error_cnt[          2]=                  78
cycle                10000:bit_error_cnt[          3]=                   0
cycle                10000:bit_error_cnt[          4]=                1109
cycle                10000:bit_error_cnt[          5]=                1721
cycle                10000:bit_error_cnt[          6]=                3958
cycle                10000:bit_error_cnt[          7]=                5007
cycle                10000:bit_error_cnt[          8]=                5747
cycle                10000:bit_error_cnt[          9]=                5701
cycle                10000:bit_error_cnt[         10]=                5851
cycle                10000:bit_error_cnt[         11]=                5855
cycle                10000:bit_error_cnt[         12]=                5579
cycle                10000:bit_error_cnt[         13]=                6152
cycle                10000:bit_error_cnt[         14]=                6140
cycle                10000:bit_error_cnt[         15]=                6494
cycle                10000:bit_error_cnt[         16]=                6788
cycle                10000:bit_error_cnt[         17]=                6239
cycle                10000:bit_error_cnt[         18]=                6395
cycle                10000:bit_error_cnt[         19]=                6278
cycle                10000:bit_error_cnt[         20]=                7007
cycle                10000:bit_error_cnt[         21]=                6937
cycle                10000:bit_error_cnt[         22]=                6458
cycle                10000:bit_error_cnt[         23]=                6553
cycle                10000:bit_error_cnt[         24]=                6820
cycle                10000:bit_error_cnt[         25]=                6829
cycle                10000:bit_error_cnt[         26]=                6502
cycle                10000:bit_error_cnt[         27]=                6686
cycle                10000:bit_error_cnt[         28]=                6613
cycle                10000:bit_error_cnt[         29]=                7076
cycle                10000:bit_error_cnt[         30]=                6251
cycle                10000:bit_error_cnt[         31]=                6445
cycle                10000:bit_error_cnt[         32]=                6901
cycle                10000:bit_error_cnt[         33]=                6301
cycle                10000:bit_error_cnt[         34]=                5721
cycle                10000:bit_error_cnt[         35]=                5760
cycle                10000:bit_error_cnt[         36]=                5478
cycle                10000:bit_error_cnt[         37]=                5935
cycle                10000:bit_error_cnt[         38]=                5439
cycle                10000:bit_error_cnt[         39]=                5252
cycle                10000:bit_error_cnt[         40]=                6376
cycle                10000:bit_error_cnt[         41]=                5613
cycle                10000:bit_error_cnt[         42]=                5419
cycle                10000:bit_error_cnt[         43]=                6843
cycle                10000:bit_error_cnt[         44]=                5962
cycle                10000:bit_error_cnt[         45]=                5224
cycle                10000:bit_error_cnt[         46]=                5180
cycle                10000:bit_error_cnt[         47]=                5201
cycle                10000:bit_error_cnt[         48]=                5411
cycle                10000:bit_error_cnt[         49]=                5250
cycle                10000:bit_error_cnt[         50]=                4909
cycle                10000:bit_error_cnt[         51]=                6686
cycle                10000:bit_error_cnt[         52]=                6613
cycle                10000:bit_error_cnt[         53]=                7076
cycle                10000:bit_error_cnt[         54]=                6251
cycle                10000:bit_error_cnt[         55]=                6445
cycle                10000:bit_error_cnt[         56]=                6901
cycle                10000:bit_error_cnt[         57]=                6301
cycle                10000:bit_error_cnt[         58]=                5721
cycle                10000:bit_error_cnt[         59]=                5760
cycle                10000:bit_error_cnt[         60]=                5478
cycle                10000:bit_error_cnt[         61]=                5935
cycle                10000:bit_error_cnt[         62]=                5366
cycle                10000:bit_error_cnt[         63]=                5252
cycle                10000:bit_error_cnt[         64]=                6406
cycle                10000:bit_error_cnt[         65]=                5613
cycle                10000:bit_error_cnt[         66]=                5419
cycle                10000:bit_error_cnt[         67]=                6843
cycle                10000:bit_error_cnt[         68]=                5962
cycle                10000:bit_error_cnt[         69]=                5224
cycle                10000:bit_error_cnt[         70]=                5180
cycle                10000:bit_error_cnt[         71]=                5286
cycle                10000:bit_error_cnt[         72]=                5411
cycle                10000:bit_error_cnt[         73]=                5250
cycle                10000:bit_error_cnt[         74]=                4909
cycle                10000:bit_error_cnt[         75]=                5114
cycle                10000:bit_error_cnt[         76]=                5259
cycle                10000:bit_error_cnt[         77]=                5472
cycle                10000:bit_error_cnt[         78]=                5990
cycle                10000:bit_error_cnt[         79]=                5650
cycle                10000:bit_error_cnt[         80]=                5928
cycle                10000:bit_error_cnt[         81]=                5507
cycle                10000:bit_error_cnt[         82]=                6892
cycle                10000:bit_error_cnt[         83]=                6624
cycle                10000:bit_error_cnt[         84]=                5433
