cycle                10000:bit_error_cnt[          0]=                  82
cycle                10000:bit_error_cnt[          1]=                 144
cycle                10000:bit_error_cnt[          2]=                3744
cycle                10000:bit_error_cnt[          3]=                4669
cycle                10000:bit_error_cnt[          4]=                4875
cycle                10000:bit_error_cnt[          5]=                4993
cycle                10000:bit_error_cnt[          6]=                5026
cycle                10000:bit_error_cnt[          7]=                4953
cycle                10000:bit_error_cnt[          8]=                5062
cycle                10000:bit_error_cnt[          9]=                4982
cycle                10000:bit_error_cnt[         10]=                4941
cycle                10000:bit_error_cnt[         11]=                5042
cycle                10000:bit_error_cnt[         12]=                5022
cycle                10000:bit_error_cnt[         13]=                5009
cycle                10000:bit_error_cnt[         14]=                5044
cycle                10000:bit_error_cnt[         15]=                5091
cycle                10000:bit_error_cnt[         16]=                5010
cycle                10000:bit_error_cnt[         17]=                4930
cycle                10000:bit_error_cnt[         18]=                5082
cycle                10000:bit_error_cnt[         19]=                4961
cycle                10000:bit_error_cnt[         20]=                4939
cycle                10000:bit_error_cnt[         21]=                4901
cycle                10000:bit_error_cnt[         22]=                5068
cycle                10000:bit_error_cnt[         23]=                5029
cycle                10000:bit_error_cnt[         24]=                5022
cycle                10000:bit_error_cnt[         25]=                4951
cycle                10000:bit_error_cnt[         26]=                5005
cycle                10000:bit_error_cnt[         27]=                4959
cycle                10000:bit_error_cnt[         28]=                5014
cycle                10000:bit_error_cnt[         29]=                5108
cycle                10000:bit_error_cnt[         30]=                5017
cycle                10000:bit_error_cnt[         31]=                4884
cycle                10000:bit_error_cnt[         32]=                4375
cycle                10000:bit_error_cnt[         33]=                3724
cycle                10000:bit_error_cnt[         34]=                4735
cycle                10000:bit_error_cnt[         35]=                4892
cycle                10000:bit_error_cnt[         36]=                4937
cycle                10000:bit_error_cnt[         37]=                5035
cycle                10000:bit_error_cnt[         38]=                4961
cycle                10000:bit_error_cnt[         39]=                4929
cycle                10000:bit_error_cnt[         40]=                4993
cycle                10000:bit_error_cnt[         41]=                4997
cycle                10000:bit_error_cnt[         42]=                4953
cycle                10000:bit_error_cnt[         43]=                4893
cycle                10000:bit_error_cnt[         44]=                5077
cycle                10000:bit_error_cnt[         45]=                5114
cycle                10000:bit_error_cnt[         46]=                5026
cycle                10000:bit_error_cnt[         47]=                4978
cycle                10000:bit_error_cnt[         48]=                5026
cycle                10000:bit_error_cnt[         49]=                5104
cycle                10000:bit_error_cnt[         50]=                5000
cycle                10000:bit_error_cnt[         51]=                5053
cycle                10000:bit_error_cnt[         52]=                5010
cycle                10000:bit_error_cnt[         53]=                5100
cycle                10000:bit_error_cnt[         54]=                5019
cycle                10000:bit_error_cnt[         55]=                5008
cycle                10000:bit_error_cnt[         56]=                4927
cycle                10000:bit_error_cnt[         57]=                5063
cycle                10000:bit_error_cnt[         58]=                5034
cycle                10000:bit_error_cnt[         59]=                5011
cycle                10000:bit_error_cnt[         60]=                5113
cycle                10000:bit_error_cnt[         61]=                4991
cycle                10000:bit_error_cnt[         62]=                5002
cycle                10000:bit_error_cnt[         63]=                5015
cycle                10000:bit_error_cnt[         64]=                4982
cycle                10000:bit_error_cnt[         65]=                4971
cycle                10000:bit_error_cnt[         66]=                4908
cycle                10000:bit_error_cnt[         67]=                4980
cycle                10000:bit_error_cnt[         68]=                5034
cycle                10000:bit_error_cnt[         69]=                5030
cycle                10000:bit_error_cnt[         70]=                5083
cycle                10000:bit_error_cnt[         71]=                5025
cycle                10000:bit_error_cnt[         72]=                5002
cycle                10000:bit_error_cnt[         73]=                5046
cycle                10000:bit_error_cnt[         74]=                5105
cycle                10000:bit_error_cnt[         75]=                5002
cycle                10000:bit_error_cnt[         76]=                4919
cycle                10000:bit_error_cnt[         77]=                4969
cycle                10000:bit_error_cnt[         78]=                5023
cycle                10000:bit_error_cnt[         79]=                5079
cycle                10000:bit_error_cnt[         80]=                5134
cycle                10000:bit_error_cnt[         81]=                5015
cycle                10000:bit_error_cnt[         82]=                5061
cycle                10000:bit_error_cnt[         83]=                   0
cycle                10000:bit_error_cnt[         84]=                3087
cycle                10000:bit_error_cnt[         85]=                   0
cycle                10000:bit_error_cnt[         86]=                   0
cycle                10000:bit_error_cnt[         87]=                   0
cycle                10000:bit_error_cnt[         88]=                   0
cycle                10000:bit_error_cnt[         89]=                   0
cycle                10000:bit_error_cnt[         90]=                   0
cycle                10000:bit_error_cnt[         91]=                   0
cycle                10000:bit_error_cnt[         92]=                   0
cycle                10000:bit_error_cnt[         93]=                   0
cycle                10000:bit_error_cnt[         94]=                   0
