cycle                10000:bit_error_cnt[          0]=                 636
cycle                10000:bit_error_cnt[          1]=                   4
cycle                10000:bit_error_cnt[          2]=                   4
cycle                10000:bit_error_cnt[          3]=                6667
cycle                10000:bit_error_cnt[          4]=                   0
cycle                10000:bit_error_cnt[          5]=                   0
cycle                10000:bit_error_cnt[          6]=                   0
cycle                10000:bit_error_cnt[          7]=                   0
cycle                10000:bit_error_cnt[          8]=                   0
cycle                10000:bit_error_cnt[          9]=                   0
cycle                10000:bit_error_cnt[         10]=                   0
cycle                10000:bit_error_cnt[         11]=                   0
cycle                10000:bit_error_cnt[         12]=                   0
cycle                10000:bit_error_cnt[         13]=                   0
cycle                10000:bit_error_cnt[         14]=                   0
cycle                10000:bit_error_cnt[         15]=                   0
cycle                10000:bit_error_cnt[         16]=                   0
cycle                10000:bit_error_cnt[         17]=                   0
cycle                10000:bit_error_cnt[         18]=                   0
cycle                10000:bit_error_cnt[         19]=                   0
cycle                10000:bit_error_cnt[         20]=                   0
cycle                10000:bit_error_cnt[         21]=                   0
cycle                10000:bit_error_cnt[         22]=                   0
cycle                10000:bit_error_cnt[         23]=                   0
cycle                10000:bit_error_cnt[         24]=                   0
cycle                10000:bit_error_cnt[         25]=                   0
cycle                10000:bit_error_cnt[         26]=                   0
cycle                10000:bit_error_cnt[         27]=                   0
cycle                10000:bit_error_cnt[         28]=                   0
cycle                10000:bit_error_cnt[         29]=                   0
cycle                10000:bit_error_cnt[         30]=                   0
cycle                10000:bit_error_cnt[         31]=                   0
cycle                10000:bit_error_cnt[         32]=                   0
cycle                10000:bit_error_cnt[         33]=                   0
cycle                10000:bit_error_cnt[         34]=                   0
cycle                10000:bit_error_cnt[         35]=                   0
cycle                10000:bit_error_cnt[         36]=                   0
cycle                10000:bit_error_cnt[         37]=                6763
cycle                10000:bit_error_cnt[         38]=                7745
cycle                10000:bit_error_cnt[         39]=                6777
cycle                10000:bit_error_cnt[         40]=                6569
cycle                10000:bit_error_cnt[         41]=                6767
cycle                10000:bit_error_cnt[         42]=                6661
cycle                10000:bit_error_cnt[         43]=                6390
cycle                10000:bit_error_cnt[         44]=                6418
cycle                10000:bit_error_cnt[         45]=                6162
cycle                10000:bit_error_cnt[         46]=                5729
cycle                10000:bit_error_cnt[         47]=                5421
cycle                10000:bit_error_cnt[         48]=                5501
cycle                10000:bit_error_cnt[         49]=                5661
cycle                10000:bit_error_cnt[         50]=                5520
cycle                10000:bit_error_cnt[         51]=                5668
cycle                10000:bit_error_cnt[         52]=                6410
cycle                10000:bit_error_cnt[         53]=                6263
cycle                10000:bit_error_cnt[         54]=                5409
cycle                10000:bit_error_cnt[         55]=                5560
cycle                10000:bit_error_cnt[         56]=                5454
cycle                10000:bit_error_cnt[         57]=                5470
cycle                10000:bit_error_cnt[         58]=                5393
cycle                10000:bit_error_cnt[         59]=                5000
cycle                10000:bit_error_cnt[         60]=                4394
cycle                10000:bit_error_cnt[         61]=                2203
cycle                10000:bit_error_cnt[         62]=                1628
cycle                10000:bit_error_cnt[         63]=                1517
cycle                10000:bit_error_cnt[         64]=                3911
cycle                10000:bit_error_cnt[         65]=                3580
cycle                10000:bit_error_cnt[         66]=                2747
cycle                10000:bit_error_cnt[         67]=                2632
cycle                10000:bit_error_cnt[         68]=                3365
cycle                10000:bit_error_cnt[         69]=                1938
