cycle                10000:bit_error_cnt[          0]=                   2
cycle                10000:bit_error_cnt[          1]=                   2
cycle                10000:bit_error_cnt[          2]=                   0
cycle                10000:bit_error_cnt[          3]=                1280
cycle                10000:bit_error_cnt[          4]=                2027
cycle                10000:bit_error_cnt[          5]=                2880
cycle                10000:bit_error_cnt[          6]=                4210
cycle                10000:bit_error_cnt[          7]=                4993
cycle                10000:bit_error_cnt[          8]=                5473
cycle                10000:bit_error_cnt[          9]=                5431
cycle                10000:bit_error_cnt[         10]=                5568
cycle                10000:bit_error_cnt[         11]=                5918
cycle                10000:bit_error_cnt[         12]=                6084
cycle                10000:bit_error_cnt[         13]=                6349
cycle                10000:bit_error_cnt[         14]=                6750
cycle                10000:bit_error_cnt[         15]=                7049
cycle                10000:bit_error_cnt[         16]=                6917
cycle                10000:bit_error_cnt[         17]=                6910
cycle                10000:bit_error_cnt[         18]=                6846
cycle                10000:bit_error_cnt[         19]=                6600
cycle                10000:bit_error_cnt[         20]=                6698
cycle                10000:bit_error_cnt[         21]=                7125
cycle                10000:bit_error_cnt[         22]=                7381
cycle                10000:bit_error_cnt[         23]=                6747
cycle                10000:bit_error_cnt[         24]=                7191
cycle                10000:bit_error_cnt[         25]=                7097
cycle                10000:bit_error_cnt[         26]=                6813
cycle                10000:bit_error_cnt[         27]=                7186
cycle                10000:bit_error_cnt[         28]=                7080
cycle                10000:bit_error_cnt[         29]=                7152
cycle                10000:bit_error_cnt[         30]=                7008
cycle                10000:bit_error_cnt[         31]=                7073
cycle                10000:bit_error_cnt[         32]=                6882
cycle                10000:bit_error_cnt[         33]=                6386
cycle                10000:bit_error_cnt[         34]=                6624
cycle                10000:bit_error_cnt[         35]=                6805
cycle                10000:bit_error_cnt[         36]=                6284
cycle                10000:bit_error_cnt[         37]=                5830
cycle                10000:bit_error_cnt[         38]=                5629
cycle                10000:bit_error_cnt[         39]=                5900
cycle                10000:bit_error_cnt[         40]=                5820
cycle                10000:bit_error_cnt[         41]=                5720
cycle                10000:bit_error_cnt[         42]=                6003
cycle                10000:bit_error_cnt[         43]=                5607
cycle                10000:bit_error_cnt[         44]=                5523
cycle                10000:bit_error_cnt[         45]=                5503
cycle                10000:bit_error_cnt[         46]=                5494
cycle                10000:bit_error_cnt[         47]=                5547
cycle                10000:bit_error_cnt[         48]=                5443
cycle                10000:bit_error_cnt[         49]=                5392
cycle                10000:bit_error_cnt[         50]=                3961
cycle                10000:bit_error_cnt[         51]=                   2
cycle                10000:bit_error_cnt[         52]=                   2
cycle                10000:bit_error_cnt[         53]=                1871
cycle                10000:bit_error_cnt[         54]=                2288
cycle                10000:bit_error_cnt[         55]=                1410
cycle                10000:bit_error_cnt[         56]=                2032
cycle                10000:bit_error_cnt[         57]=                1344
cycle                10000:bit_error_cnt[         58]=                1346
cycle                10000:bit_error_cnt[         59]=                5259
cycle                10000:bit_error_cnt[         60]=                4854
cycle                10000:bit_error_cnt[         61]=                1579
