cycle                10000:bit_error_cnt[          0]=               10000
cycle                10000:bit_error_cnt[          1]=               10000
cycle                10000:bit_error_cnt[          2]=               10000
cycle                10000:bit_error_cnt[          3]=               10000
cycle                10000:bit_error_cnt[          4]=               10000
cycle                10000:bit_error_cnt[          5]=               10000
cycle                10000:bit_error_cnt[          6]=               10000
cycle                10000:bit_error_cnt[          7]=               10000
cycle                10000:bit_error_cnt[          8]=               10000
cycle                10000:bit_error_cnt[          9]=               10000
cycle                10000:bit_error_cnt[         10]=               10000
cycle                10000:bit_error_cnt[         11]=               10000
cycle                10000:bit_error_cnt[         12]=               10000
cycle                10000:bit_error_cnt[         13]=               10000
cycle                10000:bit_error_cnt[         14]=               10000
cycle                10000:bit_error_cnt[         15]=               10000
cycle                10000:bit_error_cnt[         16]=               10000
cycle                10000:bit_error_cnt[         17]=               10000
cycle                10000:bit_error_cnt[         18]=               10000
cycle                10000:bit_error_cnt[         19]=               10000
cycle                10000:bit_error_cnt[         20]=               10000
cycle                10000:bit_error_cnt[         21]=               10000
cycle                10000:bit_error_cnt[         22]=               10000
cycle                10000:bit_error_cnt[         23]=               10000
cycle                10000:bit_error_cnt[         24]=               10000
cycle                10000:bit_error_cnt[         25]=               10000
cycle                10000:bit_error_cnt[         26]=               10000
cycle                10000:bit_error_cnt[         27]=               10000
cycle                10000:bit_error_cnt[         28]=               10000
cycle                10000:bit_error_cnt[         29]=               10000
cycle                10000:bit_error_cnt[         30]=               10000
cycle                10000:bit_error_cnt[         31]=               10000
cycle                10000:bit_error_cnt[         32]=               10000
cycle                10000:bit_error_cnt[         33]=               10000
