cycle                10000:bit_error_cnt[          0]=                   2
cycle                10000:bit_error_cnt[          1]=                   3
cycle                10000:bit_error_cnt[          2]=                3762
cycle                10000:bit_error_cnt[          3]=                4597
cycle                10000:bit_error_cnt[          4]=                4947
cycle                10000:bit_error_cnt[          5]=                5010
cycle                10000:bit_error_cnt[          6]=                5050
cycle                10000:bit_error_cnt[          7]=                4941
cycle                10000:bit_error_cnt[          8]=                5072
cycle                10000:bit_error_cnt[          9]=                5027
cycle                10000:bit_error_cnt[         10]=                5012
cycle                10000:bit_error_cnt[         11]=                5002
cycle                10000:bit_error_cnt[         12]=                5051
cycle                10000:bit_error_cnt[         13]=                4941
cycle                10000:bit_error_cnt[         14]=                4984
cycle                10000:bit_error_cnt[         15]=                4997
cycle                10000:bit_error_cnt[         16]=                5029
cycle                10000:bit_error_cnt[         17]=                5036
cycle                10000:bit_error_cnt[         18]=                5028
cycle                10000:bit_error_cnt[         19]=                5004
cycle                10000:bit_error_cnt[         20]=                4936
cycle                10000:bit_error_cnt[         21]=                5005
cycle                10000:bit_error_cnt[         22]=                4927
cycle                10000:bit_error_cnt[         23]=                4979
cycle                10000:bit_error_cnt[         24]=                5017
cycle                10000:bit_error_cnt[         25]=                4995
cycle                10000:bit_error_cnt[         26]=                5023
cycle                10000:bit_error_cnt[         27]=                4869
cycle                10000:bit_error_cnt[         28]=                5073
cycle                10000:bit_error_cnt[         29]=                5003
cycle                10000:bit_error_cnt[         30]=                5037
cycle                10000:bit_error_cnt[         31]=                5097
cycle                10000:bit_error_cnt[         32]=                4054
cycle                10000:bit_error_cnt[         33]=                3708
cycle                10000:bit_error_cnt[         34]=                4715
cycle                10000:bit_error_cnt[         35]=                4766
cycle                10000:bit_error_cnt[         36]=                4927
cycle                10000:bit_error_cnt[         37]=                4908
cycle                10000:bit_error_cnt[         38]=                4888
cycle                10000:bit_error_cnt[         39]=                5052
cycle                10000:bit_error_cnt[         40]=                4848
cycle                10000:bit_error_cnt[         41]=                5124
cycle                10000:bit_error_cnt[         42]=                5027
cycle                10000:bit_error_cnt[         43]=                4895
cycle                10000:bit_error_cnt[         44]=                4928
cycle                10000:bit_error_cnt[         45]=                5084
cycle                10000:bit_error_cnt[         46]=                4854
cycle                10000:bit_error_cnt[         47]=                4933
cycle                10000:bit_error_cnt[         48]=                4989
cycle                10000:bit_error_cnt[         49]=                5066
cycle                10000:bit_error_cnt[         50]=                5007
cycle                10000:bit_error_cnt[         51]=                4931
cycle                10000:bit_error_cnt[         52]=                4993
cycle                10000:bit_error_cnt[         53]=                5061
cycle                10000:bit_error_cnt[         54]=                5059
cycle                10000:bit_error_cnt[         55]=                5057
cycle                10000:bit_error_cnt[         56]=                4992
cycle                10000:bit_error_cnt[         57]=                5033
cycle                10000:bit_error_cnt[         58]=                5107
cycle                10000:bit_error_cnt[         59]=                4945
cycle                10000:bit_error_cnt[         60]=                4961
cycle                10000:bit_error_cnt[         61]=                4973
cycle                10000:bit_error_cnt[         62]=                4969
cycle                10000:bit_error_cnt[         63]=                5004
cycle                10000:bit_error_cnt[         64]=                5020
cycle                10000:bit_error_cnt[         65]=                4946
cycle                10000:bit_error_cnt[         66]=                5088
cycle                10000:bit_error_cnt[         67]=                5004
cycle                10000:bit_error_cnt[         68]=                5034
cycle                10000:bit_error_cnt[         69]=                4964
cycle                10000:bit_error_cnt[         70]=                5044
cycle                10000:bit_error_cnt[         71]=                4871
cycle                10000:bit_error_cnt[         72]=                4770
cycle                10000:bit_error_cnt[         73]=                5005
cycle                10000:bit_error_cnt[         74]=                4964
cycle                10000:bit_error_cnt[         75]=                4909
cycle                10000:bit_error_cnt[         76]=                4343
cycle                10000:bit_error_cnt[         77]=                3196
cycle                10000:bit_error_cnt[         78]=                2265
cycle                10000:bit_error_cnt[         79]=                3653
cycle                10000:bit_error_cnt[         80]=                4849
cycle                10000:bit_error_cnt[         81]=                4034
cycle                10000:bit_error_cnt[         82]=                4119
cycle                10000:bit_error_cnt[         83]=                   0
cycle                10000:bit_error_cnt[         84]=                6220
cycle                10000:bit_error_cnt[         85]=                   0
cycle                10000:bit_error_cnt[         86]=                   0
cycle                10000:bit_error_cnt[         87]=                   0
cycle                10000:bit_error_cnt[         88]=                   0
cycle                10000:bit_error_cnt[         89]=                   0
cycle                10000:bit_error_cnt[         90]=                   0
cycle                10000:bit_error_cnt[         91]=                   0
cycle                10000:bit_error_cnt[         92]=                   0
cycle                10000:bit_error_cnt[         93]=                   0
cycle                10000:bit_error_cnt[         94]=                   0
