cycle                10000:bit_error_cnt[          0]=                   4
cycle                10000:bit_error_cnt[          1]=                   4
cycle                10000:bit_error_cnt[          2]=                   4
cycle                10000:bit_error_cnt[          3]=                 422
cycle                10000:bit_error_cnt[          4]=                   0
cycle                10000:bit_error_cnt[          5]=                   0
cycle                10000:bit_error_cnt[          6]=                   0
cycle                10000:bit_error_cnt[          7]=                   0
cycle                10000:bit_error_cnt[          8]=                   0
cycle                10000:bit_error_cnt[          9]=                   0
cycle                10000:bit_error_cnt[         10]=                   0
cycle                10000:bit_error_cnt[         11]=                   0
cycle                10000:bit_error_cnt[         12]=                   0
cycle                10000:bit_error_cnt[         13]=                   0
cycle                10000:bit_error_cnt[         14]=                   0
cycle                10000:bit_error_cnt[         15]=                   0
cycle                10000:bit_error_cnt[         16]=                   0
cycle                10000:bit_error_cnt[         17]=                   0
cycle                10000:bit_error_cnt[         18]=                   0
cycle                10000:bit_error_cnt[         19]=                   0
cycle                10000:bit_error_cnt[         20]=                   0
cycle                10000:bit_error_cnt[         21]=                   0
cycle                10000:bit_error_cnt[         22]=                   0
cycle                10000:bit_error_cnt[         23]=                   0
cycle                10000:bit_error_cnt[         24]=                   0
cycle                10000:bit_error_cnt[         25]=                   0
cycle                10000:bit_error_cnt[         26]=                   0
cycle                10000:bit_error_cnt[         27]=                   0
cycle                10000:bit_error_cnt[         28]=                   0
cycle                10000:bit_error_cnt[         29]=                   0
cycle                10000:bit_error_cnt[         30]=                   0
cycle                10000:bit_error_cnt[         31]=                   0
cycle                10000:bit_error_cnt[         32]=                   0
cycle                10000:bit_error_cnt[         33]=                   0
cycle                10000:bit_error_cnt[         34]=                   0
cycle                10000:bit_error_cnt[         35]=                   0
cycle                10000:bit_error_cnt[         36]=                   0
cycle                10000:bit_error_cnt[         37]=                 611
cycle                10000:bit_error_cnt[         38]=                1344
cycle                10000:bit_error_cnt[         39]=                1301
cycle                10000:bit_error_cnt[         40]=                 815
cycle                10000:bit_error_cnt[         41]=                 670
cycle                10000:bit_error_cnt[         42]=                 546
cycle                10000:bit_error_cnt[         43]=                 721
cycle                10000:bit_error_cnt[         44]=                 761
cycle                10000:bit_error_cnt[         45]=                 725
cycle                10000:bit_error_cnt[         46]=                 573
cycle                10000:bit_error_cnt[         47]=                 557
cycle                10000:bit_error_cnt[         48]=                 542
cycle                10000:bit_error_cnt[         49]=                 464
cycle                10000:bit_error_cnt[         50]=                 481
cycle                10000:bit_error_cnt[         51]=                 464
cycle                10000:bit_error_cnt[         52]=                 391
cycle                10000:bit_error_cnt[         53]=                 291
cycle                10000:bit_error_cnt[         54]=                 305
cycle                10000:bit_error_cnt[         55]=                 252
cycle                10000:bit_error_cnt[         56]=                 221
cycle                10000:bit_error_cnt[         57]=                 192
cycle                10000:bit_error_cnt[         58]=                  92
cycle                10000:bit_error_cnt[         59]=                  42
cycle                10000:bit_error_cnt[         60]=                  84
cycle                10000:bit_error_cnt[         61]=                  40
cycle                10000:bit_error_cnt[         62]=                  26
cycle                10000:bit_error_cnt[         63]=                  12
cycle                10000:bit_error_cnt[         64]=                   7
cycle                10000:bit_error_cnt[         65]=                   6
cycle                10000:bit_error_cnt[         66]=                   6
cycle                10000:bit_error_cnt[         67]=                  43
cycle                10000:bit_error_cnt[         68]=                  67
cycle                10000:bit_error_cnt[         69]=                  25
