cycle                10000:bit_error_cnt[          0]=                   1
cycle                10000:bit_error_cnt[          1]=                   1
cycle                10000:bit_error_cnt[          2]=                   1
cycle                10000:bit_error_cnt[          3]=                   1
cycle                10000:bit_error_cnt[          4]=                   1
cycle                10000:bit_error_cnt[          5]=                   1
cycle                10000:bit_error_cnt[          6]=                   1
cycle                10000:bit_error_cnt[          7]=                 759
cycle                10000:bit_error_cnt[          8]=                  23
cycle                10000:bit_error_cnt[          9]=                   1
cycle                10000:bit_error_cnt[         10]=                   1
cycle                10000:bit_error_cnt[         11]=                  89
cycle                10000:bit_error_cnt[         12]=                 158
cycle                10000:bit_error_cnt[         13]=                 131
cycle                10000:bit_error_cnt[         14]=                  84
cycle                10000:bit_error_cnt[         15]=                 504
cycle                10000:bit_error_cnt[         16]=                 170
cycle                10000:bit_error_cnt[         17]=                 195
cycle                10000:bit_error_cnt[         18]=                 106
cycle                10000:bit_error_cnt[         19]=                  62
cycle                10000:bit_error_cnt[         20]=                  42
cycle                10000:bit_error_cnt[         21]=                 261
cycle                10000:bit_error_cnt[         22]=                  34
cycle                10000:bit_error_cnt[         23]=                 310
cycle                10000:bit_error_cnt[         24]=                 265
cycle                10000:bit_error_cnt[         25]=                 238
cycle                10000:bit_error_cnt[         26]=                 128
cycle                10000:bit_error_cnt[         27]=                 108
cycle                10000:bit_error_cnt[         28]=                 471
cycle                10000:bit_error_cnt[         29]=                 375
cycle                10000:bit_error_cnt[         30]=                 793
cycle                10000:bit_error_cnt[         31]=                1232
cycle                10000:bit_error_cnt[         32]=                 869
cycle                10000:bit_error_cnt[         33]=                   1
cycle                10000:bit_error_cnt[         34]=                   1
cycle                10000:bit_error_cnt[         35]=                   1
cycle                10000:bit_error_cnt[         36]=                   1
cycle                10000:bit_error_cnt[         37]=                   1
cycle                10000:bit_error_cnt[         38]=                   1
cycle                10000:bit_error_cnt[         39]=                   1
cycle                10000:bit_error_cnt[         40]=                   1
cycle                10000:bit_error_cnt[         41]=                   1
cycle                10000:bit_error_cnt[         42]=                  13
cycle                10000:bit_error_cnt[         43]=                   1
cycle                10000:bit_error_cnt[         44]=                 345
cycle                10000:bit_error_cnt[         45]=                 267
cycle                10000:bit_error_cnt[         46]=                 135
cycle                10000:bit_error_cnt[         47]=                 315
cycle                10000:bit_error_cnt[         48]=                 979
cycle                10000:bit_error_cnt[         49]=                 938
cycle                10000:bit_error_cnt[         50]=                3406
cycle                10000:bit_error_cnt[         51]=                3057
cycle                10000:bit_error_cnt[         52]=                2753
cycle                10000:bit_error_cnt[         53]=                1990
cycle                10000:bit_error_cnt[         54]=                1679
cycle                10000:bit_error_cnt[         55]=                1354
cycle                10000:bit_error_cnt[         56]=                3331
cycle                10000:bit_error_cnt[         57]=                2048
cycle                10000:bit_error_cnt[         58]=                2951
cycle                10000:bit_error_cnt[         59]=                2675
cycle                10000:bit_error_cnt[         60]=                3604
cycle                10000:bit_error_cnt[         61]=                2886
cycle                10000:bit_error_cnt[         62]=                3575
cycle                10000:bit_error_cnt[         63]=                2767
cycle                10000:bit_error_cnt[         64]=                2521
cycle                10000:bit_error_cnt[         65]=                2322
cycle                10000:bit_error_cnt[         66]=                2646
cycle                10000:bit_error_cnt[         67]=                2963
cycle                10000:bit_error_cnt[         68]=                2877
cycle                10000:bit_error_cnt[         69]=                1998
cycle                10000:bit_error_cnt[         70]=                1151
cycle                10000:bit_error_cnt[         71]=                1521
cycle                10000:bit_error_cnt[         72]=                2044
cycle                10000:bit_error_cnt[         73]=                1735
cycle                10000:bit_error_cnt[         74]=                   1
cycle                10000:bit_error_cnt[         75]=                   1
cycle                10000:bit_error_cnt[         76]=                   1
cycle                10000:bit_error_cnt[         77]=                   1
cycle                10000:bit_error_cnt[         78]=                   1
cycle                10000:bit_error_cnt[         79]=                  61
cycle                10000:bit_error_cnt[         80]=                 100
cycle                10000:bit_error_cnt[         81]=                 280
cycle                10000:bit_error_cnt[         82]=                  77
cycle                10000:bit_error_cnt[         83]=                   0
cycle                10000:bit_error_cnt[         84]=                   1
cycle                10000:bit_error_cnt[         85]=                   0
cycle                10000:bit_error_cnt[         86]=                   0
cycle                10000:bit_error_cnt[         87]=                   0
cycle                10000:bit_error_cnt[         88]=                   0
cycle                10000:bit_error_cnt[         89]=                   0
cycle                10000:bit_error_cnt[         90]=                   0
cycle                10000:bit_error_cnt[         91]=                   0
cycle                10000:bit_error_cnt[         92]=                   0
cycle                10000:bit_error_cnt[         93]=                   0
cycle                10000:bit_error_cnt[         94]=                   0
