cycle                10000:bit_error_cnt[          0]=                   4
cycle                10000:bit_error_cnt[          1]=                   4
cycle                10000:bit_error_cnt[          2]=                   4
cycle                10000:bit_error_cnt[          3]=                7159
cycle                10000:bit_error_cnt[          4]=                   0
cycle                10000:bit_error_cnt[          5]=                   0
cycle                10000:bit_error_cnt[          6]=                   0
cycle                10000:bit_error_cnt[          7]=                   0
cycle                10000:bit_error_cnt[          8]=                   0
cycle                10000:bit_error_cnt[          9]=                   0
cycle                10000:bit_error_cnt[         10]=                   0
cycle                10000:bit_error_cnt[         11]=                   0
cycle                10000:bit_error_cnt[         12]=                   0
cycle                10000:bit_error_cnt[         13]=                   0
cycle                10000:bit_error_cnt[         14]=                   0
cycle                10000:bit_error_cnt[         15]=                   0
cycle                10000:bit_error_cnt[         16]=                   0
cycle                10000:bit_error_cnt[         17]=                   0
cycle                10000:bit_error_cnt[         18]=                   0
cycle                10000:bit_error_cnt[         19]=                   0
cycle                10000:bit_error_cnt[         20]=                   0
cycle                10000:bit_error_cnt[         21]=                   0
cycle                10000:bit_error_cnt[         22]=                   0
cycle                10000:bit_error_cnt[         23]=                   0
cycle                10000:bit_error_cnt[         24]=                   0
cycle                10000:bit_error_cnt[         25]=                   0
cycle                10000:bit_error_cnt[         26]=                   0
cycle                10000:bit_error_cnt[         27]=                   0
cycle                10000:bit_error_cnt[         28]=                   0
cycle                10000:bit_error_cnt[         29]=                   0
cycle                10000:bit_error_cnt[         30]=                   0
cycle                10000:bit_error_cnt[         31]=                   0
cycle                10000:bit_error_cnt[         32]=                   0
cycle                10000:bit_error_cnt[         33]=                   0
cycle                10000:bit_error_cnt[         34]=                   0
cycle                10000:bit_error_cnt[         35]=                   0
cycle                10000:bit_error_cnt[         36]=                   0
cycle                10000:bit_error_cnt[         37]=                7344
cycle                10000:bit_error_cnt[         38]=                7724
cycle                10000:bit_error_cnt[         39]=                7171
cycle                10000:bit_error_cnt[         40]=                7427
cycle                10000:bit_error_cnt[         41]=                7328
cycle                10000:bit_error_cnt[         42]=                7130
cycle                10000:bit_error_cnt[         43]=                6919
cycle                10000:bit_error_cnt[         44]=                6706
cycle                10000:bit_error_cnt[         45]=                6995
cycle                10000:bit_error_cnt[         46]=                6629
cycle                10000:bit_error_cnt[         47]=                5998
cycle                10000:bit_error_cnt[         48]=                5781
cycle                10000:bit_error_cnt[         49]=                6010
cycle                10000:bit_error_cnt[         50]=                5782
cycle                10000:bit_error_cnt[         51]=                5956
cycle                10000:bit_error_cnt[         52]=                6093
cycle                10000:bit_error_cnt[         53]=                5743
cycle                10000:bit_error_cnt[         54]=                5457
cycle                10000:bit_error_cnt[         55]=                5423
cycle                10000:bit_error_cnt[         56]=                5092
cycle                10000:bit_error_cnt[         57]=                4728
cycle                10000:bit_error_cnt[         58]=                4980
cycle                10000:bit_error_cnt[         59]=                4768
cycle                10000:bit_error_cnt[         60]=                3911
cycle                10000:bit_error_cnt[         61]=                1930
cycle                10000:bit_error_cnt[         62]=                 948
cycle                10000:bit_error_cnt[         63]=                 483
cycle                10000:bit_error_cnt[         64]=                1909
cycle                10000:bit_error_cnt[         65]=                1555
cycle                10000:bit_error_cnt[         66]=                1199
cycle                10000:bit_error_cnt[         67]=                1480
cycle                10000:bit_error_cnt[         68]=                1230
cycle                10000:bit_error_cnt[         69]=                 804
