cycle                10000:bit_error_cnt[          0]=                   2
cycle                10000:bit_error_cnt[          1]=                   2
cycle                10000:bit_error_cnt[          2]=                   0
cycle                10000:bit_error_cnt[          3]=                   2
cycle                10000:bit_error_cnt[          4]=                   2
cycle                10000:bit_error_cnt[          5]=                   2
cycle                10000:bit_error_cnt[          6]=                   2
cycle                10000:bit_error_cnt[          7]=                   2
cycle                10000:bit_error_cnt[          8]=                   2
cycle                10000:bit_error_cnt[          9]=                   2
cycle                10000:bit_error_cnt[         10]=                   2
cycle                10000:bit_error_cnt[         11]=                2783
cycle                10000:bit_error_cnt[         12]=                4038
cycle                10000:bit_error_cnt[         13]=                2687
cycle                10000:bit_error_cnt[         14]=                1863
cycle                10000:bit_error_cnt[         15]=                1923
cycle                10000:bit_error_cnt[         16]=                1746
cycle                10000:bit_error_cnt[         17]=                2025
cycle                10000:bit_error_cnt[         18]=                3085
cycle                10000:bit_error_cnt[         19]=                1623
cycle                10000:bit_error_cnt[         20]=                1742
cycle                10000:bit_error_cnt[         21]=                3305
cycle                10000:bit_error_cnt[         22]=                2713
cycle                10000:bit_error_cnt[         23]=                1493
cycle                10000:bit_error_cnt[         24]=                1067
cycle                10000:bit_error_cnt[         25]=                 567
cycle                10000:bit_error_cnt[         26]=                 417
cycle                10000:bit_error_cnt[         27]=                 381
cycle                10000:bit_error_cnt[         28]=                1615
cycle                10000:bit_error_cnt[         29]=                1853
cycle                10000:bit_error_cnt[         30]=                1648
cycle                10000:bit_error_cnt[         31]=                1094
cycle                10000:bit_error_cnt[         32]=                 957
cycle                10000:bit_error_cnt[         33]=                1938
cycle                10000:bit_error_cnt[         34]=                1844
cycle                10000:bit_error_cnt[         35]=                1234
cycle                10000:bit_error_cnt[         36]=                 808
cycle                10000:bit_error_cnt[         37]=                 411
cycle                10000:bit_error_cnt[         38]=                 205
cycle                10000:bit_error_cnt[         39]=                 213
cycle                10000:bit_error_cnt[         40]=                 127
cycle                10000:bit_error_cnt[         41]=                  77
cycle                10000:bit_error_cnt[         42]=                  49
cycle                10000:bit_error_cnt[         43]=                  23
cycle                10000:bit_error_cnt[         44]=                  10
cycle                10000:bit_error_cnt[         45]=                   6
cycle                10000:bit_error_cnt[         46]=                   4
cycle                10000:bit_error_cnt[         47]=                   2
cycle                10000:bit_error_cnt[         48]=                   2
cycle                10000:bit_error_cnt[         49]=                   2
cycle                10000:bit_error_cnt[         50]=                   2
cycle                10000:bit_error_cnt[         51]=                   2
cycle                10000:bit_error_cnt[         52]=                   2
cycle                10000:bit_error_cnt[         53]=                   2
cycle                10000:bit_error_cnt[         54]=                   2
cycle                10000:bit_error_cnt[         55]=                   2
cycle                10000:bit_error_cnt[         56]=                 266
cycle                10000:bit_error_cnt[         57]=                 356
cycle                10000:bit_error_cnt[         58]=                 234
cycle                10000:bit_error_cnt[         59]=                 148
cycle                10000:bit_error_cnt[         60]=                  86
cycle                10000:bit_error_cnt[         61]=                  41
