cycle                10000:bit_error_cnt[          0]=                  61
cycle                10000:bit_error_cnt[          1]=                 144
cycle                10000:bit_error_cnt[          2]=                 622
cycle                10000:bit_error_cnt[          3]=                4632
cycle                10000:bit_error_cnt[          4]=                4884
cycle                10000:bit_error_cnt[          5]=                5001
cycle                10000:bit_error_cnt[          6]=                5014
cycle                10000:bit_error_cnt[          7]=                5045
cycle                10000:bit_error_cnt[          8]=                5046
cycle                10000:bit_error_cnt[          9]=                5031
cycle                10000:bit_error_cnt[         10]=                4953
cycle                10000:bit_error_cnt[         11]=                4933
cycle                10000:bit_error_cnt[         12]=                5010
cycle                10000:bit_error_cnt[         13]=                5039
cycle                10000:bit_error_cnt[         14]=                4984
cycle                10000:bit_error_cnt[         15]=                5021
cycle                10000:bit_error_cnt[         16]=                4931
cycle                10000:bit_error_cnt[         17]=                4922
cycle                10000:bit_error_cnt[         18]=                5065
cycle                10000:bit_error_cnt[         19]=                5040
cycle                10000:bit_error_cnt[         20]=                4958
cycle                10000:bit_error_cnt[         21]=                5013
cycle                10000:bit_error_cnt[         22]=                4929
cycle                10000:bit_error_cnt[         23]=                4979
cycle                10000:bit_error_cnt[         24]=                5011
cycle                10000:bit_error_cnt[         25]=                4988
cycle                10000:bit_error_cnt[         26]=                5014
cycle                10000:bit_error_cnt[         27]=                4995
cycle                10000:bit_error_cnt[         28]=                5033
cycle                10000:bit_error_cnt[         29]=                5045
cycle                10000:bit_error_cnt[         30]=                4918
cycle                10000:bit_error_cnt[         31]=                4937
cycle                10000:bit_error_cnt[         32]=                4187
cycle                10000:bit_error_cnt[         33]=                 636
cycle                10000:bit_error_cnt[         34]=                4845
cycle                10000:bit_error_cnt[         35]=                4892
cycle                10000:bit_error_cnt[         36]=                4989
cycle                10000:bit_error_cnt[         37]=                5000
cycle                10000:bit_error_cnt[         38]=                4973
cycle                10000:bit_error_cnt[         39]=                4920
cycle                10000:bit_error_cnt[         40]=                4998
cycle                10000:bit_error_cnt[         41]=                4963
cycle                10000:bit_error_cnt[         42]=                4977
cycle                10000:bit_error_cnt[         43]=                4944
cycle                10000:bit_error_cnt[         44]=                4968
cycle                10000:bit_error_cnt[         45]=                5047
cycle                10000:bit_error_cnt[         46]=                4928
cycle                10000:bit_error_cnt[         47]=                4990
cycle                10000:bit_error_cnt[         48]=                5003
cycle                10000:bit_error_cnt[         49]=                5008
cycle                10000:bit_error_cnt[         50]=                5027
cycle                10000:bit_error_cnt[         51]=                4985
cycle                10000:bit_error_cnt[         52]=                4988
cycle                10000:bit_error_cnt[         53]=                4937
cycle                10000:bit_error_cnt[         54]=                5034
cycle                10000:bit_error_cnt[         55]=                4984
cycle                10000:bit_error_cnt[         56]=                4978
cycle                10000:bit_error_cnt[         57]=                5035
cycle                10000:bit_error_cnt[         58]=                4956
cycle                10000:bit_error_cnt[         59]=                5041
cycle                10000:bit_error_cnt[         60]=                5037
cycle                10000:bit_error_cnt[         61]=                4984
cycle                10000:bit_error_cnt[         62]=                5025
cycle                10000:bit_error_cnt[         63]=                5000
cycle                10000:bit_error_cnt[         64]=                5078
cycle                10000:bit_error_cnt[         65]=                5030
cycle                10000:bit_error_cnt[         66]=                5025
cycle                10000:bit_error_cnt[         67]=                5039
cycle                10000:bit_error_cnt[         68]=                5001
cycle                10000:bit_error_cnt[         69]=                5024
cycle                10000:bit_error_cnt[         70]=                5065
cycle                10000:bit_error_cnt[         71]=                5007
cycle                10000:bit_error_cnt[         72]=                4946
cycle                10000:bit_error_cnt[         73]=                3982
cycle                10000:bit_error_cnt[         74]=                2602
cycle                10000:bit_error_cnt[         75]=                5002
cycle                10000:bit_error_cnt[         76]=                4674
cycle                10000:bit_error_cnt[         77]=                4969
cycle                10000:bit_error_cnt[         78]=                5071
cycle                10000:bit_error_cnt[         79]=                5016
cycle                10000:bit_error_cnt[         80]=                5008
cycle                10000:bit_error_cnt[         81]=                5059
cycle                10000:bit_error_cnt[         82]=                5074
cycle                10000:bit_error_cnt[         83]=                   0
cycle                10000:bit_error_cnt[         84]=                1846
cycle                10000:bit_error_cnt[         85]=                   0
cycle                10000:bit_error_cnt[         86]=                   0
cycle                10000:bit_error_cnt[         87]=                   0
cycle                10000:bit_error_cnt[         88]=                   0
cycle                10000:bit_error_cnt[         89]=                   0
cycle                10000:bit_error_cnt[         90]=                   0
cycle                10000:bit_error_cnt[         91]=                   0
cycle                10000:bit_error_cnt[         92]=                   0
cycle                10000:bit_error_cnt[         93]=                   0
cycle                10000:bit_error_cnt[         94]=                   0
