cycle                10000:bit_error_cnt[          0]=                   1
cycle                10000:bit_error_cnt[          1]=                   1
cycle                10000:bit_error_cnt[          2]=                   1
cycle                10000:bit_error_cnt[          3]=                   1
cycle                10000:bit_error_cnt[          4]=                   1
cycle                10000:bit_error_cnt[          5]=                 964
cycle                10000:bit_error_cnt[          6]=                1649
cycle                10000:bit_error_cnt[          7]=                4227
cycle                10000:bit_error_cnt[          8]=                3506
cycle                10000:bit_error_cnt[          9]=                3262
cycle                10000:bit_error_cnt[         10]=                4334
cycle                10000:bit_error_cnt[         11]=                4311
cycle                10000:bit_error_cnt[         12]=                4294
cycle                10000:bit_error_cnt[         13]=                3716
cycle                10000:bit_error_cnt[         14]=                3876
cycle                10000:bit_error_cnt[         15]=                4057
cycle                10000:bit_error_cnt[         16]=                3505
cycle                10000:bit_error_cnt[         17]=                1998
cycle                10000:bit_error_cnt[         18]=                3289
cycle                10000:bit_error_cnt[         19]=                2748
cycle                10000:bit_error_cnt[         20]=                3018
cycle                10000:bit_error_cnt[         21]=                3096
cycle                10000:bit_error_cnt[         22]=                2532
cycle                10000:bit_error_cnt[         23]=                3325
cycle                10000:bit_error_cnt[         24]=                4014
cycle                10000:bit_error_cnt[         25]=                3753
cycle                10000:bit_error_cnt[         26]=                3959
cycle                10000:bit_error_cnt[         27]=                3401
cycle                10000:bit_error_cnt[         28]=                4141
cycle                10000:bit_error_cnt[         29]=                4003
cycle                10000:bit_error_cnt[         30]=                4223
cycle                10000:bit_error_cnt[         31]=                4452
cycle                10000:bit_error_cnt[         32]=                3160
cycle                10000:bit_error_cnt[         33]=                   1
cycle                10000:bit_error_cnt[         34]=                   1
cycle                10000:bit_error_cnt[         35]=                   1
cycle                10000:bit_error_cnt[         36]=                1232
cycle                10000:bit_error_cnt[         37]=                1248
cycle                10000:bit_error_cnt[         38]=                 957
cycle                10000:bit_error_cnt[         39]=                3500
cycle                10000:bit_error_cnt[         40]=                1703
cycle                10000:bit_error_cnt[         41]=                3166
cycle                10000:bit_error_cnt[         42]=                3244
cycle                10000:bit_error_cnt[         43]=                 838
cycle                10000:bit_error_cnt[         44]=                4542
cycle                10000:bit_error_cnt[         45]=                4911
cycle                10000:bit_error_cnt[         46]=                4514
cycle                10000:bit_error_cnt[         47]=                4626
cycle                10000:bit_error_cnt[         48]=                4819
cycle                10000:bit_error_cnt[         49]=                4921
cycle                10000:bit_error_cnt[         50]=                5001
cycle                10000:bit_error_cnt[         51]=                5017
cycle                10000:bit_error_cnt[         52]=                4998
cycle                10000:bit_error_cnt[         53]=                4944
cycle                10000:bit_error_cnt[         54]=                4999
cycle                10000:bit_error_cnt[         55]=                5013
cycle                10000:bit_error_cnt[         56]=                4949
cycle                10000:bit_error_cnt[         57]=                4966
cycle                10000:bit_error_cnt[         58]=                4881
cycle                10000:bit_error_cnt[         59]=                4980
cycle                10000:bit_error_cnt[         60]=                5004
cycle                10000:bit_error_cnt[         61]=                4979
cycle                10000:bit_error_cnt[         62]=                4963
cycle                10000:bit_error_cnt[         63]=                5057
cycle                10000:bit_error_cnt[         64]=                4952
cycle                10000:bit_error_cnt[         65]=                4919
cycle                10000:bit_error_cnt[         66]=                4778
cycle                10000:bit_error_cnt[         67]=                4877
cycle                10000:bit_error_cnt[         68]=                4892
cycle                10000:bit_error_cnt[         69]=                4482
cycle                10000:bit_error_cnt[         70]=                4156
cycle                10000:bit_error_cnt[         71]=                4881
cycle                10000:bit_error_cnt[         72]=                4649
cycle                10000:bit_error_cnt[         73]=                4047
cycle                10000:bit_error_cnt[         74]=                   1
cycle                10000:bit_error_cnt[         75]=                   1
cycle                10000:bit_error_cnt[         76]=                   1
cycle                10000:bit_error_cnt[         77]=                   1
cycle                10000:bit_error_cnt[         78]=                 318
cycle                10000:bit_error_cnt[         79]=                1796
cycle                10000:bit_error_cnt[         80]=                2546
cycle                10000:bit_error_cnt[         81]=                2159
cycle                10000:bit_error_cnt[         82]=                2159
cycle                10000:bit_error_cnt[         83]=                   0
cycle                10000:bit_error_cnt[         84]=                   1
cycle                10000:bit_error_cnt[         85]=                   0
cycle                10000:bit_error_cnt[         86]=                   0
cycle                10000:bit_error_cnt[         87]=                   0
cycle                10000:bit_error_cnt[         88]=                   0
cycle                10000:bit_error_cnt[         89]=                   0
cycle                10000:bit_error_cnt[         90]=                   0
cycle                10000:bit_error_cnt[         91]=                   0
cycle                10000:bit_error_cnt[         92]=                   0
cycle                10000:bit_error_cnt[         93]=                   0
cycle                10000:bit_error_cnt[         94]=                   0
