cycle                10000:bit_error_cnt[          0]=                1849
cycle                10000:bit_error_cnt[          1]=                   5
cycle                10000:bit_error_cnt[          2]=                  79
cycle                10000:bit_error_cnt[          3]=                7045
cycle                10000:bit_error_cnt[          4]=                   0
cycle                10000:bit_error_cnt[          5]=                   0
cycle                10000:bit_error_cnt[          6]=                   0
cycle                10000:bit_error_cnt[          7]=                   0
cycle                10000:bit_error_cnt[          8]=                   0
cycle                10000:bit_error_cnt[          9]=                   0
cycle                10000:bit_error_cnt[         10]=                   0
cycle                10000:bit_error_cnt[         11]=                   0
cycle                10000:bit_error_cnt[         12]=                   0
cycle                10000:bit_error_cnt[         13]=                   0
cycle                10000:bit_error_cnt[         14]=                   0
cycle                10000:bit_error_cnt[         15]=                   0
cycle                10000:bit_error_cnt[         16]=                   0
cycle                10000:bit_error_cnt[         17]=                   0
cycle                10000:bit_error_cnt[         18]=                   0
cycle                10000:bit_error_cnt[         19]=                   0
cycle                10000:bit_error_cnt[         20]=                   0
cycle                10000:bit_error_cnt[         21]=                   0
cycle                10000:bit_error_cnt[         22]=                   0
cycle                10000:bit_error_cnt[         23]=                   0
cycle                10000:bit_error_cnt[         24]=                   0
cycle                10000:bit_error_cnt[         25]=                   0
cycle                10000:bit_error_cnt[         26]=                   0
cycle                10000:bit_error_cnt[         27]=                   0
cycle                10000:bit_error_cnt[         28]=                   0
cycle                10000:bit_error_cnt[         29]=                   0
cycle                10000:bit_error_cnt[         30]=                   0
cycle                10000:bit_error_cnt[         31]=                   0
cycle                10000:bit_error_cnt[         32]=                   0
cycle                10000:bit_error_cnt[         33]=                   0
cycle                10000:bit_error_cnt[         34]=                   0
cycle                10000:bit_error_cnt[         35]=                   0
cycle                10000:bit_error_cnt[         36]=                   0
cycle                10000:bit_error_cnt[         37]=                7126
cycle                10000:bit_error_cnt[         38]=                7665
cycle                10000:bit_error_cnt[         39]=                6530
cycle                10000:bit_error_cnt[         40]=                6664
cycle                10000:bit_error_cnt[         41]=                7276
cycle                10000:bit_error_cnt[         42]=                6750
cycle                10000:bit_error_cnt[         43]=                6250
cycle                10000:bit_error_cnt[         44]=                6126
cycle                10000:bit_error_cnt[         45]=                5799
cycle                10000:bit_error_cnt[         46]=                6144
cycle                10000:bit_error_cnt[         47]=                5429
cycle                10000:bit_error_cnt[         48]=                5527
cycle                10000:bit_error_cnt[         49]=                6591
cycle                10000:bit_error_cnt[         50]=                6006
cycle                10000:bit_error_cnt[         51]=                5691
cycle                10000:bit_error_cnt[         52]=                7106
cycle                10000:bit_error_cnt[         53]=                6170
cycle                10000:bit_error_cnt[         54]=                5344
cycle                10000:bit_error_cnt[         55]=                5428
cycle                10000:bit_error_cnt[         56]=                5344
cycle                10000:bit_error_cnt[         57]=                5380
cycle                10000:bit_error_cnt[         58]=                5364
cycle                10000:bit_error_cnt[         59]=                5086
cycle                10000:bit_error_cnt[         60]=                5094
cycle                10000:bit_error_cnt[         61]=                2333
cycle                10000:bit_error_cnt[         62]=                2085
cycle                10000:bit_error_cnt[         63]=                2318
cycle                10000:bit_error_cnt[         64]=                4735
cycle                10000:bit_error_cnt[         65]=                5045
cycle                10000:bit_error_cnt[         66]=                4635
cycle                10000:bit_error_cnt[         67]=                5643
cycle                10000:bit_error_cnt[         68]=                4215
cycle                10000:bit_error_cnt[         69]=                2618
