cycle                10000:bit_error_cnt[          0]=               10000
cycle                10000:bit_error_cnt[          1]=               10000
cycle                10000:bit_error_cnt[          2]=                   0
cycle                10000:bit_error_cnt[          3]=                6510
cycle                10000:bit_error_cnt[          4]=               10000
cycle                10000:bit_error_cnt[          5]=               10000
cycle                10000:bit_error_cnt[          6]=                9994
cycle                10000:bit_error_cnt[          7]=                9991
cycle                10000:bit_error_cnt[          8]=               10000
cycle                10000:bit_error_cnt[          9]=               10000
cycle                10000:bit_error_cnt[         10]=               10000
cycle                10000:bit_error_cnt[         11]=               10000
cycle                10000:bit_error_cnt[         12]=               10000
cycle                10000:bit_error_cnt[         13]=               10000
cycle                10000:bit_error_cnt[         14]=               10000
cycle                10000:bit_error_cnt[         15]=                9998
cycle                10000:bit_error_cnt[         16]=               10000
cycle                10000:bit_error_cnt[         17]=                9202
cycle                10000:bit_error_cnt[         18]=               10000
cycle                10000:bit_error_cnt[         19]=               10000
cycle                10000:bit_error_cnt[         20]=               10000
cycle                10000:bit_error_cnt[         21]=               10000
cycle                10000:bit_error_cnt[         22]=               10000
cycle                10000:bit_error_cnt[         23]=               10000
cycle                10000:bit_error_cnt[         24]=                9999
cycle                10000:bit_error_cnt[         25]=               10000
cycle                10000:bit_error_cnt[         26]=                9235
cycle                10000:bit_error_cnt[         27]=               10000
cycle                10000:bit_error_cnt[         28]=               10000
cycle                10000:bit_error_cnt[         29]=                9999
cycle                10000:bit_error_cnt[         30]=               10000
cycle                10000:bit_error_cnt[         31]=                9210
cycle                10000:bit_error_cnt[         32]=                9999
cycle                10000:bit_error_cnt[         33]=               10000
cycle                10000:bit_error_cnt[         34]=                9210
cycle                10000:bit_error_cnt[         35]=                9997
cycle                10000:bit_error_cnt[         36]=                9959
cycle                10000:bit_error_cnt[         37]=                9806
cycle                10000:bit_error_cnt[         38]=                9515
cycle                10000:bit_error_cnt[         39]=                9644
cycle                10000:bit_error_cnt[         40]=                9621
cycle                10000:bit_error_cnt[         41]=                9640
cycle                10000:bit_error_cnt[         42]=                9970
cycle                10000:bit_error_cnt[         43]=                9480
cycle                10000:bit_error_cnt[         44]=                8991
cycle                10000:bit_error_cnt[         45]=                9016
cycle                10000:bit_error_cnt[         46]=                8897
cycle                10000:bit_error_cnt[         47]=                8663
cycle                10000:bit_error_cnt[         48]=                8215
cycle                10000:bit_error_cnt[         49]=                7422
cycle                10000:bit_error_cnt[         50]=                6361
cycle                10000:bit_error_cnt[         51]=               10000
cycle                10000:bit_error_cnt[         52]=               10000
cycle                10000:bit_error_cnt[         53]=               10000
cycle                10000:bit_error_cnt[         54]=               10000
cycle                10000:bit_error_cnt[         55]=               10000
cycle                10000:bit_error_cnt[         56]=               10000
cycle                10000:bit_error_cnt[         57]=               10000
cycle                10000:bit_error_cnt[         58]=               10000
cycle                10000:bit_error_cnt[         59]=               10000
cycle                10000:bit_error_cnt[         60]=               10000
cycle                10000:bit_error_cnt[         61]=               10000
