cycle                10000:bit_error_cnt[          0]=                   2
cycle                10000:bit_error_cnt[          1]=                   2
cycle                10000:bit_error_cnt[          2]=                   0
cycle                10000:bit_error_cnt[          3]=                  54
cycle                10000:bit_error_cnt[          4]=                  82
cycle                10000:bit_error_cnt[          5]=                 106
cycle                10000:bit_error_cnt[          6]=                 135
cycle                10000:bit_error_cnt[          7]=                 133
cycle                10000:bit_error_cnt[          8]=                 132
cycle                10000:bit_error_cnt[          9]=                 132
cycle                10000:bit_error_cnt[         10]=                 172
cycle                10000:bit_error_cnt[         11]=                3218
cycle                10000:bit_error_cnt[         12]=                5091
cycle                10000:bit_error_cnt[         13]=                5087
cycle                10000:bit_error_cnt[         14]=                4259
cycle                10000:bit_error_cnt[         15]=                3967
cycle                10000:bit_error_cnt[         16]=                4123
cycle                10000:bit_error_cnt[         17]=                4371
cycle                10000:bit_error_cnt[         18]=                4831
cycle                10000:bit_error_cnt[         19]=                3426
cycle                10000:bit_error_cnt[         20]=                3926
cycle                10000:bit_error_cnt[         21]=                4545
cycle                10000:bit_error_cnt[         22]=                4062
cycle                10000:bit_error_cnt[         23]=                3200
cycle                10000:bit_error_cnt[         24]=                2906
cycle                10000:bit_error_cnt[         25]=                2735
cycle                10000:bit_error_cnt[         26]=                3139
cycle                10000:bit_error_cnt[         27]=                3460
cycle                10000:bit_error_cnt[         28]=                4992
cycle                10000:bit_error_cnt[         29]=                4445
cycle                10000:bit_error_cnt[         30]=                3975
cycle                10000:bit_error_cnt[         31]=                3922
cycle                10000:bit_error_cnt[         32]=                3009
cycle                10000:bit_error_cnt[         33]=                3989
cycle                10000:bit_error_cnt[         34]=                3937
cycle                10000:bit_error_cnt[         35]=                2692
cycle                10000:bit_error_cnt[         36]=                2107
cycle                10000:bit_error_cnt[         37]=                1971
cycle                10000:bit_error_cnt[         38]=                1585
cycle                10000:bit_error_cnt[         39]=                2416
cycle                10000:bit_error_cnt[         40]=                1637
cycle                10000:bit_error_cnt[         41]=                 954
cycle                10000:bit_error_cnt[         42]=                2785
cycle                10000:bit_error_cnt[         43]=                2413
cycle                10000:bit_error_cnt[         44]=                 714
cycle                10000:bit_error_cnt[         45]=                 634
cycle                10000:bit_error_cnt[         46]=                 529
cycle                10000:bit_error_cnt[         47]=                 449
cycle                10000:bit_error_cnt[         48]=                 248
cycle                10000:bit_error_cnt[         49]=                  87
cycle                10000:bit_error_cnt[         50]=                 218
cycle                10000:bit_error_cnt[         51]=                   2
cycle                10000:bit_error_cnt[         52]=                   2
cycle                10000:bit_error_cnt[         53]=                   2
cycle                10000:bit_error_cnt[         54]=                   2
cycle                10000:bit_error_cnt[         55]=                 570
cycle                10000:bit_error_cnt[         56]=                 858
cycle                10000:bit_error_cnt[         57]=                 428
cycle                10000:bit_error_cnt[         58]=                 289
cycle                10000:bit_error_cnt[         59]=                 189
cycle                10000:bit_error_cnt[         60]=                3128
cycle                10000:bit_error_cnt[         61]=                 123
