cycle                10000:bit_error_cnt[          0]=                   2
cycle                10000:bit_error_cnt[          1]=                   2
cycle                10000:bit_error_cnt[          2]=                   0
cycle                10000:bit_error_cnt[          3]=                   2
cycle                10000:bit_error_cnt[          4]=                   2
cycle                10000:bit_error_cnt[          5]=                   2
cycle                10000:bit_error_cnt[          6]=                   2
cycle                10000:bit_error_cnt[          7]=                   2
cycle                10000:bit_error_cnt[          8]=                   2
cycle                10000:bit_error_cnt[          9]=                   2
cycle                10000:bit_error_cnt[         10]=                   2
cycle                10000:bit_error_cnt[         11]=                 784
cycle                10000:bit_error_cnt[         12]=                1259
cycle                10000:bit_error_cnt[         13]=                 921
cycle                10000:bit_error_cnt[         14]=                 257
cycle                10000:bit_error_cnt[         15]=                 224
cycle                10000:bit_error_cnt[         16]=                 681
cycle                10000:bit_error_cnt[         17]=                 738
cycle                10000:bit_error_cnt[         18]=                2368
cycle                10000:bit_error_cnt[         19]=                1615
cycle                10000:bit_error_cnt[         20]=                1034
cycle                10000:bit_error_cnt[         21]=                1955
cycle                10000:bit_error_cnt[         22]=                1533
cycle                10000:bit_error_cnt[         23]=                1269
cycle                10000:bit_error_cnt[         24]=                 858
cycle                10000:bit_error_cnt[         25]=                 275
cycle                10000:bit_error_cnt[         26]=                 234
cycle                10000:bit_error_cnt[         27]=                 293
cycle                10000:bit_error_cnt[         28]=                 662
cycle                10000:bit_error_cnt[         29]=                 772
cycle                10000:bit_error_cnt[         30]=                1230
cycle                10000:bit_error_cnt[         31]=                 722
cycle                10000:bit_error_cnt[         32]=                 566
cycle                10000:bit_error_cnt[         33]=                1592
cycle                10000:bit_error_cnt[         34]=                1593
cycle                10000:bit_error_cnt[         35]=                 835
cycle                10000:bit_error_cnt[         36]=                 634
cycle                10000:bit_error_cnt[         37]=                 314
cycle                10000:bit_error_cnt[         38]=                 157
cycle                10000:bit_error_cnt[         39]=                 113
cycle                10000:bit_error_cnt[         40]=                  55
cycle                10000:bit_error_cnt[         41]=                  71
cycle                10000:bit_error_cnt[         42]=                  49
cycle                10000:bit_error_cnt[         43]=                  23
cycle                10000:bit_error_cnt[         44]=                  10
cycle                10000:bit_error_cnt[         45]=                   6
cycle                10000:bit_error_cnt[         46]=                   4
cycle                10000:bit_error_cnt[         47]=                   2
cycle                10000:bit_error_cnt[         48]=                   2
cycle                10000:bit_error_cnt[         49]=                   2
cycle                10000:bit_error_cnt[         50]=                   2
cycle                10000:bit_error_cnt[         51]=                   2
cycle                10000:bit_error_cnt[         52]=                   2
cycle                10000:bit_error_cnt[         53]=                   2
cycle                10000:bit_error_cnt[         54]=                   2
cycle                10000:bit_error_cnt[         55]=                   2
cycle                10000:bit_error_cnt[         56]=                   2
cycle                10000:bit_error_cnt[         57]=                 143
cycle                10000:bit_error_cnt[         58]=                 162
cycle                10000:bit_error_cnt[         59]=                 100
cycle                10000:bit_error_cnt[         60]=                  68
cycle                10000:bit_error_cnt[         61]=                  31
