cycle                10000:bit_error_cnt[          0]=                   2
cycle                10000:bit_error_cnt[          1]=                   2
cycle                10000:bit_error_cnt[          2]=                   0
cycle                10000:bit_error_cnt[          3]=                2356
cycle                10000:bit_error_cnt[          4]=                4080
cycle                10000:bit_error_cnt[          5]=                5405
cycle                10000:bit_error_cnt[          6]=                5928
cycle                10000:bit_error_cnt[          7]=                5734
cycle                10000:bit_error_cnt[          8]=                5755
cycle                10000:bit_error_cnt[          9]=                5660
cycle                10000:bit_error_cnt[         10]=                5471
cycle                10000:bit_error_cnt[         11]=                5783
cycle                10000:bit_error_cnt[         12]=                6180
cycle                10000:bit_error_cnt[         13]=                6363
cycle                10000:bit_error_cnt[         14]=                6697
cycle                10000:bit_error_cnt[         15]=                6669
cycle                10000:bit_error_cnt[         16]=                6874
cycle                10000:bit_error_cnt[         17]=                6443
cycle                10000:bit_error_cnt[         18]=                6649
cycle                10000:bit_error_cnt[         19]=                6758
cycle                10000:bit_error_cnt[         20]=                7062
cycle                10000:bit_error_cnt[         21]=                7182
cycle                10000:bit_error_cnt[         22]=                7318
cycle                10000:bit_error_cnt[         23]=                7365
cycle                10000:bit_error_cnt[         24]=                7132
cycle                10000:bit_error_cnt[         25]=                6884
cycle                10000:bit_error_cnt[         26]=                6643
cycle                10000:bit_error_cnt[         27]=                6616
cycle                10000:bit_error_cnt[         28]=                7021
cycle                10000:bit_error_cnt[         29]=                6766
cycle                10000:bit_error_cnt[         30]=                6695
cycle                10000:bit_error_cnt[         31]=                6437
cycle                10000:bit_error_cnt[         32]=                6658
cycle                10000:bit_error_cnt[         33]=                6304
cycle                10000:bit_error_cnt[         34]=                6262
cycle                10000:bit_error_cnt[         35]=                6272
cycle                10000:bit_error_cnt[         36]=                5942
cycle                10000:bit_error_cnt[         37]=                5728
cycle                10000:bit_error_cnt[         38]=                5712
cycle                10000:bit_error_cnt[         39]=                5792
cycle                10000:bit_error_cnt[         40]=                5806
cycle                10000:bit_error_cnt[         41]=                5801
cycle                10000:bit_error_cnt[         42]=                6158
cycle                10000:bit_error_cnt[         43]=                5905
cycle                10000:bit_error_cnt[         44]=                5615
cycle                10000:bit_error_cnt[         45]=                5669
cycle                10000:bit_error_cnt[         46]=                5568
cycle                10000:bit_error_cnt[         47]=                5634
cycle                10000:bit_error_cnt[         48]=                5616
cycle                10000:bit_error_cnt[         49]=                5306
cycle                10000:bit_error_cnt[         50]=                4595
cycle                10000:bit_error_cnt[         51]=                 634
cycle                10000:bit_error_cnt[         52]=                   2
cycle                10000:bit_error_cnt[         53]=                3758
cycle                10000:bit_error_cnt[         54]=                4020
cycle                10000:bit_error_cnt[         55]=                5167
cycle                10000:bit_error_cnt[         56]=                4887
cycle                10000:bit_error_cnt[         57]=                5699
cycle                10000:bit_error_cnt[         58]=                4601
cycle                10000:bit_error_cnt[         59]=                5458
cycle                10000:bit_error_cnt[         60]=                5461
cycle                10000:bit_error_cnt[         61]=                1867
