cycle                10000:bit_error_cnt[          0]=                   3
cycle                10000:bit_error_cnt[          1]=                   3
cycle                10000:bit_error_cnt[          2]=                   3
cycle                10000:bit_error_cnt[          3]=                   0
cycle                10000:bit_error_cnt[          4]=                  23
cycle                10000:bit_error_cnt[          5]=                  39
cycle                10000:bit_error_cnt[          6]=                  41
cycle                10000:bit_error_cnt[          7]=                  50
cycle                10000:bit_error_cnt[          8]=                  46
cycle                10000:bit_error_cnt[          9]=                  50
cycle                10000:bit_error_cnt[         10]=                  48
cycle                10000:bit_error_cnt[         11]=                  51
cycle                10000:bit_error_cnt[         12]=                  52
cycle                10000:bit_error_cnt[         13]=                  74
cycle                10000:bit_error_cnt[         14]=                  84
cycle                10000:bit_error_cnt[         15]=                 116
cycle                10000:bit_error_cnt[         16]=                 158
cycle                10000:bit_error_cnt[         17]=                 351
cycle                10000:bit_error_cnt[         18]=                 339
cycle                10000:bit_error_cnt[         19]=                 210
cycle                10000:bit_error_cnt[         20]=                 162
cycle                10000:bit_error_cnt[         21]=                 137
cycle                10000:bit_error_cnt[         22]=                 140
cycle                10000:bit_error_cnt[         23]=                 173
cycle                10000:bit_error_cnt[         24]=                 150
cycle                10000:bit_error_cnt[         25]=                 423
cycle                10000:bit_error_cnt[         26]=                 479
cycle                10000:bit_error_cnt[         27]=                 420
cycle                10000:bit_error_cnt[         28]=                 610
cycle                10000:bit_error_cnt[         29]=                1343
cycle                10000:bit_error_cnt[         30]=                1300
cycle                10000:bit_error_cnt[         31]=                 814
cycle                10000:bit_error_cnt[         32]=                 668
cycle                10000:bit_error_cnt[         33]=                 544
cycle                10000:bit_error_cnt[         34]=                 719
cycle                10000:bit_error_cnt[         35]=                 759
cycle                10000:bit_error_cnt[         36]=                 723
cycle                10000:bit_error_cnt[         37]=                 571
cycle                10000:bit_error_cnt[         38]=                 555
cycle                10000:bit_error_cnt[         39]=                 540
cycle                10000:bit_error_cnt[         40]=                 463
cycle                10000:bit_error_cnt[         41]=                 480
cycle                10000:bit_error_cnt[         42]=                 462
cycle                10000:bit_error_cnt[         43]=                 389
cycle                10000:bit_error_cnt[         44]=                 289
cycle                10000:bit_error_cnt[         45]=                 303
cycle                10000:bit_error_cnt[         46]=                 250
cycle                10000:bit_error_cnt[         47]=                 219
cycle                10000:bit_error_cnt[         48]=                 190
cycle                10000:bit_error_cnt[         49]=                  90
cycle                10000:bit_error_cnt[         50]=                  40
cycle                10000:bit_error_cnt[         51]=                 420
cycle                10000:bit_error_cnt[         52]=                 610
cycle                10000:bit_error_cnt[         53]=                1343
cycle                10000:bit_error_cnt[         54]=                1300
cycle                10000:bit_error_cnt[         55]=                 814
cycle                10000:bit_error_cnt[         56]=                 668
cycle                10000:bit_error_cnt[         57]=                 544
cycle                10000:bit_error_cnt[         58]=                 719
cycle                10000:bit_error_cnt[         59]=                 759
cycle                10000:bit_error_cnt[         60]=                 723
cycle                10000:bit_error_cnt[         61]=                 571
cycle                10000:bit_error_cnt[         62]=                 555
cycle                10000:bit_error_cnt[         63]=                 540
cycle                10000:bit_error_cnt[         64]=                 463
cycle                10000:bit_error_cnt[         65]=                 480
cycle                10000:bit_error_cnt[         66]=                 462
cycle                10000:bit_error_cnt[         67]=                 389
cycle                10000:bit_error_cnt[         68]=                 289
cycle                10000:bit_error_cnt[         69]=                 303
cycle                10000:bit_error_cnt[         70]=                 250
cycle                10000:bit_error_cnt[         71]=                 219
cycle                10000:bit_error_cnt[         72]=                 190
cycle                10000:bit_error_cnt[         73]=                  90
cycle                10000:bit_error_cnt[         74]=                  40
cycle                10000:bit_error_cnt[         75]=                  82
cycle                10000:bit_error_cnt[         76]=                  38
cycle                10000:bit_error_cnt[         77]=                1047
cycle                10000:bit_error_cnt[         78]=                 607
cycle                10000:bit_error_cnt[         79]=                 560
cycle                10000:bit_error_cnt[         80]=                 355
cycle                10000:bit_error_cnt[         81]=                 136
cycle                10000:bit_error_cnt[         82]=                 112
cycle                10000:bit_error_cnt[         83]=                  88
cycle                10000:bit_error_cnt[         84]=                  30
