cycle                10000:bit_error_cnt[          0]=                   2
cycle                10000:bit_error_cnt[          1]=                   2
cycle                10000:bit_error_cnt[          2]=                   0
cycle                10000:bit_error_cnt[          3]=                  13
cycle                10000:bit_error_cnt[          4]=                  26
cycle                10000:bit_error_cnt[          5]=                  29
cycle                10000:bit_error_cnt[          6]=                  32
cycle                10000:bit_error_cnt[          7]=                  31
cycle                10000:bit_error_cnt[          8]=                  33
cycle                10000:bit_error_cnt[          9]=                  38
cycle                10000:bit_error_cnt[         10]=                  33
cycle                10000:bit_error_cnt[         11]=                2965
cycle                10000:bit_error_cnt[         12]=                5016
cycle                10000:bit_error_cnt[         13]=                5005
cycle                10000:bit_error_cnt[         14]=                3110
cycle                10000:bit_error_cnt[         15]=                2748
cycle                10000:bit_error_cnt[         16]=                2562
cycle                10000:bit_error_cnt[         17]=                3329
cycle                10000:bit_error_cnt[         18]=                3669
cycle                10000:bit_error_cnt[         19]=                2524
cycle                10000:bit_error_cnt[         20]=                2851
cycle                10000:bit_error_cnt[         21]=                3983
cycle                10000:bit_error_cnt[         22]=                3124
cycle                10000:bit_error_cnt[         23]=                2082
cycle                10000:bit_error_cnt[         24]=                1820
cycle                10000:bit_error_cnt[         25]=                1907
cycle                10000:bit_error_cnt[         26]=                1891
cycle                10000:bit_error_cnt[         27]=                1413
cycle                10000:bit_error_cnt[         28]=                3069
cycle                10000:bit_error_cnt[         29]=                2546
cycle                10000:bit_error_cnt[         30]=                2601
cycle                10000:bit_error_cnt[         31]=                2283
cycle                10000:bit_error_cnt[         32]=                1233
cycle                10000:bit_error_cnt[         33]=                2848
cycle                10000:bit_error_cnt[         34]=                2882
cycle                10000:bit_error_cnt[         35]=                1844
cycle                10000:bit_error_cnt[         36]=                1009
cycle                10000:bit_error_cnt[         37]=                 881
cycle                10000:bit_error_cnt[         38]=                 701
cycle                10000:bit_error_cnt[         39]=                1871
cycle                10000:bit_error_cnt[         40]=                 990
cycle                10000:bit_error_cnt[         41]=                 249
cycle                10000:bit_error_cnt[         42]=                1714
cycle                10000:bit_error_cnt[         43]=                1068
cycle                10000:bit_error_cnt[         44]=                 139
cycle                10000:bit_error_cnt[         45]=                 103
cycle                10000:bit_error_cnt[         46]=                 125
cycle                10000:bit_error_cnt[         47]=                 124
cycle                10000:bit_error_cnt[         48]=                  46
cycle                10000:bit_error_cnt[         49]=                  28
cycle                10000:bit_error_cnt[         50]=                  52
cycle                10000:bit_error_cnt[         51]=                   2
cycle                10000:bit_error_cnt[         52]=                   2
cycle                10000:bit_error_cnt[         53]=                   2
cycle                10000:bit_error_cnt[         54]=                   2
cycle                10000:bit_error_cnt[         55]=                 152
cycle                10000:bit_error_cnt[         56]=                 582
cycle                10000:bit_error_cnt[         57]=                 421
cycle                10000:bit_error_cnt[         58]=                 255
cycle                10000:bit_error_cnt[         59]=                 157
cycle                10000:bit_error_cnt[         60]=                 703
cycle                10000:bit_error_cnt[         61]=                  78
