cycle                10000:bit_error_cnt[          0]=                6582
cycle                10000:bit_error_cnt[          1]=                 106
cycle                10000:bit_error_cnt[          2]=                 148
cycle                10000:bit_error_cnt[          3]=                7619
cycle                10000:bit_error_cnt[          4]=                   0
cycle                10000:bit_error_cnt[          5]=                   0
cycle                10000:bit_error_cnt[          6]=                   0
cycle                10000:bit_error_cnt[          7]=                   0
cycle                10000:bit_error_cnt[          8]=                   0
cycle                10000:bit_error_cnt[          9]=                   0
cycle                10000:bit_error_cnt[         10]=                   0
cycle                10000:bit_error_cnt[         11]=                   0
cycle                10000:bit_error_cnt[         12]=                   0
cycle                10000:bit_error_cnt[         13]=                   0
cycle                10000:bit_error_cnt[         14]=                   0
cycle                10000:bit_error_cnt[         15]=                   0
cycle                10000:bit_error_cnt[         16]=                   0
cycle                10000:bit_error_cnt[         17]=                   0
cycle                10000:bit_error_cnt[         18]=                   0
cycle                10000:bit_error_cnt[         19]=                   0
cycle                10000:bit_error_cnt[         20]=                   0
cycle                10000:bit_error_cnt[         21]=                   0
cycle                10000:bit_error_cnt[         22]=                   0
cycle                10000:bit_error_cnt[         23]=                   0
cycle                10000:bit_error_cnt[         24]=                   0
cycle                10000:bit_error_cnt[         25]=                   0
cycle                10000:bit_error_cnt[         26]=                   0
cycle                10000:bit_error_cnt[         27]=                   0
cycle                10000:bit_error_cnt[         28]=                   0
cycle                10000:bit_error_cnt[         29]=                   0
cycle                10000:bit_error_cnt[         30]=                   0
cycle                10000:bit_error_cnt[         31]=                   0
cycle                10000:bit_error_cnt[         32]=                   0
cycle                10000:bit_error_cnt[         33]=                   0
cycle                10000:bit_error_cnt[         34]=                   0
cycle                10000:bit_error_cnt[         35]=                   0
cycle                10000:bit_error_cnt[         36]=                   0
cycle                10000:bit_error_cnt[         37]=                6736
cycle                10000:bit_error_cnt[         38]=                6944
cycle                10000:bit_error_cnt[         39]=                7217
cycle                10000:bit_error_cnt[         40]=                6661
cycle                10000:bit_error_cnt[         41]=                6471
cycle                10000:bit_error_cnt[         42]=                6822
cycle                10000:bit_error_cnt[         43]=                7077
cycle                10000:bit_error_cnt[         44]=                6669
cycle                10000:bit_error_cnt[         45]=                6459
cycle                10000:bit_error_cnt[         46]=                6399
cycle                10000:bit_error_cnt[         47]=                5531
cycle                10000:bit_error_cnt[         48]=                5414
cycle                10000:bit_error_cnt[         49]=                6023
cycle                10000:bit_error_cnt[         50]=                5389
cycle                10000:bit_error_cnt[         51]=                6286
cycle                10000:bit_error_cnt[         52]=                6652
cycle                10000:bit_error_cnt[         53]=                6716
cycle                10000:bit_error_cnt[         54]=                5383
cycle                10000:bit_error_cnt[         55]=                5257
cycle                10000:bit_error_cnt[         56]=                5329
cycle                10000:bit_error_cnt[         57]=                7291
cycle                10000:bit_error_cnt[         58]=                6810
cycle                10000:bit_error_cnt[         59]=                5588
cycle                10000:bit_error_cnt[         60]=                6961
cycle                10000:bit_error_cnt[         61]=                7328
cycle                10000:bit_error_cnt[         62]=                8288
cycle                10000:bit_error_cnt[         63]=                5849
cycle                10000:bit_error_cnt[         64]=                7164
cycle                10000:bit_error_cnt[         65]=                5503
cycle                10000:bit_error_cnt[         66]=                5928
cycle                10000:bit_error_cnt[         67]=                5666
cycle                10000:bit_error_cnt[         68]=                7323
cycle                10000:bit_error_cnt[         69]=                3049
