cycle                10000:bit_error_cnt[          0]=                7736
cycle                10000:bit_error_cnt[          1]=                8339
cycle                10000:bit_error_cnt[          2]=                8050
cycle                10000:bit_error_cnt[          3]=                7596
cycle                10000:bit_error_cnt[          4]=                7410
cycle                10000:bit_error_cnt[          5]=                7084
cycle                10000:bit_error_cnt[          6]=                7011
cycle                10000:bit_error_cnt[          7]=                6690
cycle                10000:bit_error_cnt[          8]=                6629
cycle                10000:bit_error_cnt[          9]=                6241
cycle                10000:bit_error_cnt[         10]=                5821
cycle                10000:bit_error_cnt[         11]=                5740
cycle                10000:bit_error_cnt[         12]=                5813
cycle                10000:bit_error_cnt[         13]=                5790
cycle                10000:bit_error_cnt[         14]=                5842
cycle                10000:bit_error_cnt[         15]=                6022
cycle                10000:bit_error_cnt[         16]=                5782
cycle                10000:bit_error_cnt[         17]=                5562
cycle                10000:bit_error_cnt[         18]=                5623
cycle                10000:bit_error_cnt[         19]=                5628
cycle                10000:bit_error_cnt[         20]=                5619
cycle                10000:bit_error_cnt[         21]=                5610
cycle                10000:bit_error_cnt[         22]=                5294
cycle                10000:bit_error_cnt[         23]=                5230
cycle                10000:bit_error_cnt[         24]=                5103
cycle                10000:bit_error_cnt[         25]=                5100
cycle                10000:bit_error_cnt[         26]=                 525
cycle                10000:bit_error_cnt[         27]=                3910
cycle                10000:bit_error_cnt[         28]=                1890
cycle                10000:bit_error_cnt[         29]=                1644
cycle                10000:bit_error_cnt[         30]=                1404
cycle                10000:bit_error_cnt[         31]=                   5
cycle                10000:bit_error_cnt[         32]=                4179
cycle                10000:bit_error_cnt[         33]=                3253
