cycle                10000:bit_error_cnt[          0]=                   4
cycle                10000:bit_error_cnt[          1]=                   4
cycle                10000:bit_error_cnt[          2]=                   4
cycle                10000:bit_error_cnt[          3]=                7053
cycle                10000:bit_error_cnt[          4]=                   0
cycle                10000:bit_error_cnt[          5]=                   0
cycle                10000:bit_error_cnt[          6]=                   0
cycle                10000:bit_error_cnt[          7]=                   0
cycle                10000:bit_error_cnt[          8]=                   0
cycle                10000:bit_error_cnt[          9]=                   0
cycle                10000:bit_error_cnt[         10]=                   0
cycle                10000:bit_error_cnt[         11]=                   0
cycle                10000:bit_error_cnt[         12]=                   0
cycle                10000:bit_error_cnt[         13]=                   0
cycle                10000:bit_error_cnt[         14]=                   0
cycle                10000:bit_error_cnt[         15]=                   0
cycle                10000:bit_error_cnt[         16]=                   0
cycle                10000:bit_error_cnt[         17]=                   0
cycle                10000:bit_error_cnt[         18]=                   0
cycle                10000:bit_error_cnt[         19]=                   0
cycle                10000:bit_error_cnt[         20]=                   0
cycle                10000:bit_error_cnt[         21]=                   0
cycle                10000:bit_error_cnt[         22]=                   0
cycle                10000:bit_error_cnt[         23]=                   0
cycle                10000:bit_error_cnt[         24]=                   0
cycle                10000:bit_error_cnt[         25]=                   0
cycle                10000:bit_error_cnt[         26]=                   0
cycle                10000:bit_error_cnt[         27]=                   0
cycle                10000:bit_error_cnt[         28]=                   0
cycle                10000:bit_error_cnt[         29]=                   0
cycle                10000:bit_error_cnt[         30]=                   0
cycle                10000:bit_error_cnt[         31]=                   0
cycle                10000:bit_error_cnt[         32]=                   0
cycle                10000:bit_error_cnt[         33]=                   0
cycle                10000:bit_error_cnt[         34]=                   0
cycle                10000:bit_error_cnt[         35]=                   0
cycle                10000:bit_error_cnt[         36]=                   0
cycle                10000:bit_error_cnt[         37]=                7212
cycle                10000:bit_error_cnt[         38]=                7649
cycle                10000:bit_error_cnt[         39]=                7094
cycle                10000:bit_error_cnt[         40]=                7401
cycle                10000:bit_error_cnt[         41]=                7297
cycle                10000:bit_error_cnt[         42]=                7187
cycle                10000:bit_error_cnt[         43]=                6930
cycle                10000:bit_error_cnt[         44]=                6924
cycle                10000:bit_error_cnt[         45]=                6914
cycle                10000:bit_error_cnt[         46]=                6522
cycle                10000:bit_error_cnt[         47]=                5898
cycle                10000:bit_error_cnt[         48]=                5669
cycle                10000:bit_error_cnt[         49]=                5804
cycle                10000:bit_error_cnt[         50]=                5639
cycle                10000:bit_error_cnt[         51]=                5756
cycle                10000:bit_error_cnt[         52]=                5914
cycle                10000:bit_error_cnt[         53]=                5394
cycle                10000:bit_error_cnt[         54]=                5222
cycle                10000:bit_error_cnt[         55]=                5101
cycle                10000:bit_error_cnt[         56]=                4601
cycle                10000:bit_error_cnt[         57]=                4092
cycle                10000:bit_error_cnt[         58]=                4344
cycle                10000:bit_error_cnt[         59]=                4300
cycle                10000:bit_error_cnt[         60]=                3445
cycle                10000:bit_error_cnt[         61]=                1717
cycle                10000:bit_error_cnt[         62]=                 861
cycle                10000:bit_error_cnt[         63]=                 437
cycle                10000:bit_error_cnt[         64]=                1642
cycle                10000:bit_error_cnt[         65]=                1407
cycle                10000:bit_error_cnt[         66]=                 789
cycle                10000:bit_error_cnt[         67]=                1214
cycle                10000:bit_error_cnt[         68]=                1191
cycle                10000:bit_error_cnt[         69]=                 857
