cycle                10000:bit_error_cnt[          0]=                   3
cycle                10000:bit_error_cnt[          1]=                   3
cycle                10000:bit_error_cnt[          2]=                   3
cycle                10000:bit_error_cnt[          3]=                   0
cycle                10000:bit_error_cnt[          4]=                 781
cycle                10000:bit_error_cnt[          5]=                1283
cycle                10000:bit_error_cnt[          6]=                1461
cycle                10000:bit_error_cnt[          7]=                1615
cycle                10000:bit_error_cnt[          8]=                1627
cycle                10000:bit_error_cnt[          9]=                2670
cycle                10000:bit_error_cnt[         10]=                2891
cycle                10000:bit_error_cnt[         11]=                3713
cycle                10000:bit_error_cnt[         12]=                4423
cycle                10000:bit_error_cnt[         13]=                5356
cycle                10000:bit_error_cnt[         14]=                5966
cycle                10000:bit_error_cnt[         15]=                6039
cycle                10000:bit_error_cnt[         16]=                5870
cycle                10000:bit_error_cnt[         17]=                6130
cycle                10000:bit_error_cnt[         18]=                6391
cycle                10000:bit_error_cnt[         19]=                6594
cycle                10000:bit_error_cnt[         20]=                6247
cycle                10000:bit_error_cnt[         21]=                6142
cycle                10000:bit_error_cnt[         22]=                6302
cycle                10000:bit_error_cnt[         23]=                6886
cycle                10000:bit_error_cnt[         24]=                6812
cycle                10000:bit_error_cnt[         25]=                6598
cycle                10000:bit_error_cnt[         26]=                6864
cycle                10000:bit_error_cnt[         27]=                6825
cycle                10000:bit_error_cnt[         28]=                6989
cycle                10000:bit_error_cnt[         29]=                7136
cycle                10000:bit_error_cnt[         30]=                6837
cycle                10000:bit_error_cnt[         31]=                6927
cycle                10000:bit_error_cnt[         32]=                6997
cycle                10000:bit_error_cnt[         33]=                6999
cycle                10000:bit_error_cnt[         34]=                6959
cycle                10000:bit_error_cnt[         35]=                6965
cycle                10000:bit_error_cnt[         36]=                6815
cycle                10000:bit_error_cnt[         37]=                6327
cycle                10000:bit_error_cnt[         38]=                5939
cycle                10000:bit_error_cnt[         39]=                5652
cycle                10000:bit_error_cnt[         40]=                5677
cycle                10000:bit_error_cnt[         41]=                5604
cycle                10000:bit_error_cnt[         42]=                5681
cycle                10000:bit_error_cnt[         43]=                5701
cycle                10000:bit_error_cnt[         44]=                5158
cycle                10000:bit_error_cnt[         45]=                5120
cycle                10000:bit_error_cnt[         46]=                4912
cycle                10000:bit_error_cnt[         47]=                4544
cycle                10000:bit_error_cnt[         48]=                3840
cycle                10000:bit_error_cnt[         49]=                3744
cycle                10000:bit_error_cnt[         50]=                3721
cycle                10000:bit_error_cnt[         51]=                6825
cycle                10000:bit_error_cnt[         52]=                6989
cycle                10000:bit_error_cnt[         53]=                7136
cycle                10000:bit_error_cnt[         54]=                6837
cycle                10000:bit_error_cnt[         55]=                6927
cycle                10000:bit_error_cnt[         56]=                6997
cycle                10000:bit_error_cnt[         57]=                6999
cycle                10000:bit_error_cnt[         58]=                6959
cycle                10000:bit_error_cnt[         59]=                6965
cycle                10000:bit_error_cnt[         60]=                6815
cycle                10000:bit_error_cnt[         61]=                6327
cycle                10000:bit_error_cnt[         62]=                5939
cycle                10000:bit_error_cnt[         63]=                5652
cycle                10000:bit_error_cnt[         64]=                5677
cycle                10000:bit_error_cnt[         65]=                5604
cycle                10000:bit_error_cnt[         66]=                5681
cycle                10000:bit_error_cnt[         67]=                5701
cycle                10000:bit_error_cnt[         68]=                5158
cycle                10000:bit_error_cnt[         69]=                5120
cycle                10000:bit_error_cnt[         70]=                4912
cycle                10000:bit_error_cnt[         71]=                4544
cycle                10000:bit_error_cnt[         72]=                3840
cycle                10000:bit_error_cnt[         73]=                3744
cycle                10000:bit_error_cnt[         74]=                3721
cycle                10000:bit_error_cnt[         75]=                3618
cycle                10000:bit_error_cnt[         76]=                1993
cycle                10000:bit_error_cnt[         77]=                1862
cycle                10000:bit_error_cnt[         78]=                1329
cycle                10000:bit_error_cnt[         79]=                 742
cycle                10000:bit_error_cnt[         80]=                 690
cycle                10000:bit_error_cnt[         81]=                 468
cycle                10000:bit_error_cnt[         82]=                 701
cycle                10000:bit_error_cnt[         83]=                 616
cycle                10000:bit_error_cnt[         84]=                 417
