cycle                10000:bit_error_cnt[          0]=                   2
cycle                10000:bit_error_cnt[          1]=                   2
cycle                10000:bit_error_cnt[          2]=                   0
cycle                10000:bit_error_cnt[          3]=                 259
cycle                10000:bit_error_cnt[          4]=                 451
cycle                10000:bit_error_cnt[          5]=                 500
cycle                10000:bit_error_cnt[          6]=                 566
cycle                10000:bit_error_cnt[          7]=                 569
cycle                10000:bit_error_cnt[          8]=                 780
cycle                10000:bit_error_cnt[          9]=                 697
cycle                10000:bit_error_cnt[         10]=                1067
cycle                10000:bit_error_cnt[         11]=                3776
cycle                10000:bit_error_cnt[         12]=                5415
cycle                10000:bit_error_cnt[         13]=                5621
cycle                10000:bit_error_cnt[         14]=                5345
cycle                10000:bit_error_cnt[         15]=                5393
cycle                10000:bit_error_cnt[         16]=                5436
cycle                10000:bit_error_cnt[         17]=                5592
cycle                10000:bit_error_cnt[         18]=                5562
cycle                10000:bit_error_cnt[         19]=                5145
cycle                10000:bit_error_cnt[         20]=                4932
cycle                10000:bit_error_cnt[         21]=                5253
cycle                10000:bit_error_cnt[         22]=                5491
cycle                10000:bit_error_cnt[         23]=                4304
cycle                10000:bit_error_cnt[         24]=                4906
cycle                10000:bit_error_cnt[         25]=                4851
cycle                10000:bit_error_cnt[         26]=                5073
cycle                10000:bit_error_cnt[         27]=                5409
cycle                10000:bit_error_cnt[         28]=                6353
cycle                10000:bit_error_cnt[         29]=                5727
cycle                10000:bit_error_cnt[         30]=                5472
cycle                10000:bit_error_cnt[         31]=                5764
cycle                10000:bit_error_cnt[         32]=                5040
cycle                10000:bit_error_cnt[         33]=                5228
cycle                10000:bit_error_cnt[         34]=                5121
cycle                10000:bit_error_cnt[         35]=                4158
cycle                10000:bit_error_cnt[         36]=                3984
cycle                10000:bit_error_cnt[         37]=                3264
cycle                10000:bit_error_cnt[         38]=                2885
cycle                10000:bit_error_cnt[         39]=                4237
cycle                10000:bit_error_cnt[         40]=                3097
cycle                10000:bit_error_cnt[         41]=                2231
cycle                10000:bit_error_cnt[         42]=                5644
cycle                10000:bit_error_cnt[         43]=                3267
cycle                10000:bit_error_cnt[         44]=                1926
cycle                10000:bit_error_cnt[         45]=                1919
cycle                10000:bit_error_cnt[         46]=                1661
cycle                10000:bit_error_cnt[         47]=                1368
cycle                10000:bit_error_cnt[         48]=                1033
cycle                10000:bit_error_cnt[         49]=                 621
cycle                10000:bit_error_cnt[         50]=                1008
cycle                10000:bit_error_cnt[         51]=                   2
cycle                10000:bit_error_cnt[         52]=                   2
cycle                10000:bit_error_cnt[         53]=                   2
cycle                10000:bit_error_cnt[         54]=                   2
cycle                10000:bit_error_cnt[         55]=                 690
cycle                10000:bit_error_cnt[         56]=                 952
cycle                10000:bit_error_cnt[         57]=                 641
cycle                10000:bit_error_cnt[         58]=                 338
cycle                10000:bit_error_cnt[         59]=                2808
cycle                10000:bit_error_cnt[         60]=                3288
cycle                10000:bit_error_cnt[         61]=                 839
