cycle                10000:bit_error_cnt[          0]=                   1
cycle                10000:bit_error_cnt[          1]=                   1
cycle                10000:bit_error_cnt[          2]=                   1
cycle                10000:bit_error_cnt[          3]=                   1
cycle                10000:bit_error_cnt[          4]=                 713
cycle                10000:bit_error_cnt[          5]=                2434
cycle                10000:bit_error_cnt[          6]=                3062
cycle                10000:bit_error_cnt[          7]=                4758
cycle                10000:bit_error_cnt[          8]=                4664
cycle                10000:bit_error_cnt[          9]=                4549
cycle                10000:bit_error_cnt[         10]=                4943
cycle                10000:bit_error_cnt[         11]=                4855
cycle                10000:bit_error_cnt[         12]=                4921
cycle                10000:bit_error_cnt[         13]=                4730
cycle                10000:bit_error_cnt[         14]=                4854
cycle                10000:bit_error_cnt[         15]=                4818
cycle                10000:bit_error_cnt[         16]=                4570
cycle                10000:bit_error_cnt[         17]=                3272
cycle                10000:bit_error_cnt[         18]=                4493
cycle                10000:bit_error_cnt[         19]=                4319
cycle                10000:bit_error_cnt[         20]=                4241
cycle                10000:bit_error_cnt[         21]=                4468
cycle                10000:bit_error_cnt[         22]=                4353
cycle                10000:bit_error_cnt[         23]=                4585
cycle                10000:bit_error_cnt[         24]=                4782
cycle                10000:bit_error_cnt[         25]=                4649
cycle                10000:bit_error_cnt[         26]=                4914
cycle                10000:bit_error_cnt[         27]=                4597
cycle                10000:bit_error_cnt[         28]=                4755
cycle                10000:bit_error_cnt[         29]=                4744
cycle                10000:bit_error_cnt[         30]=                4705
cycle                10000:bit_error_cnt[         31]=                4827
cycle                10000:bit_error_cnt[         32]=                3623
cycle                10000:bit_error_cnt[         33]=                   1
cycle                10000:bit_error_cnt[         34]=                   1
cycle                10000:bit_error_cnt[         35]=                   1
cycle                10000:bit_error_cnt[         36]=                3035
cycle                10000:bit_error_cnt[         37]=                3075
cycle                10000:bit_error_cnt[         38]=                2936
cycle                10000:bit_error_cnt[         39]=                4522
cycle                10000:bit_error_cnt[         40]=                3519
cycle                10000:bit_error_cnt[         41]=                4321
cycle                10000:bit_error_cnt[         42]=                4507
cycle                10000:bit_error_cnt[         43]=                3741
cycle                10000:bit_error_cnt[         44]=                4960
cycle                10000:bit_error_cnt[         45]=                4971
cycle                10000:bit_error_cnt[         46]=                4951
cycle                10000:bit_error_cnt[         47]=                4910
cycle                10000:bit_error_cnt[         48]=                4995
cycle                10000:bit_error_cnt[         49]=                5033
cycle                10000:bit_error_cnt[         50]=                5011
cycle                10000:bit_error_cnt[         51]=                5037
cycle                10000:bit_error_cnt[         52]=                4969
cycle                10000:bit_error_cnt[         53]=                5060
cycle                10000:bit_error_cnt[         54]=                4989
cycle                10000:bit_error_cnt[         55]=                5069
cycle                10000:bit_error_cnt[         56]=                5027
cycle                10000:bit_error_cnt[         57]=                4928
cycle                10000:bit_error_cnt[         58]=                4958
cycle                10000:bit_error_cnt[         59]=                4977
cycle                10000:bit_error_cnt[         60]=                4994
cycle                10000:bit_error_cnt[         61]=                5037
cycle                10000:bit_error_cnt[         62]=                5100
cycle                10000:bit_error_cnt[         63]=                4982
cycle                10000:bit_error_cnt[         64]=                4981
cycle                10000:bit_error_cnt[         65]=                5038
cycle                10000:bit_error_cnt[         66]=                5057
cycle                10000:bit_error_cnt[         67]=                5055
cycle                10000:bit_error_cnt[         68]=                5059
cycle                10000:bit_error_cnt[         69]=                4863
cycle                10000:bit_error_cnt[         70]=                4776
cycle                10000:bit_error_cnt[         71]=                5110
cycle                10000:bit_error_cnt[         72]=                4790
cycle                10000:bit_error_cnt[         73]=                4370
cycle                10000:bit_error_cnt[         74]=                   1
cycle                10000:bit_error_cnt[         75]=                   1
cycle                10000:bit_error_cnt[         76]=                   1
cycle                10000:bit_error_cnt[         77]=                   1
cycle                10000:bit_error_cnt[         78]=                 622
cycle                10000:bit_error_cnt[         79]=                2739
cycle                10000:bit_error_cnt[         80]=                2577
cycle                10000:bit_error_cnt[         81]=                2159
cycle                10000:bit_error_cnt[         82]=                2159
cycle                10000:bit_error_cnt[         83]=                   0
cycle                10000:bit_error_cnt[         84]=                   1
cycle                10000:bit_error_cnt[         85]=                   0
cycle                10000:bit_error_cnt[         86]=                   0
cycle                10000:bit_error_cnt[         87]=                   0
cycle                10000:bit_error_cnt[         88]=                   0
cycle                10000:bit_error_cnt[         89]=                   0
cycle                10000:bit_error_cnt[         90]=                   0
cycle                10000:bit_error_cnt[         91]=                   0
cycle                10000:bit_error_cnt[         92]=                   0
cycle                10000:bit_error_cnt[         93]=                   0
cycle                10000:bit_error_cnt[         94]=                   0
