cycle                10000:bit_error_cnt[          0]=                  82
cycle                10000:bit_error_cnt[          1]=                 144
cycle                10000:bit_error_cnt[          2]=                2456
cycle                10000:bit_error_cnt[          3]=                4669
cycle                10000:bit_error_cnt[          4]=                4884
cycle                10000:bit_error_cnt[          5]=                5001
cycle                10000:bit_error_cnt[          6]=                5014
cycle                10000:bit_error_cnt[          7]=                5025
cycle                10000:bit_error_cnt[          8]=                5033
cycle                10000:bit_error_cnt[          9]=                5031
cycle                10000:bit_error_cnt[         10]=                4971
cycle                10000:bit_error_cnt[         11]=                4940
cycle                10000:bit_error_cnt[         12]=                4981
cycle                10000:bit_error_cnt[         13]=                5039
cycle                10000:bit_error_cnt[         14]=                5026
cycle                10000:bit_error_cnt[         15]=                5105
cycle                10000:bit_error_cnt[         16]=                4937
cycle                10000:bit_error_cnt[         17]=                4965
cycle                10000:bit_error_cnt[         18]=                5052
cycle                10000:bit_error_cnt[         19]=                5056
cycle                10000:bit_error_cnt[         20]=                4910
cycle                10000:bit_error_cnt[         21]=                5028
cycle                10000:bit_error_cnt[         22]=                4953
cycle                10000:bit_error_cnt[         23]=                4963
cycle                10000:bit_error_cnt[         24]=                5015
cycle                10000:bit_error_cnt[         25]=                4917
cycle                10000:bit_error_cnt[         26]=                4996
cycle                10000:bit_error_cnt[         27]=                5033
cycle                10000:bit_error_cnt[         28]=                5064
cycle                10000:bit_error_cnt[         29]=                4966
cycle                10000:bit_error_cnt[         30]=                4984
cycle                10000:bit_error_cnt[         31]=                4918
cycle                10000:bit_error_cnt[         32]=                4252
cycle                10000:bit_error_cnt[         33]=                2450
cycle                10000:bit_error_cnt[         34]=                5084
cycle                10000:bit_error_cnt[         35]=                4892
cycle                10000:bit_error_cnt[         36]=                4989
cycle                10000:bit_error_cnt[         37]=                5000
cycle                10000:bit_error_cnt[         38]=                4973
cycle                10000:bit_error_cnt[         39]=                4897
cycle                10000:bit_error_cnt[         40]=                4998
cycle                10000:bit_error_cnt[         41]=                4956
cycle                10000:bit_error_cnt[         42]=                4966
cycle                10000:bit_error_cnt[         43]=                4944
cycle                10000:bit_error_cnt[         44]=                4982
cycle                10000:bit_error_cnt[         45]=                5033
cycle                10000:bit_error_cnt[         46]=                4893
cycle                10000:bit_error_cnt[         47]=                5001
cycle                10000:bit_error_cnt[         48]=                4932
cycle                10000:bit_error_cnt[         49]=                5069
cycle                10000:bit_error_cnt[         50]=                4983
cycle                10000:bit_error_cnt[         51]=                5027
cycle                10000:bit_error_cnt[         52]=                4970
cycle                10000:bit_error_cnt[         53]=                4997
cycle                10000:bit_error_cnt[         54]=                5129
cycle                10000:bit_error_cnt[         55]=                5001
cycle                10000:bit_error_cnt[         56]=                5029
cycle                10000:bit_error_cnt[         57]=                4949
cycle                10000:bit_error_cnt[         58]=                4980
cycle                10000:bit_error_cnt[         59]=                5057
cycle                10000:bit_error_cnt[         60]=                5038
cycle                10000:bit_error_cnt[         61]=                4993
cycle                10000:bit_error_cnt[         62]=                4954
cycle                10000:bit_error_cnt[         63]=                4959
cycle                10000:bit_error_cnt[         64]=                5003
cycle                10000:bit_error_cnt[         65]=                4988
cycle                10000:bit_error_cnt[         66]=                5050
cycle                10000:bit_error_cnt[         67]=                4968
cycle                10000:bit_error_cnt[         68]=                5090
cycle                10000:bit_error_cnt[         69]=                5003
cycle                10000:bit_error_cnt[         70]=                5036
cycle                10000:bit_error_cnt[         71]=                5036
cycle                10000:bit_error_cnt[         72]=                4987
cycle                10000:bit_error_cnt[         73]=                4856
cycle                10000:bit_error_cnt[         74]=                5105
cycle                10000:bit_error_cnt[         75]=                5002
cycle                10000:bit_error_cnt[         76]=                4919
cycle                10000:bit_error_cnt[         77]=                4969
cycle                10000:bit_error_cnt[         78]=                5046
cycle                10000:bit_error_cnt[         79]=                5011
cycle                10000:bit_error_cnt[         80]=                4999
cycle                10000:bit_error_cnt[         81]=                5078
cycle                10000:bit_error_cnt[         82]=                5103
cycle                10000:bit_error_cnt[         83]=                   0
cycle                10000:bit_error_cnt[         84]=                1846
cycle                10000:bit_error_cnt[         85]=                   0
cycle                10000:bit_error_cnt[         86]=                   0
cycle                10000:bit_error_cnt[         87]=                   0
cycle                10000:bit_error_cnt[         88]=                   0
cycle                10000:bit_error_cnt[         89]=                   0
cycle                10000:bit_error_cnt[         90]=                   0
cycle                10000:bit_error_cnt[         91]=                   0
cycle                10000:bit_error_cnt[         92]=                   0
cycle                10000:bit_error_cnt[         93]=                   0
cycle                10000:bit_error_cnt[         94]=                   0
