cycle                10000:bit_error_cnt[          0]=                  41
cycle                10000:bit_error_cnt[          1]=                 110
cycle                10000:bit_error_cnt[          2]=                   1
cycle                10000:bit_error_cnt[          3]=                3994
cycle                10000:bit_error_cnt[          4]=                4884
cycle                10000:bit_error_cnt[          5]=                5001
cycle                10000:bit_error_cnt[          6]=                5014
cycle                10000:bit_error_cnt[          7]=                5045
cycle                10000:bit_error_cnt[          8]=                5046
cycle                10000:bit_error_cnt[          9]=                5031
cycle                10000:bit_error_cnt[         10]=                4953
cycle                10000:bit_error_cnt[         11]=                4933
cycle                10000:bit_error_cnt[         12]=                5010
cycle                10000:bit_error_cnt[         13]=                5040
cycle                10000:bit_error_cnt[         14]=                4985
cycle                10000:bit_error_cnt[         15]=                5021
cycle                10000:bit_error_cnt[         16]=                4931
cycle                10000:bit_error_cnt[         17]=                4924
cycle                10000:bit_error_cnt[         18]=                5065
cycle                10000:bit_error_cnt[         19]=                5040
cycle                10000:bit_error_cnt[         20]=                4958
cycle                10000:bit_error_cnt[         21]=                5015
cycle                10000:bit_error_cnt[         22]=                4929
cycle                10000:bit_error_cnt[         23]=                4979
cycle                10000:bit_error_cnt[         24]=                5014
cycle                10000:bit_error_cnt[         25]=                4985
cycle                10000:bit_error_cnt[         26]=                5012
cycle                10000:bit_error_cnt[         27]=                4995
cycle                10000:bit_error_cnt[         28]=                5029
cycle                10000:bit_error_cnt[         29]=                5048
cycle                10000:bit_error_cnt[         30]=                4914
cycle                10000:bit_error_cnt[         31]=                4898
cycle                10000:bit_error_cnt[         32]=                4132
cycle                10000:bit_error_cnt[         33]=                   1
cycle                10000:bit_error_cnt[         34]=                2944
cycle                10000:bit_error_cnt[         35]=                4892
cycle                10000:bit_error_cnt[         36]=                4989
cycle                10000:bit_error_cnt[         37]=                5005
cycle                10000:bit_error_cnt[         38]=                4973
cycle                10000:bit_error_cnt[         39]=                4920
cycle                10000:bit_error_cnt[         40]=                4998
cycle                10000:bit_error_cnt[         41]=                4963
cycle                10000:bit_error_cnt[         42]=                4977
cycle                10000:bit_error_cnt[         43]=                4944
cycle                10000:bit_error_cnt[         44]=                4978
cycle                10000:bit_error_cnt[         45]=                5041
cycle                10000:bit_error_cnt[         46]=                4929
cycle                10000:bit_error_cnt[         47]=                4989
cycle                10000:bit_error_cnt[         48]=                4995
cycle                10000:bit_error_cnt[         49]=                5005
cycle                10000:bit_error_cnt[         50]=                5009
cycle                10000:bit_error_cnt[         51]=                4979
cycle                10000:bit_error_cnt[         52]=                4990
cycle                10000:bit_error_cnt[         53]=                4935
cycle                10000:bit_error_cnt[         54]=                5047
cycle                10000:bit_error_cnt[         55]=                4978
cycle                10000:bit_error_cnt[         56]=                5004
cycle                10000:bit_error_cnt[         57]=                5023
cycle                10000:bit_error_cnt[         58]=                4979
cycle                10000:bit_error_cnt[         59]=                5015
cycle                10000:bit_error_cnt[         60]=                5027
cycle                10000:bit_error_cnt[         61]=                4998
cycle                10000:bit_error_cnt[         62]=                5001
cycle                10000:bit_error_cnt[         63]=                5016
cycle                10000:bit_error_cnt[         64]=                5072
cycle                10000:bit_error_cnt[         65]=                5043
cycle                10000:bit_error_cnt[         66]=                5050
cycle                10000:bit_error_cnt[         67]=                5075
cycle                10000:bit_error_cnt[         68]=                5027
cycle                10000:bit_error_cnt[         69]=                5019
cycle                10000:bit_error_cnt[         70]=                5050
cycle                10000:bit_error_cnt[         71]=                5031
cycle                10000:bit_error_cnt[         72]=                4952
cycle                10000:bit_error_cnt[         73]=                4037
cycle                10000:bit_error_cnt[         74]=                1317
cycle                10000:bit_error_cnt[         75]=                2674
cycle                10000:bit_error_cnt[         76]=                3211
cycle                10000:bit_error_cnt[         77]=                4248
cycle                10000:bit_error_cnt[         78]=                5071
cycle                10000:bit_error_cnt[         79]=                5010
cycle                10000:bit_error_cnt[         80]=                5061
cycle                10000:bit_error_cnt[         81]=                5073
cycle                10000:bit_error_cnt[         82]=                5117
cycle                10000:bit_error_cnt[         83]=                   0
cycle                10000:bit_error_cnt[         84]=                   1
cycle                10000:bit_error_cnt[         85]=                   0
cycle                10000:bit_error_cnt[         86]=                   0
cycle                10000:bit_error_cnt[         87]=                   0
cycle                10000:bit_error_cnt[         88]=                   0
cycle                10000:bit_error_cnt[         89]=                   0
cycle                10000:bit_error_cnt[         90]=                   0
cycle                10000:bit_error_cnt[         91]=                   0
cycle                10000:bit_error_cnt[         92]=                   0
cycle                10000:bit_error_cnt[         93]=                   0
cycle                10000:bit_error_cnt[         94]=                   0
