cycle                10000:bit_error_cnt[          0]=                  81
cycle                10000:bit_error_cnt[          1]=                 182
cycle                10000:bit_error_cnt[          2]=                3744
cycle                10000:bit_error_cnt[          3]=                4669
cycle                10000:bit_error_cnt[          4]=                4818
cycle                10000:bit_error_cnt[          5]=                5094
cycle                10000:bit_error_cnt[          6]=                5016
cycle                10000:bit_error_cnt[          7]=                4998
cycle                10000:bit_error_cnt[          8]=                5007
cycle                10000:bit_error_cnt[          9]=                4984
cycle                10000:bit_error_cnt[         10]=                4989
cycle                10000:bit_error_cnt[         11]=                4994
cycle                10000:bit_error_cnt[         12]=                4995
cycle                10000:bit_error_cnt[         13]=                5095
cycle                10000:bit_error_cnt[         14]=                4918
cycle                10000:bit_error_cnt[         15]=                5014
cycle                10000:bit_error_cnt[         16]=                5036
cycle                10000:bit_error_cnt[         17]=                5097
cycle                10000:bit_error_cnt[         18]=                4991
cycle                10000:bit_error_cnt[         19]=                4956
cycle                10000:bit_error_cnt[         20]=                5097
cycle                10000:bit_error_cnt[         21]=                5003
cycle                10000:bit_error_cnt[         22]=                5082
cycle                10000:bit_error_cnt[         23]=                4978
cycle                10000:bit_error_cnt[         24]=                5031
cycle                10000:bit_error_cnt[         25]=                4992
cycle                10000:bit_error_cnt[         26]=                4977
cycle                10000:bit_error_cnt[         27]=                5046
cycle                10000:bit_error_cnt[         28]=                5024
cycle                10000:bit_error_cnt[         29]=                4982
cycle                10000:bit_error_cnt[         30]=                5013
cycle                10000:bit_error_cnt[         31]=                4844
cycle                10000:bit_error_cnt[         32]=                4218
cycle                10000:bit_error_cnt[         33]=                3724
cycle                10000:bit_error_cnt[         34]=                4735
cycle                10000:bit_error_cnt[         35]=                4825
cycle                10000:bit_error_cnt[         36]=                4990
cycle                10000:bit_error_cnt[         37]=                4994
cycle                10000:bit_error_cnt[         38]=                5002
cycle                10000:bit_error_cnt[         39]=                4951
cycle                10000:bit_error_cnt[         40]=                4984
cycle                10000:bit_error_cnt[         41]=                5009
cycle                10000:bit_error_cnt[         42]=                4988
cycle                10000:bit_error_cnt[         43]=                4988
cycle                10000:bit_error_cnt[         44]=                5029
cycle                10000:bit_error_cnt[         45]=                4979
cycle                10000:bit_error_cnt[         46]=                4993
cycle                10000:bit_error_cnt[         47]=                5059
cycle                10000:bit_error_cnt[         48]=                5019
cycle                10000:bit_error_cnt[         49]=                4987
cycle                10000:bit_error_cnt[         50]=                4919
cycle                10000:bit_error_cnt[         51]=                5070
cycle                10000:bit_error_cnt[         52]=                5025
cycle                10000:bit_error_cnt[         53]=                4994
cycle                10000:bit_error_cnt[         54]=                5024
cycle                10000:bit_error_cnt[         55]=                5022
cycle                10000:bit_error_cnt[         56]=                4925
cycle                10000:bit_error_cnt[         57]=                5047
cycle                10000:bit_error_cnt[         58]=                4981
cycle                10000:bit_error_cnt[         59]=                5015
cycle                10000:bit_error_cnt[         60]=                5040
cycle                10000:bit_error_cnt[         61]=                4995
cycle                10000:bit_error_cnt[         62]=                5065
cycle                10000:bit_error_cnt[         63]=                5009
cycle                10000:bit_error_cnt[         64]=                5038
cycle                10000:bit_error_cnt[         65]=                5059
cycle                10000:bit_error_cnt[         66]=                5021
cycle                10000:bit_error_cnt[         67]=                4989
cycle                10000:bit_error_cnt[         68]=                4990
cycle                10000:bit_error_cnt[         69]=                4960
cycle                10000:bit_error_cnt[         70]=                4936
cycle                10000:bit_error_cnt[         71]=                5103
cycle                10000:bit_error_cnt[         72]=                4961
cycle                10000:bit_error_cnt[         73]=                4917
cycle                10000:bit_error_cnt[         74]=                5105
cycle                10000:bit_error_cnt[         75]=                5002
cycle                10000:bit_error_cnt[         76]=                4919
cycle                10000:bit_error_cnt[         77]=                4998
cycle                10000:bit_error_cnt[         78]=                4996
cycle                10000:bit_error_cnt[         79]=                5006
cycle                10000:bit_error_cnt[         80]=                5055
cycle                10000:bit_error_cnt[         81]=                5021
cycle                10000:bit_error_cnt[         82]=                5067
cycle                10000:bit_error_cnt[         83]=                   0
cycle                10000:bit_error_cnt[         84]=                6231
cycle                10000:bit_error_cnt[         85]=                   0
cycle                10000:bit_error_cnt[         86]=                   0
cycle                10000:bit_error_cnt[         87]=                   0
cycle                10000:bit_error_cnt[         88]=                   0
cycle                10000:bit_error_cnt[         89]=                   0
cycle                10000:bit_error_cnt[         90]=                   0
cycle                10000:bit_error_cnt[         91]=                   0
cycle                10000:bit_error_cnt[         92]=                   0
cycle                10000:bit_error_cnt[         93]=                   0
cycle                10000:bit_error_cnt[         94]=                   0
