cycle                10000:bit_error_cnt[          0]=                5000
cycle                10000:bit_error_cnt[          1]=                  64
cycle                10000:bit_error_cnt[          2]=                 150
cycle                10000:bit_error_cnt[          3]=                   0
cycle                10000:bit_error_cnt[          4]=                2416
cycle                10000:bit_error_cnt[          5]=                5249
cycle                10000:bit_error_cnt[          6]=                6290
cycle                10000:bit_error_cnt[          7]=                6956
cycle                10000:bit_error_cnt[          8]=                7502
cycle                10000:bit_error_cnt[          9]=                7435
cycle                10000:bit_error_cnt[         10]=                6772
cycle                10000:bit_error_cnt[         11]=                6488
cycle                10000:bit_error_cnt[         12]=                5864
cycle                10000:bit_error_cnt[         13]=                7228
cycle                10000:bit_error_cnt[         14]=                6988
cycle                10000:bit_error_cnt[         15]=                6309
cycle                10000:bit_error_cnt[         16]=                6187
cycle                10000:bit_error_cnt[         17]=                6193
cycle                10000:bit_error_cnt[         18]=                6521
cycle                10000:bit_error_cnt[         19]=                6156
cycle                10000:bit_error_cnt[         20]=                5975
cycle                10000:bit_error_cnt[         21]=                6807
cycle                10000:bit_error_cnt[         22]=                6302
cycle                10000:bit_error_cnt[         23]=                6320
cycle                10000:bit_error_cnt[         24]=                6703
cycle                10000:bit_error_cnt[         25]=                6354
cycle                10000:bit_error_cnt[         26]=                6543
cycle                10000:bit_error_cnt[         27]=                6643
cycle                10000:bit_error_cnt[         28]=                6717
cycle                10000:bit_error_cnt[         29]=                6943
cycle                10000:bit_error_cnt[         30]=                7243
cycle                10000:bit_error_cnt[         31]=                6660
cycle                10000:bit_error_cnt[         32]=                6405
cycle                10000:bit_error_cnt[         33]=                6670
cycle                10000:bit_error_cnt[         34]=                6855
cycle                10000:bit_error_cnt[         35]=                6669
cycle                10000:bit_error_cnt[         36]=                6451
cycle                10000:bit_error_cnt[         37]=                6398
cycle                10000:bit_error_cnt[         38]=                5529
cycle                10000:bit_error_cnt[         39]=                5468
cycle                10000:bit_error_cnt[         40]=                5743
cycle                10000:bit_error_cnt[         41]=                5345
cycle                10000:bit_error_cnt[         42]=                6126
cycle                10000:bit_error_cnt[         43]=                6652
cycle                10000:bit_error_cnt[         44]=                6332
cycle                10000:bit_error_cnt[         45]=                5381
cycle                10000:bit_error_cnt[         46]=                5256
cycle                10000:bit_error_cnt[         47]=                5254
cycle                10000:bit_error_cnt[         48]=                6985
cycle                10000:bit_error_cnt[         49]=                6809
cycle                10000:bit_error_cnt[         50]=                5588
cycle                10000:bit_error_cnt[         51]=                6643
cycle                10000:bit_error_cnt[         52]=                6717
cycle                10000:bit_error_cnt[         53]=                6943
cycle                10000:bit_error_cnt[         54]=                7243
cycle                10000:bit_error_cnt[         55]=                6660
cycle                10000:bit_error_cnt[         56]=                6405
cycle                10000:bit_error_cnt[         57]=                6670
cycle                10000:bit_error_cnt[         58]=                6855
cycle                10000:bit_error_cnt[         59]=                6669
cycle                10000:bit_error_cnt[         60]=                6451
cycle                10000:bit_error_cnt[         61]=                6398
cycle                10000:bit_error_cnt[         62]=                5529
cycle                10000:bit_error_cnt[         63]=                5468
cycle                10000:bit_error_cnt[         64]=                5743
cycle                10000:bit_error_cnt[         65]=                5345
cycle                10000:bit_error_cnt[         66]=                6126
cycle                10000:bit_error_cnt[         67]=                6652
cycle                10000:bit_error_cnt[         68]=                6332
cycle                10000:bit_error_cnt[         69]=                5381
cycle                10000:bit_error_cnt[         70]=                5256
cycle                10000:bit_error_cnt[         71]=                5254
cycle                10000:bit_error_cnt[         72]=                6985
cycle                10000:bit_error_cnt[         73]=                6809
cycle                10000:bit_error_cnt[         74]=                5588
cycle                10000:bit_error_cnt[         75]=                5742
cycle                10000:bit_error_cnt[         76]=                7376
cycle                10000:bit_error_cnt[         77]=                7199
cycle                10000:bit_error_cnt[         78]=                6441
cycle                10000:bit_error_cnt[         79]=                5499
cycle                10000:bit_error_cnt[         80]=                5413
cycle                10000:bit_error_cnt[         81]=                5838
cycle                10000:bit_error_cnt[         82]=                5725
cycle                10000:bit_error_cnt[         83]=                6398
cycle                10000:bit_error_cnt[         84]=                2384
