cycle                10000:bit_error_cnt[          0]=                   2
cycle                10000:bit_error_cnt[          1]=                   2
cycle                10000:bit_error_cnt[          2]=                 612
cycle                10000:bit_error_cnt[          3]=                4556
cycle                10000:bit_error_cnt[          4]=                5018
cycle                10000:bit_error_cnt[          5]=                5024
cycle                10000:bit_error_cnt[          6]=                5034
cycle                10000:bit_error_cnt[          7]=                5034
cycle                10000:bit_error_cnt[          8]=                4978
cycle                10000:bit_error_cnt[          9]=                5029
cycle                10000:bit_error_cnt[         10]=                5005
cycle                10000:bit_error_cnt[         11]=                5035
cycle                10000:bit_error_cnt[         12]=                5012
cycle                10000:bit_error_cnt[         13]=                5034
cycle                10000:bit_error_cnt[         14]=                4982
cycle                10000:bit_error_cnt[         15]=                5035
cycle                10000:bit_error_cnt[         16]=                5006
cycle                10000:bit_error_cnt[         17]=                5048
cycle                10000:bit_error_cnt[         18]=                5035
cycle                10000:bit_error_cnt[         19]=                4947
cycle                10000:bit_error_cnt[         20]=                5016
cycle                10000:bit_error_cnt[         21]=                5093
cycle                10000:bit_error_cnt[         22]=                4928
cycle                10000:bit_error_cnt[         23]=                4941
cycle                10000:bit_error_cnt[         24]=                4908
cycle                10000:bit_error_cnt[         25]=                5018
cycle                10000:bit_error_cnt[         26]=                5018
cycle                10000:bit_error_cnt[         27]=                5031
cycle                10000:bit_error_cnt[         28]=                4928
cycle                10000:bit_error_cnt[         29]=                4929
cycle                10000:bit_error_cnt[         30]=                4917
cycle                10000:bit_error_cnt[         31]=                4813
cycle                10000:bit_error_cnt[         32]=                4133
cycle                10000:bit_error_cnt[         33]=                 619
cycle                10000:bit_error_cnt[         34]=                4832
cycle                10000:bit_error_cnt[         35]=                4870
cycle                10000:bit_error_cnt[         36]=                4982
cycle                10000:bit_error_cnt[         37]=                4980
cycle                10000:bit_error_cnt[         38]=                5072
cycle                10000:bit_error_cnt[         39]=                4998
cycle                10000:bit_error_cnt[         40]=                5019
cycle                10000:bit_error_cnt[         41]=                5030
cycle                10000:bit_error_cnt[         42]=                5013
cycle                10000:bit_error_cnt[         43]=                4977
cycle                10000:bit_error_cnt[         44]=                5061
cycle                10000:bit_error_cnt[         45]=                4927
cycle                10000:bit_error_cnt[         46]=                5002
cycle                10000:bit_error_cnt[         47]=                5027
cycle                10000:bit_error_cnt[         48]=                4967
cycle                10000:bit_error_cnt[         49]=                5031
cycle                10000:bit_error_cnt[         50]=                5077
cycle                10000:bit_error_cnt[         51]=                5022
cycle                10000:bit_error_cnt[         52]=                4944
cycle                10000:bit_error_cnt[         53]=                5099
cycle                10000:bit_error_cnt[         54]=                4986
cycle                10000:bit_error_cnt[         55]=                5058
cycle                10000:bit_error_cnt[         56]=                5028
cycle                10000:bit_error_cnt[         57]=                4982
cycle                10000:bit_error_cnt[         58]=                5012
cycle                10000:bit_error_cnt[         59]=                4995
cycle                10000:bit_error_cnt[         60]=                4981
cycle                10000:bit_error_cnt[         61]=                5041
cycle                10000:bit_error_cnt[         62]=                5066
cycle                10000:bit_error_cnt[         63]=                4901
cycle                10000:bit_error_cnt[         64]=                4952
cycle                10000:bit_error_cnt[         65]=                4996
cycle                10000:bit_error_cnt[         66]=                5146
cycle                10000:bit_error_cnt[         67]=                5042
cycle                10000:bit_error_cnt[         68]=                5024
cycle                10000:bit_error_cnt[         69]=                4948
cycle                10000:bit_error_cnt[         70]=                4952
cycle                10000:bit_error_cnt[         71]=                5110
cycle                10000:bit_error_cnt[         72]=                4877
cycle                10000:bit_error_cnt[         73]=                3824
cycle                10000:bit_error_cnt[         74]=                1081
cycle                10000:bit_error_cnt[         75]=                4909
cycle                10000:bit_error_cnt[         76]=                4055
cycle                10000:bit_error_cnt[         77]=                2541
cycle                10000:bit_error_cnt[         78]=                2168
cycle                10000:bit_error_cnt[         79]=                2635
cycle                10000:bit_error_cnt[         80]=                3308
cycle                10000:bit_error_cnt[         81]=                3334
cycle                10000:bit_error_cnt[         82]=                2686
cycle                10000:bit_error_cnt[         83]=                   0
cycle                10000:bit_error_cnt[         84]=                 634
cycle                10000:bit_error_cnt[         85]=                   0
cycle                10000:bit_error_cnt[         86]=                   0
cycle                10000:bit_error_cnt[         87]=                   0
cycle                10000:bit_error_cnt[         88]=                   0
cycle                10000:bit_error_cnt[         89]=                   0
cycle                10000:bit_error_cnt[         90]=                   0
cycle                10000:bit_error_cnt[         91]=                   0
cycle                10000:bit_error_cnt[         92]=                   0
cycle                10000:bit_error_cnt[         93]=                   0
cycle                10000:bit_error_cnt[         94]=                   0
