cycle                10000:bit_error_cnt[          0]=                  82
cycle                10000:bit_error_cnt[          1]=                 144
cycle                10000:bit_error_cnt[          2]=                3744
cycle                10000:bit_error_cnt[          3]=                4669
cycle                10000:bit_error_cnt[          4]=                4884
cycle                10000:bit_error_cnt[          5]=                5003
cycle                10000:bit_error_cnt[          6]=                5029
cycle                10000:bit_error_cnt[          7]=                4965
cycle                10000:bit_error_cnt[          8]=                5014
cycle                10000:bit_error_cnt[          9]=                4973
cycle                10000:bit_error_cnt[         10]=                4933
cycle                10000:bit_error_cnt[         11]=                5010
cycle                10000:bit_error_cnt[         12]=                4996
cycle                10000:bit_error_cnt[         13]=                5080
cycle                10000:bit_error_cnt[         14]=                5001
cycle                10000:bit_error_cnt[         15]=                5072
cycle                10000:bit_error_cnt[         16]=                4968
cycle                10000:bit_error_cnt[         17]=                4976
cycle                10000:bit_error_cnt[         18]=                5024
cycle                10000:bit_error_cnt[         19]=                4996
cycle                10000:bit_error_cnt[         20]=                4945
cycle                10000:bit_error_cnt[         21]=                4989
cycle                10000:bit_error_cnt[         22]=                4996
cycle                10000:bit_error_cnt[         23]=                4993
cycle                10000:bit_error_cnt[         24]=                4966
cycle                10000:bit_error_cnt[         25]=                4963
cycle                10000:bit_error_cnt[         26]=                4970
cycle                10000:bit_error_cnt[         27]=                4993
cycle                10000:bit_error_cnt[         28]=                5062
cycle                10000:bit_error_cnt[         29]=                5032
cycle                10000:bit_error_cnt[         30]=                5070
cycle                10000:bit_error_cnt[         31]=                4991
cycle                10000:bit_error_cnt[         32]=                4609
cycle                10000:bit_error_cnt[         33]=                3724
cycle                10000:bit_error_cnt[         34]=                5070
cycle                10000:bit_error_cnt[         35]=                4892
cycle                10000:bit_error_cnt[         36]=                4975
cycle                10000:bit_error_cnt[         37]=                5028
cycle                10000:bit_error_cnt[         38]=                4975
cycle                10000:bit_error_cnt[         39]=                4912
cycle                10000:bit_error_cnt[         40]=                5034
cycle                10000:bit_error_cnt[         41]=                4974
cycle                10000:bit_error_cnt[         42]=                4974
cycle                10000:bit_error_cnt[         43]=                4920
cycle                10000:bit_error_cnt[         44]=                5081
cycle                10000:bit_error_cnt[         45]=                4985
cycle                10000:bit_error_cnt[         46]=                4996
cycle                10000:bit_error_cnt[         47]=                5015
cycle                10000:bit_error_cnt[         48]=                5020
cycle                10000:bit_error_cnt[         49]=                5013
cycle                10000:bit_error_cnt[         50]=                4991
cycle                10000:bit_error_cnt[         51]=                5043
cycle                10000:bit_error_cnt[         52]=                4931
cycle                10000:bit_error_cnt[         53]=                5020
cycle                10000:bit_error_cnt[         54]=                5035
cycle                10000:bit_error_cnt[         55]=                4984
cycle                10000:bit_error_cnt[         56]=                4970
cycle                10000:bit_error_cnt[         57]=                5056
cycle                10000:bit_error_cnt[         58]=                5031
cycle                10000:bit_error_cnt[         59]=                4985
cycle                10000:bit_error_cnt[         60]=                5105
cycle                10000:bit_error_cnt[         61]=                5037
cycle                10000:bit_error_cnt[         62]=                4996
cycle                10000:bit_error_cnt[         63]=                5069
cycle                10000:bit_error_cnt[         64]=                4899
cycle                10000:bit_error_cnt[         65]=                4990
cycle                10000:bit_error_cnt[         66]=                4978
cycle                10000:bit_error_cnt[         67]=                4968
cycle                10000:bit_error_cnt[         68]=                5118
cycle                10000:bit_error_cnt[         69]=                5010
cycle                10000:bit_error_cnt[         70]=                5108
cycle                10000:bit_error_cnt[         71]=                5001
cycle                10000:bit_error_cnt[         72]=                4982
cycle                10000:bit_error_cnt[         73]=                5011
cycle                10000:bit_error_cnt[         74]=                5105
cycle                10000:bit_error_cnt[         75]=                5002
cycle                10000:bit_error_cnt[         76]=                4919
cycle                10000:bit_error_cnt[         77]=                4969
cycle                10000:bit_error_cnt[         78]=                5033
cycle                10000:bit_error_cnt[         79]=                5030
cycle                10000:bit_error_cnt[         80]=                5057
cycle                10000:bit_error_cnt[         81]=                5060
cycle                10000:bit_error_cnt[         82]=                5070
cycle                10000:bit_error_cnt[         83]=                   0
cycle                10000:bit_error_cnt[         84]=                3103
cycle                10000:bit_error_cnt[         85]=                   0
cycle                10000:bit_error_cnt[         86]=                   0
cycle                10000:bit_error_cnt[         87]=                   0
cycle                10000:bit_error_cnt[         88]=                   0
cycle                10000:bit_error_cnt[         89]=                   0
cycle                10000:bit_error_cnt[         90]=                   0
cycle                10000:bit_error_cnt[         91]=                   0
cycle                10000:bit_error_cnt[         92]=                   0
cycle                10000:bit_error_cnt[         93]=                   0
cycle                10000:bit_error_cnt[         94]=                   0
