cycle                10000:bit_error_cnt[          0]=                   3
cycle                10000:bit_error_cnt[          1]=                   3
cycle                10000:bit_error_cnt[          2]=                   3
cycle                10000:bit_error_cnt[          3]=                   0
cycle                10000:bit_error_cnt[          4]=                  12
cycle                10000:bit_error_cnt[          5]=                  19
cycle                10000:bit_error_cnt[          6]=                  18
cycle                10000:bit_error_cnt[          7]=                  23
cycle                10000:bit_error_cnt[          8]=                  21
cycle                10000:bit_error_cnt[          9]=                  23
cycle                10000:bit_error_cnt[         10]=                  23
cycle                10000:bit_error_cnt[         11]=                  25
cycle                10000:bit_error_cnt[         12]=                  22
cycle                10000:bit_error_cnt[         13]=                  33
cycle                10000:bit_error_cnt[         14]=                  33
cycle                10000:bit_error_cnt[         15]=                  44
cycle                10000:bit_error_cnt[         16]=                  96
cycle                10000:bit_error_cnt[         17]=                 194
cycle                10000:bit_error_cnt[         18]=                 177
cycle                10000:bit_error_cnt[         19]=                  90
cycle                10000:bit_error_cnt[         20]=                  59
cycle                10000:bit_error_cnt[         21]=                  43
cycle                10000:bit_error_cnt[         22]=                  53
cycle                10000:bit_error_cnt[         23]=                  73
cycle                10000:bit_error_cnt[         24]=                  70
cycle                10000:bit_error_cnt[         25]=                 114
cycle                10000:bit_error_cnt[         26]=                 101
cycle                10000:bit_error_cnt[         27]=                  73
cycle                10000:bit_error_cnt[         28]=                 187
cycle                10000:bit_error_cnt[         29]=                 413
cycle                10000:bit_error_cnt[         30]=                 302
cycle                10000:bit_error_cnt[         31]=                 173
cycle                10000:bit_error_cnt[         32]=                 175
cycle                10000:bit_error_cnt[         33]=                 161
cycle                10000:bit_error_cnt[         34]=                 272
cycle                10000:bit_error_cnt[         35]=                 255
cycle                10000:bit_error_cnt[         36]=                 187
cycle                10000:bit_error_cnt[         37]=                 242
cycle                10000:bit_error_cnt[         38]=                 181
cycle                10000:bit_error_cnt[         39]=                  85
cycle                10000:bit_error_cnt[         40]=                  83
cycle                10000:bit_error_cnt[         41]=                  76
cycle                10000:bit_error_cnt[         42]=                  55
cycle                10000:bit_error_cnt[         43]=                  60
cycle                10000:bit_error_cnt[         44]=                  55
cycle                10000:bit_error_cnt[         45]=                  99
cycle                10000:bit_error_cnt[         46]=                  73
cycle                10000:bit_error_cnt[         47]=                  96
cycle                10000:bit_error_cnt[         48]=                 103
cycle                10000:bit_error_cnt[         49]=                  38
cycle                10000:bit_error_cnt[         50]=                  23
cycle                10000:bit_error_cnt[         51]=                  73
cycle                10000:bit_error_cnt[         52]=                 187
cycle                10000:bit_error_cnt[         53]=                 413
cycle                10000:bit_error_cnt[         54]=                 302
cycle                10000:bit_error_cnt[         55]=                 173
cycle                10000:bit_error_cnt[         56]=                 175
cycle                10000:bit_error_cnt[         57]=                 161
cycle                10000:bit_error_cnt[         58]=                 272
cycle                10000:bit_error_cnt[         59]=                 255
cycle                10000:bit_error_cnt[         60]=                 187
cycle                10000:bit_error_cnt[         61]=                 242
cycle                10000:bit_error_cnt[         62]=                 181
cycle                10000:bit_error_cnt[         63]=                  85
cycle                10000:bit_error_cnt[         64]=                  83
cycle                10000:bit_error_cnt[         65]=                  76
cycle                10000:bit_error_cnt[         66]=                  55
cycle                10000:bit_error_cnt[         67]=                  60
cycle                10000:bit_error_cnt[         68]=                  55
cycle                10000:bit_error_cnt[         69]=                  99
cycle                10000:bit_error_cnt[         70]=                  73
cycle                10000:bit_error_cnt[         71]=                  96
cycle                10000:bit_error_cnt[         72]=                 103
cycle                10000:bit_error_cnt[         73]=                  38
cycle                10000:bit_error_cnt[         74]=                  23
cycle                10000:bit_error_cnt[         75]=                  37
cycle                10000:bit_error_cnt[         76]=                  21
cycle                10000:bit_error_cnt[         77]=                1032
cycle                10000:bit_error_cnt[         78]=                 603
cycle                10000:bit_error_cnt[         79]=                 566
cycle                10000:bit_error_cnt[         80]=                 336
cycle                10000:bit_error_cnt[         81]=                 136
cycle                10000:bit_error_cnt[         82]=                 139
cycle                10000:bit_error_cnt[         83]=                 109
cycle                10000:bit_error_cnt[         84]=                  37
