cycle                10000:bit_error_cnt[          0]=                   2
cycle                10000:bit_error_cnt[          1]=                   2
cycle                10000:bit_error_cnt[          2]=                   0
cycle                10000:bit_error_cnt[          3]=                   2
cycle                10000:bit_error_cnt[          4]=                   2
cycle                10000:bit_error_cnt[          5]=                   2
cycle                10000:bit_error_cnt[          6]=                   2
cycle                10000:bit_error_cnt[          7]=                   2
cycle                10000:bit_error_cnt[          8]=                   2
cycle                10000:bit_error_cnt[          9]=                   2
cycle                10000:bit_error_cnt[         10]=                   2
cycle                10000:bit_error_cnt[         11]=                 794
cycle                10000:bit_error_cnt[         12]=                2795
cycle                10000:bit_error_cnt[         13]=                1864
cycle                10000:bit_error_cnt[         14]=                1103
cycle                10000:bit_error_cnt[         15]=                 739
cycle                10000:bit_error_cnt[         16]=                 760
cycle                10000:bit_error_cnt[         17]=                1366
cycle                10000:bit_error_cnt[         18]=                2429
cycle                10000:bit_error_cnt[         19]=                1629
cycle                10000:bit_error_cnt[         20]=                1361
cycle                10000:bit_error_cnt[         21]=                2306
cycle                10000:bit_error_cnt[         22]=                1842
cycle                10000:bit_error_cnt[         23]=                1292
cycle                10000:bit_error_cnt[         24]=                 961
cycle                10000:bit_error_cnt[         25]=                 346
cycle                10000:bit_error_cnt[         26]=                 284
cycle                10000:bit_error_cnt[         27]=                 326
cycle                10000:bit_error_cnt[         28]=                 969
cycle                10000:bit_error_cnt[         29]=                1549
cycle                10000:bit_error_cnt[         30]=                1630
cycle                10000:bit_error_cnt[         31]=                 923
cycle                10000:bit_error_cnt[         32]=                 666
cycle                10000:bit_error_cnt[         33]=                1609
cycle                10000:bit_error_cnt[         34]=                1603
cycle                10000:bit_error_cnt[         35]=                 871
cycle                10000:bit_error_cnt[         36]=                 723
cycle                10000:bit_error_cnt[         37]=                 342
cycle                10000:bit_error_cnt[         38]=                 170
cycle                10000:bit_error_cnt[         39]=                 134
cycle                10000:bit_error_cnt[         40]=                  82
cycle                10000:bit_error_cnt[         41]=                  71
cycle                10000:bit_error_cnt[         42]=                  49
cycle                10000:bit_error_cnt[         43]=                  23
cycle                10000:bit_error_cnt[         44]=                  10
cycle                10000:bit_error_cnt[         45]=                   6
cycle                10000:bit_error_cnt[         46]=                   4
cycle                10000:bit_error_cnt[         47]=                   2
cycle                10000:bit_error_cnt[         48]=                   2
cycle                10000:bit_error_cnt[         49]=                   2
cycle                10000:bit_error_cnt[         50]=                   2
cycle                10000:bit_error_cnt[         51]=                   2
cycle                10000:bit_error_cnt[         52]=                   2
cycle                10000:bit_error_cnt[         53]=                   2
cycle                10000:bit_error_cnt[         54]=                   2
cycle                10000:bit_error_cnt[         55]=                   2
cycle                10000:bit_error_cnt[         56]=                 215
cycle                10000:bit_error_cnt[         57]=                 240
cycle                10000:bit_error_cnt[         58]=                 183
cycle                10000:bit_error_cnt[         59]=                 105
cycle                10000:bit_error_cnt[         60]=                  91
cycle                10000:bit_error_cnt[         61]=                  31
