cycle                10000:bit_error_cnt[          0]=                2807
cycle                10000:bit_error_cnt[          1]=                5125
cycle                10000:bit_error_cnt[          2]=                4206
cycle                10000:bit_error_cnt[          3]=                5849
cycle                10000:bit_error_cnt[          4]=                4323
cycle                10000:bit_error_cnt[          5]=                2528
cycle                10000:bit_error_cnt[          6]=                4307
cycle                10000:bit_error_cnt[          7]=                5637
cycle                10000:bit_error_cnt[          8]=                2055
cycle                10000:bit_error_cnt[          9]=                5713
cycle                10000:bit_error_cnt[         10]=                3553
cycle                10000:bit_error_cnt[         11]=                3413
cycle                10000:bit_error_cnt[         12]=                1212
cycle                10000:bit_error_cnt[         13]=                5280
cycle                10000:bit_error_cnt[         14]=                1202
cycle                10000:bit_error_cnt[         15]=                5336
cycle                10000:bit_error_cnt[         16]=                3100
cycle                10000:bit_error_cnt[         17]=                5190
cycle                10000:bit_error_cnt[         18]=                3047
cycle                10000:bit_error_cnt[         19]=                3073
cycle                10000:bit_error_cnt[         20]=                2950
cycle                10000:bit_error_cnt[         21]=                5086
cycle                10000:bit_error_cnt[         22]=                 175
cycle                10000:bit_error_cnt[         23]=                5042
cycle                10000:bit_error_cnt[         24]=                 229
cycle                10000:bit_error_cnt[         25]=                2592
cycle                10000:bit_error_cnt[         26]=                  69
cycle                10000:bit_error_cnt[         27]=                  40
cycle                10000:bit_error_cnt[         28]=                  78
cycle                10000:bit_error_cnt[         29]=                  76
cycle                10000:bit_error_cnt[         30]=                 268
cycle                10000:bit_error_cnt[         31]=                   5
cycle                10000:bit_error_cnt[         32]=                3142
cycle                10000:bit_error_cnt[         33]=                 255
