cycle                10000:bit_error_cnt[          0]=                  63
cycle                10000:bit_error_cnt[          1]=                 182
cycle                10000:bit_error_cnt[          2]=                3744
cycle                10000:bit_error_cnt[          3]=                4669
cycle                10000:bit_error_cnt[          4]=                4960
cycle                10000:bit_error_cnt[          5]=                5091
cycle                10000:bit_error_cnt[          6]=                5006
cycle                10000:bit_error_cnt[          7]=                4970
cycle                10000:bit_error_cnt[          8]=                5053
cycle                10000:bit_error_cnt[          9]=                4977
cycle                10000:bit_error_cnt[         10]=                5055
cycle                10000:bit_error_cnt[         11]=                4992
cycle                10000:bit_error_cnt[         12]=                5043
cycle                10000:bit_error_cnt[         13]=                5160
cycle                10000:bit_error_cnt[         14]=                4913
cycle                10000:bit_error_cnt[         15]=                5023
cycle                10000:bit_error_cnt[         16]=                4965
cycle                10000:bit_error_cnt[         17]=                5082
cycle                10000:bit_error_cnt[         18]=                4998
cycle                10000:bit_error_cnt[         19]=                4878
cycle                10000:bit_error_cnt[         20]=                5087
cycle                10000:bit_error_cnt[         21]=                4947
cycle                10000:bit_error_cnt[         22]=                4977
cycle                10000:bit_error_cnt[         23]=                5055
cycle                10000:bit_error_cnt[         24]=                5035
cycle                10000:bit_error_cnt[         25]=                5003
cycle                10000:bit_error_cnt[         26]=                4934
cycle                10000:bit_error_cnt[         27]=                5002
cycle                10000:bit_error_cnt[         28]=                5016
cycle                10000:bit_error_cnt[         29]=                4982
cycle                10000:bit_error_cnt[         30]=                4953
cycle                10000:bit_error_cnt[         31]=                4863
cycle                10000:bit_error_cnt[         32]=                4386
cycle                10000:bit_error_cnt[         33]=                3724
cycle                10000:bit_error_cnt[         34]=                4735
cycle                10000:bit_error_cnt[         35]=                4845
cycle                10000:bit_error_cnt[         36]=                5028
cycle                10000:bit_error_cnt[         37]=                4984
cycle                10000:bit_error_cnt[         38]=                4969
cycle                10000:bit_error_cnt[         39]=                4925
cycle                10000:bit_error_cnt[         40]=                4960
cycle                10000:bit_error_cnt[         41]=                4969
cycle                10000:bit_error_cnt[         42]=                4991
cycle                10000:bit_error_cnt[         43]=                4959
cycle                10000:bit_error_cnt[         44]=                5030
cycle                10000:bit_error_cnt[         45]=                5052
cycle                10000:bit_error_cnt[         46]=                4974
cycle                10000:bit_error_cnt[         47]=                5055
cycle                10000:bit_error_cnt[         48]=                5031
cycle                10000:bit_error_cnt[         49]=                5030
cycle                10000:bit_error_cnt[         50]=                5096
cycle                10000:bit_error_cnt[         51]=                5072
cycle                10000:bit_error_cnt[         52]=                5035
cycle                10000:bit_error_cnt[         53]=                5061
cycle                10000:bit_error_cnt[         54]=                5048
cycle                10000:bit_error_cnt[         55]=                5013
cycle                10000:bit_error_cnt[         56]=                5024
cycle                10000:bit_error_cnt[         57]=                5008
cycle                10000:bit_error_cnt[         58]=                5037
cycle                10000:bit_error_cnt[         59]=                5071
cycle                10000:bit_error_cnt[         60]=                4884
cycle                10000:bit_error_cnt[         61]=                4958
cycle                10000:bit_error_cnt[         62]=                5134
cycle                10000:bit_error_cnt[         63]=                5058
cycle                10000:bit_error_cnt[         64]=                4964
cycle                10000:bit_error_cnt[         65]=                5091
cycle                10000:bit_error_cnt[         66]=                4961
cycle                10000:bit_error_cnt[         67]=                4954
cycle                10000:bit_error_cnt[         68]=                4963
cycle                10000:bit_error_cnt[         69]=                4958
cycle                10000:bit_error_cnt[         70]=                4925
cycle                10000:bit_error_cnt[         71]=                5036
cycle                10000:bit_error_cnt[         72]=                5052
cycle                10000:bit_error_cnt[         73]=                5042
cycle                10000:bit_error_cnt[         74]=                5105
cycle                10000:bit_error_cnt[         75]=                5002
cycle                10000:bit_error_cnt[         76]=                4930
cycle                10000:bit_error_cnt[         77]=                4982
cycle                10000:bit_error_cnt[         78]=                4952
cycle                10000:bit_error_cnt[         79]=                4995
cycle                10000:bit_error_cnt[         80]=                5057
cycle                10000:bit_error_cnt[         81]=                5033
cycle                10000:bit_error_cnt[         82]=                5023
cycle                10000:bit_error_cnt[         83]=                   0
cycle                10000:bit_error_cnt[         84]=                6226
cycle                10000:bit_error_cnt[         85]=                   0
cycle                10000:bit_error_cnt[         86]=                   0
cycle                10000:bit_error_cnt[         87]=                   0
cycle                10000:bit_error_cnt[         88]=                   0
cycle                10000:bit_error_cnt[         89]=                   0
cycle                10000:bit_error_cnt[         90]=                   0
cycle                10000:bit_error_cnt[         91]=                   0
cycle                10000:bit_error_cnt[         92]=                   0
cycle                10000:bit_error_cnt[         93]=                   0
cycle                10000:bit_error_cnt[         94]=                   0
