cycle                10000:bit_error_cnt[          0]=                4346
cycle                10000:bit_error_cnt[          1]=                  45
cycle                10000:bit_error_cnt[          2]=                  79
cycle                10000:bit_error_cnt[          3]=                6491
cycle                10000:bit_error_cnt[          4]=                   0
cycle                10000:bit_error_cnt[          5]=                   0
cycle                10000:bit_error_cnt[          6]=                   0
cycle                10000:bit_error_cnt[          7]=                   0
cycle                10000:bit_error_cnt[          8]=                   0
cycle                10000:bit_error_cnt[          9]=                   0
cycle                10000:bit_error_cnt[         10]=                   0
cycle                10000:bit_error_cnt[         11]=                   0
cycle                10000:bit_error_cnt[         12]=                   0
cycle                10000:bit_error_cnt[         13]=                   0
cycle                10000:bit_error_cnt[         14]=                   0
cycle                10000:bit_error_cnt[         15]=                   0
cycle                10000:bit_error_cnt[         16]=                   0
cycle                10000:bit_error_cnt[         17]=                   0
cycle                10000:bit_error_cnt[         18]=                   0
cycle                10000:bit_error_cnt[         19]=                   0
cycle                10000:bit_error_cnt[         20]=                   0
cycle                10000:bit_error_cnt[         21]=                   0
cycle                10000:bit_error_cnt[         22]=                   0
cycle                10000:bit_error_cnt[         23]=                   0
cycle                10000:bit_error_cnt[         24]=                   0
cycle                10000:bit_error_cnt[         25]=                   0
cycle                10000:bit_error_cnt[         26]=                   0
cycle                10000:bit_error_cnt[         27]=                   0
cycle                10000:bit_error_cnt[         28]=                   0
cycle                10000:bit_error_cnt[         29]=                   0
cycle                10000:bit_error_cnt[         30]=                   0
cycle                10000:bit_error_cnt[         31]=                   0
cycle                10000:bit_error_cnt[         32]=                   0
cycle                10000:bit_error_cnt[         33]=                   0
cycle                10000:bit_error_cnt[         34]=                   0
cycle                10000:bit_error_cnt[         35]=                   0
cycle                10000:bit_error_cnt[         36]=                   0
cycle                10000:bit_error_cnt[         37]=                6586
cycle                10000:bit_error_cnt[         38]=                6715
cycle                10000:bit_error_cnt[         39]=                6366
cycle                10000:bit_error_cnt[         40]=                6466
cycle                10000:bit_error_cnt[         41]=                6852
cycle                10000:bit_error_cnt[         42]=                6267
cycle                10000:bit_error_cnt[         43]=                5672
cycle                10000:bit_error_cnt[         44]=                5694
cycle                10000:bit_error_cnt[         45]=                5447
cycle                10000:bit_error_cnt[         46]=                5903
cycle                10000:bit_error_cnt[         47]=                5420
cycle                10000:bit_error_cnt[         48]=                5279
cycle                10000:bit_error_cnt[         49]=                5805
cycle                10000:bit_error_cnt[         50]=                5255
cycle                10000:bit_error_cnt[         51]=                5365
cycle                10000:bit_error_cnt[         52]=                6982
cycle                10000:bit_error_cnt[         53]=                5853
cycle                10000:bit_error_cnt[         54]=                5270
cycle                10000:bit_error_cnt[         55]=                5264
cycle                10000:bit_error_cnt[         56]=                5216
cycle                10000:bit_error_cnt[         57]=                5331
cycle                10000:bit_error_cnt[         58]=                5424
cycle                10000:bit_error_cnt[         59]=                5031
cycle                10000:bit_error_cnt[         60]=                5198
cycle                10000:bit_error_cnt[         61]=                4277
cycle                10000:bit_error_cnt[         62]=                3357
cycle                10000:bit_error_cnt[         63]=                3391
cycle                10000:bit_error_cnt[         64]=                4689
cycle                10000:bit_error_cnt[         65]=                4772
cycle                10000:bit_error_cnt[         66]=                5030
cycle                10000:bit_error_cnt[         67]=                5640
cycle                10000:bit_error_cnt[         68]=                6308
cycle                10000:bit_error_cnt[         69]=                3959
