cycle                10000:bit_error_cnt[          0]=                  85
cycle                10000:bit_error_cnt[          1]=                 180
cycle                10000:bit_error_cnt[          2]=                   0
cycle                10000:bit_error_cnt[          3]=                2569
cycle                10000:bit_error_cnt[          4]=                4974
cycle                10000:bit_error_cnt[          5]=                5212
cycle                10000:bit_error_cnt[          6]=                5208
cycle                10000:bit_error_cnt[          7]=                5309
cycle                10000:bit_error_cnt[          8]=                5365
cycle                10000:bit_error_cnt[          9]=                5693
cycle                10000:bit_error_cnt[         10]=                5596
cycle                10000:bit_error_cnt[         11]=                5965
cycle                10000:bit_error_cnt[         12]=                6233
cycle                10000:bit_error_cnt[         13]=                6628
cycle                10000:bit_error_cnt[         14]=                6906
cycle                10000:bit_error_cnt[         15]=                7059
cycle                10000:bit_error_cnt[         16]=                6953
cycle                10000:bit_error_cnt[         17]=                6973
cycle                10000:bit_error_cnt[         18]=                6870
cycle                10000:bit_error_cnt[         19]=                6807
cycle                10000:bit_error_cnt[         20]=                6980
cycle                10000:bit_error_cnt[         21]=                7145
cycle                10000:bit_error_cnt[         22]=                7095
cycle                10000:bit_error_cnt[         23]=                6938
cycle                10000:bit_error_cnt[         24]=                6922
cycle                10000:bit_error_cnt[         25]=                6991
cycle                10000:bit_error_cnt[         26]=                6901
cycle                10000:bit_error_cnt[         27]=                7098
cycle                10000:bit_error_cnt[         28]=                7310
cycle                10000:bit_error_cnt[         29]=                6975
cycle                10000:bit_error_cnt[         30]=                6973
cycle                10000:bit_error_cnt[         31]=                7171
cycle                10000:bit_error_cnt[         32]=                6991
cycle                10000:bit_error_cnt[         33]=                6832
cycle                10000:bit_error_cnt[         34]=                6735
cycle                10000:bit_error_cnt[         35]=                6792
cycle                10000:bit_error_cnt[         36]=                6343
cycle                10000:bit_error_cnt[         37]=                5848
cycle                10000:bit_error_cnt[         38]=                5706
cycle                10000:bit_error_cnt[         39]=                5970
cycle                10000:bit_error_cnt[         40]=                5821
cycle                10000:bit_error_cnt[         41]=                5818
cycle                10000:bit_error_cnt[         42]=                6108
cycle                10000:bit_error_cnt[         43]=                5914
cycle                10000:bit_error_cnt[         44]=                5683
cycle                10000:bit_error_cnt[         45]=                5648
cycle                10000:bit_error_cnt[         46]=                5590
cycle                10000:bit_error_cnt[         47]=                5487
cycle                10000:bit_error_cnt[         48]=                5559
cycle                10000:bit_error_cnt[         49]=                5619
cycle                10000:bit_error_cnt[         50]=                5330
cycle                10000:bit_error_cnt[         51]=                6244
cycle                10000:bit_error_cnt[         52]=                5058
cycle                10000:bit_error_cnt[         53]=                5784
cycle                10000:bit_error_cnt[         54]=                5818
cycle                10000:bit_error_cnt[         55]=                5616
cycle                10000:bit_error_cnt[         56]=                5069
cycle                10000:bit_error_cnt[         57]=                5074
cycle                10000:bit_error_cnt[         58]=                5249
cycle                10000:bit_error_cnt[         59]=                5058
cycle                10000:bit_error_cnt[         60]=                3657
cycle                10000:bit_error_cnt[         61]=                2411
