cycle                10000:bit_error_cnt[          0]=                 106
cycle                10000:bit_error_cnt[          1]=                 180
cycle                10000:bit_error_cnt[          2]=                   0
cycle                10000:bit_error_cnt[          3]=                2457
cycle                10000:bit_error_cnt[          4]=                4542
cycle                10000:bit_error_cnt[          5]=                5183
cycle                10000:bit_error_cnt[          6]=                5281
cycle                10000:bit_error_cnt[          7]=                5453
cycle                10000:bit_error_cnt[          8]=                5541
cycle                10000:bit_error_cnt[          9]=                5766
cycle                10000:bit_error_cnt[         10]=                5608
cycle                10000:bit_error_cnt[         11]=                6225
cycle                10000:bit_error_cnt[         12]=                6645
cycle                10000:bit_error_cnt[         13]=                6620
cycle                10000:bit_error_cnt[         14]=                6816
cycle                10000:bit_error_cnt[         15]=                7199
cycle                10000:bit_error_cnt[         16]=                7194
cycle                10000:bit_error_cnt[         17]=                7115
cycle                10000:bit_error_cnt[         18]=                6947
cycle                10000:bit_error_cnt[         19]=                7144
cycle                10000:bit_error_cnt[         20]=                7423
cycle                10000:bit_error_cnt[         21]=                7454
cycle                10000:bit_error_cnt[         22]=                7329
cycle                10000:bit_error_cnt[         23]=                7298
cycle                10000:bit_error_cnt[         24]=                7134
cycle                10000:bit_error_cnt[         25]=                7001
cycle                10000:bit_error_cnt[         26]=                6966
cycle                10000:bit_error_cnt[         27]=                7211
cycle                10000:bit_error_cnt[         28]=                7370
cycle                10000:bit_error_cnt[         29]=                7112
cycle                10000:bit_error_cnt[         30]=                7227
cycle                10000:bit_error_cnt[         31]=                7136
cycle                10000:bit_error_cnt[         32]=                7067
cycle                10000:bit_error_cnt[         33]=                6773
cycle                10000:bit_error_cnt[         34]=                6598
cycle                10000:bit_error_cnt[         35]=                6690
cycle                10000:bit_error_cnt[         36]=                6334
cycle                10000:bit_error_cnt[         37]=                5827
cycle                10000:bit_error_cnt[         38]=                5691
cycle                10000:bit_error_cnt[         39]=                5917
cycle                10000:bit_error_cnt[         40]=                5847
cycle                10000:bit_error_cnt[         41]=                5867
cycle                10000:bit_error_cnt[         42]=                6310
cycle                10000:bit_error_cnt[         43]=                5882
cycle                10000:bit_error_cnt[         44]=                5756
cycle                10000:bit_error_cnt[         45]=                5704
cycle                10000:bit_error_cnt[         46]=                5630
cycle                10000:bit_error_cnt[         47]=                5720
cycle                10000:bit_error_cnt[         48]=                5668
cycle                10000:bit_error_cnt[         49]=                5529
cycle                10000:bit_error_cnt[         50]=                5399
cycle                10000:bit_error_cnt[         51]=                6231
cycle                10000:bit_error_cnt[         52]=                5657
cycle                10000:bit_error_cnt[         53]=                6185
cycle                10000:bit_error_cnt[         54]=                6106
cycle                10000:bit_error_cnt[         55]=                5624
cycle                10000:bit_error_cnt[         56]=                5268
cycle                10000:bit_error_cnt[         57]=                5167
cycle                10000:bit_error_cnt[         58]=                5283
cycle                10000:bit_error_cnt[         59]=                5060
cycle                10000:bit_error_cnt[         60]=                4934
cycle                10000:bit_error_cnt[         61]=                2568
