cycle                10000:bit_error_cnt[          0]=                7759
cycle                10000:bit_error_cnt[          1]=                8468
cycle                10000:bit_error_cnt[          2]=                7688
cycle                10000:bit_error_cnt[          3]=                7762
cycle                10000:bit_error_cnt[          4]=                7568
cycle                10000:bit_error_cnt[          5]=                7413
cycle                10000:bit_error_cnt[          6]=                7291
cycle                10000:bit_error_cnt[          7]=                7237
cycle                10000:bit_error_cnt[          8]=                6954
cycle                10000:bit_error_cnt[          9]=                6513
cycle                10000:bit_error_cnt[         10]=                6096
cycle                10000:bit_error_cnt[         11]=                5975
cycle                10000:bit_error_cnt[         12]=                6105
cycle                10000:bit_error_cnt[         13]=                5980
cycle                10000:bit_error_cnt[         14]=                6034
cycle                10000:bit_error_cnt[         15]=                6181
cycle                10000:bit_error_cnt[         16]=                5947
cycle                10000:bit_error_cnt[         17]=                5699
cycle                10000:bit_error_cnt[         18]=                5701
cycle                10000:bit_error_cnt[         19]=                5672
cycle                10000:bit_error_cnt[         20]=                5648
cycle                10000:bit_error_cnt[         21]=                5640
cycle                10000:bit_error_cnt[         22]=                3688
cycle                10000:bit_error_cnt[         23]=                5277
cycle                10000:bit_error_cnt[         24]=                5097
cycle                10000:bit_error_cnt[         25]=                5126
cycle                10000:bit_error_cnt[         26]=                 362
cycle                10000:bit_error_cnt[         27]=                 541
cycle                10000:bit_error_cnt[         28]=                 605
cycle                10000:bit_error_cnt[         29]=                 435
cycle                10000:bit_error_cnt[         30]=                 814
cycle                10000:bit_error_cnt[         31]=                   5
cycle                10000:bit_error_cnt[         32]=                3461
cycle                10000:bit_error_cnt[         33]=                3100
