cycle                10000:bit_error_cnt[          0]=                   4
cycle                10000:bit_error_cnt[          1]=                   4
cycle                10000:bit_error_cnt[          2]=                   4
cycle                10000:bit_error_cnt[          3]=                  14
cycle                10000:bit_error_cnt[          4]=                   0
cycle                10000:bit_error_cnt[          5]=                   0
cycle                10000:bit_error_cnt[          6]=                   0
cycle                10000:bit_error_cnt[          7]=                   0
cycle                10000:bit_error_cnt[          8]=                   0
cycle                10000:bit_error_cnt[          9]=                   0
cycle                10000:bit_error_cnt[         10]=                   0
cycle                10000:bit_error_cnt[         11]=                   0
cycle                10000:bit_error_cnt[         12]=                   0
cycle                10000:bit_error_cnt[         13]=                   0
cycle                10000:bit_error_cnt[         14]=                   0
cycle                10000:bit_error_cnt[         15]=                   0
cycle                10000:bit_error_cnt[         16]=                   0
cycle                10000:bit_error_cnt[         17]=                   0
cycle                10000:bit_error_cnt[         18]=                   0
cycle                10000:bit_error_cnt[         19]=                   0
cycle                10000:bit_error_cnt[         20]=                   0
cycle                10000:bit_error_cnt[         21]=                   0
cycle                10000:bit_error_cnt[         22]=                   0
cycle                10000:bit_error_cnt[         23]=                   0
cycle                10000:bit_error_cnt[         24]=                   0
cycle                10000:bit_error_cnt[         25]=                   0
cycle                10000:bit_error_cnt[         26]=                   0
cycle                10000:bit_error_cnt[         27]=                   0
cycle                10000:bit_error_cnt[         28]=                   0
cycle                10000:bit_error_cnt[         29]=                   0
cycle                10000:bit_error_cnt[         30]=                   0
cycle                10000:bit_error_cnt[         31]=                   0
cycle                10000:bit_error_cnt[         32]=                   0
cycle                10000:bit_error_cnt[         33]=                   0
cycle                10000:bit_error_cnt[         34]=                   0
cycle                10000:bit_error_cnt[         35]=                   0
cycle                10000:bit_error_cnt[         36]=                   0
cycle                10000:bit_error_cnt[         37]=                  17
cycle                10000:bit_error_cnt[         38]=                  55
cycle                10000:bit_error_cnt[         39]=                  38
cycle                10000:bit_error_cnt[         40]=                  19
cycle                10000:bit_error_cnt[         41]=                  16
cycle                10000:bit_error_cnt[         42]=                  33
cycle                10000:bit_error_cnt[         43]=                  20
cycle                10000:bit_error_cnt[         44]=                  25
cycle                10000:bit_error_cnt[         45]=                  39
cycle                10000:bit_error_cnt[         46]=                  24
cycle                10000:bit_error_cnt[         47]=                  18
cycle                10000:bit_error_cnt[         48]=                  15
cycle                10000:bit_error_cnt[         49]=                  13
cycle                10000:bit_error_cnt[         50]=                  15
cycle                10000:bit_error_cnt[         51]=                  17
cycle                10000:bit_error_cnt[         52]=                  14
cycle                10000:bit_error_cnt[         53]=                  20
cycle                10000:bit_error_cnt[         54]=                  18
cycle                10000:bit_error_cnt[         55]=                  12
cycle                10000:bit_error_cnt[         56]=                  11
cycle                10000:bit_error_cnt[         57]=                  27
cycle                10000:bit_error_cnt[         58]=                  16
cycle                10000:bit_error_cnt[         59]=                   7
cycle                10000:bit_error_cnt[         60]=                  15
cycle                10000:bit_error_cnt[         61]=                  12
cycle                10000:bit_error_cnt[         62]=                   9
cycle                10000:bit_error_cnt[         63]=                   6
cycle                10000:bit_error_cnt[         64]=                   6
cycle                10000:bit_error_cnt[         65]=                   6
cycle                10000:bit_error_cnt[         66]=                   6
cycle                10000:bit_error_cnt[         67]=                  49
cycle                10000:bit_error_cnt[         68]=                  67
cycle                10000:bit_error_cnt[         69]=                  36
