cycle                10000:bit_error_cnt[          0]=                   2
cycle                10000:bit_error_cnt[          1]=                   1
cycle                10000:bit_error_cnt[          2]=                   1
cycle                10000:bit_error_cnt[          3]=                   1
cycle                10000:bit_error_cnt[          4]=                3834
cycle                10000:bit_error_cnt[          5]=                4616
cycle                10000:bit_error_cnt[          6]=                5010
cycle                10000:bit_error_cnt[          7]=                5044
cycle                10000:bit_error_cnt[          8]=                5042
cycle                10000:bit_error_cnt[          9]=                5041
cycle                10000:bit_error_cnt[         10]=                4958
cycle                10000:bit_error_cnt[         11]=                4932
cycle                10000:bit_error_cnt[         12]=                5002
cycle                10000:bit_error_cnt[         13]=                5035
cycle                10000:bit_error_cnt[         14]=                4985
cycle                10000:bit_error_cnt[         15]=                5029
cycle                10000:bit_error_cnt[         16]=                4936
cycle                10000:bit_error_cnt[         17]=                4889
cycle                10000:bit_error_cnt[         18]=                5064
cycle                10000:bit_error_cnt[         19]=                5055
cycle                10000:bit_error_cnt[         20]=                5024
cycle                10000:bit_error_cnt[         21]=                5014
cycle                10000:bit_error_cnt[         22]=                4923
cycle                10000:bit_error_cnt[         23]=                5020
cycle                10000:bit_error_cnt[         24]=                4996
cycle                10000:bit_error_cnt[         25]=                5001
cycle                10000:bit_error_cnt[         26]=                5017
cycle                10000:bit_error_cnt[         27]=                5018
cycle                10000:bit_error_cnt[         28]=                5037
cycle                10000:bit_error_cnt[         29]=                5062
cycle                10000:bit_error_cnt[         30]=                4903
cycle                10000:bit_error_cnt[         31]=                4898
cycle                10000:bit_error_cnt[         32]=                4134
cycle                10000:bit_error_cnt[         33]=                   1
cycle                10000:bit_error_cnt[         34]=                   1
cycle                10000:bit_error_cnt[         35]=                1916
cycle                10000:bit_error_cnt[         36]=                4237
cycle                10000:bit_error_cnt[         37]=                4858
cycle                10000:bit_error_cnt[         38]=                4882
cycle                10000:bit_error_cnt[         39]=                4920
cycle                10000:bit_error_cnt[         40]=                4936
cycle                10000:bit_error_cnt[         41]=                4957
cycle                10000:bit_error_cnt[         42]=                4965
cycle                10000:bit_error_cnt[         43]=                4992
cycle                10000:bit_error_cnt[         44]=                4985
cycle                10000:bit_error_cnt[         45]=                4986
cycle                10000:bit_error_cnt[         46]=                4928
cycle                10000:bit_error_cnt[         47]=                4983
cycle                10000:bit_error_cnt[         48]=                4997
cycle                10000:bit_error_cnt[         49]=                5005
cycle                10000:bit_error_cnt[         50]=                5009
cycle                10000:bit_error_cnt[         51]=                4979
cycle                10000:bit_error_cnt[         52]=                4990
cycle                10000:bit_error_cnt[         53]=                4947
cycle                10000:bit_error_cnt[         54]=                5044
cycle                10000:bit_error_cnt[         55]=                4985
cycle                10000:bit_error_cnt[         56]=                4984
cycle                10000:bit_error_cnt[         57]=                5023
cycle                10000:bit_error_cnt[         58]=                4980
cycle                10000:bit_error_cnt[         59]=                5021
cycle                10000:bit_error_cnt[         60]=                5027
cycle                10000:bit_error_cnt[         61]=                5026
cycle                10000:bit_error_cnt[         62]=                5001
cycle                10000:bit_error_cnt[         63]=                5019
cycle                10000:bit_error_cnt[         64]=                5054
cycle                10000:bit_error_cnt[         65]=                5032
cycle                10000:bit_error_cnt[         66]=                5050
cycle                10000:bit_error_cnt[         67]=                5051
cycle                10000:bit_error_cnt[         68]=                5027
cycle                10000:bit_error_cnt[         69]=                5010
cycle                10000:bit_error_cnt[         70]=                5053
cycle                10000:bit_error_cnt[         71]=                5031
cycle                10000:bit_error_cnt[         72]=                4952
cycle                10000:bit_error_cnt[         73]=                4113
cycle                10000:bit_error_cnt[         74]=                   1
cycle                10000:bit_error_cnt[         75]=                   1
cycle                10000:bit_error_cnt[         76]=                   1
cycle                10000:bit_error_cnt[         77]=                1220
cycle                10000:bit_error_cnt[         78]=                3861
cycle                10000:bit_error_cnt[         79]=                4274
cycle                10000:bit_error_cnt[         80]=                4127
cycle                10000:bit_error_cnt[         81]=                3667
cycle                10000:bit_error_cnt[         82]=                3160
cycle                10000:bit_error_cnt[         83]=                   0
cycle                10000:bit_error_cnt[         84]=                   1
cycle                10000:bit_error_cnt[         85]=                   0
cycle                10000:bit_error_cnt[         86]=                   0
cycle                10000:bit_error_cnt[         87]=                   0
cycle                10000:bit_error_cnt[         88]=                   0
cycle                10000:bit_error_cnt[         89]=                   0
cycle                10000:bit_error_cnt[         90]=                   0
cycle                10000:bit_error_cnt[         91]=                   0
cycle                10000:bit_error_cnt[         92]=                   0
cycle                10000:bit_error_cnt[         93]=                   0
cycle                10000:bit_error_cnt[         94]=                   0
