cycle                10000:bit_error_cnt[          0]=                   3
cycle                10000:bit_error_cnt[          1]=                   3
cycle                10000:bit_error_cnt[          2]=                   3
cycle                10000:bit_error_cnt[          3]=                   0
cycle                10000:bit_error_cnt[          4]=                 615
cycle                10000:bit_error_cnt[          5]=                 982
cycle                10000:bit_error_cnt[          6]=                1156
cycle                10000:bit_error_cnt[          7]=                1288
cycle                10000:bit_error_cnt[          8]=                1332
cycle                10000:bit_error_cnt[          9]=                2220
cycle                10000:bit_error_cnt[         10]=                2181
cycle                10000:bit_error_cnt[         11]=                2952
cycle                10000:bit_error_cnt[         12]=                3433
cycle                10000:bit_error_cnt[         13]=                4964
cycle                10000:bit_error_cnt[         14]=                5030
cycle                10000:bit_error_cnt[         15]=                5018
cycle                10000:bit_error_cnt[         16]=                4686
cycle                10000:bit_error_cnt[         17]=                5273
cycle                10000:bit_error_cnt[         18]=                5462
cycle                10000:bit_error_cnt[         19]=                5587
cycle                10000:bit_error_cnt[         20]=                4960
cycle                10000:bit_error_cnt[         21]=                4658
cycle                10000:bit_error_cnt[         22]=                5101
cycle                10000:bit_error_cnt[         23]=                5949
cycle                10000:bit_error_cnt[         24]=                5979
cycle                10000:bit_error_cnt[         25]=                6002
cycle                10000:bit_error_cnt[         26]=                6105
cycle                10000:bit_error_cnt[         27]=                6191
cycle                10000:bit_error_cnt[         28]=                6698
cycle                10000:bit_error_cnt[         29]=                6959
cycle                10000:bit_error_cnt[         30]=                6660
cycle                10000:bit_error_cnt[         31]=                6577
cycle                10000:bit_error_cnt[         32]=                6601
cycle                10000:bit_error_cnt[         33]=                6531
cycle                10000:bit_error_cnt[         34]=                6725
cycle                10000:bit_error_cnt[         35]=                6354
cycle                10000:bit_error_cnt[         36]=                6482
cycle                10000:bit_error_cnt[         37]=                5918
cycle                10000:bit_error_cnt[         38]=                5542
cycle                10000:bit_error_cnt[         39]=                5376
cycle                10000:bit_error_cnt[         40]=                5122
cycle                10000:bit_error_cnt[         41]=                4964
cycle                10000:bit_error_cnt[         42]=                5091
cycle                10000:bit_error_cnt[         43]=                4873
cycle                10000:bit_error_cnt[         44]=                4361
cycle                10000:bit_error_cnt[         45]=                4378
cycle                10000:bit_error_cnt[         46]=                4191
cycle                10000:bit_error_cnt[         47]=                3746
cycle                10000:bit_error_cnt[         48]=                3001
cycle                10000:bit_error_cnt[         49]=                2843
cycle                10000:bit_error_cnt[         50]=                2772
cycle                10000:bit_error_cnt[         51]=                6191
cycle                10000:bit_error_cnt[         52]=                6698
cycle                10000:bit_error_cnt[         53]=                6959
cycle                10000:bit_error_cnt[         54]=                6660
cycle                10000:bit_error_cnt[         55]=                6577
cycle                10000:bit_error_cnt[         56]=                6601
cycle                10000:bit_error_cnt[         57]=                6531
cycle                10000:bit_error_cnt[         58]=                6725
cycle                10000:bit_error_cnt[         59]=                6354
cycle                10000:bit_error_cnt[         60]=                6482
cycle                10000:bit_error_cnt[         61]=                5918
cycle                10000:bit_error_cnt[         62]=                5542
cycle                10000:bit_error_cnt[         63]=                5376
cycle                10000:bit_error_cnt[         64]=                5122
cycle                10000:bit_error_cnt[         65]=                4964
cycle                10000:bit_error_cnt[         66]=                5091
cycle                10000:bit_error_cnt[         67]=                4873
cycle                10000:bit_error_cnt[         68]=                4361
cycle                10000:bit_error_cnt[         69]=                4378
cycle                10000:bit_error_cnt[         70]=                4191
cycle                10000:bit_error_cnt[         71]=                3746
cycle                10000:bit_error_cnt[         72]=                3001
cycle                10000:bit_error_cnt[         73]=                2843
cycle                10000:bit_error_cnt[         74]=                2772
cycle                10000:bit_error_cnt[         75]=                3177
cycle                10000:bit_error_cnt[         76]=                1770
cycle                10000:bit_error_cnt[         77]=                1895
cycle                10000:bit_error_cnt[         78]=                1116
cycle                10000:bit_error_cnt[         79]=                 774
cycle                10000:bit_error_cnt[         80]=                 624
cycle                10000:bit_error_cnt[         81]=                 423
cycle                10000:bit_error_cnt[         82]=                 608
cycle                10000:bit_error_cnt[         83]=                 568
cycle                10000:bit_error_cnt[         84]=                 327
