cycle                10000:bit_error_cnt[          0]=                6213
cycle                10000:bit_error_cnt[          1]=                 108
cycle                10000:bit_error_cnt[          2]=                 182
cycle                10000:bit_error_cnt[          3]=                8560
cycle                10000:bit_error_cnt[          4]=                   0
cycle                10000:bit_error_cnt[          5]=                   0
cycle                10000:bit_error_cnt[          6]=                   0
cycle                10000:bit_error_cnt[          7]=                   0
cycle                10000:bit_error_cnt[          8]=                   0
cycle                10000:bit_error_cnt[          9]=                   0
cycle                10000:bit_error_cnt[         10]=                   0
cycle                10000:bit_error_cnt[         11]=                   0
cycle                10000:bit_error_cnt[         12]=                   0
cycle                10000:bit_error_cnt[         13]=                   0
cycle                10000:bit_error_cnt[         14]=                   0
cycle                10000:bit_error_cnt[         15]=                   0
cycle                10000:bit_error_cnt[         16]=                   0
cycle                10000:bit_error_cnt[         17]=                   0
cycle                10000:bit_error_cnt[         18]=                   0
cycle                10000:bit_error_cnt[         19]=                   0
cycle                10000:bit_error_cnt[         20]=                   0
cycle                10000:bit_error_cnt[         21]=                   0
cycle                10000:bit_error_cnt[         22]=                   0
cycle                10000:bit_error_cnt[         23]=                   0
cycle                10000:bit_error_cnt[         24]=                   0
cycle                10000:bit_error_cnt[         25]=                   0
cycle                10000:bit_error_cnt[         26]=                   0
cycle                10000:bit_error_cnt[         27]=                   0
cycle                10000:bit_error_cnt[         28]=                   0
cycle                10000:bit_error_cnt[         29]=                   0
cycle                10000:bit_error_cnt[         30]=                   0
cycle                10000:bit_error_cnt[         31]=                   0
cycle                10000:bit_error_cnt[         32]=                   0
cycle                10000:bit_error_cnt[         33]=                   0
cycle                10000:bit_error_cnt[         34]=                   0
cycle                10000:bit_error_cnt[         35]=                   0
cycle                10000:bit_error_cnt[         36]=                   0
cycle                10000:bit_error_cnt[         37]=                8028
cycle                10000:bit_error_cnt[         38]=                7882
cycle                10000:bit_error_cnt[         39]=                7503
cycle                10000:bit_error_cnt[         40]=                7556
cycle                10000:bit_error_cnt[         41]=                8091
cycle                10000:bit_error_cnt[         42]=                8355
cycle                10000:bit_error_cnt[         43]=                9262
cycle                10000:bit_error_cnt[         44]=                7577
cycle                10000:bit_error_cnt[         45]=                7513
cycle                10000:bit_error_cnt[         46]=                7096
cycle                10000:bit_error_cnt[         47]=                7024
cycle                10000:bit_error_cnt[         48]=                6760
cycle                10000:bit_error_cnt[         49]=                7330
cycle                10000:bit_error_cnt[         50]=                7566
cycle                10000:bit_error_cnt[         51]=                6379
cycle                10000:bit_error_cnt[         52]=                7235
cycle                10000:bit_error_cnt[         53]=                7246
cycle                10000:bit_error_cnt[         54]=                6616
cycle                10000:bit_error_cnt[         55]=                7813
cycle                10000:bit_error_cnt[         56]=                6860
cycle                10000:bit_error_cnt[         57]=                6084
cycle                10000:bit_error_cnt[         58]=                7573
cycle                10000:bit_error_cnt[         59]=                6562
cycle                10000:bit_error_cnt[         60]=                5562
cycle                10000:bit_error_cnt[         61]=                8067
cycle                10000:bit_error_cnt[         62]=                7993
cycle                10000:bit_error_cnt[         63]=                8464
cycle                10000:bit_error_cnt[         64]=                5662
cycle                10000:bit_error_cnt[         65]=                7288
cycle                10000:bit_error_cnt[         66]=                6727
cycle                10000:bit_error_cnt[         67]=                6080
cycle                10000:bit_error_cnt[         68]=                4844
cycle                10000:bit_error_cnt[         69]=                2628
