cycle                10000:bit_error_cnt[          0]=                   2
cycle                10000:bit_error_cnt[          1]=                   2
cycle                10000:bit_error_cnt[          2]=                2496
cycle                10000:bit_error_cnt[          3]=                4597
cycle                10000:bit_error_cnt[          4]=                5018
cycle                10000:bit_error_cnt[          5]=                5010
cycle                10000:bit_error_cnt[          6]=                5017
cycle                10000:bit_error_cnt[          7]=                5067
cycle                10000:bit_error_cnt[          8]=                5016
cycle                10000:bit_error_cnt[          9]=                5022
cycle                10000:bit_error_cnt[         10]=                4972
cycle                10000:bit_error_cnt[         11]=                5041
cycle                10000:bit_error_cnt[         12]=                5006
cycle                10000:bit_error_cnt[         13]=                5097
cycle                10000:bit_error_cnt[         14]=                4939
cycle                10000:bit_error_cnt[         15]=                5012
cycle                10000:bit_error_cnt[         16]=                5082
cycle                10000:bit_error_cnt[         17]=                5051
cycle                10000:bit_error_cnt[         18]=                4963
cycle                10000:bit_error_cnt[         19]=                4984
cycle                10000:bit_error_cnt[         20]=                5028
cycle                10000:bit_error_cnt[         21]=                5052
cycle                10000:bit_error_cnt[         22]=                4937
cycle                10000:bit_error_cnt[         23]=                4931
cycle                10000:bit_error_cnt[         24]=                4936
cycle                10000:bit_error_cnt[         25]=                5020
cycle                10000:bit_error_cnt[         26]=                5003
cycle                10000:bit_error_cnt[         27]=                4977
cycle                10000:bit_error_cnt[         28]=                4950
cycle                10000:bit_error_cnt[         29]=                4986
cycle                10000:bit_error_cnt[         30]=                4972
cycle                10000:bit_error_cnt[         31]=                5037
cycle                10000:bit_error_cnt[         32]=                4390
cycle                10000:bit_error_cnt[         33]=                3708
cycle                10000:bit_error_cnt[         34]=                5009
cycle                10000:bit_error_cnt[         35]=                4870
cycle                10000:bit_error_cnt[         36]=                4978
cycle                10000:bit_error_cnt[         37]=                4980
cycle                10000:bit_error_cnt[         38]=                5072
cycle                10000:bit_error_cnt[         39]=                4969
cycle                10000:bit_error_cnt[         40]=                4995
cycle                10000:bit_error_cnt[         41]=                5038
cycle                10000:bit_error_cnt[         42]=                4997
cycle                10000:bit_error_cnt[         43]=                4972
cycle                10000:bit_error_cnt[         44]=                5009
cycle                10000:bit_error_cnt[         45]=                4942
cycle                10000:bit_error_cnt[         46]=                4904
cycle                10000:bit_error_cnt[         47]=                4972
cycle                10000:bit_error_cnt[         48]=                4971
cycle                10000:bit_error_cnt[         49]=                4995
cycle                10000:bit_error_cnt[         50]=                5017
cycle                10000:bit_error_cnt[         51]=                5025
cycle                10000:bit_error_cnt[         52]=                4994
cycle                10000:bit_error_cnt[         53]=                4914
cycle                10000:bit_error_cnt[         54]=                5040
cycle                10000:bit_error_cnt[         55]=                5037
cycle                10000:bit_error_cnt[         56]=                5044
cycle                10000:bit_error_cnt[         57]=                5103
cycle                10000:bit_error_cnt[         58]=                4994
cycle                10000:bit_error_cnt[         59]=                5014
cycle                10000:bit_error_cnt[         60]=                4974
cycle                10000:bit_error_cnt[         61]=                5047
cycle                10000:bit_error_cnt[         62]=                5018
cycle                10000:bit_error_cnt[         63]=                5022
cycle                10000:bit_error_cnt[         64]=                4974
cycle                10000:bit_error_cnt[         65]=                4961
cycle                10000:bit_error_cnt[         66]=                5093
cycle                10000:bit_error_cnt[         67]=                4961
cycle                10000:bit_error_cnt[         68]=                4988
cycle                10000:bit_error_cnt[         69]=                5036
cycle                10000:bit_error_cnt[         70]=                4970
cycle                10000:bit_error_cnt[         71]=                4966
cycle                10000:bit_error_cnt[         72]=                4841
cycle                10000:bit_error_cnt[         73]=                5055
cycle                10000:bit_error_cnt[         74]=                4964
cycle                10000:bit_error_cnt[         75]=                4909
cycle                10000:bit_error_cnt[         76]=                4239
cycle                10000:bit_error_cnt[         77]=                2488
cycle                10000:bit_error_cnt[         78]=                2312
cycle                10000:bit_error_cnt[         79]=                3100
cycle                10000:bit_error_cnt[         80]=                3967
cycle                10000:bit_error_cnt[         81]=                3809
cycle                10000:bit_error_cnt[         82]=                3816
cycle                10000:bit_error_cnt[         83]=                   0
cycle                10000:bit_error_cnt[         84]=                3095
cycle                10000:bit_error_cnt[         85]=                   0
cycle                10000:bit_error_cnt[         86]=                   0
cycle                10000:bit_error_cnt[         87]=                   0
cycle                10000:bit_error_cnt[         88]=                   0
cycle                10000:bit_error_cnt[         89]=                   0
cycle                10000:bit_error_cnt[         90]=                   0
cycle                10000:bit_error_cnt[         91]=                   0
cycle                10000:bit_error_cnt[         92]=                   0
cycle                10000:bit_error_cnt[         93]=                   0
cycle                10000:bit_error_cnt[         94]=                   0
