cycle                10000:bit_error_cnt[          0]=                   1
cycle                10000:bit_error_cnt[          1]=                   1
cycle                10000:bit_error_cnt[          2]=                   1
cycle                10000:bit_error_cnt[          3]=                   1
cycle                10000:bit_error_cnt[          4]=                   1
cycle                10000:bit_error_cnt[          5]=                 334
cycle                10000:bit_error_cnt[          6]=                 417
cycle                10000:bit_error_cnt[          7]=                3790
cycle                10000:bit_error_cnt[          8]=                2471
cycle                10000:bit_error_cnt[          9]=                1967
cycle                10000:bit_error_cnt[         10]=                3693
cycle                10000:bit_error_cnt[         11]=                3668
cycle                10000:bit_error_cnt[         12]=                3859
cycle                10000:bit_error_cnt[         13]=                3229
cycle                10000:bit_error_cnt[         14]=                3398
cycle                10000:bit_error_cnt[         15]=                3578
cycle                10000:bit_error_cnt[         16]=                2997
cycle                10000:bit_error_cnt[         17]=                1793
cycle                10000:bit_error_cnt[         18]=                2760
cycle                10000:bit_error_cnt[         19]=                2182
cycle                10000:bit_error_cnt[         20]=                2489
cycle                10000:bit_error_cnt[         21]=                2649
cycle                10000:bit_error_cnt[         22]=                1922
cycle                10000:bit_error_cnt[         23]=                2909
cycle                10000:bit_error_cnt[         24]=                3712
cycle                10000:bit_error_cnt[         25]=                3221
cycle                10000:bit_error_cnt[         26]=                3425
cycle                10000:bit_error_cnt[         27]=                2972
cycle                10000:bit_error_cnt[         28]=                3672
cycle                10000:bit_error_cnt[         29]=                3655
cycle                10000:bit_error_cnt[         30]=                3742
cycle                10000:bit_error_cnt[         31]=                3600
cycle                10000:bit_error_cnt[         32]=                2881
cycle                10000:bit_error_cnt[         33]=                   1
cycle                10000:bit_error_cnt[         34]=                   1
cycle                10000:bit_error_cnt[         35]=                   1
cycle                10000:bit_error_cnt[         36]=                 469
cycle                10000:bit_error_cnt[         37]=                 238
cycle                10000:bit_error_cnt[         38]=                 268
cycle                10000:bit_error_cnt[         39]=                2779
cycle                10000:bit_error_cnt[         40]=                 930
cycle                10000:bit_error_cnt[         41]=                2476
cycle                10000:bit_error_cnt[         42]=                2408
cycle                10000:bit_error_cnt[         43]=                 439
cycle                10000:bit_error_cnt[         44]=                4137
cycle                10000:bit_error_cnt[         45]=                4826
cycle                10000:bit_error_cnt[         46]=                4257
cycle                10000:bit_error_cnt[         47]=                4456
cycle                10000:bit_error_cnt[         48]=                4648
cycle                10000:bit_error_cnt[         49]=                4899
cycle                10000:bit_error_cnt[         50]=                4990
cycle                10000:bit_error_cnt[         51]=                5063
cycle                10000:bit_error_cnt[         52]=                4936
cycle                10000:bit_error_cnt[         53]=                4928
cycle                10000:bit_error_cnt[         54]=                4951
cycle                10000:bit_error_cnt[         55]=                4939
cycle                10000:bit_error_cnt[         56]=                4953
cycle                10000:bit_error_cnt[         57]=                4909
cycle                10000:bit_error_cnt[         58]=                4902
cycle                10000:bit_error_cnt[         59]=                4994
cycle                10000:bit_error_cnt[         60]=                5024
cycle                10000:bit_error_cnt[         61]=                4875
cycle                10000:bit_error_cnt[         62]=                5058
cycle                10000:bit_error_cnt[         63]=                4951
cycle                10000:bit_error_cnt[         64]=                4939
cycle                10000:bit_error_cnt[         65]=                4807
cycle                10000:bit_error_cnt[         66]=                4717
cycle                10000:bit_error_cnt[         67]=                4681
cycle                10000:bit_error_cnt[         68]=                4760
cycle                10000:bit_error_cnt[         69]=                4437
cycle                10000:bit_error_cnt[         70]=                3677
cycle                10000:bit_error_cnt[         71]=                4437
cycle                10000:bit_error_cnt[         72]=                4355
cycle                10000:bit_error_cnt[         73]=                3645
cycle                10000:bit_error_cnt[         74]=                   1
cycle                10000:bit_error_cnt[         75]=                   1
cycle                10000:bit_error_cnt[         76]=                   1
cycle                10000:bit_error_cnt[         77]=                   1
cycle                10000:bit_error_cnt[         78]=                 338
cycle                10000:bit_error_cnt[         79]=                1807
cycle                10000:bit_error_cnt[         80]=                2129
cycle                10000:bit_error_cnt[         81]=                2159
cycle                10000:bit_error_cnt[         82]=                2159
cycle                10000:bit_error_cnt[         83]=                   0
cycle                10000:bit_error_cnt[         84]=                   1
cycle                10000:bit_error_cnt[         85]=                   0
cycle                10000:bit_error_cnt[         86]=                   0
cycle                10000:bit_error_cnt[         87]=                   0
cycle                10000:bit_error_cnt[         88]=                   0
cycle                10000:bit_error_cnt[         89]=                   0
cycle                10000:bit_error_cnt[         90]=                   0
cycle                10000:bit_error_cnt[         91]=                   0
cycle                10000:bit_error_cnt[         92]=                   0
cycle                10000:bit_error_cnt[         93]=                   0
cycle                10000:bit_error_cnt[         94]=                   0
