cycle                10000:bit_error_cnt[          0]=                  81
cycle                10000:bit_error_cnt[          1]=                 144
cycle                10000:bit_error_cnt[          2]=                3744
cycle                10000:bit_error_cnt[          3]=                4669
cycle                10000:bit_error_cnt[          4]=                4822
cycle                10000:bit_error_cnt[          5]=                5088
cycle                10000:bit_error_cnt[          6]=                4985
cycle                10000:bit_error_cnt[          7]=                4969
cycle                10000:bit_error_cnt[          8]=                5024
cycle                10000:bit_error_cnt[          9]=                4995
cycle                10000:bit_error_cnt[         10]=                4975
cycle                10000:bit_error_cnt[         11]=                4981
cycle                10000:bit_error_cnt[         12]=                4988
cycle                10000:bit_error_cnt[         13]=                5138
cycle                10000:bit_error_cnt[         14]=                4918
cycle                10000:bit_error_cnt[         15]=                5000
cycle                10000:bit_error_cnt[         16]=                5045
cycle                10000:bit_error_cnt[         17]=                5132
cycle                10000:bit_error_cnt[         18]=                4988
cycle                10000:bit_error_cnt[         19]=                4938
cycle                10000:bit_error_cnt[         20]=                5066
cycle                10000:bit_error_cnt[         21]=                4985
cycle                10000:bit_error_cnt[         22]=                5058
cycle                10000:bit_error_cnt[         23]=                5028
cycle                10000:bit_error_cnt[         24]=                5043
cycle                10000:bit_error_cnt[         25]=                4986
cycle                10000:bit_error_cnt[         26]=                4947
cycle                10000:bit_error_cnt[         27]=                5028
cycle                10000:bit_error_cnt[         28]=                5011
cycle                10000:bit_error_cnt[         29]=                5016
cycle                10000:bit_error_cnt[         30]=                4994
cycle                10000:bit_error_cnt[         31]=                4805
cycle                10000:bit_error_cnt[         32]=                4215
cycle                10000:bit_error_cnt[         33]=                3724
cycle                10000:bit_error_cnt[         34]=                4735
cycle                10000:bit_error_cnt[         35]=                4875
cycle                10000:bit_error_cnt[         36]=                4971
cycle                10000:bit_error_cnt[         37]=                5013
cycle                10000:bit_error_cnt[         38]=                4972
cycle                10000:bit_error_cnt[         39]=                4942
cycle                10000:bit_error_cnt[         40]=                4968
cycle                10000:bit_error_cnt[         41]=                5014
cycle                10000:bit_error_cnt[         42]=                5035
cycle                10000:bit_error_cnt[         43]=                5087
cycle                10000:bit_error_cnt[         44]=                5046
cycle                10000:bit_error_cnt[         45]=                5030
cycle                10000:bit_error_cnt[         46]=                4993
cycle                10000:bit_error_cnt[         47]=                5033
cycle                10000:bit_error_cnt[         48]=                5037
cycle                10000:bit_error_cnt[         49]=                5026
cycle                10000:bit_error_cnt[         50]=                4940
cycle                10000:bit_error_cnt[         51]=                5017
cycle                10000:bit_error_cnt[         52]=                5020
cycle                10000:bit_error_cnt[         53]=                4972
cycle                10000:bit_error_cnt[         54]=                5056
cycle                10000:bit_error_cnt[         55]=                5043
cycle                10000:bit_error_cnt[         56]=                4906
cycle                10000:bit_error_cnt[         57]=                5057
cycle                10000:bit_error_cnt[         58]=                4975
cycle                10000:bit_error_cnt[         59]=                5004
cycle                10000:bit_error_cnt[         60]=                4899
cycle                10000:bit_error_cnt[         61]=                5026
cycle                10000:bit_error_cnt[         62]=                5033
cycle                10000:bit_error_cnt[         63]=                5054
cycle                10000:bit_error_cnt[         64]=                5080
cycle                10000:bit_error_cnt[         65]=                5005
cycle                10000:bit_error_cnt[         66]=                4993
cycle                10000:bit_error_cnt[         67]=                5015
cycle                10000:bit_error_cnt[         68]=                5013
cycle                10000:bit_error_cnt[         69]=                4963
cycle                10000:bit_error_cnt[         70]=                4940
cycle                10000:bit_error_cnt[         71]=                5070
cycle                10000:bit_error_cnt[         72]=                5006
cycle                10000:bit_error_cnt[         73]=                4911
cycle                10000:bit_error_cnt[         74]=                5105
cycle                10000:bit_error_cnt[         75]=                5002
cycle                10000:bit_error_cnt[         76]=                4919
cycle                10000:bit_error_cnt[         77]=                4998
cycle                10000:bit_error_cnt[         78]=                5068
cycle                10000:bit_error_cnt[         79]=                4947
cycle                10000:bit_error_cnt[         80]=                5080
cycle                10000:bit_error_cnt[         81]=                5043
cycle                10000:bit_error_cnt[         82]=                5074
cycle                10000:bit_error_cnt[         83]=                   0
cycle                10000:bit_error_cnt[         84]=                6547
cycle                10000:bit_error_cnt[         85]=                   0
cycle                10000:bit_error_cnt[         86]=                   0
cycle                10000:bit_error_cnt[         87]=                   0
cycle                10000:bit_error_cnt[         88]=                   0
cycle                10000:bit_error_cnt[         89]=                   0
cycle                10000:bit_error_cnt[         90]=                   0
cycle                10000:bit_error_cnt[         91]=                   0
cycle                10000:bit_error_cnt[         92]=                   0
cycle                10000:bit_error_cnt[         93]=                   0
cycle                10000:bit_error_cnt[         94]=                   0
