cycle                10000:bit_error_cnt[          0]=                   2
cycle                10000:bit_error_cnt[          1]=                   2
cycle                10000:bit_error_cnt[          2]=                   0
cycle                10000:bit_error_cnt[          3]=                   2
cycle                10000:bit_error_cnt[          4]=                   2
cycle                10000:bit_error_cnt[          5]=                   2
cycle                10000:bit_error_cnt[          6]=                   2
cycle                10000:bit_error_cnt[          7]=                   2
cycle                10000:bit_error_cnt[          8]=                   2
cycle                10000:bit_error_cnt[          9]=                   2
cycle                10000:bit_error_cnt[         10]=                   2
cycle                10000:bit_error_cnt[         11]=                1539
cycle                10000:bit_error_cnt[         12]=                3678
cycle                10000:bit_error_cnt[         13]=                2629
cycle                10000:bit_error_cnt[         14]=                1534
cycle                10000:bit_error_cnt[         15]=                1402
cycle                10000:bit_error_cnt[         16]=                1331
cycle                10000:bit_error_cnt[         17]=                1837
cycle                10000:bit_error_cnt[         18]=                2907
cycle                10000:bit_error_cnt[         19]=                1623
cycle                10000:bit_error_cnt[         20]=                1525
cycle                10000:bit_error_cnt[         21]=                2743
cycle                10000:bit_error_cnt[         22]=                1996
cycle                10000:bit_error_cnt[         23]=                1339
cycle                10000:bit_error_cnt[         24]=                 961
cycle                10000:bit_error_cnt[         25]=                 429
cycle                10000:bit_error_cnt[         26]=                 312
cycle                10000:bit_error_cnt[         27]=                 367
cycle                10000:bit_error_cnt[         28]=                1450
cycle                10000:bit_error_cnt[         29]=                1934
cycle                10000:bit_error_cnt[         30]=                1689
cycle                10000:bit_error_cnt[         31]=                1001
cycle                10000:bit_error_cnt[         32]=                 775
cycle                10000:bit_error_cnt[         33]=                1688
cycle                10000:bit_error_cnt[         34]=                1650
cycle                10000:bit_error_cnt[         35]=                 958
cycle                10000:bit_error_cnt[         36]=                 784
cycle                10000:bit_error_cnt[         37]=                 376
cycle                10000:bit_error_cnt[         38]=                 199
cycle                10000:bit_error_cnt[         39]=                 180
cycle                10000:bit_error_cnt[         40]=                 121
cycle                10000:bit_error_cnt[         41]=                  70
cycle                10000:bit_error_cnt[         42]=                  49
cycle                10000:bit_error_cnt[         43]=                  23
cycle                10000:bit_error_cnt[         44]=                  10
cycle                10000:bit_error_cnt[         45]=                   6
cycle                10000:bit_error_cnt[         46]=                   4
cycle                10000:bit_error_cnt[         47]=                   2
cycle                10000:bit_error_cnt[         48]=                   2
cycle                10000:bit_error_cnt[         49]=                   2
cycle                10000:bit_error_cnt[         50]=                   2
cycle                10000:bit_error_cnt[         51]=                   2
cycle                10000:bit_error_cnt[         52]=                   2
cycle                10000:bit_error_cnt[         53]=                   2
cycle                10000:bit_error_cnt[         54]=                   2
cycle                10000:bit_error_cnt[         55]=                   2
cycle                10000:bit_error_cnt[         56]=                 237
cycle                10000:bit_error_cnt[         57]=                 295
cycle                10000:bit_error_cnt[         58]=                 216
cycle                10000:bit_error_cnt[         59]=                 113
cycle                10000:bit_error_cnt[         60]=                  91
cycle                10000:bit_error_cnt[         61]=                  41
