cycle                10000:bit_error_cnt[          0]=                6232
cycle                10000:bit_error_cnt[          1]=                 108
cycle                10000:bit_error_cnt[          2]=                 148
cycle                10000:bit_error_cnt[          3]=                7585
cycle                10000:bit_error_cnt[          4]=                   0
cycle                10000:bit_error_cnt[          5]=                   0
cycle                10000:bit_error_cnt[          6]=                   0
cycle                10000:bit_error_cnt[          7]=                   0
cycle                10000:bit_error_cnt[          8]=                   0
cycle                10000:bit_error_cnt[          9]=                   0
cycle                10000:bit_error_cnt[         10]=                   0
cycle                10000:bit_error_cnt[         11]=                   0
cycle                10000:bit_error_cnt[         12]=                   0
cycle                10000:bit_error_cnt[         13]=                   0
cycle                10000:bit_error_cnt[         14]=                   0
cycle                10000:bit_error_cnt[         15]=                   0
cycle                10000:bit_error_cnt[         16]=                   0
cycle                10000:bit_error_cnt[         17]=                   0
cycle                10000:bit_error_cnt[         18]=                   0
cycle                10000:bit_error_cnt[         19]=                   0
cycle                10000:bit_error_cnt[         20]=                   0
cycle                10000:bit_error_cnt[         21]=                   0
cycle                10000:bit_error_cnt[         22]=                   0
cycle                10000:bit_error_cnt[         23]=                   0
cycle                10000:bit_error_cnt[         24]=                   0
cycle                10000:bit_error_cnt[         25]=                   0
cycle                10000:bit_error_cnt[         26]=                   0
cycle                10000:bit_error_cnt[         27]=                   0
cycle                10000:bit_error_cnt[         28]=                   0
cycle                10000:bit_error_cnt[         29]=                   0
cycle                10000:bit_error_cnt[         30]=                   0
cycle                10000:bit_error_cnt[         31]=                   0
cycle                10000:bit_error_cnt[         32]=                   0
cycle                10000:bit_error_cnt[         33]=                   0
cycle                10000:bit_error_cnt[         34]=                   0
cycle                10000:bit_error_cnt[         35]=                   0
cycle                10000:bit_error_cnt[         36]=                   0
cycle                10000:bit_error_cnt[         37]=                8419
cycle                10000:bit_error_cnt[         38]=                7772
cycle                10000:bit_error_cnt[         39]=                7534
cycle                10000:bit_error_cnt[         40]=                7390
cycle                10000:bit_error_cnt[         41]=                6966
cycle                10000:bit_error_cnt[         42]=                8495
cycle                10000:bit_error_cnt[         43]=                8595
cycle                10000:bit_error_cnt[         44]=                6811
cycle                10000:bit_error_cnt[         45]=                7445
cycle                10000:bit_error_cnt[         46]=                6680
cycle                10000:bit_error_cnt[         47]=                7272
cycle                10000:bit_error_cnt[         48]=                6344
cycle                10000:bit_error_cnt[         49]=                7298
cycle                10000:bit_error_cnt[         50]=                7462
cycle                10000:bit_error_cnt[         51]=                6975
cycle                10000:bit_error_cnt[         52]=                7449
cycle                10000:bit_error_cnt[         53]=                7116
cycle                10000:bit_error_cnt[         54]=                5989
cycle                10000:bit_error_cnt[         55]=                7275
cycle                10000:bit_error_cnt[         56]=                6880
cycle                10000:bit_error_cnt[         57]=                5630
cycle                10000:bit_error_cnt[         58]=                6698
cycle                10000:bit_error_cnt[         59]=                5607
cycle                10000:bit_error_cnt[         60]=                5857
cycle                10000:bit_error_cnt[         61]=                8705
cycle                10000:bit_error_cnt[         62]=                7417
cycle                10000:bit_error_cnt[         63]=                8097
cycle                10000:bit_error_cnt[         64]=                5647
cycle                10000:bit_error_cnt[         65]=                7153
cycle                10000:bit_error_cnt[         66]=                7488
cycle                10000:bit_error_cnt[         67]=                6028
cycle                10000:bit_error_cnt[         68]=                4705
cycle                10000:bit_error_cnt[         69]=                2651
