cycle                10000:bit_error_cnt[          0]=                6227
cycle                10000:bit_error_cnt[          1]=                  87
cycle                10000:bit_error_cnt[          2]=                 148
cycle                10000:bit_error_cnt[          3]=                6662
cycle                10000:bit_error_cnt[          4]=                   0
cycle                10000:bit_error_cnt[          5]=                   0
cycle                10000:bit_error_cnt[          6]=                   0
cycle                10000:bit_error_cnt[          7]=                   0
cycle                10000:bit_error_cnt[          8]=                   0
cycle                10000:bit_error_cnt[          9]=                   0
cycle                10000:bit_error_cnt[         10]=                   0
cycle                10000:bit_error_cnt[         11]=                   0
cycle                10000:bit_error_cnt[         12]=                   0
cycle                10000:bit_error_cnt[         13]=                   0
cycle                10000:bit_error_cnt[         14]=                   0
cycle                10000:bit_error_cnt[         15]=                   0
cycle                10000:bit_error_cnt[         16]=                   0
cycle                10000:bit_error_cnt[         17]=                   0
cycle                10000:bit_error_cnt[         18]=                   0
cycle                10000:bit_error_cnt[         19]=                   0
cycle                10000:bit_error_cnt[         20]=                   0
cycle                10000:bit_error_cnt[         21]=                   0
cycle                10000:bit_error_cnt[         22]=                   0
cycle                10000:bit_error_cnt[         23]=                   0
cycle                10000:bit_error_cnt[         24]=                   0
cycle                10000:bit_error_cnt[         25]=                   0
cycle                10000:bit_error_cnt[         26]=                   0
cycle                10000:bit_error_cnt[         27]=                   0
cycle                10000:bit_error_cnt[         28]=                   0
cycle                10000:bit_error_cnt[         29]=                   0
cycle                10000:bit_error_cnt[         30]=                   0
cycle                10000:bit_error_cnt[         31]=                   0
cycle                10000:bit_error_cnt[         32]=                   0
cycle                10000:bit_error_cnt[         33]=                   0
cycle                10000:bit_error_cnt[         34]=                   0
cycle                10000:bit_error_cnt[         35]=                   0
cycle                10000:bit_error_cnt[         36]=                   0
cycle                10000:bit_error_cnt[         37]=                7610
cycle                10000:bit_error_cnt[         38]=                7783
cycle                10000:bit_error_cnt[         39]=                8488
cycle                10000:bit_error_cnt[         40]=                7176
cycle                10000:bit_error_cnt[         41]=                7446
cycle                10000:bit_error_cnt[         42]=                9137
cycle                10000:bit_error_cnt[         43]=                8482
cycle                10000:bit_error_cnt[         44]=                7342
cycle                10000:bit_error_cnt[         45]=                7952
cycle                10000:bit_error_cnt[         46]=                6805
cycle                10000:bit_error_cnt[         47]=                7333
cycle                10000:bit_error_cnt[         48]=                6540
cycle                10000:bit_error_cnt[         49]=                8277
cycle                10000:bit_error_cnt[         50]=                8483
cycle                10000:bit_error_cnt[         51]=                7827
cycle                10000:bit_error_cnt[         52]=                8710
cycle                10000:bit_error_cnt[         53]=                7761
cycle                10000:bit_error_cnt[         54]=                6864
cycle                10000:bit_error_cnt[         55]=                7141
cycle                10000:bit_error_cnt[         56]=                6844
cycle                10000:bit_error_cnt[         57]=                6600
cycle                10000:bit_error_cnt[         58]=                7688
cycle                10000:bit_error_cnt[         59]=                6313
cycle                10000:bit_error_cnt[         60]=                7727
cycle                10000:bit_error_cnt[         61]=                7937
cycle                10000:bit_error_cnt[         62]=                7949
cycle                10000:bit_error_cnt[         63]=                7249
cycle                10000:bit_error_cnt[         64]=                6427
cycle                10000:bit_error_cnt[         65]=                6235
cycle                10000:bit_error_cnt[         66]=                6486
cycle                10000:bit_error_cnt[         67]=                6088
cycle                10000:bit_error_cnt[         68]=                5705
cycle                10000:bit_error_cnt[         69]=                2479
