cycle                10000:bit_error_cnt[          0]=                9309
cycle                10000:bit_error_cnt[          1]=                8658
cycle                10000:bit_error_cnt[          2]=                8220
cycle                10000:bit_error_cnt[          3]=                8599
cycle                10000:bit_error_cnt[          4]=                7921
cycle                10000:bit_error_cnt[          5]=                7821
cycle                10000:bit_error_cnt[          6]=                8227
cycle                10000:bit_error_cnt[          7]=                7547
cycle                10000:bit_error_cnt[          8]=                7639
cycle                10000:bit_error_cnt[          9]=                7060
cycle                10000:bit_error_cnt[         10]=                6730
cycle                10000:bit_error_cnt[         11]=                6934
cycle                10000:bit_error_cnt[         12]=                6940
cycle                10000:bit_error_cnt[         13]=                6322
cycle                10000:bit_error_cnt[         14]=                6462
cycle                10000:bit_error_cnt[         15]=                6538
cycle                10000:bit_error_cnt[         16]=                6844
cycle                10000:bit_error_cnt[         17]=                6482
cycle                10000:bit_error_cnt[         18]=                7048
cycle                10000:bit_error_cnt[         19]=                6092
cycle                10000:bit_error_cnt[         20]=                5722
cycle                10000:bit_error_cnt[         21]=                5684
cycle                10000:bit_error_cnt[         22]=                5996
cycle                10000:bit_error_cnt[         23]=                5551
cycle                10000:bit_error_cnt[         24]=                7705
cycle                10000:bit_error_cnt[         25]=                7584
cycle                10000:bit_error_cnt[         26]=                8279
cycle                10000:bit_error_cnt[         27]=                5583
cycle                10000:bit_error_cnt[         28]=                7310
cycle                10000:bit_error_cnt[         29]=                5370
cycle                10000:bit_error_cnt[         30]=                6675
cycle                10000:bit_error_cnt[         31]=                6549
cycle                10000:bit_error_cnt[         32]=                6373
cycle                10000:bit_error_cnt[         33]=                4304
