cycle                10000:bit_error_cnt[          0]=                   3
cycle                10000:bit_error_cnt[          1]=                   3
cycle                10000:bit_error_cnt[          2]=                   3
cycle                10000:bit_error_cnt[          3]=                   0
cycle                10000:bit_error_cnt[          4]=                   3
cycle                10000:bit_error_cnt[          5]=                   3
cycle                10000:bit_error_cnt[          6]=                   3
cycle                10000:bit_error_cnt[          7]=                   3
cycle                10000:bit_error_cnt[          8]=                   3
cycle                10000:bit_error_cnt[          9]=                   3
cycle                10000:bit_error_cnt[         10]=                   3
cycle                10000:bit_error_cnt[         11]=                   3
cycle                10000:bit_error_cnt[         12]=                   3
cycle                10000:bit_error_cnt[         13]=                   3
cycle                10000:bit_error_cnt[         14]=                   3
cycle                10000:bit_error_cnt[         15]=                   3
cycle                10000:bit_error_cnt[         16]=                   3
cycle                10000:bit_error_cnt[         17]=                   3
cycle                10000:bit_error_cnt[         18]=                   3
cycle                10000:bit_error_cnt[         19]=                   3
cycle                10000:bit_error_cnt[         20]=                   3
cycle                10000:bit_error_cnt[         21]=                   3
cycle                10000:bit_error_cnt[         22]=                   3
cycle                10000:bit_error_cnt[         23]=                   3
cycle                10000:bit_error_cnt[         24]=                   3
cycle                10000:bit_error_cnt[         25]=                   3
cycle                10000:bit_error_cnt[         26]=                   3
cycle                10000:bit_error_cnt[         27]=                   3
cycle                10000:bit_error_cnt[         28]=                   3
cycle                10000:bit_error_cnt[         29]=                   3
cycle                10000:bit_error_cnt[         30]=                   3
cycle                10000:bit_error_cnt[         31]=                   3
cycle                10000:bit_error_cnt[         32]=                   3
cycle                10000:bit_error_cnt[         33]=                   3
cycle                10000:bit_error_cnt[         34]=                   3
cycle                10000:bit_error_cnt[         35]=                   3
cycle                10000:bit_error_cnt[         36]=                   3
cycle                10000:bit_error_cnt[         37]=                   3
cycle                10000:bit_error_cnt[         38]=                   3
cycle                10000:bit_error_cnt[         39]=                   3
cycle                10000:bit_error_cnt[         40]=                   3
cycle                10000:bit_error_cnt[         41]=                   3
cycle                10000:bit_error_cnt[         42]=                   3
cycle                10000:bit_error_cnt[         43]=                   3
cycle                10000:bit_error_cnt[         44]=                   3
cycle                10000:bit_error_cnt[         45]=                   3
cycle                10000:bit_error_cnt[         46]=                   3
cycle                10000:bit_error_cnt[         47]=                   3
cycle                10000:bit_error_cnt[         48]=                   3
cycle                10000:bit_error_cnt[         49]=                   3
cycle                10000:bit_error_cnt[         50]=                   3
cycle                10000:bit_error_cnt[         51]=                   3
cycle                10000:bit_error_cnt[         52]=                   3
cycle                10000:bit_error_cnt[         53]=                   3
cycle                10000:bit_error_cnt[         54]=                   3
cycle                10000:bit_error_cnt[         55]=                   3
cycle                10000:bit_error_cnt[         56]=                   3
cycle                10000:bit_error_cnt[         57]=                   3
cycle                10000:bit_error_cnt[         58]=                   3
cycle                10000:bit_error_cnt[         59]=                   3
cycle                10000:bit_error_cnt[         60]=                   3
cycle                10000:bit_error_cnt[         61]=                   3
cycle                10000:bit_error_cnt[         62]=                   3
cycle                10000:bit_error_cnt[         63]=                   3
cycle                10000:bit_error_cnt[         64]=                   3
cycle                10000:bit_error_cnt[         65]=                   3
cycle                10000:bit_error_cnt[         66]=                   3
cycle                10000:bit_error_cnt[         67]=                   3
cycle                10000:bit_error_cnt[         68]=                   3
cycle                10000:bit_error_cnt[         69]=                   3
cycle                10000:bit_error_cnt[         70]=                   3
cycle                10000:bit_error_cnt[         71]=                   3
cycle                10000:bit_error_cnt[         72]=                   3
cycle                10000:bit_error_cnt[         73]=                   3
cycle                10000:bit_error_cnt[         74]=                   3
cycle                10000:bit_error_cnt[         75]=                   3
cycle                10000:bit_error_cnt[         76]=                   3
cycle                10000:bit_error_cnt[         77]=                   3
cycle                10000:bit_error_cnt[         78]=                   3
cycle                10000:bit_error_cnt[         79]=                 470
cycle                10000:bit_error_cnt[         80]=                 213
cycle                10000:bit_error_cnt[         81]=                 123
cycle                10000:bit_error_cnt[         82]=                  65
cycle                10000:bit_error_cnt[         83]=                  33
cycle                10000:bit_error_cnt[         84]=                  18
