cycle                10000:bit_error_cnt[          0]=                6549
cycle                10000:bit_error_cnt[          1]=                  87
cycle                10000:bit_error_cnt[          2]=                 182
cycle                10000:bit_error_cnt[          3]=                8318
cycle                10000:bit_error_cnt[          4]=                   0
cycle                10000:bit_error_cnt[          5]=                   0
cycle                10000:bit_error_cnt[          6]=                   0
cycle                10000:bit_error_cnt[          7]=                   0
cycle                10000:bit_error_cnt[          8]=                   0
cycle                10000:bit_error_cnt[          9]=                   0
cycle                10000:bit_error_cnt[         10]=                   0
cycle                10000:bit_error_cnt[         11]=                   0
cycle                10000:bit_error_cnt[         12]=                   0
cycle                10000:bit_error_cnt[         13]=                   0
cycle                10000:bit_error_cnt[         14]=                   0
cycle                10000:bit_error_cnt[         15]=                   0
cycle                10000:bit_error_cnt[         16]=                   0
cycle                10000:bit_error_cnt[         17]=                   0
cycle                10000:bit_error_cnt[         18]=                   0
cycle                10000:bit_error_cnt[         19]=                   0
cycle                10000:bit_error_cnt[         20]=                   0
cycle                10000:bit_error_cnt[         21]=                   0
cycle                10000:bit_error_cnt[         22]=                   0
cycle                10000:bit_error_cnt[         23]=                   0
cycle                10000:bit_error_cnt[         24]=                   0
cycle                10000:bit_error_cnt[         25]=                   0
cycle                10000:bit_error_cnt[         26]=                   0
cycle                10000:bit_error_cnt[         27]=                   0
cycle                10000:bit_error_cnt[         28]=                   0
cycle                10000:bit_error_cnt[         29]=                   0
cycle                10000:bit_error_cnt[         30]=                   0
cycle                10000:bit_error_cnt[         31]=                   0
cycle                10000:bit_error_cnt[         32]=                   0
cycle                10000:bit_error_cnt[         33]=                   0
cycle                10000:bit_error_cnt[         34]=                   0
cycle                10000:bit_error_cnt[         35]=                   0
cycle                10000:bit_error_cnt[         36]=                   0
cycle                10000:bit_error_cnt[         37]=                7767
cycle                10000:bit_error_cnt[         38]=                7538
cycle                10000:bit_error_cnt[         39]=                7145
cycle                10000:bit_error_cnt[         40]=                7389
cycle                10000:bit_error_cnt[         41]=                7879
cycle                10000:bit_error_cnt[         42]=                7379
cycle                10000:bit_error_cnt[         43]=                8115
cycle                10000:bit_error_cnt[         44]=                7537
cycle                10000:bit_error_cnt[         45]=                7526
cycle                10000:bit_error_cnt[         46]=                7477
cycle                10000:bit_error_cnt[         47]=                7004
cycle                10000:bit_error_cnt[         48]=                6471
cycle                10000:bit_error_cnt[         49]=                7362
cycle                10000:bit_error_cnt[         50]=                6679
cycle                10000:bit_error_cnt[         51]=                6460
cycle                10000:bit_error_cnt[         52]=                6598
cycle                10000:bit_error_cnt[         53]=                6800
cycle                10000:bit_error_cnt[         54]=                7372
cycle                10000:bit_error_cnt[         55]=                6768
cycle                10000:bit_error_cnt[         56]=                6866
cycle                10000:bit_error_cnt[         57]=                7017
cycle                10000:bit_error_cnt[         58]=                6723
cycle                10000:bit_error_cnt[         59]=                7388
cycle                10000:bit_error_cnt[         60]=                5792
cycle                10000:bit_error_cnt[         61]=                7521
cycle                10000:bit_error_cnt[         62]=                7677
cycle                10000:bit_error_cnt[         63]=                7862
cycle                10000:bit_error_cnt[         64]=                6301
cycle                10000:bit_error_cnt[         65]=                6561
cycle                10000:bit_error_cnt[         66]=                5323
cycle                10000:bit_error_cnt[         67]=                6208
cycle                10000:bit_error_cnt[         68]=                4662
cycle                10000:bit_error_cnt[         69]=                3126
