cycle                10000:bit_error_cnt[          0]=               10000
cycle                10000:bit_error_cnt[          1]=               10000
cycle                10000:bit_error_cnt[          2]=               10000
cycle                10000:bit_error_cnt[          3]=                   0
cycle                10000:bit_error_cnt[          4]=               10000
cycle                10000:bit_error_cnt[          5]=               10000
cycle                10000:bit_error_cnt[          6]=               10000
cycle                10000:bit_error_cnt[          7]=               10000
cycle                10000:bit_error_cnt[          8]=               10000
cycle                10000:bit_error_cnt[          9]=               10000
cycle                10000:bit_error_cnt[         10]=               10000
cycle                10000:bit_error_cnt[         11]=               10000
cycle                10000:bit_error_cnt[         12]=               10000
cycle                10000:bit_error_cnt[         13]=               10000
cycle                10000:bit_error_cnt[         14]=               10000
cycle                10000:bit_error_cnt[         15]=               10000
cycle                10000:bit_error_cnt[         16]=               10000
cycle                10000:bit_error_cnt[         17]=               10000
cycle                10000:bit_error_cnt[         18]=               10000
cycle                10000:bit_error_cnt[         19]=               10000
cycle                10000:bit_error_cnt[         20]=               10000
cycle                10000:bit_error_cnt[         21]=               10000
cycle                10000:bit_error_cnt[         22]=               10000
cycle                10000:bit_error_cnt[         23]=               10000
cycle                10000:bit_error_cnt[         24]=               10000
cycle                10000:bit_error_cnt[         25]=               10000
cycle                10000:bit_error_cnt[         26]=               10000
cycle                10000:bit_error_cnt[         27]=               10000
cycle                10000:bit_error_cnt[         28]=               10000
cycle                10000:bit_error_cnt[         29]=               10000
cycle                10000:bit_error_cnt[         30]=               10000
cycle                10000:bit_error_cnt[         31]=               10000
cycle                10000:bit_error_cnt[         32]=               10000
cycle                10000:bit_error_cnt[         33]=               10000
cycle                10000:bit_error_cnt[         34]=               10000
cycle                10000:bit_error_cnt[         35]=               10000
cycle                10000:bit_error_cnt[         36]=               10000
cycle                10000:bit_error_cnt[         37]=               10000
cycle                10000:bit_error_cnt[         38]=               10000
cycle                10000:bit_error_cnt[         39]=               10000
cycle                10000:bit_error_cnt[         40]=               10000
cycle                10000:bit_error_cnt[         41]=               10000
cycle                10000:bit_error_cnt[         42]=               10000
cycle                10000:bit_error_cnt[         43]=               10000
cycle                10000:bit_error_cnt[         44]=               10000
cycle                10000:bit_error_cnt[         45]=               10000
cycle                10000:bit_error_cnt[         46]=                9999
cycle                10000:bit_error_cnt[         47]=               10000
cycle                10000:bit_error_cnt[         48]=               10000
cycle                10000:bit_error_cnt[         49]=               10000
cycle                10000:bit_error_cnt[         50]=                9990
cycle                10000:bit_error_cnt[         51]=               10000
cycle                10000:bit_error_cnt[         52]=               10000
cycle                10000:bit_error_cnt[         53]=               10000
cycle                10000:bit_error_cnt[         54]=               10000
cycle                10000:bit_error_cnt[         55]=               10000
cycle                10000:bit_error_cnt[         56]=               10000
cycle                10000:bit_error_cnt[         57]=               10000
cycle                10000:bit_error_cnt[         58]=               10000
cycle                10000:bit_error_cnt[         59]=               10000
cycle                10000:bit_error_cnt[         60]=               10000
cycle                10000:bit_error_cnt[         61]=               10000
cycle                10000:bit_error_cnt[         62]=               10000
cycle                10000:bit_error_cnt[         63]=               10000
cycle                10000:bit_error_cnt[         64]=               10000
cycle                10000:bit_error_cnt[         65]=               10000
cycle                10000:bit_error_cnt[         66]=               10000
cycle                10000:bit_error_cnt[         67]=               10000
cycle                10000:bit_error_cnt[         68]=               10000
cycle                10000:bit_error_cnt[         69]=               10000
cycle                10000:bit_error_cnt[         70]=                9999
cycle                10000:bit_error_cnt[         71]=               10000
cycle                10000:bit_error_cnt[         72]=               10000
cycle                10000:bit_error_cnt[         73]=               10000
cycle                10000:bit_error_cnt[         74]=                9990
cycle                10000:bit_error_cnt[         75]=               10000
cycle                10000:bit_error_cnt[         76]=               10000
cycle                10000:bit_error_cnt[         77]=               10000
cycle                10000:bit_error_cnt[         78]=               10000
cycle                10000:bit_error_cnt[         79]=               10000
cycle                10000:bit_error_cnt[         80]=               10000
cycle                10000:bit_error_cnt[         81]=               10000
cycle                10000:bit_error_cnt[         82]=               10000
cycle                10000:bit_error_cnt[         83]=               10000
cycle                10000:bit_error_cnt[         84]=               10000
