cycle                10000:bit_error_cnt[          0]=                9181
cycle                10000:bit_error_cnt[          1]=                8595
cycle                10000:bit_error_cnt[          2]=                8205
cycle                10000:bit_error_cnt[          3]=                8095
cycle                10000:bit_error_cnt[          4]=                8271
cycle                10000:bit_error_cnt[          5]=                7679
cycle                10000:bit_error_cnt[          6]=                8302
cycle                10000:bit_error_cnt[          7]=                7704
cycle                10000:bit_error_cnt[          8]=                7599
cycle                10000:bit_error_cnt[          9]=                7557
cycle                10000:bit_error_cnt[         10]=                7084
cycle                10000:bit_error_cnt[         11]=                6528
cycle                10000:bit_error_cnt[         12]=                7383
cycle                10000:bit_error_cnt[         13]=                6682
cycle                10000:bit_error_cnt[         14]=                6465
cycle                10000:bit_error_cnt[         15]=                6616
cycle                10000:bit_error_cnt[         16]=                6815
cycle                10000:bit_error_cnt[         17]=                7382
cycle                10000:bit_error_cnt[         18]=                6772
cycle                10000:bit_error_cnt[         19]=                6874
cycle                10000:bit_error_cnt[         20]=                7019
cycle                10000:bit_error_cnt[         21]=                7305
cycle                10000:bit_error_cnt[         22]=                7389
cycle                10000:bit_error_cnt[         23]=                5793
cycle                10000:bit_error_cnt[         24]=                7523
cycle                10000:bit_error_cnt[         25]=                7678
cycle                10000:bit_error_cnt[         26]=                7864
cycle                10000:bit_error_cnt[         27]=                6301
cycle                10000:bit_error_cnt[         28]=                6561
cycle                10000:bit_error_cnt[         29]=                5323
cycle                10000:bit_error_cnt[         30]=                6208
cycle                10000:bit_error_cnt[         31]=                6549
cycle                10000:bit_error_cnt[         32]=                4928
cycle                10000:bit_error_cnt[         33]=                4228
