cycle                10000:bit_error_cnt[          0]=                8015
cycle                10000:bit_error_cnt[          1]=                7982
cycle                10000:bit_error_cnt[          2]=                7303
cycle                10000:bit_error_cnt[          3]=                6864
cycle                10000:bit_error_cnt[          4]=                6754
cycle                10000:bit_error_cnt[          5]=                6614
cycle                10000:bit_error_cnt[          6]=                5997
cycle                10000:bit_error_cnt[          7]=                6216
cycle                10000:bit_error_cnt[          8]=                5708
cycle                10000:bit_error_cnt[          9]=                5666
cycle                10000:bit_error_cnt[         10]=                5441
cycle                10000:bit_error_cnt[         11]=                5342
cycle                10000:bit_error_cnt[         12]=                5888
cycle                10000:bit_error_cnt[         13]=                5503
cycle                10000:bit_error_cnt[         14]=                5370
cycle                10000:bit_error_cnt[         15]=                5912
cycle                10000:bit_error_cnt[         16]=                5433
cycle                10000:bit_error_cnt[         17]=                5328
cycle                10000:bit_error_cnt[         18]=                5301
cycle                10000:bit_error_cnt[         19]=                5270
cycle                10000:bit_error_cnt[         20]=                5940
cycle                10000:bit_error_cnt[         21]=                5641
cycle                10000:bit_error_cnt[         22]=                5221
cycle                10000:bit_error_cnt[         23]=                5645
cycle                10000:bit_error_cnt[         24]=                6213
cycle                10000:bit_error_cnt[         25]=                6397
cycle                10000:bit_error_cnt[         26]=                6033
cycle                10000:bit_error_cnt[         27]=                5639
cycle                10000:bit_error_cnt[         28]=                5678
cycle                10000:bit_error_cnt[         29]=                5532
cycle                10000:bit_error_cnt[         30]=                6800
cycle                10000:bit_error_cnt[         31]=                2502
cycle                10000:bit_error_cnt[         32]=                7588
cycle                10000:bit_error_cnt[         33]=                6688
