cycle                10000:bit_error_cnt[          0]=                   5
cycle                10000:bit_error_cnt[          1]=                   5
cycle                10000:bit_error_cnt[          2]=                   5
cycle                10000:bit_error_cnt[          3]=                   5
cycle                10000:bit_error_cnt[          4]=                   5
cycle                10000:bit_error_cnt[          5]=                   5
cycle                10000:bit_error_cnt[          6]=                   5
cycle                10000:bit_error_cnt[          7]=                   5
cycle                10000:bit_error_cnt[          8]=                   5
cycle                10000:bit_error_cnt[          9]=                   5
cycle                10000:bit_error_cnt[         10]=                   5
cycle                10000:bit_error_cnt[         11]=                   5
cycle                10000:bit_error_cnt[         12]=                   5
cycle                10000:bit_error_cnt[         13]=                   5
cycle                10000:bit_error_cnt[         14]=                   5
cycle                10000:bit_error_cnt[         15]=                   5
cycle                10000:bit_error_cnt[         16]=                   5
cycle                10000:bit_error_cnt[         17]=                   5
cycle                10000:bit_error_cnt[         18]=                   5
cycle                10000:bit_error_cnt[         19]=                   5
cycle                10000:bit_error_cnt[         20]=                   5
cycle                10000:bit_error_cnt[         21]=                   5
cycle                10000:bit_error_cnt[         22]=                   5
cycle                10000:bit_error_cnt[         23]=                   5
cycle                10000:bit_error_cnt[         24]=                   5
cycle                10000:bit_error_cnt[         25]=                   5
cycle                10000:bit_error_cnt[         26]=                   5
cycle                10000:bit_error_cnt[         27]=                   5
cycle                10000:bit_error_cnt[         28]=                   5
cycle                10000:bit_error_cnt[         29]=                   5
cycle                10000:bit_error_cnt[         30]=                   5
cycle                10000:bit_error_cnt[         31]=                   5
cycle                10000:bit_error_cnt[         32]=                   5
cycle                10000:bit_error_cnt[         33]=                   5
