cycle                10000:bit_error_cnt[          0]=                   4
cycle                10000:bit_error_cnt[          1]=                   4
cycle                10000:bit_error_cnt[          2]=                   4
cycle                10000:bit_error_cnt[          3]=                6753
cycle                10000:bit_error_cnt[          4]=                   0
cycle                10000:bit_error_cnt[          5]=                   0
cycle                10000:bit_error_cnt[          6]=                   0
cycle                10000:bit_error_cnt[          7]=                   0
cycle                10000:bit_error_cnt[          8]=                   0
cycle                10000:bit_error_cnt[          9]=                   0
cycle                10000:bit_error_cnt[         10]=                   0
cycle                10000:bit_error_cnt[         11]=                   0
cycle                10000:bit_error_cnt[         12]=                   0
cycle                10000:bit_error_cnt[         13]=                   0
cycle                10000:bit_error_cnt[         14]=                   0
cycle                10000:bit_error_cnt[         15]=                   0
cycle                10000:bit_error_cnt[         16]=                   0
cycle                10000:bit_error_cnt[         17]=                   0
cycle                10000:bit_error_cnt[         18]=                   0
cycle                10000:bit_error_cnt[         19]=                   0
cycle                10000:bit_error_cnt[         20]=                   0
cycle                10000:bit_error_cnt[         21]=                   0
cycle                10000:bit_error_cnt[         22]=                   0
cycle                10000:bit_error_cnt[         23]=                   0
cycle                10000:bit_error_cnt[         24]=                   0
cycle                10000:bit_error_cnt[         25]=                   0
cycle                10000:bit_error_cnt[         26]=                   0
cycle                10000:bit_error_cnt[         27]=                   0
cycle                10000:bit_error_cnt[         28]=                   0
cycle                10000:bit_error_cnt[         29]=                   0
cycle                10000:bit_error_cnt[         30]=                   0
cycle                10000:bit_error_cnt[         31]=                   0
cycle                10000:bit_error_cnt[         32]=                   0
cycle                10000:bit_error_cnt[         33]=                   0
cycle                10000:bit_error_cnt[         34]=                   0
cycle                10000:bit_error_cnt[         35]=                   0
cycle                10000:bit_error_cnt[         36]=                   0
cycle                10000:bit_error_cnt[         37]=                6817
cycle                10000:bit_error_cnt[         38]=                7653
cycle                10000:bit_error_cnt[         39]=                6993
cycle                10000:bit_error_cnt[         40]=                6781
cycle                10000:bit_error_cnt[         41]=                6871
cycle                10000:bit_error_cnt[         42]=                6674
cycle                10000:bit_error_cnt[         43]=                6578
cycle                10000:bit_error_cnt[         44]=                6429
cycle                10000:bit_error_cnt[         45]=                6333
cycle                10000:bit_error_cnt[         46]=                5882
cycle                10000:bit_error_cnt[         47]=                5527
cycle                10000:bit_error_cnt[         48]=                5608
cycle                10000:bit_error_cnt[         49]=                5818
cycle                10000:bit_error_cnt[         50]=                5659
cycle                10000:bit_error_cnt[         51]=                5784
cycle                10000:bit_error_cnt[         52]=                6064
cycle                10000:bit_error_cnt[         53]=                5819
cycle                10000:bit_error_cnt[         54]=                5501
cycle                10000:bit_error_cnt[         55]=                5603
cycle                10000:bit_error_cnt[         56]=                5545
cycle                10000:bit_error_cnt[         57]=                5561
cycle                10000:bit_error_cnt[         58]=                5500
cycle                10000:bit_error_cnt[         59]=                5090
cycle                10000:bit_error_cnt[         60]=                4621
cycle                10000:bit_error_cnt[         61]=                2315
cycle                10000:bit_error_cnt[         62]=                1533
cycle                10000:bit_error_cnt[         63]=                1107
cycle                10000:bit_error_cnt[         64]=                3167
cycle                10000:bit_error_cnt[         65]=                3612
cycle                10000:bit_error_cnt[         66]=                3197
cycle                10000:bit_error_cnt[         67]=                2872
cycle                10000:bit_error_cnt[         68]=                2710
cycle                10000:bit_error_cnt[         69]=                1914
