cycle                10000:bit_error_cnt[          0]=                   3
cycle                10000:bit_error_cnt[          1]=                  77
cycle                10000:bit_error_cnt[          2]=                   0
cycle                10000:bit_error_cnt[          3]=                2486
cycle                10000:bit_error_cnt[          4]=                4460
cycle                10000:bit_error_cnt[          5]=                5207
cycle                10000:bit_error_cnt[          6]=                5825
cycle                10000:bit_error_cnt[          7]=                5604
cycle                10000:bit_error_cnt[          8]=                5390
cycle                10000:bit_error_cnt[          9]=                5456
cycle                10000:bit_error_cnt[         10]=                5487
cycle                10000:bit_error_cnt[         11]=                5787
cycle                10000:bit_error_cnt[         12]=                5716
cycle                10000:bit_error_cnt[         13]=                5851
cycle                10000:bit_error_cnt[         14]=                5762
cycle                10000:bit_error_cnt[         15]=                5873
cycle                10000:bit_error_cnt[         16]=                5630
cycle                10000:bit_error_cnt[         17]=                5687
cycle                10000:bit_error_cnt[         18]=                5822
cycle                10000:bit_error_cnt[         19]=                6037
cycle                10000:bit_error_cnt[         20]=                6316
cycle                10000:bit_error_cnt[         21]=                6274
cycle                10000:bit_error_cnt[         22]=                6397
cycle                10000:bit_error_cnt[         23]=                6571
cycle                10000:bit_error_cnt[         24]=                6398
cycle                10000:bit_error_cnt[         25]=                6086
cycle                10000:bit_error_cnt[         26]=                5956
cycle                10000:bit_error_cnt[         27]=                5949
cycle                10000:bit_error_cnt[         28]=                6126
cycle                10000:bit_error_cnt[         29]=                5928
cycle                10000:bit_error_cnt[         30]=                5753
cycle                10000:bit_error_cnt[         31]=                5690
cycle                10000:bit_error_cnt[         32]=                5698
cycle                10000:bit_error_cnt[         33]=                5476
cycle                10000:bit_error_cnt[         34]=                5363
cycle                10000:bit_error_cnt[         35]=                5423
cycle                10000:bit_error_cnt[         36]=                5268
cycle                10000:bit_error_cnt[         37]=                5234
cycle                10000:bit_error_cnt[         38]=                5218
cycle                10000:bit_error_cnt[         39]=                5304
cycle                10000:bit_error_cnt[         40]=                5341
cycle                10000:bit_error_cnt[         41]=                5504
cycle                10000:bit_error_cnt[         42]=                5751
cycle                10000:bit_error_cnt[         43]=                5425
cycle                10000:bit_error_cnt[         44]=                5257
cycle                10000:bit_error_cnt[         45]=                5237
cycle                10000:bit_error_cnt[         46]=                5296
cycle                10000:bit_error_cnt[         47]=                5442
cycle                10000:bit_error_cnt[         48]=                5334
cycle                10000:bit_error_cnt[         49]=                5168
cycle                10000:bit_error_cnt[         50]=                4257
cycle                10000:bit_error_cnt[         51]=                1847
cycle                10000:bit_error_cnt[         52]=                   2
cycle                10000:bit_error_cnt[         53]=                5248
cycle                10000:bit_error_cnt[         54]=                4235
cycle                10000:bit_error_cnt[         55]=                5613
cycle                10000:bit_error_cnt[         56]=                5746
cycle                10000:bit_error_cnt[         57]=                5930
cycle                10000:bit_error_cnt[         58]=                6116
cycle                10000:bit_error_cnt[         59]=                5833
cycle                10000:bit_error_cnt[         60]=                5757
cycle                10000:bit_error_cnt[         61]=                3119
