cycle                10000:bit_error_cnt[          0]=                   1
cycle                10000:bit_error_cnt[          1]=                   1
cycle                10000:bit_error_cnt[          2]=                   1
cycle                10000:bit_error_cnt[          3]=                   1
cycle                10000:bit_error_cnt[          4]=                   1
cycle                10000:bit_error_cnt[          5]=                 230
cycle                10000:bit_error_cnt[          6]=                 269
cycle                10000:bit_error_cnt[          7]=                3576
cycle                10000:bit_error_cnt[          8]=                2072
cycle                10000:bit_error_cnt[          9]=                1319
cycle                10000:bit_error_cnt[         10]=                3455
cycle                10000:bit_error_cnt[         11]=                3351
cycle                10000:bit_error_cnt[         12]=                3430
cycle                10000:bit_error_cnt[         13]=                2899
cycle                10000:bit_error_cnt[         14]=                3096
cycle                10000:bit_error_cnt[         15]=                3124
cycle                10000:bit_error_cnt[         16]=                2611
cycle                10000:bit_error_cnt[         17]=                1428
cycle                10000:bit_error_cnt[         18]=                2189
cycle                10000:bit_error_cnt[         19]=                1738
cycle                10000:bit_error_cnt[         20]=                1978
cycle                10000:bit_error_cnt[         21]=                2309
cycle                10000:bit_error_cnt[         22]=                1439
cycle                10000:bit_error_cnt[         23]=                2517
cycle                10000:bit_error_cnt[         24]=                3327
cycle                10000:bit_error_cnt[         25]=                2866
cycle                10000:bit_error_cnt[         26]=                2801
cycle                10000:bit_error_cnt[         27]=                2428
cycle                10000:bit_error_cnt[         28]=                3414
cycle                10000:bit_error_cnt[         29]=                3267
cycle                10000:bit_error_cnt[         30]=                3469
cycle                10000:bit_error_cnt[         31]=                3193
cycle                10000:bit_error_cnt[         32]=                2529
cycle                10000:bit_error_cnt[         33]=                   1
cycle                10000:bit_error_cnt[         34]=                   1
cycle                10000:bit_error_cnt[         35]=                   1
cycle                10000:bit_error_cnt[         36]=                 283
cycle                10000:bit_error_cnt[         37]=                   1
cycle                10000:bit_error_cnt[         38]=                  15
cycle                10000:bit_error_cnt[         39]=                2291
cycle                10000:bit_error_cnt[         40]=                 510
cycle                10000:bit_error_cnt[         41]=                1911
cycle                10000:bit_error_cnt[         42]=                1944
cycle                10000:bit_error_cnt[         43]=                 163
cycle                10000:bit_error_cnt[         44]=                3753
cycle                10000:bit_error_cnt[         45]=                4419
cycle                10000:bit_error_cnt[         46]=                3854
cycle                10000:bit_error_cnt[         47]=                4077
cycle                10000:bit_error_cnt[         48]=                4525
cycle                10000:bit_error_cnt[         49]=                4759
cycle                10000:bit_error_cnt[         50]=                4971
cycle                10000:bit_error_cnt[         51]=                4990
cycle                10000:bit_error_cnt[         52]=                4945
cycle                10000:bit_error_cnt[         53]=                4895
cycle                10000:bit_error_cnt[         54]=                4995
cycle                10000:bit_error_cnt[         55]=                4834
cycle                10000:bit_error_cnt[         56]=                4970
cycle                10000:bit_error_cnt[         57]=                4838
cycle                10000:bit_error_cnt[         58]=                4854
cycle                10000:bit_error_cnt[         59]=                4986
cycle                10000:bit_error_cnt[         60]=                4958
cycle                10000:bit_error_cnt[         61]=                4762
cycle                10000:bit_error_cnt[         62]=                4973
cycle                10000:bit_error_cnt[         63]=                4940
cycle                10000:bit_error_cnt[         64]=                4965
cycle                10000:bit_error_cnt[         65]=                4793
cycle                10000:bit_error_cnt[         66]=                4584
cycle                10000:bit_error_cnt[         67]=                4709
cycle                10000:bit_error_cnt[         68]=                4652
cycle                10000:bit_error_cnt[         69]=                4147
cycle                10000:bit_error_cnt[         70]=                3300
cycle                10000:bit_error_cnt[         71]=                4443
cycle                10000:bit_error_cnt[         72]=                4302
cycle                10000:bit_error_cnt[         73]=                3509
cycle                10000:bit_error_cnt[         74]=                   1
cycle                10000:bit_error_cnt[         75]=                   1
cycle                10000:bit_error_cnt[         76]=                   1
cycle                10000:bit_error_cnt[         77]=                   1
cycle                10000:bit_error_cnt[         78]=                 221
cycle                10000:bit_error_cnt[         79]=                 328
cycle                10000:bit_error_cnt[         80]=                 440
cycle                10000:bit_error_cnt[         81]=                 893
cycle                10000:bit_error_cnt[         82]=                 440
cycle                10000:bit_error_cnt[         83]=                   0
cycle                10000:bit_error_cnt[         84]=                   1
cycle                10000:bit_error_cnt[         85]=                   0
cycle                10000:bit_error_cnt[         86]=                   0
cycle                10000:bit_error_cnt[         87]=                   0
cycle                10000:bit_error_cnt[         88]=                   0
cycle                10000:bit_error_cnt[         89]=                   0
cycle                10000:bit_error_cnt[         90]=                   0
cycle                10000:bit_error_cnt[         91]=                   0
cycle                10000:bit_error_cnt[         92]=                   0
cycle                10000:bit_error_cnt[         93]=                   0
cycle                10000:bit_error_cnt[         94]=                   0
