cycle                10000:bit_error_cnt[          0]=                   2
cycle                10000:bit_error_cnt[          1]=                   2
cycle                10000:bit_error_cnt[          2]=                   0
cycle                10000:bit_error_cnt[          3]=                   2
cycle                10000:bit_error_cnt[          4]=                   2
cycle                10000:bit_error_cnt[          5]=                   2
cycle                10000:bit_error_cnt[          6]=                   2
cycle                10000:bit_error_cnt[          7]=                   2
cycle                10000:bit_error_cnt[          8]=                   2
cycle                10000:bit_error_cnt[          9]=                   2
cycle                10000:bit_error_cnt[         10]=                   2
cycle                10000:bit_error_cnt[         11]=                   2
cycle                10000:bit_error_cnt[         12]=                   2
cycle                10000:bit_error_cnt[         13]=                   2
cycle                10000:bit_error_cnt[         14]=                   2
cycle                10000:bit_error_cnt[         15]=                   2
cycle                10000:bit_error_cnt[         16]=                   2
cycle                10000:bit_error_cnt[         17]=                   2
cycle                10000:bit_error_cnt[         18]=                   2
cycle                10000:bit_error_cnt[         19]=                   2
cycle                10000:bit_error_cnt[         20]=                   2
cycle                10000:bit_error_cnt[         21]=                   2
cycle                10000:bit_error_cnt[         22]=                   2
cycle                10000:bit_error_cnt[         23]=                  12
cycle                10000:bit_error_cnt[         24]=                  32
cycle                10000:bit_error_cnt[         25]=                  13
cycle                10000:bit_error_cnt[         26]=                   2
cycle                10000:bit_error_cnt[         27]=                   2
cycle                10000:bit_error_cnt[         28]=                   2
cycle                10000:bit_error_cnt[         29]=                   2
cycle                10000:bit_error_cnt[         30]=                   2
cycle                10000:bit_error_cnt[         31]=                  55
cycle                10000:bit_error_cnt[         32]=                  59
cycle                10000:bit_error_cnt[         33]=                  14
cycle                10000:bit_error_cnt[         34]=                   2
cycle                10000:bit_error_cnt[         35]=                   2
cycle                10000:bit_error_cnt[         36]=                  21
cycle                10000:bit_error_cnt[         37]=                  82
cycle                10000:bit_error_cnt[         38]=                   2
cycle                10000:bit_error_cnt[         39]=                  11
cycle                10000:bit_error_cnt[         40]=                  16
cycle                10000:bit_error_cnt[         41]=                   2
cycle                10000:bit_error_cnt[         42]=                   3
cycle                10000:bit_error_cnt[         43]=                   5
cycle                10000:bit_error_cnt[         44]=                   2
cycle                10000:bit_error_cnt[         45]=                   2
cycle                10000:bit_error_cnt[         46]=                   2
cycle                10000:bit_error_cnt[         47]=                   2
cycle                10000:bit_error_cnt[         48]=                   2
cycle                10000:bit_error_cnt[         49]=                   2
cycle                10000:bit_error_cnt[         50]=                   2
cycle                10000:bit_error_cnt[         51]=                   2
cycle                10000:bit_error_cnt[         52]=                   2
cycle                10000:bit_error_cnt[         53]=                   2
cycle                10000:bit_error_cnt[         54]=                   2
cycle                10000:bit_error_cnt[         55]=                   2
cycle                10000:bit_error_cnt[         56]=                   2
cycle                10000:bit_error_cnt[         57]=                   2
cycle                10000:bit_error_cnt[         58]=                   2
cycle                10000:bit_error_cnt[         59]=                  34
cycle                10000:bit_error_cnt[         60]=                  42
cycle                10000:bit_error_cnt[         61]=                  16
