cycle                10000:bit_error_cnt[          0]=                   3
cycle                10000:bit_error_cnt[          1]=                   3
cycle                10000:bit_error_cnt[          2]=                   3
cycle                10000:bit_error_cnt[          3]=                   0
cycle                10000:bit_error_cnt[          4]=                 814
cycle                10000:bit_error_cnt[          5]=                1285
cycle                10000:bit_error_cnt[          6]=                1494
cycle                10000:bit_error_cnt[          7]=                1743
cycle                10000:bit_error_cnt[          8]=                1753
cycle                10000:bit_error_cnt[          9]=                2853
cycle                10000:bit_error_cnt[         10]=                3213
cycle                10000:bit_error_cnt[         11]=                3947
cycle                10000:bit_error_cnt[         12]=                4623
cycle                10000:bit_error_cnt[         13]=                5784
cycle                10000:bit_error_cnt[         14]=                6405
cycle                10000:bit_error_cnt[         15]=                6232
cycle                10000:bit_error_cnt[         16]=                6091
cycle                10000:bit_error_cnt[         17]=                6285
cycle                10000:bit_error_cnt[         18]=                6451
cycle                10000:bit_error_cnt[         19]=                7005
cycle                10000:bit_error_cnt[         20]=                6210
cycle                10000:bit_error_cnt[         21]=                6092
cycle                10000:bit_error_cnt[         22]=                6314
cycle                10000:bit_error_cnt[         23]=                6873
cycle                10000:bit_error_cnt[         24]=                6816
cycle                10000:bit_error_cnt[         25]=                6796
cycle                10000:bit_error_cnt[         26]=                6786
cycle                10000:bit_error_cnt[         27]=                6865
cycle                10000:bit_error_cnt[         28]=                6979
cycle                10000:bit_error_cnt[         29]=                7193
cycle                10000:bit_error_cnt[         30]=                6947
cycle                10000:bit_error_cnt[         31]=                7023
cycle                10000:bit_error_cnt[         32]=                7220
cycle                10000:bit_error_cnt[         33]=                6965
cycle                10000:bit_error_cnt[         34]=                6679
cycle                10000:bit_error_cnt[         35]=                6953
cycle                10000:bit_error_cnt[         36]=                6853
cycle                10000:bit_error_cnt[         37]=                6336
cycle                10000:bit_error_cnt[         38]=                5906
cycle                10000:bit_error_cnt[         39]=                5661
cycle                10000:bit_error_cnt[         40]=                5638
cycle                10000:bit_error_cnt[         41]=                5561
cycle                10000:bit_error_cnt[         42]=                5654
cycle                10000:bit_error_cnt[         43]=                5637
cycle                10000:bit_error_cnt[         44]=                5164
cycle                10000:bit_error_cnt[         45]=                5097
cycle                10000:bit_error_cnt[         46]=                4866
cycle                10000:bit_error_cnt[         47]=                4446
cycle                10000:bit_error_cnt[         48]=                3815
cycle                10000:bit_error_cnt[         49]=                3962
cycle                10000:bit_error_cnt[         50]=                3937
cycle                10000:bit_error_cnt[         51]=                6865
cycle                10000:bit_error_cnt[         52]=                6979
cycle                10000:bit_error_cnt[         53]=                7193
cycle                10000:bit_error_cnt[         54]=                6947
cycle                10000:bit_error_cnt[         55]=                7023
cycle                10000:bit_error_cnt[         56]=                7220
cycle                10000:bit_error_cnt[         57]=                6965
cycle                10000:bit_error_cnt[         58]=                6679
cycle                10000:bit_error_cnt[         59]=                6953
cycle                10000:bit_error_cnt[         60]=                6853
cycle                10000:bit_error_cnt[         61]=                6336
cycle                10000:bit_error_cnt[         62]=                5906
cycle                10000:bit_error_cnt[         63]=                5661
cycle                10000:bit_error_cnt[         64]=                5638
cycle                10000:bit_error_cnt[         65]=                5561
cycle                10000:bit_error_cnt[         66]=                5654
cycle                10000:bit_error_cnt[         67]=                5637
cycle                10000:bit_error_cnt[         68]=                5164
cycle                10000:bit_error_cnt[         69]=                5097
cycle                10000:bit_error_cnt[         70]=                4866
cycle                10000:bit_error_cnt[         71]=                4446
cycle                10000:bit_error_cnt[         72]=                3815
cycle                10000:bit_error_cnt[         73]=                3962
cycle                10000:bit_error_cnt[         74]=                3937
cycle                10000:bit_error_cnt[         75]=                4241
cycle                10000:bit_error_cnt[         76]=                2058
cycle                10000:bit_error_cnt[         77]=                1892
cycle                10000:bit_error_cnt[         78]=                1319
cycle                10000:bit_error_cnt[         79]=                 819
cycle                10000:bit_error_cnt[         80]=                 894
cycle                10000:bit_error_cnt[         81]=                 634
cycle                10000:bit_error_cnt[         82]=                1028
cycle                10000:bit_error_cnt[         83]=                 897
cycle                10000:bit_error_cnt[         84]=                 651
