cycle                10000:bit_error_cnt[          0]=                   3
cycle                10000:bit_error_cnt[          1]=                   3
cycle                10000:bit_error_cnt[          2]=                   3
cycle                10000:bit_error_cnt[          3]=                   0
cycle                10000:bit_error_cnt[          4]=                1142
cycle                10000:bit_error_cnt[          5]=                1812
cycle                10000:bit_error_cnt[          6]=                2972
cycle                10000:bit_error_cnt[          7]=                4030
cycle                10000:bit_error_cnt[          8]=                4410
cycle                10000:bit_error_cnt[          9]=                5316
cycle                10000:bit_error_cnt[         10]=                5492
cycle                10000:bit_error_cnt[         11]=                5351
cycle                10000:bit_error_cnt[         12]=                5705
cycle                10000:bit_error_cnt[         13]=                6516
cycle                10000:bit_error_cnt[         14]=                6875
cycle                10000:bit_error_cnt[         15]=                7187
cycle                10000:bit_error_cnt[         16]=                7209
cycle                10000:bit_error_cnt[         17]=                7145
cycle                10000:bit_error_cnt[         18]=                6929
cycle                10000:bit_error_cnt[         19]=                7429
cycle                10000:bit_error_cnt[         20]=                6762
cycle                10000:bit_error_cnt[         21]=                7109
cycle                10000:bit_error_cnt[         22]=                7237
cycle                10000:bit_error_cnt[         23]=                7318
cycle                10000:bit_error_cnt[         24]=                7164
cycle                10000:bit_error_cnt[         25]=                7140
cycle                10000:bit_error_cnt[         26]=                6898
cycle                10000:bit_error_cnt[         27]=                6751
cycle                10000:bit_error_cnt[         28]=                6817
cycle                10000:bit_error_cnt[         29]=                7651
cycle                10000:bit_error_cnt[         30]=                6992
cycle                10000:bit_error_cnt[         31]=                6781
cycle                10000:bit_error_cnt[         32]=                6870
cycle                10000:bit_error_cnt[         33]=                6673
cycle                10000:bit_error_cnt[         34]=                6578
cycle                10000:bit_error_cnt[         35]=                6429
cycle                10000:bit_error_cnt[         36]=                6332
cycle                10000:bit_error_cnt[         37]=                5881
cycle                10000:bit_error_cnt[         38]=                5526
cycle                10000:bit_error_cnt[         39]=                5606
cycle                10000:bit_error_cnt[         40]=                5816
cycle                10000:bit_error_cnt[         41]=                5657
cycle                10000:bit_error_cnt[         42]=                5784
cycle                10000:bit_error_cnt[         43]=                6064
cycle                10000:bit_error_cnt[         44]=                5817
cycle                10000:bit_error_cnt[         45]=                5501
cycle                10000:bit_error_cnt[         46]=                5601
cycle                10000:bit_error_cnt[         47]=                5544
cycle                10000:bit_error_cnt[         48]=                5561
cycle                10000:bit_error_cnt[         49]=                5500
cycle                10000:bit_error_cnt[         50]=                5089
cycle                10000:bit_error_cnt[         51]=                6751
cycle                10000:bit_error_cnt[         52]=                6817
cycle                10000:bit_error_cnt[         53]=                7651
cycle                10000:bit_error_cnt[         54]=                6992
cycle                10000:bit_error_cnt[         55]=                6781
cycle                10000:bit_error_cnt[         56]=                6870
cycle                10000:bit_error_cnt[         57]=                6673
cycle                10000:bit_error_cnt[         58]=                6578
cycle                10000:bit_error_cnt[         59]=                6429
cycle                10000:bit_error_cnt[         60]=                6332
cycle                10000:bit_error_cnt[         61]=                5881
cycle                10000:bit_error_cnt[         62]=                5526
cycle                10000:bit_error_cnt[         63]=                5606
cycle                10000:bit_error_cnt[         64]=                5816
cycle                10000:bit_error_cnt[         65]=                5657
cycle                10000:bit_error_cnt[         66]=                5784
cycle                10000:bit_error_cnt[         67]=                6064
cycle                10000:bit_error_cnt[         68]=                5817
cycle                10000:bit_error_cnt[         69]=                5501
cycle                10000:bit_error_cnt[         70]=                5601
cycle                10000:bit_error_cnt[         71]=                5544
cycle                10000:bit_error_cnt[         72]=                5561
cycle                10000:bit_error_cnt[         73]=                5500
cycle                10000:bit_error_cnt[         74]=                5089
cycle                10000:bit_error_cnt[         75]=                5315
cycle                10000:bit_error_cnt[         76]=                5160
cycle                10000:bit_error_cnt[         77]=                5109
cycle                10000:bit_error_cnt[         78]=                3428
cycle                10000:bit_error_cnt[         79]=                6018
cycle                10000:bit_error_cnt[         80]=                5838
cycle                10000:bit_error_cnt[         81]=                3201
cycle                10000:bit_error_cnt[         82]=                4096
cycle                10000:bit_error_cnt[         83]=                2712
cycle                10000:bit_error_cnt[         84]=                1912
