cycle                10000:bit_error_cnt[          0]=                 635
cycle                10000:bit_error_cnt[          1]=                   3
cycle                10000:bit_error_cnt[          2]=                   3
cycle                10000:bit_error_cnt[          3]=                   0
cycle                10000:bit_error_cnt[          4]=                1206
cycle                10000:bit_error_cnt[          5]=                1958
cycle                10000:bit_error_cnt[          6]=                3157
cycle                10000:bit_error_cnt[          7]=                4540
cycle                10000:bit_error_cnt[          8]=                5219
cycle                10000:bit_error_cnt[          9]=                5639
cycle                10000:bit_error_cnt[         10]=                5598
cycle                10000:bit_error_cnt[         11]=                5401
cycle                10000:bit_error_cnt[         12]=                6159
cycle                10000:bit_error_cnt[         13]=                6442
cycle                10000:bit_error_cnt[         14]=                6852
cycle                10000:bit_error_cnt[         15]=                6715
cycle                10000:bit_error_cnt[         16]=                6795
cycle                10000:bit_error_cnt[         17]=                6475
cycle                10000:bit_error_cnt[         18]=                6517
cycle                10000:bit_error_cnt[         19]=                7213
cycle                10000:bit_error_cnt[         20]=                6907
cycle                10000:bit_error_cnt[         21]=                7333
cycle                10000:bit_error_cnt[         22]=                7298
cycle                10000:bit_error_cnt[         23]=                7128
cycle                10000:bit_error_cnt[         24]=                7093
cycle                10000:bit_error_cnt[         25]=                7082
cycle                10000:bit_error_cnt[         26]=                6664
cycle                10000:bit_error_cnt[         27]=                6575
cycle                10000:bit_error_cnt[         28]=                6693
cycle                10000:bit_error_cnt[         29]=                7438
cycle                10000:bit_error_cnt[         30]=                6576
cycle                10000:bit_error_cnt[         31]=                6548
cycle                10000:bit_error_cnt[         32]=                6825
cycle                10000:bit_error_cnt[         33]=                6571
cycle                10000:bit_error_cnt[         34]=                6424
cycle                10000:bit_error_cnt[         35]=                6240
cycle                10000:bit_error_cnt[         36]=                6054
cycle                10000:bit_error_cnt[         37]=                5764
cycle                10000:bit_error_cnt[         38]=                5588
cycle                10000:bit_error_cnt[         39]=                5664
cycle                10000:bit_error_cnt[         40]=                5782
cycle                10000:bit_error_cnt[         41]=                6081
cycle                10000:bit_error_cnt[         42]=                5824
cycle                10000:bit_error_cnt[         43]=                6518
cycle                10000:bit_error_cnt[         44]=                6334
cycle                10000:bit_error_cnt[         45]=                5545
cycle                10000:bit_error_cnt[         46]=                5702
cycle                10000:bit_error_cnt[         47]=                5682
cycle                10000:bit_error_cnt[         48]=                5681
cycle                10000:bit_error_cnt[         49]=                5628
cycle                10000:bit_error_cnt[         50]=                5233
cycle                10000:bit_error_cnt[         51]=                6575
cycle                10000:bit_error_cnt[         52]=                6693
cycle                10000:bit_error_cnt[         53]=                7438
cycle                10000:bit_error_cnt[         54]=                6576
cycle                10000:bit_error_cnt[         55]=                6548
cycle                10000:bit_error_cnt[         56]=                6825
cycle                10000:bit_error_cnt[         57]=                6571
cycle                10000:bit_error_cnt[         58]=                6424
cycle                10000:bit_error_cnt[         59]=                6240
cycle                10000:bit_error_cnt[         60]=                6054
cycle                10000:bit_error_cnt[         61]=                5764
cycle                10000:bit_error_cnt[         62]=                5588
cycle                10000:bit_error_cnt[         63]=                5664
cycle                10000:bit_error_cnt[         64]=                5782
cycle                10000:bit_error_cnt[         65]=                6081
cycle                10000:bit_error_cnt[         66]=                5824
cycle                10000:bit_error_cnt[         67]=                6518
cycle                10000:bit_error_cnt[         68]=                6334
cycle                10000:bit_error_cnt[         69]=                5545
cycle                10000:bit_error_cnt[         70]=                5702
cycle                10000:bit_error_cnt[         71]=                5682
cycle                10000:bit_error_cnt[         72]=                5681
cycle                10000:bit_error_cnt[         73]=                5628
cycle                10000:bit_error_cnt[         74]=                5233
cycle                10000:bit_error_cnt[         75]=                5413
cycle                10000:bit_error_cnt[         76]=                5172
cycle                10000:bit_error_cnt[         77]=                5130
cycle                10000:bit_error_cnt[         78]=                5393
cycle                10000:bit_error_cnt[         79]=                6240
cycle                10000:bit_error_cnt[         80]=                5595
cycle                10000:bit_error_cnt[         81]=                2958
cycle                10000:bit_error_cnt[         82]=                5500
cycle                10000:bit_error_cnt[         83]=                3693
cycle                10000:bit_error_cnt[         84]=                2377
