cycle                10000:bit_error_cnt[          0]=                   2
cycle                10000:bit_error_cnt[          1]=                   2
cycle                10000:bit_error_cnt[          2]=                   0
cycle                10000:bit_error_cnt[          3]=                   2
cycle                10000:bit_error_cnt[          4]=                   2
cycle                10000:bit_error_cnt[          5]=                   2
cycle                10000:bit_error_cnt[          6]=                   2
cycle                10000:bit_error_cnt[          7]=                   2
cycle                10000:bit_error_cnt[          8]=                   2
cycle                10000:bit_error_cnt[          9]=                   2
cycle                10000:bit_error_cnt[         10]=                   2
cycle                10000:bit_error_cnt[         11]=                   2
cycle                10000:bit_error_cnt[         12]=                 473
cycle                10000:bit_error_cnt[         13]=                  36
cycle                10000:bit_error_cnt[         14]=                   2
cycle                10000:bit_error_cnt[         15]=                   2
cycle                10000:bit_error_cnt[         16]=                  64
cycle                10000:bit_error_cnt[         17]=                  31
cycle                10000:bit_error_cnt[         18]=                 379
cycle                10000:bit_error_cnt[         19]=                   5
cycle                10000:bit_error_cnt[         20]=                 284
cycle                10000:bit_error_cnt[         21]=                 350
cycle                10000:bit_error_cnt[         22]=                 151
cycle                10000:bit_error_cnt[         23]=                 178
cycle                10000:bit_error_cnt[         24]=                 390
cycle                10000:bit_error_cnt[         25]=                 275
cycle                10000:bit_error_cnt[         26]=                   2
cycle                10000:bit_error_cnt[         27]=                   2
cycle                10000:bit_error_cnt[         28]=                 156
cycle                10000:bit_error_cnt[         29]=                 182
cycle                10000:bit_error_cnt[         30]=                 198
cycle                10000:bit_error_cnt[         31]=                 492
cycle                10000:bit_error_cnt[         32]=                 477
cycle                10000:bit_error_cnt[         33]=                 381
cycle                10000:bit_error_cnt[         34]=                   4
cycle                10000:bit_error_cnt[         35]=                 366
cycle                10000:bit_error_cnt[         36]=                 406
cycle                10000:bit_error_cnt[         37]=                 212
cycle                10000:bit_error_cnt[         38]=                 113
cycle                10000:bit_error_cnt[         39]=                  69
cycle                10000:bit_error_cnt[         40]=                  34
cycle                10000:bit_error_cnt[         41]=                  27
cycle                10000:bit_error_cnt[         42]=                  49
cycle                10000:bit_error_cnt[         43]=                  23
cycle                10000:bit_error_cnt[         44]=                   8
cycle                10000:bit_error_cnt[         45]=                   6
cycle                10000:bit_error_cnt[         46]=                   4
cycle                10000:bit_error_cnt[         47]=                   2
cycle                10000:bit_error_cnt[         48]=                   2
cycle                10000:bit_error_cnt[         49]=                   2
cycle                10000:bit_error_cnt[         50]=                   2
cycle                10000:bit_error_cnt[         51]=                   2
cycle                10000:bit_error_cnt[         52]=                   2
cycle                10000:bit_error_cnt[         53]=                   2
cycle                10000:bit_error_cnt[         54]=                   2
cycle                10000:bit_error_cnt[         55]=                   2
cycle                10000:bit_error_cnt[         56]=                   2
cycle                10000:bit_error_cnt[         57]=                   2
cycle                10000:bit_error_cnt[         58]=                  65
cycle                10000:bit_error_cnt[         59]=                  86
cycle                10000:bit_error_cnt[         60]=                  52
cycle                10000:bit_error_cnt[         61]=                  26
