cycle                10000:bit_error_cnt[          0]=                   1
cycle                10000:bit_error_cnt[          1]=                   1
cycle                10000:bit_error_cnt[          2]=                   1
cycle                10000:bit_error_cnt[          3]=                   1
cycle                10000:bit_error_cnt[          4]=                   1
cycle                10000:bit_error_cnt[          5]=                 412
cycle                10000:bit_error_cnt[          6]=                 467
cycle                10000:bit_error_cnt[          7]=                3807
cycle                10000:bit_error_cnt[          8]=                2390
cycle                10000:bit_error_cnt[          9]=                1618
cycle                10000:bit_error_cnt[         10]=                3596
cycle                10000:bit_error_cnt[         11]=                3396
cycle                10000:bit_error_cnt[         12]=                3439
cycle                10000:bit_error_cnt[         13]=                2920
cycle                10000:bit_error_cnt[         14]=                3074
cycle                10000:bit_error_cnt[         15]=                3240
cycle                10000:bit_error_cnt[         16]=                2676
cycle                10000:bit_error_cnt[         17]=                1447
cycle                10000:bit_error_cnt[         18]=                2235
cycle                10000:bit_error_cnt[         19]=                1870
cycle                10000:bit_error_cnt[         20]=                2027
cycle                10000:bit_error_cnt[         21]=                2376
cycle                10000:bit_error_cnt[         22]=                1470
cycle                10000:bit_error_cnt[         23]=                2676
cycle                10000:bit_error_cnt[         24]=                3304
cycle                10000:bit_error_cnt[         25]=                2844
cycle                10000:bit_error_cnt[         26]=                2765
cycle                10000:bit_error_cnt[         27]=                2444
cycle                10000:bit_error_cnt[         28]=                3392
cycle                10000:bit_error_cnt[         29]=                3242
cycle                10000:bit_error_cnt[         30]=                3636
cycle                10000:bit_error_cnt[         31]=                3423
cycle                10000:bit_error_cnt[         32]=                2615
cycle                10000:bit_error_cnt[         33]=                   1
cycle                10000:bit_error_cnt[         34]=                   1
cycle                10000:bit_error_cnt[         35]=                   1
cycle                10000:bit_error_cnt[         36]=                 296
cycle                10000:bit_error_cnt[         37]=                 191
cycle                10000:bit_error_cnt[         38]=                  75
cycle                10000:bit_error_cnt[         39]=                2283
cycle                10000:bit_error_cnt[         40]=                 607
cycle                10000:bit_error_cnt[         41]=                2056
cycle                10000:bit_error_cnt[         42]=                2099
cycle                10000:bit_error_cnt[         43]=                 138
cycle                10000:bit_error_cnt[         44]=                3837
cycle                10000:bit_error_cnt[         45]=                4513
cycle                10000:bit_error_cnt[         46]=                3930
cycle                10000:bit_error_cnt[         47]=                4111
cycle                10000:bit_error_cnt[         48]=                4509
cycle                10000:bit_error_cnt[         49]=                4765
cycle                10000:bit_error_cnt[         50]=                5051
cycle                10000:bit_error_cnt[         51]=                4964
cycle                10000:bit_error_cnt[         52]=                4904
cycle                10000:bit_error_cnt[         53]=                4868
cycle                10000:bit_error_cnt[         54]=                5022
cycle                10000:bit_error_cnt[         55]=                4815
cycle                10000:bit_error_cnt[         56]=                5028
cycle                10000:bit_error_cnt[         57]=                4872
cycle                10000:bit_error_cnt[         58]=                4737
cycle                10000:bit_error_cnt[         59]=                4954
cycle                10000:bit_error_cnt[         60]=                4920
cycle                10000:bit_error_cnt[         61]=                4687
cycle                10000:bit_error_cnt[         62]=                4962
cycle                10000:bit_error_cnt[         63]=                4941
cycle                10000:bit_error_cnt[         64]=                4951
cycle                10000:bit_error_cnt[         65]=                4787
cycle                10000:bit_error_cnt[         66]=                4581
cycle                10000:bit_error_cnt[         67]=                4755
cycle                10000:bit_error_cnt[         68]=                4666
cycle                10000:bit_error_cnt[         69]=                4101
cycle                10000:bit_error_cnt[         70]=                3450
cycle                10000:bit_error_cnt[         71]=                4580
cycle                10000:bit_error_cnt[         72]=                4489
cycle                10000:bit_error_cnt[         73]=                3669
cycle                10000:bit_error_cnt[         74]=                   1
cycle                10000:bit_error_cnt[         75]=                   1
cycle                10000:bit_error_cnt[         76]=                   1
cycle                10000:bit_error_cnt[         77]=                   1
cycle                10000:bit_error_cnt[         78]=                 282
cycle                10000:bit_error_cnt[         79]=                 453
cycle                10000:bit_error_cnt[         80]=                 635
cycle                10000:bit_error_cnt[         81]=                 893
cycle                10000:bit_error_cnt[         82]=                 439
cycle                10000:bit_error_cnt[         83]=                   0
cycle                10000:bit_error_cnt[         84]=                   1
cycle                10000:bit_error_cnt[         85]=                   0
cycle                10000:bit_error_cnt[         86]=                   0
cycle                10000:bit_error_cnt[         87]=                   0
cycle                10000:bit_error_cnt[         88]=                   0
cycle                10000:bit_error_cnt[         89]=                   0
cycle                10000:bit_error_cnt[         90]=                   0
cycle                10000:bit_error_cnt[         91]=                   0
cycle                10000:bit_error_cnt[         92]=                   0
cycle                10000:bit_error_cnt[         93]=                   0
cycle                10000:bit_error_cnt[         94]=                   0
