cycle                10000:bit_error_cnt[          0]=                   4
cycle                10000:bit_error_cnt[          1]=                   4
cycle                10000:bit_error_cnt[          2]=                   4
cycle                10000:bit_error_cnt[          3]=                6612
cycle                10000:bit_error_cnt[          4]=                   0
cycle                10000:bit_error_cnt[          5]=                   0
cycle                10000:bit_error_cnt[          6]=                   0
cycle                10000:bit_error_cnt[          7]=                   0
cycle                10000:bit_error_cnt[          8]=                   0
cycle                10000:bit_error_cnt[          9]=                   0
cycle                10000:bit_error_cnt[         10]=                   0
cycle                10000:bit_error_cnt[         11]=                   0
cycle                10000:bit_error_cnt[         12]=                   0
cycle                10000:bit_error_cnt[         13]=                   0
cycle                10000:bit_error_cnt[         14]=                   0
cycle                10000:bit_error_cnt[         15]=                   0
cycle                10000:bit_error_cnt[         16]=                   0
cycle                10000:bit_error_cnt[         17]=                   0
cycle                10000:bit_error_cnt[         18]=                   0
cycle                10000:bit_error_cnt[         19]=                   0
cycle                10000:bit_error_cnt[         20]=                   0
cycle                10000:bit_error_cnt[         21]=                   0
cycle                10000:bit_error_cnt[         22]=                   0
cycle                10000:bit_error_cnt[         23]=                   0
cycle                10000:bit_error_cnt[         24]=                   0
cycle                10000:bit_error_cnt[         25]=                   0
cycle                10000:bit_error_cnt[         26]=                   0
cycle                10000:bit_error_cnt[         27]=                   0
cycle                10000:bit_error_cnt[         28]=                   0
cycle                10000:bit_error_cnt[         29]=                   0
cycle                10000:bit_error_cnt[         30]=                   0
cycle                10000:bit_error_cnt[         31]=                   0
cycle                10000:bit_error_cnt[         32]=                   0
cycle                10000:bit_error_cnt[         33]=                   0
cycle                10000:bit_error_cnt[         34]=                   0
cycle                10000:bit_error_cnt[         35]=                   0
cycle                10000:bit_error_cnt[         36]=                   0
cycle                10000:bit_error_cnt[         37]=                6794
cycle                10000:bit_error_cnt[         38]=                6875
cycle                10000:bit_error_cnt[         39]=                6743
cycle                10000:bit_error_cnt[         40]=                6774
cycle                10000:bit_error_cnt[         41]=                6943
cycle                10000:bit_error_cnt[         42]=                6773
cycle                10000:bit_error_cnt[         43]=                6720
cycle                10000:bit_error_cnt[         44]=                6471
cycle                10000:bit_error_cnt[         45]=                6663
cycle                10000:bit_error_cnt[         46]=                6124
cycle                10000:bit_error_cnt[         47]=                5787
cycle                10000:bit_error_cnt[         48]=                5498
cycle                10000:bit_error_cnt[         49]=                5476
cycle                10000:bit_error_cnt[         50]=                5397
cycle                10000:bit_error_cnt[         51]=                5422
cycle                10000:bit_error_cnt[         52]=                5406
cycle                10000:bit_error_cnt[         53]=                4879
cycle                10000:bit_error_cnt[         54]=                4807
cycle                10000:bit_error_cnt[         55]=                4564
cycle                10000:bit_error_cnt[         56]=                4143
cycle                10000:bit_error_cnt[         57]=                3414
cycle                10000:bit_error_cnt[         58]=                3160
cycle                10000:bit_error_cnt[         59]=                3015
cycle                10000:bit_error_cnt[         60]=                2425
cycle                10000:bit_error_cnt[         61]=                1197
cycle                10000:bit_error_cnt[         62]=                 589
cycle                10000:bit_error_cnt[         63]=                 311
cycle                10000:bit_error_cnt[         64]=                 287
cycle                10000:bit_error_cnt[         65]=                 297
cycle                10000:bit_error_cnt[         66]=                 310
cycle                10000:bit_error_cnt[         67]=                 580
cycle                10000:bit_error_cnt[         68]=                 648
cycle                10000:bit_error_cnt[         69]=                 485
