cycle                10000:bit_error_cnt[          0]=                7495
cycle                10000:bit_error_cnt[          1]=                7857
cycle                10000:bit_error_cnt[          2]=                6928
cycle                10000:bit_error_cnt[          3]=                6732
cycle                10000:bit_error_cnt[          4]=                6752
cycle                10000:bit_error_cnt[          5]=                6237
cycle                10000:bit_error_cnt[          6]=                5698
cycle                10000:bit_error_cnt[          7]=                5770
cycle                10000:bit_error_cnt[          8]=                5435
cycle                10000:bit_error_cnt[          9]=                5725
cycle                10000:bit_error_cnt[         10]=                5480
cycle                10000:bit_error_cnt[         11]=                5272
cycle                10000:bit_error_cnt[         12]=                6384
cycle                10000:bit_error_cnt[         13]=                5609
cycle                10000:bit_error_cnt[         14]=                5217
cycle                10000:bit_error_cnt[         15]=                6707
cycle                10000:bit_error_cnt[         16]=                5878
cycle                10000:bit_error_cnt[         17]=                5193
cycle                10000:bit_error_cnt[         18]=                5239
cycle                10000:bit_error_cnt[         19]=                5207
cycle                10000:bit_error_cnt[         20]=                5296
cycle                10000:bit_error_cnt[         21]=                5215
cycle                10000:bit_error_cnt[         22]=                5092
cycle                10000:bit_error_cnt[         23]=                5819
cycle                10000:bit_error_cnt[         24]=                5273
cycle                10000:bit_error_cnt[         25]=                5969
cycle                10000:bit_error_cnt[         26]=                6090
cycle                10000:bit_error_cnt[         27]=                5688
cycle                10000:bit_error_cnt[         28]=                5961
cycle                10000:bit_error_cnt[         29]=                6213
cycle                10000:bit_error_cnt[         30]=                5759
cycle                10000:bit_error_cnt[         31]=                1849
cycle                10000:bit_error_cnt[         32]=                6086
cycle                10000:bit_error_cnt[         33]=                4472
