cycle                10000:bit_error_cnt[          0]=                   1
cycle                10000:bit_error_cnt[          1]=                   1
cycle                10000:bit_error_cnt[          2]=                   1
cycle                10000:bit_error_cnt[          3]=                   1
cycle                10000:bit_error_cnt[          4]=                   1
cycle                10000:bit_error_cnt[          5]=                 208
cycle                10000:bit_error_cnt[          6]=                  41
cycle                10000:bit_error_cnt[          7]=                3212
cycle                10000:bit_error_cnt[          8]=                1468
cycle                10000:bit_error_cnt[          9]=                 621
cycle                10000:bit_error_cnt[         10]=                2822
cycle                10000:bit_error_cnt[         11]=                2594
cycle                10000:bit_error_cnt[         12]=                2714
cycle                10000:bit_error_cnt[         13]=                2298
cycle                10000:bit_error_cnt[         14]=                2454
cycle                10000:bit_error_cnt[         15]=                2621
cycle                10000:bit_error_cnt[         16]=                2154
cycle                10000:bit_error_cnt[         17]=                1145
cycle                10000:bit_error_cnt[         18]=                1747
cycle                10000:bit_error_cnt[         19]=                1408
cycle                10000:bit_error_cnt[         20]=                1544
cycle                10000:bit_error_cnt[         21]=                1876
cycle                10000:bit_error_cnt[         22]=                1004
cycle                10000:bit_error_cnt[         23]=                1861
cycle                10000:bit_error_cnt[         24]=                2750
cycle                10000:bit_error_cnt[         25]=                2386
cycle                10000:bit_error_cnt[         26]=                2172
cycle                10000:bit_error_cnt[         27]=                1839
cycle                10000:bit_error_cnt[         28]=                2900
cycle                10000:bit_error_cnt[         29]=                2781
cycle                10000:bit_error_cnt[         30]=                2902
cycle                10000:bit_error_cnt[         31]=                2870
cycle                10000:bit_error_cnt[         32]=                2358
cycle                10000:bit_error_cnt[         33]=                   1
cycle                10000:bit_error_cnt[         34]=                   1
cycle                10000:bit_error_cnt[         35]=                   1
cycle                10000:bit_error_cnt[         36]=                  83
cycle                10000:bit_error_cnt[         37]=                   1
cycle                10000:bit_error_cnt[         38]=                   1
cycle                10000:bit_error_cnt[         39]=                1561
cycle                10000:bit_error_cnt[         40]=                 256
cycle                10000:bit_error_cnt[         41]=                1254
cycle                10000:bit_error_cnt[         42]=                1424
cycle                10000:bit_error_cnt[         43]=                  40
cycle                10000:bit_error_cnt[         44]=                3249
cycle                10000:bit_error_cnt[         45]=                4036
cycle                10000:bit_error_cnt[         46]=                3290
cycle                10000:bit_error_cnt[         47]=                3545
cycle                10000:bit_error_cnt[         48]=                4175
cycle                10000:bit_error_cnt[         49]=                4456
cycle                10000:bit_error_cnt[         50]=                4979
cycle                10000:bit_error_cnt[         51]=                4908
cycle                10000:bit_error_cnt[         52]=                4898
cycle                10000:bit_error_cnt[         53]=                4705
cycle                10000:bit_error_cnt[         54]=                4841
cycle                10000:bit_error_cnt[         55]=                4665
cycle                10000:bit_error_cnt[         56]=                4975
cycle                10000:bit_error_cnt[         57]=                4688
cycle                10000:bit_error_cnt[         58]=                4653
cycle                10000:bit_error_cnt[         59]=                4878
cycle                10000:bit_error_cnt[         60]=                4929
cycle                10000:bit_error_cnt[         61]=                4608
cycle                10000:bit_error_cnt[         62]=                4948
cycle                10000:bit_error_cnt[         63]=                4889
cycle                10000:bit_error_cnt[         64]=                4812
cycle                10000:bit_error_cnt[         65]=                4614
cycle                10000:bit_error_cnt[         66]=                4446
cycle                10000:bit_error_cnt[         67]=                4623
cycle                10000:bit_error_cnt[         68]=                4487
cycle                10000:bit_error_cnt[         69]=                3846
cycle                10000:bit_error_cnt[         70]=                2852
cycle                10000:bit_error_cnt[         71]=                4190
cycle                10000:bit_error_cnt[         72]=                4045
cycle                10000:bit_error_cnt[         73]=                3335
cycle                10000:bit_error_cnt[         74]=                   1
cycle                10000:bit_error_cnt[         75]=                   1
cycle                10000:bit_error_cnt[         76]=                   1
cycle                10000:bit_error_cnt[         77]=                   1
cycle                10000:bit_error_cnt[         78]=                  92
cycle                10000:bit_error_cnt[         79]=                 340
cycle                10000:bit_error_cnt[         80]=                 275
cycle                10000:bit_error_cnt[         81]=                 895
cycle                10000:bit_error_cnt[         82]=                 441
cycle                10000:bit_error_cnt[         83]=                   0
cycle                10000:bit_error_cnt[         84]=                   1
cycle                10000:bit_error_cnt[         85]=                   0
cycle                10000:bit_error_cnt[         86]=                   0
cycle                10000:bit_error_cnt[         87]=                   0
cycle                10000:bit_error_cnt[         88]=                   0
cycle                10000:bit_error_cnt[         89]=                   0
cycle                10000:bit_error_cnt[         90]=                   0
cycle                10000:bit_error_cnt[         91]=                   0
cycle                10000:bit_error_cnt[         92]=                   0
cycle                10000:bit_error_cnt[         93]=                   0
cycle                10000:bit_error_cnt[         94]=                   0
