cycle                10000:bit_error_cnt[          0]=                7890
cycle                10000:bit_error_cnt[          1]=                8369
cycle                10000:bit_error_cnt[          2]=                7541
cycle                10000:bit_error_cnt[          3]=                7287
cycle                10000:bit_error_cnt[          4]=                7197
cycle                10000:bit_error_cnt[          5]=                6769
cycle                10000:bit_error_cnt[          6]=                6175
cycle                10000:bit_error_cnt[          7]=                6084
cycle                10000:bit_error_cnt[          8]=                5731
cycle                10000:bit_error_cnt[          9]=                5950
cycle                10000:bit_error_cnt[         10]=                5563
cycle                10000:bit_error_cnt[         11]=                5394
cycle                10000:bit_error_cnt[         12]=                5867
cycle                10000:bit_error_cnt[         13]=                5763
cycle                10000:bit_error_cnt[         14]=                5571
cycle                10000:bit_error_cnt[         15]=                7064
cycle                10000:bit_error_cnt[         16]=                6071
cycle                10000:bit_error_cnt[         17]=                5262
cycle                10000:bit_error_cnt[         18]=                5264
cycle                10000:bit_error_cnt[         19]=                5335
cycle                10000:bit_error_cnt[         20]=                5430
cycle                10000:bit_error_cnt[         21]=                5336
cycle                10000:bit_error_cnt[         22]=                5151
cycle                10000:bit_error_cnt[         23]=                5819
cycle                10000:bit_error_cnt[         24]=                5359
cycle                10000:bit_error_cnt[         25]=                5742
cycle                10000:bit_error_cnt[         26]=                6139
cycle                10000:bit_error_cnt[         27]=                5613
cycle                10000:bit_error_cnt[         28]=                5834
cycle                10000:bit_error_cnt[         29]=                6108
cycle                10000:bit_error_cnt[         30]=                6805
cycle                10000:bit_error_cnt[         31]=                2502
cycle                10000:bit_error_cnt[         32]=                7215
cycle                10000:bit_error_cnt[         33]=                5941
