cycle                10000:bit_error_cnt[          0]=                   3
cycle                10000:bit_error_cnt[          1]=                   3
cycle                10000:bit_error_cnt[          2]=                   3
cycle                10000:bit_error_cnt[          3]=                   0
cycle                10000:bit_error_cnt[          4]=                  41
cycle                10000:bit_error_cnt[          5]=                  65
cycle                10000:bit_error_cnt[          6]=                  81
cycle                10000:bit_error_cnt[          7]=                  96
cycle                10000:bit_error_cnt[          8]=                  97
cycle                10000:bit_error_cnt[          9]=                  99
cycle                10000:bit_error_cnt[         10]=                 104
cycle                10000:bit_error_cnt[         11]=                 125
cycle                10000:bit_error_cnt[         12]=                 101
cycle                10000:bit_error_cnt[         13]=                 175
cycle                10000:bit_error_cnt[         14]=                 206
cycle                10000:bit_error_cnt[         15]=                 336
cycle                10000:bit_error_cnt[         16]=                 392
cycle                10000:bit_error_cnt[         17]=                 789
cycle                10000:bit_error_cnt[         18]=                 714
cycle                10000:bit_error_cnt[         19]=                 499
cycle                10000:bit_error_cnt[         20]=                 378
cycle                10000:bit_error_cnt[         21]=                 298
cycle                10000:bit_error_cnt[         22]=                 335
cycle                10000:bit_error_cnt[         23]=                 460
cycle                10000:bit_error_cnt[         24]=                 425
cycle                10000:bit_error_cnt[         25]=                 924
cycle                10000:bit_error_cnt[         26]=                1199
cycle                10000:bit_error_cnt[         27]=                1289
cycle                10000:bit_error_cnt[         28]=                1809
cycle                10000:bit_error_cnt[         29]=                2897
cycle                10000:bit_error_cnt[         30]=                2795
cycle                10000:bit_error_cnt[         31]=                1988
cycle                10000:bit_error_cnt[         32]=                1756
cycle                10000:bit_error_cnt[         33]=                1562
cycle                10000:bit_error_cnt[         34]=                2064
cycle                10000:bit_error_cnt[         35]=                1996
cycle                10000:bit_error_cnt[         36]=                1912
cycle                10000:bit_error_cnt[         37]=                1712
cycle                10000:bit_error_cnt[         38]=                1704
cycle                10000:bit_error_cnt[         39]=                1678
cycle                10000:bit_error_cnt[         40]=                1307
cycle                10000:bit_error_cnt[         41]=                1226
cycle                10000:bit_error_cnt[         42]=                1274
cycle                10000:bit_error_cnt[         43]=                1022
cycle                10000:bit_error_cnt[         44]=                 844
cycle                10000:bit_error_cnt[         45]=                 729
cycle                10000:bit_error_cnt[         46]=                 662
cycle                10000:bit_error_cnt[         47]=                 561
cycle                10000:bit_error_cnt[         48]=                 430
cycle                10000:bit_error_cnt[         49]=                 221
cycle                10000:bit_error_cnt[         50]=                  88
cycle                10000:bit_error_cnt[         51]=                1289
cycle                10000:bit_error_cnt[         52]=                1809
cycle                10000:bit_error_cnt[         53]=                2897
cycle                10000:bit_error_cnt[         54]=                2795
cycle                10000:bit_error_cnt[         55]=                1988
cycle                10000:bit_error_cnt[         56]=                1756
cycle                10000:bit_error_cnt[         57]=                1562
cycle                10000:bit_error_cnt[         58]=                2064
cycle                10000:bit_error_cnt[         59]=                1996
cycle                10000:bit_error_cnt[         60]=                1912
cycle                10000:bit_error_cnt[         61]=                1712
cycle                10000:bit_error_cnt[         62]=                1704
cycle                10000:bit_error_cnt[         63]=                1678
cycle                10000:bit_error_cnt[         64]=                1307
cycle                10000:bit_error_cnt[         65]=                1226
cycle                10000:bit_error_cnt[         66]=                1274
cycle                10000:bit_error_cnt[         67]=                1022
cycle                10000:bit_error_cnt[         68]=                 844
cycle                10000:bit_error_cnt[         69]=                 729
cycle                10000:bit_error_cnt[         70]=                 662
cycle                10000:bit_error_cnt[         71]=                 561
cycle                10000:bit_error_cnt[         72]=                 430
cycle                10000:bit_error_cnt[         73]=                 221
cycle                10000:bit_error_cnt[         74]=                  88
cycle                10000:bit_error_cnt[         75]=                 168
cycle                10000:bit_error_cnt[         76]=                  80
cycle                10000:bit_error_cnt[         77]=                1247
cycle                10000:bit_error_cnt[         78]=                 616
cycle                10000:bit_error_cnt[         79]=                 574
cycle                10000:bit_error_cnt[         80]=                 336
cycle                10000:bit_error_cnt[         81]=                 162
cycle                10000:bit_error_cnt[         82]=                 125
cycle                10000:bit_error_cnt[         83]=                 119
cycle                10000:bit_error_cnt[         84]=                  51
