cycle                10000:bit_error_cnt[          0]=               10000
cycle                10000:bit_error_cnt[          1]=               10000
cycle                10000:bit_error_cnt[          2]=                3481
cycle                10000:bit_error_cnt[          3]=                5749
cycle                10000:bit_error_cnt[          4]=                9036
cycle                10000:bit_error_cnt[          5]=                9202
cycle                10000:bit_error_cnt[          6]=               10000
cycle                10000:bit_error_cnt[          7]=                9900
cycle                10000:bit_error_cnt[          8]=               10000
cycle                10000:bit_error_cnt[          9]=                9958
cycle                10000:bit_error_cnt[         10]=                9978
cycle                10000:bit_error_cnt[         11]=                9982
cycle                10000:bit_error_cnt[         12]=                9996
cycle                10000:bit_error_cnt[         13]=                9984
cycle                10000:bit_error_cnt[         14]=                9896
cycle                10000:bit_error_cnt[         15]=                9851
cycle                10000:bit_error_cnt[         16]=                9702
cycle                10000:bit_error_cnt[         17]=                9577
cycle                10000:bit_error_cnt[         18]=                9580
cycle                10000:bit_error_cnt[         19]=                9536
cycle                10000:bit_error_cnt[         20]=                9562
cycle                10000:bit_error_cnt[         21]=                9547
cycle                10000:bit_error_cnt[         22]=                9537
cycle                10000:bit_error_cnt[         23]=                9549
cycle                10000:bit_error_cnt[         24]=                9581
cycle                10000:bit_error_cnt[         25]=                9570
cycle                10000:bit_error_cnt[         26]=                9568
cycle                10000:bit_error_cnt[         27]=                9610
cycle                10000:bit_error_cnt[         28]=                9562
cycle                10000:bit_error_cnt[         29]=                9613
cycle                10000:bit_error_cnt[         30]=                9512
cycle                10000:bit_error_cnt[         31]=                9428
cycle                10000:bit_error_cnt[         32]=                9206
cycle                10000:bit_error_cnt[         33]=                3581
cycle                10000:bit_error_cnt[         34]=                4612
cycle                10000:bit_error_cnt[         35]=                7989
cycle                10000:bit_error_cnt[         36]=                8269
cycle                10000:bit_error_cnt[         37]=                9630
cycle                10000:bit_error_cnt[         38]=                9697
cycle                10000:bit_error_cnt[         39]=                9978
cycle                10000:bit_error_cnt[         40]=                9971
cycle                10000:bit_error_cnt[         41]=                9975
cycle                10000:bit_error_cnt[         42]=                9984
cycle                10000:bit_error_cnt[         43]=                9979
cycle                10000:bit_error_cnt[         44]=                9998
cycle                10000:bit_error_cnt[         45]=               10000
cycle                10000:bit_error_cnt[         46]=               10000
cycle                10000:bit_error_cnt[         47]=               10000
cycle                10000:bit_error_cnt[         48]=               10000
cycle                10000:bit_error_cnt[         49]=               10000
cycle                10000:bit_error_cnt[         50]=               10000
cycle                10000:bit_error_cnt[         51]=               10000
cycle                10000:bit_error_cnt[         52]=               10000
cycle                10000:bit_error_cnt[         53]=               10000
cycle                10000:bit_error_cnt[         54]=               10000
cycle                10000:bit_error_cnt[         55]=               10000
cycle                10000:bit_error_cnt[         56]=               10000
cycle                10000:bit_error_cnt[         57]=               10000
cycle                10000:bit_error_cnt[         58]=               10000
cycle                10000:bit_error_cnt[         59]=                9999
cycle                10000:bit_error_cnt[         60]=               10000
cycle                10000:bit_error_cnt[         61]=               10000
cycle                10000:bit_error_cnt[         62]=               10000
cycle                10000:bit_error_cnt[         63]=               10000
cycle                10000:bit_error_cnt[         64]=               10000
cycle                10000:bit_error_cnt[         65]=               10000
cycle                10000:bit_error_cnt[         66]=                9999
cycle                10000:bit_error_cnt[         67]=                9999
cycle                10000:bit_error_cnt[         68]=               10000
cycle                10000:bit_error_cnt[         69]=               10000
cycle                10000:bit_error_cnt[         70]=               10000
cycle                10000:bit_error_cnt[         71]=               10000
cycle                10000:bit_error_cnt[         72]=                9865
cycle                10000:bit_error_cnt[         73]=                9757
cycle                10000:bit_error_cnt[         74]=               10000
cycle                10000:bit_error_cnt[         75]=               10000
cycle                10000:bit_error_cnt[         76]=               10000
cycle                10000:bit_error_cnt[         77]=               10000
cycle                10000:bit_error_cnt[         78]=               10000
cycle                10000:bit_error_cnt[         79]=               10000
cycle                10000:bit_error_cnt[         80]=               10000
cycle                10000:bit_error_cnt[         81]=               10000
cycle                10000:bit_error_cnt[         82]=               10000
cycle                10000:bit_error_cnt[         83]=                   0
cycle                10000:bit_error_cnt[         84]=               10000
cycle                10000:bit_error_cnt[         85]=                   0
cycle                10000:bit_error_cnt[         86]=                   0
cycle                10000:bit_error_cnt[         87]=                   0
cycle                10000:bit_error_cnt[         88]=                   0
cycle                10000:bit_error_cnt[         89]=                   0
cycle                10000:bit_error_cnt[         90]=                   0
cycle                10000:bit_error_cnt[         91]=                   0
cycle                10000:bit_error_cnt[         92]=                   0
cycle                10000:bit_error_cnt[         93]=                   0
cycle                10000:bit_error_cnt[         94]=                   0
