cycle                10000:bit_error_cnt[          0]=                   2
cycle                10000:bit_error_cnt[          1]=                   2
cycle                10000:bit_error_cnt[          2]=                   0
cycle                10000:bit_error_cnt[          3]=                   6
cycle                10000:bit_error_cnt[          4]=                  12
cycle                10000:bit_error_cnt[          5]=                  12
cycle                10000:bit_error_cnt[          6]=                  15
cycle                10000:bit_error_cnt[          7]=                  12
cycle                10000:bit_error_cnt[          8]=                  13
cycle                10000:bit_error_cnt[          9]=                  17
cycle                10000:bit_error_cnt[         10]=                  16
cycle                10000:bit_error_cnt[         11]=                2955
cycle                10000:bit_error_cnt[         12]=                5010
cycle                10000:bit_error_cnt[         13]=                4253
cycle                10000:bit_error_cnt[         14]=                2663
cycle                10000:bit_error_cnt[         15]=                2375
cycle                10000:bit_error_cnt[         16]=                2192
cycle                10000:bit_error_cnt[         17]=                3222
cycle                10000:bit_error_cnt[         18]=                3500
cycle                10000:bit_error_cnt[         19]=                2398
cycle                10000:bit_error_cnt[         20]=                2531
cycle                10000:bit_error_cnt[         21]=                3736
cycle                10000:bit_error_cnt[         22]=                2976
cycle                10000:bit_error_cnt[         23]=                1656
cycle                10000:bit_error_cnt[         24]=                1491
cycle                10000:bit_error_cnt[         25]=                1006
cycle                10000:bit_error_cnt[         26]=                 995
cycle                10000:bit_error_cnt[         27]=                 674
cycle                10000:bit_error_cnt[         28]=                2590
cycle                10000:bit_error_cnt[         29]=                2187
cycle                10000:bit_error_cnt[         30]=                1860
cycle                10000:bit_error_cnt[         31]=                1993
cycle                10000:bit_error_cnt[         32]=                1137
cycle                10000:bit_error_cnt[         33]=                2543
cycle                10000:bit_error_cnt[         34]=                2518
cycle                10000:bit_error_cnt[         35]=                1631
cycle                10000:bit_error_cnt[         36]=                 886
cycle                10000:bit_error_cnt[         37]=                 539
cycle                10000:bit_error_cnt[         38]=                 404
cycle                10000:bit_error_cnt[         39]=                1777
cycle                10000:bit_error_cnt[         40]=                 841
cycle                10000:bit_error_cnt[         41]=                 126
cycle                10000:bit_error_cnt[         42]=                  87
cycle                10000:bit_error_cnt[         43]=                  57
cycle                10000:bit_error_cnt[         44]=                  44
cycle                10000:bit_error_cnt[         45]=                  26
cycle                10000:bit_error_cnt[         46]=                  53
cycle                10000:bit_error_cnt[         47]=                  57
cycle                10000:bit_error_cnt[         48]=                  19
cycle                10000:bit_error_cnt[         49]=                  11
cycle                10000:bit_error_cnt[         50]=                  25
cycle                10000:bit_error_cnt[         51]=                   2
cycle                10000:bit_error_cnt[         52]=                   2
cycle                10000:bit_error_cnt[         53]=                   2
cycle                10000:bit_error_cnt[         54]=                   2
cycle                10000:bit_error_cnt[         55]=                 152
cycle                10000:bit_error_cnt[         56]=                 460
cycle                10000:bit_error_cnt[         57]=                 421
cycle                10000:bit_error_cnt[         58]=                 234
cycle                10000:bit_error_cnt[         59]=                 167
cycle                10000:bit_error_cnt[         60]=                 702
cycle                10000:bit_error_cnt[         61]=                  76
