cycle                10000:bit_error_cnt[          0]=                   3
cycle                10000:bit_error_cnt[          1]=                   3
cycle                10000:bit_error_cnt[          2]=                   3
cycle                10000:bit_error_cnt[          3]=                   0
cycle                10000:bit_error_cnt[          4]=                  88
cycle                10000:bit_error_cnt[          5]=                 138
cycle                10000:bit_error_cnt[          6]=                 177
cycle                10000:bit_error_cnt[          7]=                 208
cycle                10000:bit_error_cnt[          8]=                 215
cycle                10000:bit_error_cnt[          9]=                 218
cycle                10000:bit_error_cnt[         10]=                 212
cycle                10000:bit_error_cnt[         11]=                 333
cycle                10000:bit_error_cnt[         12]=                 295
cycle                10000:bit_error_cnt[         13]=                 473
cycle                10000:bit_error_cnt[         14]=                 669
cycle                10000:bit_error_cnt[         15]=                 826
cycle                10000:bit_error_cnt[         16]=                 845
cycle                10000:bit_error_cnt[         17]=                1431
cycle                10000:bit_error_cnt[         18]=                1338
cycle                10000:bit_error_cnt[         19]=                 994
cycle                10000:bit_error_cnt[         20]=                 790
cycle                10000:bit_error_cnt[         21]=                 618
cycle                10000:bit_error_cnt[         22]=                 732
cycle                10000:bit_error_cnt[         23]=                1122
cycle                10000:bit_error_cnt[         24]=                1037
cycle                10000:bit_error_cnt[         25]=                1571
cycle                10000:bit_error_cnt[         26]=                2000
cycle                10000:bit_error_cnt[         27]=                2243
cycle                10000:bit_error_cnt[         28]=                2933
cycle                10000:bit_error_cnt[         29]=                4069
cycle                10000:bit_error_cnt[         30]=                3797
cycle                10000:bit_error_cnt[         31]=                2980
cycle                10000:bit_error_cnt[         32]=                2700
cycle                10000:bit_error_cnt[         33]=                2533
cycle                10000:bit_error_cnt[         34]=                3040
cycle                10000:bit_error_cnt[         35]=                2961
cycle                10000:bit_error_cnt[         36]=                2808
cycle                10000:bit_error_cnt[         37]=                2561
cycle                10000:bit_error_cnt[         38]=                2540
cycle                10000:bit_error_cnt[         39]=                2453
cycle                10000:bit_error_cnt[         40]=                1985
cycle                10000:bit_error_cnt[         41]=                1740
cycle                10000:bit_error_cnt[         42]=                1855
cycle                10000:bit_error_cnt[         43]=                1568
cycle                10000:bit_error_cnt[         44]=                1316
cycle                10000:bit_error_cnt[         45]=                1227
cycle                10000:bit_error_cnt[         46]=                1173
cycle                10000:bit_error_cnt[         47]=                 993
cycle                10000:bit_error_cnt[         48]=                 789
cycle                10000:bit_error_cnt[         49]=                 452
cycle                10000:bit_error_cnt[         50]=                 192
cycle                10000:bit_error_cnt[         51]=                2243
cycle                10000:bit_error_cnt[         52]=                2933
cycle                10000:bit_error_cnt[         53]=                4069
cycle                10000:bit_error_cnt[         54]=                3797
cycle                10000:bit_error_cnt[         55]=                2980
cycle                10000:bit_error_cnt[         56]=                2700
cycle                10000:bit_error_cnt[         57]=                2533
cycle                10000:bit_error_cnt[         58]=                3040
cycle                10000:bit_error_cnt[         59]=                2961
cycle                10000:bit_error_cnt[         60]=                2808
cycle                10000:bit_error_cnt[         61]=                2561
cycle                10000:bit_error_cnt[         62]=                2540
cycle                10000:bit_error_cnt[         63]=                2453
cycle                10000:bit_error_cnt[         64]=                1985
cycle                10000:bit_error_cnt[         65]=                1740
cycle                10000:bit_error_cnt[         66]=                1855
cycle                10000:bit_error_cnt[         67]=                1568
cycle                10000:bit_error_cnt[         68]=                1316
cycle                10000:bit_error_cnt[         69]=                1227
cycle                10000:bit_error_cnt[         70]=                1173
cycle                10000:bit_error_cnt[         71]=                 993
cycle                10000:bit_error_cnt[         72]=                 789
cycle                10000:bit_error_cnt[         73]=                 452
cycle                10000:bit_error_cnt[         74]=                 192
cycle                10000:bit_error_cnt[         75]=                 337
cycle                10000:bit_error_cnt[         76]=                 160
cycle                10000:bit_error_cnt[         77]=                1382
cycle                10000:bit_error_cnt[         78]=                 800
cycle                10000:bit_error_cnt[         79]=                 641
cycle                10000:bit_error_cnt[         80]=                 337
cycle                10000:bit_error_cnt[         81]=                 220
cycle                10000:bit_error_cnt[         82]=                 184
cycle                10000:bit_error_cnt[         83]=                 155
cycle                10000:bit_error_cnt[         84]=                  89
