cycle                10000:bit_error_cnt[          0]=               10000
cycle                10000:bit_error_cnt[          1]=               10000
cycle                10000:bit_error_cnt[          2]=                2813
cycle                10000:bit_error_cnt[          3]=                4650
cycle                10000:bit_error_cnt[          4]=                7022
cycle                10000:bit_error_cnt[          5]=                8028
cycle                10000:bit_error_cnt[          6]=                9419
cycle                10000:bit_error_cnt[          7]=                9434
cycle                10000:bit_error_cnt[          8]=                9691
cycle                10000:bit_error_cnt[          9]=                9669
cycle                10000:bit_error_cnt[         10]=                9819
cycle                10000:bit_error_cnt[         11]=                9873
cycle                10000:bit_error_cnt[         12]=                9895
cycle                10000:bit_error_cnt[         13]=                9858
cycle                10000:bit_error_cnt[         14]=                9696
cycle                10000:bit_error_cnt[         15]=                9412
cycle                10000:bit_error_cnt[         16]=                9184
cycle                10000:bit_error_cnt[         17]=                8882
cycle                10000:bit_error_cnt[         18]=                8748
cycle                10000:bit_error_cnt[         19]=                8666
cycle                10000:bit_error_cnt[         20]=                8646
cycle                10000:bit_error_cnt[         21]=                8530
cycle                10000:bit_error_cnt[         22]=                8540
cycle                10000:bit_error_cnt[         23]=                8796
cycle                10000:bit_error_cnt[         24]=                8909
cycle                10000:bit_error_cnt[         25]=                8795
cycle                10000:bit_error_cnt[         26]=                8750
cycle                10000:bit_error_cnt[         27]=                8788
cycle                10000:bit_error_cnt[         28]=                8816
cycle                10000:bit_error_cnt[         29]=                9058
cycle                10000:bit_error_cnt[         30]=                8957
cycle                10000:bit_error_cnt[         31]=                8564
cycle                10000:bit_error_cnt[         32]=                8510
cycle                10000:bit_error_cnt[         33]=                2745
cycle                10000:bit_error_cnt[         34]=                4713
cycle                10000:bit_error_cnt[         35]=                6804
cycle                10000:bit_error_cnt[         36]=                6338
cycle                10000:bit_error_cnt[         37]=                8484
cycle                10000:bit_error_cnt[         38]=                8358
cycle                10000:bit_error_cnt[         39]=                9151
cycle                10000:bit_error_cnt[         40]=                9073
cycle                10000:bit_error_cnt[         41]=                9414
cycle                10000:bit_error_cnt[         42]=                9479
cycle                10000:bit_error_cnt[         43]=                9340
cycle                10000:bit_error_cnt[         44]=                9780
cycle                10000:bit_error_cnt[         45]=                9887
cycle                10000:bit_error_cnt[         46]=                9934
cycle                10000:bit_error_cnt[         47]=                9970
cycle                10000:bit_error_cnt[         48]=                9948
cycle                10000:bit_error_cnt[         49]=                9923
cycle                10000:bit_error_cnt[         50]=                9892
cycle                10000:bit_error_cnt[         51]=                9920
cycle                10000:bit_error_cnt[         52]=                9956
cycle                10000:bit_error_cnt[         53]=                9954
cycle                10000:bit_error_cnt[         54]=                9954
cycle                10000:bit_error_cnt[         55]=                9934
cycle                10000:bit_error_cnt[         56]=                9832
cycle                10000:bit_error_cnt[         57]=                9460
cycle                10000:bit_error_cnt[         58]=                9112
cycle                10000:bit_error_cnt[         59]=                8710
cycle                10000:bit_error_cnt[         60]=                8338
cycle                10000:bit_error_cnt[         61]=                8475
cycle                10000:bit_error_cnt[         62]=                8407
cycle                10000:bit_error_cnt[         63]=                8513
cycle                10000:bit_error_cnt[         64]=                8599
cycle                10000:bit_error_cnt[         65]=                8477
cycle                10000:bit_error_cnt[         66]=                8346
cycle                10000:bit_error_cnt[         67]=                8513
cycle                10000:bit_error_cnt[         68]=                8433
cycle                10000:bit_error_cnt[         69]=                7962
cycle                10000:bit_error_cnt[         70]=                7112
cycle                10000:bit_error_cnt[         71]=                6297
cycle                10000:bit_error_cnt[         72]=                5523
cycle                10000:bit_error_cnt[         73]=                5411
cycle                10000:bit_error_cnt[         74]=               10000
cycle                10000:bit_error_cnt[         75]=               10000
cycle                10000:bit_error_cnt[         76]=               10000
cycle                10000:bit_error_cnt[         77]=               10000
cycle                10000:bit_error_cnt[         78]=               10000
cycle                10000:bit_error_cnt[         79]=               10000
cycle                10000:bit_error_cnt[         80]=               10000
cycle                10000:bit_error_cnt[         81]=               10000
cycle                10000:bit_error_cnt[         82]=               10000
cycle                10000:bit_error_cnt[         83]=                   0
cycle                10000:bit_error_cnt[         84]=               10000
cycle                10000:bit_error_cnt[         85]=                   0
cycle                10000:bit_error_cnt[         86]=                   0
cycle                10000:bit_error_cnt[         87]=                   0
cycle                10000:bit_error_cnt[         88]=                   0
cycle                10000:bit_error_cnt[         89]=                   0
cycle                10000:bit_error_cnt[         90]=                   0
cycle                10000:bit_error_cnt[         91]=                   0
cycle                10000:bit_error_cnt[         92]=                   0
cycle                10000:bit_error_cnt[         93]=                   0
cycle                10000:bit_error_cnt[         94]=                   0
