cycle                10000:bit_error_cnt[          0]=                   4
cycle                10000:bit_error_cnt[          1]=                   4
cycle                10000:bit_error_cnt[          2]=                   4
cycle                10000:bit_error_cnt[          3]=                6825
cycle                10000:bit_error_cnt[          4]=                   0
cycle                10000:bit_error_cnt[          5]=                   0
cycle                10000:bit_error_cnt[          6]=                   0
cycle                10000:bit_error_cnt[          7]=                   0
cycle                10000:bit_error_cnt[          8]=                   0
cycle                10000:bit_error_cnt[          9]=                   0
cycle                10000:bit_error_cnt[         10]=                   0
cycle                10000:bit_error_cnt[         11]=                   0
cycle                10000:bit_error_cnt[         12]=                   0
cycle                10000:bit_error_cnt[         13]=                   0
cycle                10000:bit_error_cnt[         14]=                   0
cycle                10000:bit_error_cnt[         15]=                   0
cycle                10000:bit_error_cnt[         16]=                   0
cycle                10000:bit_error_cnt[         17]=                   0
cycle                10000:bit_error_cnt[         18]=                   0
cycle                10000:bit_error_cnt[         19]=                   0
cycle                10000:bit_error_cnt[         20]=                   0
cycle                10000:bit_error_cnt[         21]=                   0
cycle                10000:bit_error_cnt[         22]=                   0
cycle                10000:bit_error_cnt[         23]=                   0
cycle                10000:bit_error_cnt[         24]=                   0
cycle                10000:bit_error_cnt[         25]=                   0
cycle                10000:bit_error_cnt[         26]=                   0
cycle                10000:bit_error_cnt[         27]=                   0
cycle                10000:bit_error_cnt[         28]=                   0
cycle                10000:bit_error_cnt[         29]=                   0
cycle                10000:bit_error_cnt[         30]=                   0
cycle                10000:bit_error_cnt[         31]=                   0
cycle                10000:bit_error_cnt[         32]=                   0
cycle                10000:bit_error_cnt[         33]=                   0
cycle                10000:bit_error_cnt[         34]=                   0
cycle                10000:bit_error_cnt[         35]=                   0
cycle                10000:bit_error_cnt[         36]=                   0
cycle                10000:bit_error_cnt[         37]=                6989
cycle                10000:bit_error_cnt[         38]=                7136
cycle                10000:bit_error_cnt[         39]=                6838
cycle                10000:bit_error_cnt[         40]=                6927
cycle                10000:bit_error_cnt[         41]=                6999
cycle                10000:bit_error_cnt[         42]=                7000
cycle                10000:bit_error_cnt[         43]=                6959
cycle                10000:bit_error_cnt[         44]=                6965
cycle                10000:bit_error_cnt[         45]=                6815
cycle                10000:bit_error_cnt[         46]=                6328
cycle                10000:bit_error_cnt[         47]=                5940
cycle                10000:bit_error_cnt[         48]=                5654
cycle                10000:bit_error_cnt[         49]=                5677
cycle                10000:bit_error_cnt[         50]=                5605
cycle                10000:bit_error_cnt[         51]=                5682
cycle                10000:bit_error_cnt[         52]=                5702
cycle                10000:bit_error_cnt[         53]=                5158
cycle                10000:bit_error_cnt[         54]=                5120
cycle                10000:bit_error_cnt[         55]=                4912
cycle                10000:bit_error_cnt[         56]=                4544
cycle                10000:bit_error_cnt[         57]=                3841
cycle                10000:bit_error_cnt[         58]=                3746
cycle                10000:bit_error_cnt[         59]=                3722
cycle                10000:bit_error_cnt[         60]=                3037
cycle                10000:bit_error_cnt[         61]=                1503
cycle                10000:bit_error_cnt[         62]=                 736
cycle                10000:bit_error_cnt[         63]=                 389
cycle                10000:bit_error_cnt[         64]=                 364
cycle                10000:bit_error_cnt[         65]=                 457
cycle                10000:bit_error_cnt[         66]=                 417
cycle                10000:bit_error_cnt[         67]=                 666
cycle                10000:bit_error_cnt[         68]=                 604
cycle                10000:bit_error_cnt[         69]=                 416
