cycle                10000:bit_error_cnt[          0]=                7067
cycle                10000:bit_error_cnt[          1]=                7410
cycle                10000:bit_error_cnt[          2]=                7007
cycle                10000:bit_error_cnt[          3]=                6738
cycle                10000:bit_error_cnt[          4]=                6726
cycle                10000:bit_error_cnt[          5]=                6368
cycle                10000:bit_error_cnt[          6]=                5624
cycle                10000:bit_error_cnt[          7]=                5656
cycle                10000:bit_error_cnt[          8]=                5410
cycle                10000:bit_error_cnt[          9]=                5828
cycle                10000:bit_error_cnt[         10]=                5515
cycle                10000:bit_error_cnt[         11]=                5241
cycle                10000:bit_error_cnt[         12]=                6324
cycle                10000:bit_error_cnt[         13]=                5430
cycle                10000:bit_error_cnt[         14]=                5203
cycle                10000:bit_error_cnt[         15]=                6031
cycle                10000:bit_error_cnt[         16]=                5874
cycle                10000:bit_error_cnt[         17]=                5209
cycle                10000:bit_error_cnt[         18]=                5164
cycle                10000:bit_error_cnt[         19]=                5185
cycle                10000:bit_error_cnt[         20]=                5212
cycle                10000:bit_error_cnt[         21]=                5148
cycle                10000:bit_error_cnt[         22]=                5141
cycle                10000:bit_error_cnt[         23]=                5806
cycle                10000:bit_error_cnt[         24]=                5694
cycle                10000:bit_error_cnt[         25]=                6178
cycle                10000:bit_error_cnt[         26]=                6022
cycle                10000:bit_error_cnt[         27]=                5587
cycle                10000:bit_error_cnt[         28]=                5751
cycle                10000:bit_error_cnt[         29]=                5896
cycle                10000:bit_error_cnt[         30]=                6679
cycle                10000:bit_error_cnt[         31]=                1849
cycle                10000:bit_error_cnt[         32]=                7302
cycle                10000:bit_error_cnt[         33]=                5981
