cycle                10000:bit_error_cnt[          0]=                   2
cycle                10000:bit_error_cnt[          1]=                   2
cycle                10000:bit_error_cnt[          2]=                   0
cycle                10000:bit_error_cnt[          3]=                   2
cycle                10000:bit_error_cnt[          4]=                   2
cycle                10000:bit_error_cnt[          5]=                   2
cycle                10000:bit_error_cnt[          6]=                   2
cycle                10000:bit_error_cnt[          7]=                   2
cycle                10000:bit_error_cnt[          8]=                   2
cycle                10000:bit_error_cnt[          9]=                   2
cycle                10000:bit_error_cnt[         10]=                   2
cycle                10000:bit_error_cnt[         11]=                1546
cycle                10000:bit_error_cnt[         12]=                3678
cycle                10000:bit_error_cnt[         13]=                2605
cycle                10000:bit_error_cnt[         14]=                1534
cycle                10000:bit_error_cnt[         15]=                1183
cycle                10000:bit_error_cnt[         16]=                1321
cycle                10000:bit_error_cnt[         17]=                1875
cycle                10000:bit_error_cnt[         18]=                2771
cycle                10000:bit_error_cnt[         19]=                1631
cycle                10000:bit_error_cnt[         20]=                1603
cycle                10000:bit_error_cnt[         21]=                2649
cycle                10000:bit_error_cnt[         22]=                2030
cycle                10000:bit_error_cnt[         23]=                1339
cycle                10000:bit_error_cnt[         24]=                 961
cycle                10000:bit_error_cnt[         25]=                 435
cycle                10000:bit_error_cnt[         26]=                 442
cycle                10000:bit_error_cnt[         27]=                 410
cycle                10000:bit_error_cnt[         28]=                1355
cycle                10000:bit_error_cnt[         29]=                2072
cycle                10000:bit_error_cnt[         30]=                1847
cycle                10000:bit_error_cnt[         31]=                1149
cycle                10000:bit_error_cnt[         32]=                 782
cycle                10000:bit_error_cnt[         33]=                1948
cycle                10000:bit_error_cnt[         34]=                1920
cycle                10000:bit_error_cnt[         35]=                1332
cycle                10000:bit_error_cnt[         36]=                 826
cycle                10000:bit_error_cnt[         37]=                 412
cycle                10000:bit_error_cnt[         38]=                 252
cycle                10000:bit_error_cnt[         39]=                 218
cycle                10000:bit_error_cnt[         40]=                 147
cycle                10000:bit_error_cnt[         41]=                  83
cycle                10000:bit_error_cnt[         42]=                  49
cycle                10000:bit_error_cnt[         43]=                  23
cycle                10000:bit_error_cnt[         44]=                  10
cycle                10000:bit_error_cnt[         45]=                   6
cycle                10000:bit_error_cnt[         46]=                   4
cycle                10000:bit_error_cnt[         47]=                   2
cycle                10000:bit_error_cnt[         48]=                   2
cycle                10000:bit_error_cnt[         49]=                   2
cycle                10000:bit_error_cnt[         50]=                   2
cycle                10000:bit_error_cnt[         51]=                   2
cycle                10000:bit_error_cnt[         52]=                   2
cycle                10000:bit_error_cnt[         53]=                   2
cycle                10000:bit_error_cnt[         54]=                   2
cycle                10000:bit_error_cnt[         55]=                   2
cycle                10000:bit_error_cnt[         56]=                 237
cycle                10000:bit_error_cnt[         57]=                 302
cycle                10000:bit_error_cnt[         58]=                 216
cycle                10000:bit_error_cnt[         59]=                 112
cycle                10000:bit_error_cnt[         60]=                  91
cycle                10000:bit_error_cnt[         61]=                  33
