cycle                10000:bit_error_cnt[          0]=                   1
cycle                10000:bit_error_cnt[          1]=                   1
cycle                10000:bit_error_cnt[          2]=                   1
cycle                10000:bit_error_cnt[          3]=                   1
cycle                10000:bit_error_cnt[          4]=                   1
cycle                10000:bit_error_cnt[          5]=                   1
cycle                10000:bit_error_cnt[          6]=                   1
cycle                10000:bit_error_cnt[          7]=                2024
cycle                10000:bit_error_cnt[          8]=                 509
cycle                10000:bit_error_cnt[          9]=                   1
cycle                10000:bit_error_cnt[         10]=                1354
cycle                10000:bit_error_cnt[         11]=                1230
cycle                10000:bit_error_cnt[         12]=                1506
cycle                10000:bit_error_cnt[         13]=                1193
cycle                10000:bit_error_cnt[         14]=                1293
cycle                10000:bit_error_cnt[         15]=                1712
cycle                10000:bit_error_cnt[         16]=                1079
cycle                10000:bit_error_cnt[         17]=                 694
cycle                10000:bit_error_cnt[         18]=                 817
cycle                10000:bit_error_cnt[         19]=                 470
cycle                10000:bit_error_cnt[         20]=                 836
cycle                10000:bit_error_cnt[         21]=                 993
cycle                10000:bit_error_cnt[         22]=                 417
cycle                10000:bit_error_cnt[         23]=                 991
cycle                10000:bit_error_cnt[         24]=                1463
cycle                10000:bit_error_cnt[         25]=                1259
cycle                10000:bit_error_cnt[         26]=                 980
cycle                10000:bit_error_cnt[         27]=                 935
cycle                10000:bit_error_cnt[         28]=                1810
cycle                10000:bit_error_cnt[         29]=                1946
cycle                10000:bit_error_cnt[         30]=                1979
cycle                10000:bit_error_cnt[         31]=                2031
cycle                10000:bit_error_cnt[         32]=                1495
cycle                10000:bit_error_cnt[         33]=                   1
cycle                10000:bit_error_cnt[         34]=                   1
cycle                10000:bit_error_cnt[         35]=                   1
cycle                10000:bit_error_cnt[         36]=                   1
cycle                10000:bit_error_cnt[         37]=                   1
cycle                10000:bit_error_cnt[         38]=                   1
cycle                10000:bit_error_cnt[         39]=                 391
cycle                10000:bit_error_cnt[         40]=                  10
cycle                10000:bit_error_cnt[         41]=                 305
cycle                10000:bit_error_cnt[         42]=                 365
cycle                10000:bit_error_cnt[         43]=                   1
cycle                10000:bit_error_cnt[         44]=                1914
cycle                10000:bit_error_cnt[         45]=                2471
cycle                10000:bit_error_cnt[         46]=                1964
cycle                10000:bit_error_cnt[         47]=                2187
cycle                10000:bit_error_cnt[         48]=                3132
cycle                10000:bit_error_cnt[         49]=                3535
cycle                10000:bit_error_cnt[         50]=                4852
cycle                10000:bit_error_cnt[         51]=                4708
cycle                10000:bit_error_cnt[         52]=                4602
cycle                10000:bit_error_cnt[         53]=                4308
cycle                10000:bit_error_cnt[         54]=                4180
cycle                10000:bit_error_cnt[         55]=                3957
cycle                10000:bit_error_cnt[         56]=                4716
cycle                10000:bit_error_cnt[         57]=                4205
cycle                10000:bit_error_cnt[         58]=                4455
cycle                10000:bit_error_cnt[         59]=                4594
cycle                10000:bit_error_cnt[         60]=                4771
cycle                10000:bit_error_cnt[         61]=                4344
cycle                10000:bit_error_cnt[         62]=                4785
cycle                10000:bit_error_cnt[         63]=                4529
cycle                10000:bit_error_cnt[         64]=                4382
cycle                10000:bit_error_cnt[         65]=                4133
cycle                10000:bit_error_cnt[         66]=                3983
cycle                10000:bit_error_cnt[         67]=                4246
cycle                10000:bit_error_cnt[         68]=                3921
cycle                10000:bit_error_cnt[         69]=                3384
cycle                10000:bit_error_cnt[         70]=                2055
cycle                10000:bit_error_cnt[         71]=                3146
cycle                10000:bit_error_cnt[         72]=                3228
cycle                10000:bit_error_cnt[         73]=                2656
cycle                10000:bit_error_cnt[         74]=                   1
cycle                10000:bit_error_cnt[         75]=                   1
cycle                10000:bit_error_cnt[         76]=                   1
cycle                10000:bit_error_cnt[         77]=                   1
cycle                10000:bit_error_cnt[         78]=                   1
cycle                10000:bit_error_cnt[         79]=                 179
cycle                10000:bit_error_cnt[         80]=                 173
cycle                10000:bit_error_cnt[         81]=                 633
cycle                10000:bit_error_cnt[         82]=                 307
cycle                10000:bit_error_cnt[         83]=                   0
cycle                10000:bit_error_cnt[         84]=                   1
cycle                10000:bit_error_cnt[         85]=                   0
cycle                10000:bit_error_cnt[         86]=                   0
cycle                10000:bit_error_cnt[         87]=                   0
cycle                10000:bit_error_cnt[         88]=                   0
cycle                10000:bit_error_cnt[         89]=                   0
cycle                10000:bit_error_cnt[         90]=                   0
cycle                10000:bit_error_cnt[         91]=                   0
cycle                10000:bit_error_cnt[         92]=                   0
cycle                10000:bit_error_cnt[         93]=                   0
cycle                10000:bit_error_cnt[         94]=                   0
