cycle                10000:bit_error_cnt[          0]=                   1
cycle                10000:bit_error_cnt[          1]=                   1
cycle                10000:bit_error_cnt[          2]=                   1
cycle                10000:bit_error_cnt[          3]=                   1
cycle                10000:bit_error_cnt[          4]=                 204
cycle                10000:bit_error_cnt[          5]=                1539
cycle                10000:bit_error_cnt[          6]=                2302
cycle                10000:bit_error_cnt[          7]=                4606
cycle                10000:bit_error_cnt[          8]=                4475
cycle                10000:bit_error_cnt[          9]=                4263
cycle                10000:bit_error_cnt[         10]=                4898
cycle                10000:bit_error_cnt[         11]=                4806
cycle                10000:bit_error_cnt[         12]=                4850
cycle                10000:bit_error_cnt[         13]=                4825
cycle                10000:bit_error_cnt[         14]=                4797
cycle                10000:bit_error_cnt[         15]=                4764
cycle                10000:bit_error_cnt[         16]=                4578
cycle                10000:bit_error_cnt[         17]=                3234
cycle                10000:bit_error_cnt[         18]=                4401
cycle                10000:bit_error_cnt[         19]=                4260
cycle                10000:bit_error_cnt[         20]=                4225
cycle                10000:bit_error_cnt[         21]=                4354
cycle                10000:bit_error_cnt[         22]=                4355
cycle                10000:bit_error_cnt[         23]=                4562
cycle                10000:bit_error_cnt[         24]=                4779
cycle                10000:bit_error_cnt[         25]=                4641
cycle                10000:bit_error_cnt[         26]=                4845
cycle                10000:bit_error_cnt[         27]=                4429
cycle                10000:bit_error_cnt[         28]=                4817
cycle                10000:bit_error_cnt[         29]=                4792
cycle                10000:bit_error_cnt[         30]=                4858
cycle                10000:bit_error_cnt[         31]=                4665
cycle                10000:bit_error_cnt[         32]=                3119
cycle                10000:bit_error_cnt[         33]=                   1
cycle                10000:bit_error_cnt[         34]=                   1
cycle                10000:bit_error_cnt[         35]=                   1
cycle                10000:bit_error_cnt[         36]=                2331
cycle                10000:bit_error_cnt[         37]=                2090
cycle                10000:bit_error_cnt[         38]=                2255
cycle                10000:bit_error_cnt[         39]=                4269
cycle                10000:bit_error_cnt[         40]=                3333
cycle                10000:bit_error_cnt[         41]=                4130
cycle                10000:bit_error_cnt[         42]=                4371
cycle                10000:bit_error_cnt[         43]=                3740
cycle                10000:bit_error_cnt[         44]=                4918
cycle                10000:bit_error_cnt[         45]=                5016
cycle                10000:bit_error_cnt[         46]=                4891
cycle                10000:bit_error_cnt[         47]=                4998
cycle                10000:bit_error_cnt[         48]=                5010
cycle                10000:bit_error_cnt[         49]=                5003
cycle                10000:bit_error_cnt[         50]=                5034
cycle                10000:bit_error_cnt[         51]=                4984
cycle                10000:bit_error_cnt[         52]=                4995
cycle                10000:bit_error_cnt[         53]=                4996
cycle                10000:bit_error_cnt[         54]=                5043
cycle                10000:bit_error_cnt[         55]=                4994
cycle                10000:bit_error_cnt[         56]=                4978
cycle                10000:bit_error_cnt[         57]=                5063
cycle                10000:bit_error_cnt[         58]=                4980
cycle                10000:bit_error_cnt[         59]=                5055
cycle                10000:bit_error_cnt[         60]=                5024
cycle                10000:bit_error_cnt[         61]=                5060
cycle                10000:bit_error_cnt[         62]=                4999
cycle                10000:bit_error_cnt[         63]=                4991
cycle                10000:bit_error_cnt[         64]=                4982
cycle                10000:bit_error_cnt[         65]=                5115
cycle                10000:bit_error_cnt[         66]=                4972
cycle                10000:bit_error_cnt[         67]=                4976
cycle                10000:bit_error_cnt[         68]=                4995
cycle                10000:bit_error_cnt[         69]=                4933
cycle                10000:bit_error_cnt[         70]=                4648
cycle                10000:bit_error_cnt[         71]=                5009
cycle                10000:bit_error_cnt[         72]=                4730
cycle                10000:bit_error_cnt[         73]=                4297
cycle                10000:bit_error_cnt[         74]=                   1
cycle                10000:bit_error_cnt[         75]=                   1
cycle                10000:bit_error_cnt[         76]=                   1
cycle                10000:bit_error_cnt[         77]=                   1
cycle                10000:bit_error_cnt[         78]=                 705
cycle                10000:bit_error_cnt[         79]=                1988
cycle                10000:bit_error_cnt[         80]=                1714
cycle                10000:bit_error_cnt[         81]=                1823
cycle                10000:bit_error_cnt[         82]=                 806
cycle                10000:bit_error_cnt[         83]=                   0
cycle                10000:bit_error_cnt[         84]=                   1
cycle                10000:bit_error_cnt[         85]=                   0
cycle                10000:bit_error_cnt[         86]=                   0
cycle                10000:bit_error_cnt[         87]=                   0
cycle                10000:bit_error_cnt[         88]=                   0
cycle                10000:bit_error_cnt[         89]=                   0
cycle                10000:bit_error_cnt[         90]=                   0
cycle                10000:bit_error_cnt[         91]=                   0
cycle                10000:bit_error_cnt[         92]=                   0
cycle                10000:bit_error_cnt[         93]=                   0
cycle                10000:bit_error_cnt[         94]=                   0
