cycle                10000:bit_error_cnt[          0]=                   2
cycle                10000:bit_error_cnt[          1]=                   2
cycle                10000:bit_error_cnt[          2]=                   0
cycle                10000:bit_error_cnt[          3]=                 145
cycle                10000:bit_error_cnt[          4]=                 242
cycle                10000:bit_error_cnt[          5]=                 295
cycle                10000:bit_error_cnt[          6]=                 344
cycle                10000:bit_error_cnt[          7]=                 340
cycle                10000:bit_error_cnt[          8]=                 362
cycle                10000:bit_error_cnt[          9]=                 341
cycle                10000:bit_error_cnt[         10]=                 532
cycle                10000:bit_error_cnt[         11]=                3440
cycle                10000:bit_error_cnt[         12]=                5272
cycle                10000:bit_error_cnt[         13]=                5202
cycle                10000:bit_error_cnt[         14]=                4687
cycle                10000:bit_error_cnt[         15]=                4831
cycle                10000:bit_error_cnt[         16]=                4881
cycle                10000:bit_error_cnt[         17]=                4858
cycle                10000:bit_error_cnt[         18]=                5195
cycle                10000:bit_error_cnt[         19]=                4415
cycle                10000:bit_error_cnt[         20]=                4315
cycle                10000:bit_error_cnt[         21]=                4824
cycle                10000:bit_error_cnt[         22]=                4961
cycle                10000:bit_error_cnt[         23]=                3928
cycle                10000:bit_error_cnt[         24]=                3918
cycle                10000:bit_error_cnt[         25]=                3929
cycle                10000:bit_error_cnt[         26]=                4457
cycle                10000:bit_error_cnt[         27]=                4854
cycle                10000:bit_error_cnt[         28]=                6042
cycle                10000:bit_error_cnt[         29]=                5745
cycle                10000:bit_error_cnt[         30]=                5020
cycle                10000:bit_error_cnt[         31]=                5382
cycle                10000:bit_error_cnt[         32]=                4594
cycle                10000:bit_error_cnt[         33]=                5077
cycle                10000:bit_error_cnt[         34]=                5083
cycle                10000:bit_error_cnt[         35]=                4084
cycle                10000:bit_error_cnt[         36]=                3782
cycle                10000:bit_error_cnt[         37]=                3243
cycle                10000:bit_error_cnt[         38]=                3007
cycle                10000:bit_error_cnt[         39]=                4236
cycle                10000:bit_error_cnt[         40]=                2975
cycle                10000:bit_error_cnt[         41]=                2211
cycle                10000:bit_error_cnt[         42]=                4719
cycle                10000:bit_error_cnt[         43]=                3143
cycle                10000:bit_error_cnt[         44]=                1588
cycle                10000:bit_error_cnt[         45]=                1511
cycle                10000:bit_error_cnt[         46]=                1302
cycle                10000:bit_error_cnt[         47]=                1102
cycle                10000:bit_error_cnt[         48]=                 619
cycle                10000:bit_error_cnt[         49]=                 236
cycle                10000:bit_error_cnt[         50]=                 600
cycle                10000:bit_error_cnt[         51]=                   2
cycle                10000:bit_error_cnt[         52]=                   2
cycle                10000:bit_error_cnt[         53]=                   2
cycle                10000:bit_error_cnt[         54]=                   2
cycle                10000:bit_error_cnt[         55]=                 717
cycle                10000:bit_error_cnt[         56]=                 858
cycle                10000:bit_error_cnt[         57]=                 478
cycle                10000:bit_error_cnt[         58]=                 297
cycle                10000:bit_error_cnt[         59]=                 242
cycle                10000:bit_error_cnt[         60]=                3153
cycle                10000:bit_error_cnt[         61]=                 138
